%!
%%Creator: ravel:wfreeman(Walter)
%%Title: Unix plot file
%%CreationDate: Tue Apr 26 15:51:49 2022
%%DocumentFonts: Courier
%%EndComments
%%BoundingBox: 0 0 4096 4096
% Start of psplot.pro -- prolog for plot(5) translator
% Copyright (c) 1984,1985,1987 Adobe Systems Incorporated. All Rights Reserved. 
%              RESTRICTED RIGHTS LEGEND
% Use, duplication or disclosure by the Government is subject to
% restrictions as set forth in subdivision (b)(3)(ii) of the Rights in
% Technical Data and Computer Software Clause at 252.227-7013.
% Name of Contractor: Adobe Systems Incorporated
% Address:  1870 Embarcadero Road
%	  Palo Alto, California  94303
% RCS: $Header: psplot.pro,v 2.2 87/11/17 16:41:06 byron Rel $
save 50 dict begin /psplot exch def
/StartPSPlot
   {newpath 0 0 moveto 8 setlinewidth 0 setgray 1 setlinecap
    /imtx matrix currentmatrix def /dmtx matrix defaultmatrix def
    /fnt /Courier findfont def /smtx matrix def fnt 8 scalefont setfont}def
/solid {{}0}def
/dotted	{[2 nail 3.5 nail ] 0}def
/longdashed {[10 nail] 0}def
/shortdashed {[6 nail] 0}def
/dotdashed {[2 nail 6 nail 10 nail 6 nail] 0}def
/disconnected {{}0}def
/min {2 copy lt{pop}{exch pop}ifelse}def
/max {2 copy lt{exch pop}{pop}ifelse}def
/len {dup mul exch dup mul add sqrt}def
/nail {0 imtx dtransform len 0 idtransform len}def

/m {newpath moveto}def
/n {lineto currentpoint stroke moveto}def
/p {newpath moveto gsave 1 setlinecap solid setdash
    dmtx setmatrix .4 nail setlinewidth
    .05 0 idtransform rlineto stroke grestore}def
/l {moveto lineto currentpoint stroke moveto}def
/t {smtx currentmatrix pop imtx setmatrix show smtx setmatrix}def
/a {gsave newpath /y2 exch def /x2 exch def 
    /y1 exch def /x1 exch def /yc exch def /xc exch def
    /r x1 xc sub dup mul y1 yc sub dup mul add sqrt
       x2 xc sub dup mul y2 yc sub dup mul add sqrt add 2 div def
    /ang1 y1 yc sub x1 xc sub atan def
    /ang2 y2 yc sub x2 xc sub atan def
    xc yc r ang1 ang2 arc stroke grestore}def
/c {gsave newpath 0 360 arc stroke grestore}def
/e {gsave showpage grestore newpath 0 0 moveto}def
/f {load exec setdash}def
/s {/ury exch def /urx exch def /lly exch def /llx exch def
    imtx setmatrix newpath clippath pathbbox newpath
    /dury exch def /durx exch def /dlly exch def /dllx exch def
    /md durx dllx sub dury dlly sub min def
    /Mu urx llx sub ury lly sub max def
    36 144 translate .8 .8 scale
    dllx dlly translate md Mu div dup scale llx neg lly neg translate}def
/EndPSPlot {clear psplot end restore}def
StartPSPlot
%%EndProlog
%%Page: 1 1
0 0 4096 4096 s
/solid f
1.00 1.00 0.00 0 setcmykcolor
1625 925 m
2177 925 n
2925 925 m
2373 925 n
1625 3525 m
2177 3525 n
2925 3525 m
2373 3525 n
1625 925 m
1625 3525 n
2925 925 m
2925 3525 n
2177 925 m
2177 2225 n
2373 925 m
2373 2225 n
2177 3525 m
2177 2225 n
2373 3525 m
2373 2225 n
2177 1705 m
2373 1705 n
2177 2745 m
2373 2745 n
1625 925 m
2177 925 n
2925 925 m
2373 925 n
1625 927 m
2177 927 n
2925 927 m
2373 927 n
1625 934 m
2177 934 n
2925 934 m
2373 934 n
1625 946 m
2177 946 n
2925 946 m
2373 946 n
1625 962 m
2177 962 n
2925 962 m
2373 962 n
1625 983 m
2177 983 n
2925 983 m
2373 983 n
1625 1008 m
2177 1008 n
2925 1008 m
2373 1008 n
1625 1038 m
2177 1038 n
2925 1038 m
2373 1038 n
1625 1072 m
2177 1072 n
2925 1072 m
2373 1072 n
1625 1110 m
2177 1110 n
2925 1110 m
2373 1110 n
1625 1152 m
2177 1152 n
2925 1152 m
2373 1152 n
1625 1198 m
2177 1198 n
2925 1198 m
2373 1198 n
1625 1248 m
2177 1248 n
2925 1248 m
2373 1248 n
1625 1301 m
2177 1301 n
2925 1301 m
2373 1301 n
1625 1357 m
2177 1357 n
2925 1357 m
2373 1357 n
1625 1417 m
2177 1417 n
2925 1417 m
2373 1417 n
1625 1479 m
2177 1479 n
2925 1479 m
2373 1479 n
1625 1545 m
2177 1545 n
2925 1545 m
2373 1545 n
1625 1612 m
2177 1612 n
2925 1612 m
2373 1612 n
1625 1682 m
2177 1682 n
2925 1682 m
2373 1682 n
1625 1754 m
2177 1754 n
2925 1754 m
2373 1754 n
1625 1827 m
2177 1827 n
2925 1827 m
2373 1827 n
1625 1902 m
2177 1902 n
2925 1902 m
2373 1902 n
1625 1978 m
2177 1978 n
2925 1978 m
2373 1978 n
1625 2055 m
2177 2055 n
2925 2055 m
2373 2055 n
1625 2133 m
2177 2133 n
2925 2133 m
2373 2133 n
1625 2211 m
2177 2211 n
2925 2211 m
2373 2211 n
1625 2289 m
2177 2289 n
2925 2289 m
2373 2289 n
1625 2367 m
2177 2367 n
2925 2367 m
2373 2367 n
1625 2444 m
2177 2444 n
2925 2444 m
2373 2444 n
1625 2520 m
2177 2520 n
2925 2520 m
2373 2520 n
1625 2596 m
2177 2596 n
2925 2596 m
2373 2596 n
1625 2670 m
2177 2670 n
2925 2670 m
2373 2670 n
1625 2742 m
2177 2742 n
2925 2742 m
2373 2742 n
1625 2813 m
2177 2813 n
2925 2813 m
2373 2813 n
1625 2881 m
2177 2881 n
2925 2881 m
2373 2881 n
1625 2947 m
2177 2947 n
2925 2947 m
2373 2947 n
1625 3011 m
2177 3011 n
2925 3011 m
2373 3011 n
1625 3072 m
2177 3072 n
2925 3072 m
2373 3072 n
1625 3129 m
2177 3129 n
2925 3129 m
2373 3129 n
1625 3184 m
2177 3184 n
2925 3184 m
2373 3184 n
1625 3235 m
2177 3235 n
2925 3235 m
2373 3235 n
1625 3282 m
2177 3282 n
2925 3282 m
2373 3282 n
1625 3325 m
2177 3325 n
2925 3325 m
2373 3325 n
1625 3365 m
2177 3365 n
2925 3365 m
2373 3365 n
1625 3400 m
2177 3400 n
2925 3400 m
2373 3400 n
1625 3431 m
2177 3431 n
2925 3431 m
2373 3431 n
1625 3458 m
2177 3458 n
2925 3458 m
2373 3458 n
1625 3481 m
2177 3481 n
2925 3481 m
2373 3481 n
1625 3499 m
2177 3499 n
2925 3499 m
2373 3499 n
1625 3512 m
2177 3512 n
2925 3512 m
2373 3512 n
1625 3521 m
2177 3521 n
2925 3521 m
2373 3521 n
1625 3525 m
2177 3525 n
2925 3525 m
2373 3525 n
0 0 0 1 setcmykcolor
2177 2710 m
2178 2719 n
2178 2719 m
2178 2727 n
2178 2727 m
2178 2734 n
2178 2734 m
2178 2740 n
2178 2740 m
2178 2745 n
2178 2745 m
2178 2750 n
2178 2750 m
2179 2754 n
2179 2754 m
2179 2757 n
2179 2757 m
2179 2759 n
2179 2759 m
2179 2760 n
2179 2760 m
2179 2761 n
2192 1690 m
2192 1690 n
2192 1690 m
2192 1692 n
2192 1692 m
2193 1695 n
2193 1695 m
2193 1698 n
2193 1698 m
2193 1702 n
2193 1702 m
2193 1707 n
2193 1707 m
2193 1713 n
2193 1713 m
2193 1720 n
2193 1720 m
2194 1728 n
2194 1728 m
2194 1736 n
2194 1736 m
2194 1745 n
2194 1745 m
2194 1755 n
2194 1755 m
2194 1766 n
2194 1766 m
2194 1777 n
2194 1777 m
2195 1789 n
2195 1789 m
2195 1802 n
2195 1802 m
2195 1815 n
2195 1815 m
2195 1830 n
2195 1830 m
2195 1844 n
2195 1844 m
2195 1860 n
2195 1860 m
2196 1876 n
2196 1876 m
2196 1892 n
2196 1892 m
2196 1909 n
2196 1909 m
2196 1927 n
2196 1927 m
2196 1945 n
2196 1945 m
2196 1963 n
2196 1963 m
2197 1982 n
2197 1982 m
2197 2002 n
2197 2002 m
2197 2021 n
2197 2021 m
2197 2041 n
2197 2041 m
2197 2061 n
2197 2061 m
2197 2082 n
2197 2082 m
2197 2103 n
2197 2103 m
2198 2124 n
2198 2124 m
2198 2145 n
2198 2145 m
2198 2166 n
2198 2166 m
2198 2187 n
2198 2187 m
2198 2209 n
2198 2209 m
2198 2230 n
2198 2230 m
2199 2252 n
2199 2252 m
2199 2273 n
2199 2273 m
2199 2294 n
2199 2294 m
2199 2315 n
2199 2315 m
2199 2336 n
2199 2336 m
2199 2357 n
2199 2357 m
2200 2378 n
2200 2378 m
2200 2398 n
2200 2398 m
2200 2418 n
2200 2418 m
2200 2438 n
2200 2438 m
2200 2458 n
2200 2458 m
2200 2477 n
2200 2477 m
2201 2496 n
2201 2496 m
2201 2514 n
2201 2514 m
2201 2532 n
2201 2532 m
2201 2549 n
2201 2549 m
2201 2566 n
2201 2566 m
2201 2582 n
2201 2582 m
2202 2598 n
2202 2598 m
2202 2613 n
2202 2613 m
2202 2627 n
2202 2627 m
2202 2641 n
2202 2641 m
2202 2654 n
2202 2654 m
2202 2667 n
2202 2667 m
2203 2678 n
2203 2678 m
2203 2689 n
2203 2689 m
2203 2700 n
2203 2700 m
2203 2709 n
2203 2709 m
2203 2718 n
2203 2718 m
2203 2726 n
2203 2726 m
2204 2733 n
2204 2733 m
2204 2740 n
2204 2740 m
2204 2745 n
2204 2745 m
2204 2750 n
2204 2750 m
2204 2754 n
2204 2754 m
2204 2757 n
2204 2757 m
2204 2759 n
2204 2759 m
2205 2760 n
2205 2760 m
2205 2761 n
2205 2761 m
2205 2760 n
2218 1689 m
2218 1690 n
2218 1690 m
2218 1692 n
2218 1692 m
2218 1694 n
2218 1694 m
2218 1698 n
2218 1698 m
2218 1702 n
2218 1702 m
2219 1707 n
2219 1707 m
2219 1713 n
2219 1713 m
2219 1720 n
2219 1720 m
2219 1727 n
2219 1727 m
2219 1735 n
2219 1735 m
2219 1744 n
2219 1744 m
2220 1754 n
2220 1754 m
2220 1765 n
2220 1765 m
2220 1776 n
2220 1776 m
2220 1788 n
2220 1788 m
2220 1801 n
2220 1801 m
2220 1814 n
2220 1814 m
2221 1828 n
2221 1828 m
2221 1843 n
2221 1843 m
2221 1858 n
2221 1858 m
2221 1874 n
2221 1874 m
2221 1891 n
2221 1891 m
2221 1908 n
2221 1908 m
2222 1925 n
2222 1925 m
2222 1943 n
2222 1943 m
2222 1962 n
2222 1962 m
2222 1981 n
2222 1981 m
2222 2000 n
2222 2000 m
2222 2020 n
2222 2020 m
2223 2040 n
2223 2040 m
2223 2060 n
2223 2060 m
2223 2080 n
2223 2080 m
2223 2101 n
2223 2101 m
2223 2122 n
2223 2122 m
2223 2143 n
2223 2143 m
2223 2164 n
2223 2164 m
2224 2186 n
2224 2186 m
2224 2207 n
2224 2207 m
2224 2228 n
2224 2228 m
2224 2250 n
2224 2250 m
2224 2271 n
2224 2271 m
2224 2293 n
2224 2293 m
2225 2314 n
2225 2314 m
2225 2335 n
2225 2335 m
2225 2356 n
2225 2356 m
2225 2376 n
2225 2376 m
2225 2397 n
2225 2397 m
2225 2417 n
2225 2417 m
2226 2437 n
2226 2437 m
2226 2456 n
2226 2456 m
2226 2475 n
2226 2475 m
2226 2494 n
2226 2494 m
2226 2512 n
2226 2512 m
2226 2530 n
2226 2530 m
2227 2548 n
2227 2548 m
2227 2564 n
2227 2564 m
2227 2581 n
2227 2581 m
2227 2596 n
2227 2596 m
2227 2612 n
2227 2612 m
2227 2626 n
2227 2626 m
2228 2640 n
2228 2640 m
2228 2653 n
2228 2653 m
2228 2666 n
2228 2666 m
2228 2678 n
2228 2678 m
2228 2689 n
2228 2689 m
2228 2699 n
2228 2699 m
2229 2709 n
2229 2709 m
2229 2717 n
2229 2717 m
2229 2725 n
2229 2725 m
2229 2733 n
2229 2733 m
2229 2739 n
2229 2739 m
2229 2745 n
2229 2745 m
2229 2749 n
2229 2749 m
2230 2753 n
2230 2753 m
2230 2756 n
2230 2756 m
2230 2759 n
2230 2759 m
2230 2760 n
2230 2760 m
2230 2761 n
2230 2761 m
2230 2760 n
2243 1689 m
2243 1690 n
2243 1690 m
2243 1692 n
2243 1692 m
2244 1694 n
2244 1694 m
2244 1697 n
2244 1697 m
2244 1702 n
2244 1702 m
2244 1707 n
2244 1707 m
2244 1712 n
2244 1712 m
2244 1719 n
2244 1719 m
2245 1726 n
2245 1726 m
2245 1735 n
2245 1735 m
2245 1744 n
2245 1744 m
2245 1753 n
2245 1753 m
2245 1764 n
2245 1764 m
2245 1775 n
2245 1775 m
2246 1787 n
2246 1787 m
2246 1800 n
2246 1800 m
2246 1813 n
2246 1813 m
2246 1827 n
2246 1827 m
2246 1842 n
2246 1842 m
2246 1857 n
2246 1857 m
2247 1873 n
2247 1873 m
2247 1890 n
2247 1890 m
2247 1907 n
2247 1907 m
2247 1924 n
2247 1924 m
2247 1942 n
2247 1942 m
2247 1960 n
2247 1960 m
2248 1979 n
2248 1979 m
2248 1998 n
2248 1998 m
2248 2018 n
2248 2018 m
2248 2038 n
2248 2038 m
2248 2058 n
2248 2058 m
2248 2079 n
2248 2079 m
2249 2099 n
2249 2099 m
2249 2120 n
2249 2120 m
2249 2141 n
2249 2141 m
2249 2163 n
2249 2163 m
2249 2184 n
2249 2184 m
2249 2205 n
2249 2205 m
2249 2227 n
2249 2227 m
2250 2248 n
2250 2248 m
2250 2270 n
2250 2270 m
2250 2291 n
2250 2291 m
2250 2312 n
2250 2312 m
2250 2333 n
2250 2333 m
2250 2354 n
2250 2354 m
2251 2375 n
2251 2375 m
2251 2395 n
2251 2395 m
2251 2415 n
2251 2415 m
2251 2435 n
2251 2435 m
2251 2455 n
2251 2455 m
2251 2474 n
2251 2474 m
2252 2493 n
2252 2493 m
2252 2511 n
2252 2511 m
2252 2529 n
2252 2529 m
2252 2546 n
2252 2546 m
2252 2563 n
2252 2563 m
2252 2579 n
2252 2579 m
2253 2595 n
2253 2595 m
2253 2610 n
2253 2610 m
2253 2625 n
2253 2625 m
2253 2639 n
2253 2639 m
2253 2652 n
2253 2652 m
2253 2665 n
2253 2665 m
2254 2677 n
2254 2677 m
2254 2688 n
2254 2688 m
2254 2698 n
2254 2698 m
2254 2708 n
2254 2708 m
2254 2717 n
2254 2717 m
2254 2725 n
2254 2725 m
2255 2732 n
2255 2732 m
2255 2739 n
2255 2739 m
2255 2744 n
2255 2744 m
2255 2749 n
2255 2749 m
2255 2753 n
2255 2753 m
2255 2756 n
2255 2756 m
2256 2759 n
2256 2759 m
2256 2760 n
2256 2760 m
2256 2761 n
2256 2761 m
2256 2760 n
2269 1689 m
2269 1690 n
2269 1690 m
2269 1692 n
2269 1692 m
2269 1694 n
2269 1694 m
2269 1697 n
2269 1697 m
2269 1701 n
2269 1701 m
2270 1706 n
2270 1706 m
2270 1712 n
2270 1712 m
2270 1718 n
2270 1718 m
2270 1726 n
2270 1726 m
2270 1734 n
2270 1734 m
2270 1743 n
2270 1743 m
2271 1753 n
2271 1753 m
2271 1763 n
2271 1763 m
2271 1774 n
2271 1774 m
2271 1786 n
2271 1786 m
2271 1799 n
2271 1799 m
2271 1812 n
2271 1812 m
2272 1826 n
2272 1826 m
2272 1841 n
2272 1841 m
2272 1856 n
2272 1856 m
2272 1872 n
2272 1872 m
2272 1888 n
2272 1888 m
2272 1905 n
2272 1905 m
2273 1923 n
2273 1923 m
2273 1940 n
2273 1940 m
2273 1959 n
2273 1959 m
2273 1978 n
2273 1978 m
2273 1997 n
2273 1997 m
2273 2016 n
2273 2016 m
2274 2036 n
2274 2036 m
2274 2057 n
2274 2057 m
2274 2077 n
2274 2077 m
2274 2098 n
2274 2098 m
2274 2119 n
2274 2119 m
2274 2140 n
2274 2140 m
2275 2161 n
2275 2161 m
2275 2182 n
2275 2182 m
2275 2204 n
2275 2204 m
2275 2225 n
2275 2225 m
2275 2246 n
2275 2246 m
2275 2268 n
2275 2268 m
2275 2289 n
2275 2289 m
2276 2310 n
2276 2310 m
2276 2331 n
2276 2331 m
2276 2352 n
2276 2352 m
2276 2373 n
2276 2373 m
2276 2393 n
2276 2393 m
2276 2414 n
2276 2414 m
2277 2434 n
2277 2434 m
2277 2453 n
2277 2453 m
2277 2472 n
2277 2472 m
2277 2491 n
2277 2491 m
2277 2510 n
2277 2510 m
2277 2527 n
2277 2527 m
2278 2545 n
2278 2545 m
2278 2562 n
2278 2562 m
2278 2578 n
2278 2578 m
2278 2594 n
2278 2594 m
2278 2609 n
2278 2609 m
2278 2624 n
2278 2624 m
2279 2638 n
2279 2638 m
2279 2651 n
2279 2651 m
2279 2664 n
2279 2664 m
2279 2676 n
2279 2676 m
2279 2687 n
2279 2687 m
2279 2697 n
2279 2697 m
2280 2707 n
2280 2707 m
2280 2716 n
2280 2716 m
2280 2724 n
2280 2724 m
2280 2732 n
2280 2732 m
2280 2738 n
2280 2738 m
2280 2744 n
2280 2744 m
2281 2749 n
2281 2749 m
2281 2753 n
2281 2753 m
2281 2756 n
2281 2756 m
2281 2758 n
2281 2758 m
2281 2760 n
2281 2760 m
2281 2761 n
2281 2761 m
2281 2760 n
2294 1689 m
2294 1690 n
2294 1690 m
2294 1691 n
2294 1691 m
2295 1694 n
2295 1694 m
2295 1697 n
2295 1697 m
2295 1701 n
2295 1701 m
2295 1706 n
2295 1706 m
2295 1711 n
2295 1711 m
2295 1718 n
2295 1718 m
2296 1725 n
2296 1725 m
2296 1733 n
2296 1733 m
2296 1742 n
2296 1742 m
2296 1752 n
2296 1752 m
2296 1762 n
2296 1762 m
2296 1773 n
2296 1773 m
2297 1785 n
2297 1785 m
2297 1798 n
2297 1798 m
2297 1811 n
2297 1811 m
2297 1825 n
2297 1825 m
2297 1840 n
2297 1840 m
2297 1855 n
2297 1855 m
2298 1871 n
2298 1871 m
2298 1887 n
2298 1887 m
2298 1904 n
2298 1904 m
2298 1921 n
2298 1921 m
2298 1939 n
2298 1939 m
2298 1957 n
2298 1957 m
2299 1976 n
2299 1976 m
2299 1995 n
2299 1995 m
2299 2015 n
2299 2015 m
2299 2035 n
2299 2035 m
2299 2055 n
2299 2055 m
2299 2075 n
2299 2075 m
2300 2096 n
2300 2096 m
2300 2117 n
2300 2117 m
2300 2138 n
2300 2138 m
2300 2159 n
2300 2159 m
2300 2180 n
2300 2180 m
2300 2202 n
2300 2202 m
2301 2223 n
2301 2223 m
2301 2245 n
2301 2245 m
2301 2266 n
2301 2266 m
2301 2287 n
2301 2287 m
2301 2309 n
2301 2309 m
2301 2330 n
2301 2330 m
2301 2351 n
2301 2351 m
2302 2371 n
2302 2371 m
2302 2392 n
2302 2392 m
2302 2412 n
2302 2412 m
2302 2432 n
2302 2432 m
2302 2452 n
2302 2452 m
2302 2471 n
2302 2471 m
2303 2490 n
2303 2490 m
2303 2508 n
2303 2508 m
2303 2526 n
2303 2526 m
2303 2543 n
2303 2543 m
2303 2560 n
2303 2560 m
2303 2577 n
2303 2577 m
2304 2593 n
2304 2593 m
2304 2608 n
2304 2608 m
2304 2623 n
2304 2623 m
2304 2637 n
2304 2637 m
2304 2650 n
2304 2650 m
2304 2663 n
2304 2663 m
2305 2675 n
2305 2675 m
2305 2686 n
2305 2686 m
2305 2697 n
2305 2697 m
2305 2706 n
2305 2706 m
2305 2715 n
2305 2715 m
2305 2724 n
2305 2724 m
2306 2731 n
2306 2731 m
2306 2738 n
2306 2738 m
2306 2743 n
2306 2743 m
2306 2748 n
2306 2748 m
2306 2753 n
2306 2753 m
2306 2756 n
2306 2756 m
2307 2758 n
2307 2758 m
2307 2760 n
2307 2760 m
2307 2761 n
2307 2761 m
2307 2760 n
2320 1689 m
2320 1690 n
2320 1690 m
2320 1691 n
2320 1691 m
2320 1694 n
2320 1694 m
2320 1697 n
2320 1697 m
2321 1701 n
2321 1701 m
2321 1705 n
2321 1705 m
2321 1711 n
2321 1711 m
2321 1717 n
2321 1717 m
2321 1725 n
2321 1725 m
2321 1733 n
2321 1733 m
2321 1741 n
2321 1741 m
2322 1751 n
2322 1751 m
2322 1761 n
2322 1761 m
2322 1772 n
2322 1772 m
2322 1784 n
2322 1784 m
2322 1797 n
2322 1797 m
2322 1810 n
2322 1810 m
2323 1824 n
2323 1824 m
2323 1838 n
2323 1838 m
2323 1854 n
2323 1854 m
2323 1869 n
2323 1869 m
2323 1886 n
2323 1886 m
2323 1902 n
2323 1902 m
2324 1920 n
2324 1920 m
2324 1938 n
2324 1938 m
2324 1956 n
2324 1956 m
2324 1975 n
2324 1975 m
2324 1994 n
2324 1994 m
2324 2013 n
2324 2013 m
2325 2033 n
2325 2033 m
2325 2053 n
2325 2053 m
2325 2074 n
2325 2074 m
2325 2094 n
2325 2094 m
2325 2115 n
2325 2115 m
2325 2136 n
2325 2136 m
2326 2157 n
2326 2157 m
2326 2179 n
2326 2179 m
2326 2200 n
2326 2200 m
2326 2222 n
2326 2222 m
2326 2243 n
2326 2243 m
2326 2264 n
2326 2264 m
2327 2286 n
2327 2286 m
2327 2307 n
2327 2307 m
2327 2328 n
2327 2328 m
2327 2349 n
2327 2349 m
2327 2370 n
2327 2370 m
2327 2390 n
2327 2390 m
2327 2410 n
2327 2410 m
2328 2430 n
2328 2430 m
2328 2450 n
2328 2450 m
2328 2469 n
2328 2469 m
2328 2488 n
2328 2488 m
2328 2507 n
2328 2507 m
2328 2525 n
2328 2525 m
2329 2542 n
2329 2542 m
2329 2559 n
2329 2559 m
2329 2576 n
2329 2576 m
2329 2592 n
2329 2592 m
2329 2607 n
2329 2607 m
2329 2622 n
2329 2622 m
2330 2636 n
2330 2636 m
2330 2649 n
2330 2649 m
2330 2662 n
2330 2662 m
2330 2674 n
2330 2674 m
2330 2685 n
2330 2685 m
2330 2696 n
2330 2696 m
2331 2706 n
2331 2706 m
2331 2715 n
2331 2715 m
2331 2723 n
2331 2723 m
2331 2730 n
2331 2730 m
2331 2737 n
2331 2737 m
2331 2743 n
2331 2743 m
2332 2748 n
2332 2748 m
2332 2752 n
2332 2752 m
2332 2756 n
2332 2756 m
2332 2758 n
2332 2758 m
2332 2760 n
2332 2760 m
2332 2761 n
2332 2761 m
2333 2760 n
2345 1689 m
2345 1690 n
2345 1690 m
2346 1691 n
2346 1691 m
2346 1693 n
2346 1693 m
2346 1696 n
2346 1696 m
2346 1700 n
2346 1700 m
2346 1705 n
2346 1705 m
2346 1710 n
2346 1710 m
2346 1717 n
2346 1717 m
2347 1724 n
2347 1724 m
2347 1732 n
2347 1732 m
2347 1741 n
2347 1741 m
2347 1750 n
2347 1750 m
2347 1761 n
2347 1761 m
2347 1772 n
2347 1772 m
2348 1783 n
2348 1783 m
2348 1796 n
2348 1796 m
2348 1809 n
2348 1809 m
2348 1823 n
2348 1823 m
2348 1837 n
2348 1837 m
2348 1852 n
2348 1852 m
2349 1868 n
2349 1868 m
2349 1884 n
2349 1884 m
2349 1901 n
2349 1901 m
2349 1918 n
2349 1918 m
2349 1936 n
2349 1936 m
2349 1954 n
2349 1954 m
2350 1973 n
2350 1973 m
2350 1992 n
2350 1992 m
2350 2012 n
2350 2012 m
2350 2032 n
2350 2032 m
2350 2052 n
2350 2052 m
2350 2072 n
2350 2072 m
2351 2093 n
2351 2093 m
2351 2114 n
2351 2114 m
2351 2135 n
2351 2135 m
2351 2156 n
2351 2156 m
2351 2177 n
2351 2177 m
2351 2198 n
2351 2198 m
2352 2220 n
2352 2220 m
2352 2241 n
2352 2241 m
2352 2263 n
2352 2263 m
2352 2284 n
2352 2284 m
2352 2305 n
2352 2305 m
2352 2326 n
2352 2326 m
2353 2347 n
2353 2347 m
2353 2368 n
2353 2368 m
2353 2389 n
2353 2389 m
2353 2409 n
2353 2409 m
2353 2429 n
2353 2429 m
2353 2448 n
2353 2448 m
2353 2468 n
2353 2468 m
2354 2487 n
2354 2487 m
2354 2505 n
2354 2505 m
2354 2523 n
2354 2523 m
2354 2541 n
2354 2541 m
2354 2558 n
2354 2558 m
2354 2574 n
2354 2574 m
2355 2590 n
2355 2590 m
2355 2606 n
2355 2606 m
2355 2620 n
2355 2620 m
2355 2635 n
2355 2635 m
2355 2648 n
2355 2648 m
2355 2661 n
2355 2661 m
2356 2673 n
2356 2673 m
2356 2684 n
2356 2684 m
2356 2695 n
2356 2695 m
2356 2705 n
2356 2705 m
2356 2714 n
2356 2714 m
2356 2722 n
2356 2722 m
2357 2730 n
2357 2730 m
2357 2737 n
2357 2737 m
2357 2743 n
2357 2743 m
2357 2748 n
2357 2748 m
2357 2752 n
2357 2752 m
2357 2755 n
2357 2755 m
2358 2758 n
2358 2758 m
2358 2760 n
2358 2760 m
2358 2760 n
2358 2760 m
2358 2760 n
2371 1690 m
2371 1691 n
2371 1691 m
2371 1693 n
2371 1693 m
2371 1696 n
2371 1696 m
2372 1700 n
2372 1700 m
2372 1705 n
2372 1705 m
2372 1710 n
2372 1710 m
2372 1716 n
2372 1716 m
2372 1723 n
2372 1723 m
2372 1731 n
2372 1731 m
2373 1740 n
2324 2745 m
2324 3850 n
/solid f
1 1 m
e
%%Trailer
EndPSPlot
