%!
%%Creator: ravel:wfreeman(Walter)
%%Title: Unix plot file
%%CreationDate: Wed Apr 24 19:51:45 2024
%%DocumentFonts: Courier
%%EndComments
%%BoundingBox: 0 0 4096 4096
% Start of psplot.pro -- prolog for plot(5) translator
% Copyright (c) 1984,1985,1987 Adobe Systems Incorporated. All Rights Reserved. 
%              RESTRICTED RIGHTS LEGEND
% Use, duplication or disclosure by the Government is subject to
% restrictions as set forth in subdivision (b)(3)(ii) of the Rights in
% Technical Data and Computer Software Clause at 252.227-7013.
% Name of Contractor: Adobe Systems Incorporated
% Address:  1870 Embarcadero Road
%	  Palo Alto, California  94303
% RCS: $Header: psplot.pro,v 2.2 87/11/17 16:41:06 byron Rel $
save 50 dict begin /psplot exch def
/StartPSPlot
   {newpath 0 0 moveto 8 setlinewidth 0 setgray 1 setlinecap
    /imtx matrix currentmatrix def /dmtx matrix defaultmatrix def
    /fnt /Courier findfont def /smtx matrix def fnt 8 scalefont setfont}def
/solid {{}0}def
/dotted	{[2 nail 3.5 nail ] 0}def
/longdashed {[10 nail] 0}def
/shortdashed {[6 nail] 0}def
/dotdashed {[2 nail 6 nail 10 nail 6 nail] 0}def
/disconnected {{}0}def
/min {2 copy lt{pop}{exch pop}ifelse}def
/max {2 copy lt{exch pop}{pop}ifelse}def
/len {dup mul exch dup mul add sqrt}def
/nail {0 imtx dtransform len 0 idtransform len}def

/m {newpath moveto}def
/n {lineto currentpoint stroke moveto}def
/p {newpath moveto gsave 1 setlinecap solid setdash
    dmtx setmatrix .4 nail setlinewidth
    .05 0 idtransform rlineto stroke grestore}def
/l {moveto lineto currentpoint stroke moveto}def
/t {smtx currentmatrix pop imtx setmatrix show smtx setmatrix}def
/a {gsave newpath /y2 exch def /x2 exch def 
    /y1 exch def /x1 exch def /yc exch def /xc exch def
    /r x1 xc sub dup mul y1 yc sub dup mul add sqrt
       x2 xc sub dup mul y2 yc sub dup mul add sqrt add 2 div def
    /ang1 y1 yc sub x1 xc sub atan def
    /ang2 y2 yc sub x2 xc sub atan def
    xc yc r ang1 ang2 arc stroke grestore}def
/c {gsave newpath 0 360 arc stroke grestore}def
/e {gsave showpage grestore newpath 0 0 moveto}def
/f {load exec setdash}def
/s {/ury exch def /urx exch def /lly exch def /llx exch def
    imtx setmatrix newpath clippath pathbbox newpath
    /dury exch def /durx exch def /dlly exch def /dllx exch def
    /md durx dllx sub dury dlly sub min def
    /Mu urx llx sub ury lly sub max def
    36 144 translate .8 .8 scale
    dllx dlly translate md Mu div dup scale llx neg lly neg translate}def
/EndPSPlot {clear psplot end restore}def
StartPSPlot
%%EndProlog
%%Page: 1 1
0 0 4096 4096 s
/solid f
1.00 0.31 1.00 0 setcmykcolor
0 0 0 1 setcmykcolor
1885 2368 m
1816 2359 n
1959 2375 m
1885 2368 n
2035 2380 m
1959 2375 n
2114 2384 m
2035 2380 n
2194 2387 m
2114 2384 n
2275 2388 m
2194 2387 n
2356 2387 m
2275 2388 n
2436 2384 m
2356 2387 n
2515 2380 m
2436 2384 n
2591 2375 m
2515 2380 n
2665 2368 m
2591 2375 n
2734 2359 m
2665 2368 n
2798 2349 m
2734 2359 n
2858 2338 m
2798 2349 n
2911 2326 m
2858 2338 n
2959 2313 m
2911 2326 n
2999 2299 m
2959 2313 n
3032 2284 m
2999 2299 n
3058 2268 m
3032 2284 n
3076 2253 m
3058 2268 n
3085 2236 m
3076 2253 n
3087 2220 m
3085 2236 n
3081 2204 m
3087 2220 n
3066 2188 m
3081 2204 n
3044 2172 m
3066 2188 n
3014 2157 m
3044 2172 n
2976 2143 m
3014 2157 n
2932 2129 m
2976 2143 n
2881 2117 m
2932 2129 n
2824 2105 m
2881 2117 n
2761 2095 m
2824 2105 n
2694 2086 m
2761 2095 n
2622 2078 m
2694 2086 n
2547 2072 m
2622 2078 n
2469 2067 m
2547 2072 n
2390 2064 m
2469 2067 n
2309 2063 m
2390 2064 n
2228 2063 m
2309 2063 n
2147 2065 m
2228 2063 n
2067 2068 m
2147 2065 n
1990 2073 m
2067 2068 n
1915 2079 m
1990 2073 n
1845 2087 m
1915 2079 n
1778 2096 m
1845 2087 n
1716 2107 m
1778 2096 n
1660 2119 m
1716 2107 n
1610 2132 m
1660 2119 n
1567 2145 m
1610 2132 n
1531 2160 m
1567 2145 n
1502 2175 m
1531 2160 n
1481 2191 m
1502 2175 n
1468 2207 m
1481 2191 n
1463 2223 m
1468 2207 n
1816 2359 m
1903 2336 n
1816 2359 m
1895 2403 n
1858 2364 m
1903 2336 n
1858 2364 m
1895 2403 n
1722 2388 m
1686 2388 m
1695 2397 n
1709 2401 n
1704 2406 n
1695 2401 n
1686 2388 n
1682 2375 n
1682 2361 n
1686 2348 n
1691 2343 n
1700 2343 n
1709 2348 n
1718 2361 n
1722 2375 n
1682 2361 m
1686 2352 n
1691 2348 n
1700 2348 n
1709 2352 n
1718 2361 n
1718 2375 m
1718 2361 n
1722 2348 n
1726 2343 n
1735 2343 n
1744 2348 n
1753 2361 n
1758 2375 n
1758 2388 n
1753 2401 n
1749 2406 n
1744 2401 n
1753 2397 n
1758 2388 n
1718 2361 m
1722 2352 n
1726 2348 n
1735 2348 n
1744 2352 n
1753 2361 n
1722 2388 m
1.00 0.31 1.00 0 setcmykcolor
2275 3038 m
2275 1413 n
2275 3038 m
2236 2940 n
2275 3038 m
2314 2940 n
2275 2989 m
2236 2940 n
2275 2989 m
2314 2940 n
2275 3200 m
2244 3249 m
2244 3155 n
2248 3249 m
2248 3155 n
2230 3249 m
2262 3249 n
2230 3155 m
2297 3155 n
2297 3182 n
2293 3155 n
2275 3200 m
/solid f
1 1 m
e
%%Trailer
EndPSPlot
