%!
%%Creator: ravel:wfreeman(Walter)
%%Title: Unix plot file
%%CreationDate: Wed Apr 24 19:51:45 2024
%%DocumentFonts: Courier
%%EndComments
%%BoundingBox: 0 0 4096 4096
% Start of psplot.pro -- prolog for plot(5) translator
% Copyright (c) 1984,1985,1987 Adobe Systems Incorporated. All Rights Reserved. 
%              RESTRICTED RIGHTS LEGEND
% Use, duplication or disclosure by the Government is subject to
% restrictions as set forth in subdivision (b)(3)(ii) of the Rights in
% Technical Data and Computer Software Clause at 252.227-7013.
% Name of Contractor: Adobe Systems Incorporated
% Address:  1870 Embarcadero Road
%	  Palo Alto, California  94303
% RCS: $Header: psplot.pro,v 2.2 87/11/17 16:41:06 byron Rel $
save 50 dict begin /psplot exch def
/StartPSPlot
   {newpath 0 0 moveto 8 setlinewidth 0 setgray 1 setlinecap
    /imtx matrix currentmatrix def /dmtx matrix defaultmatrix def
    /fnt /Courier findfont def /smtx matrix def fnt 8 scalefont setfont}def
/solid {{}0}def
/dotted	{[2 nail 3.5 nail ] 0}def
/longdashed {[10 nail] 0}def
/shortdashed {[6 nail] 0}def
/dotdashed {[2 nail 6 nail 10 nail 6 nail] 0}def
/disconnected {{}0}def
/min {2 copy lt{pop}{exch pop}ifelse}def
/max {2 copy lt{exch pop}{pop}ifelse}def
/len {dup mul exch dup mul add sqrt}def
/nail {0 imtx dtransform len 0 idtransform len}def

/m {newpath moveto}def
/n {lineto currentpoint stroke moveto}def
/p {newpath moveto gsave 1 setlinecap solid setdash
    dmtx setmatrix .4 nail setlinewidth
    .05 0 idtransform rlineto stroke grestore}def
/l {moveto lineto currentpoint stroke moveto}def
/t {smtx currentmatrix pop imtx setmatrix show smtx setmatrix}def
/a {gsave newpath /y2 exch def /x2 exch def 
    /y1 exch def /x1 exch def /yc exch def /xc exch def
    /r x1 xc sub dup mul y1 yc sub dup mul add sqrt
       x2 xc sub dup mul y2 yc sub dup mul add sqrt add 2 div def
    /ang1 y1 yc sub x1 xc sub atan def
    /ang2 y2 yc sub x2 xc sub atan def
    xc yc r ang1 ang2 arc stroke grestore}def
/c {gsave newpath 0 360 arc stroke grestore}def
/e {gsave showpage grestore newpath 0 0 moveto}def
/f {load exec setdash}def
/s {/ury exch def /urx exch def /lly exch def /llx exch def
    imtx setmatrix newpath clippath pathbbox newpath
    /dury exch def /durx exch def /dlly exch def /dllx exch def
    /md durx dllx sub dury dlly sub min def
    /Mu urx llx sub ury lly sub max def
    36 144 translate .8 .8 scale
    dllx dlly translate md Mu div dup scale llx neg lly neg translate}def
/EndPSPlot {clear psplot end restore}def
StartPSPlot
%%EndProlog
%%Page: 1 1
0 0 4096 4096 s
/solid f
1.00 0.31 1.00 0 setcmykcolor
0 0 0 1 setcmykcolor
1885 2082 m
1816 2091 n
1959 2075 m
1885 2082 n
2035 2070 m
1959 2075 n
2114 2066 m
2035 2070 n
2194 2063 m
2114 2066 n
2275 2063 m
2194 2063 n
2356 2063 m
2275 2063 n
2436 2066 m
2356 2063 n
2515 2070 m
2436 2066 n
2591 2075 m
2515 2070 n
2665 2082 m
2591 2075 n
2734 2091 m
2665 2082 n
2798 2101 m
2734 2091 n
2858 2112 m
2798 2101 n
2911 2124 m
2858 2112 n
2959 2137 m
2911 2124 n
2999 2151 m
2959 2137 n
3032 2166 m
2999 2151 n
3058 2182 m
3032 2166 n
3076 2197 m
3058 2182 n
3085 2214 m
3076 2197 n
3087 2230 m
3085 2214 n
3081 2246 m
3087 2230 n
3066 2262 m
3081 2246 n
3044 2278 m
3066 2262 n
3014 2293 m
3044 2278 n
2976 2307 m
3014 2293 n
2932 2321 m
2976 2307 n
2881 2333 m
2932 2321 n
2824 2345 m
2881 2333 n
2761 2355 m
2824 2345 n
2694 2364 m
2761 2355 n
2622 2372 m
2694 2364 n
2547 2378 m
2622 2372 n
2469 2383 m
2547 2378 n
2390 2386 m
2469 2383 n
2309 2387 m
2390 2386 n
2228 2387 m
2309 2387 n
2147 2385 m
2228 2387 n
2067 2382 m
2147 2385 n
1990 2377 m
2067 2382 n
1915 2371 m
1990 2377 n
1845 2363 m
1915 2371 n
1778 2354 m
1845 2363 n
1716 2343 m
1778 2354 n
1660 2331 m
1716 2343 n
1610 2318 m
1660 2331 n
1567 2305 m
1610 2318 n
1531 2290 m
1567 2305 n
1502 2275 m
1531 2290 n
1481 2259 m
1502 2275 n
1468 2243 m
1481 2259 n
1463 2227 m
1468 2243 n
1816 2091 m
1895 2047 n
1816 2091 m
1903 2114 n
1858 2086 m
1895 2047 n
1858 2086 m
1903 2114 n
1722 2063 m
1686 2063 m
1695 2072 n
1709 2076 n
1704 2081 n
1695 2076 n
1686 2063 n
1682 2050 n
1682 2036 n
1686 2023 n
1691 2018 n
1700 2018 n
1709 2023 n
1718 2036 n
1722 2050 n
1682 2036 m
1686 2027 n
1691 2023 n
1700 2023 n
1709 2027 n
1718 2036 n
1718 2050 m
1718 2036 n
1722 2023 n
1726 2018 n
1735 2018 n
1744 2023 n
1753 2036 n
1758 2050 n
1758 2063 n
1753 2076 n
1749 2081 n
1744 2076 n
1753 2072 n
1758 2063 n
1718 2036 m
1722 2027 n
1726 2023 n
1735 2023 n
1744 2027 n
1753 2036 n
1722 2063 m
1.00 0.31 1.00 0 setcmykcolor
2275 3038 m
2275 1413 n
2275 1413 m
2314 1510 n
2275 1413 m
2236 1510 n
2275 1461 m
2314 1510 n
2275 1461 m
2236 1510 n
2275 1250 m
2244 1299 m
2244 1205 n
2248 1299 m
2248 1205 n
2230 1299 m
2262 1299 n
2230 1205 m
2297 1205 n
2297 1232 n
2293 1205 n
2275 1250 m
/solid f
1 1 m
e
%%Trailer
EndPSPlot
