\relax 
\providecommand\hyper@newdestlabel[2]{}
\providecommand\HyperFirstAtBeginDocument{\AtBeginDocument}
\HyperFirstAtBeginDocument{\ifx\hyper@anchor\@undefined
\global\let\oldnewlabel\newlabel
\gdef\newlabel#1#2{\newlabelxx{#1}#2}
\gdef\newlabelxx#1#2#3#4#5#6{\oldnewlabel{#1}{{#2}{#3}}}
\AtEndDocument{\ifx\hyper@anchor\@undefined
\let\newlabel\oldnewlabel
\fi}
\fi}
\global\let\hyper@last\relax 
\gdef\HyperFirstAtBeginDocument#1{#1}
\providecommand\HyField@AuxAddToFields[1]{}
\providecommand\HyField@AuxAddToCoFields[2]{}
\@writefile{nav}{\headcommand {\slideentry {0}{0}{1}{1/1}{}{0}}}
\@writefile{nav}{\headcommand {\beamer@framepages {1}{1}}}
\@writefile{nav}{\headcommand {\slideentry {0}{0}{2}{2/3}{}{0}}}
\@writefile{nav}{\headcommand {\beamer@framepages {2}{3}}}
\@writefile{nav}{\headcommand {\slideentry {0}{0}{3}{4/4}{}{0}}}
\@writefile{nav}{\headcommand {\beamer@framepages {4}{4}}}
\@writefile{nav}{\headcommand {\slideentry {0}{0}{4}{5/6}{}{0}}}
\@writefile{nav}{\headcommand {\beamer@framepages {5}{6}}}
\@writefile{nav}{\headcommand {\slideentry {0}{0}{5}{7/7}{}{0}}}
\@writefile{nav}{\headcommand {\beamer@framepages {7}{7}}}
\@writefile{nav}{\headcommand {\slideentry {0}{0}{6}{8/11}{}{0}}}
\@writefile{nav}{\headcommand {\beamer@framepages {8}{11}}}
\@writefile{nav}{\headcommand {\slideentry {0}{0}{7}{12/13}{}{0}}}
\@writefile{nav}{\headcommand {\beamer@framepages {12}{13}}}
\@writefile{nav}{\headcommand {\slideentry {0}{0}{8}{14/15}{}{0}}}
\@writefile{nav}{\headcommand {\beamer@framepages {14}{15}}}
\@writefile{nav}{\headcommand {\slideentry {0}{0}{9}{16/17}{}{0}}}
\@writefile{nav}{\headcommand {\beamer@framepages {16}{17}}}
\@writefile{nav}{\headcommand {\slideentry {0}{0}{10}{18/18}{}{0}}}
\@writefile{nav}{\headcommand {\beamer@framepages {18}{18}}}
\@writefile{nav}{\headcommand {\slideentry {0}{0}{11}{19/23}{}{0}}}
\@writefile{nav}{\headcommand {\beamer@framepages {19}{23}}}
\@writefile{nav}{\headcommand {\slideentry {0}{0}{12}{24/24}{}{0}}}
\@writefile{nav}{\headcommand {\beamer@framepages {24}{24}}}
\@writefile{nav}{\headcommand {\slideentry {0}{0}{13}{25/26}{}{0}}}
\@writefile{nav}{\headcommand {\beamer@framepages {25}{26}}}
\@writefile{nav}{\headcommand {\slideentry {0}{0}{14}{27/29}{}{0}}}
\@writefile{nav}{\headcommand {\beamer@framepages {27}{29}}}
\@writefile{nav}{\headcommand {\slideentry {0}{0}{15}{30/33}{}{0}}}
\@writefile{nav}{\headcommand {\beamer@framepages {30}{33}}}
\@writefile{nav}{\headcommand {\slideentry {0}{0}{16}{34/34}{}{0}}}
\@writefile{nav}{\headcommand {\beamer@framepages {34}{34}}}
\@writefile{nav}{\headcommand {\slideentry {0}{0}{17}{35/35}{}{0}}}
\@writefile{nav}{\headcommand {\beamer@framepages {35}{35}}}
\@writefile{nav}{\headcommand {\slideentry {0}{0}{18}{36/36}{}{0}}}
\@writefile{nav}{\headcommand {\beamer@framepages {36}{36}}}
\@writefile{nav}{\headcommand {\slideentry {0}{0}{19}{37/39}{}{0}}}
\@writefile{nav}{\headcommand {\beamer@framepages {37}{39}}}
\@writefile{nav}{\headcommand {\slideentry {0}{0}{20}{40/41}{}{0}}}
\@writefile{nav}{\headcommand {\beamer@framepages {40}{41}}}
\@writefile{nav}{\headcommand {\slideentry {0}{0}{21}{42/42}{}{0}}}
\@writefile{nav}{\headcommand {\beamer@framepages {42}{42}}}
\@writefile{nav}{\headcommand {\slideentry {0}{0}{22}{43/43}{}{0}}}
\@writefile{nav}{\headcommand {\beamer@framepages {43}{43}}}
\@writefile{nav}{\headcommand {\slideentry {0}{0}{23}{44/44}{}{0}}}
\@writefile{nav}{\headcommand {\beamer@framepages {44}{44}}}
\@writefile{nav}{\headcommand {\slideentry {0}{0}{24}{45/46}{}{0}}}
\@writefile{nav}{\headcommand {\beamer@framepages {45}{46}}}
\@writefile{nav}{\headcommand {\slideentry {0}{0}{25}{47/49}{}{0}}}
\@writefile{nav}{\headcommand {\beamer@framepages {47}{49}}}
\@writefile{nav}{\headcommand {\slideentry {0}{0}{26}{50/50}{}{0}}}
\@writefile{nav}{\headcommand {\beamer@framepages {50}{50}}}
\@writefile{nav}{\headcommand {\beamer@partpages {1}{50}}}
\@writefile{nav}{\headcommand {\beamer@subsectionpages {1}{50}}}
\@writefile{nav}{\headcommand {\beamer@sectionpages {1}{50}}}
\@writefile{nav}{\headcommand {\beamer@documentpages {50}}}
\@writefile{nav}{\headcommand {\gdef \inserttotalframenumber {26}}}
\gdef \@abspage@last{50}
