%!
%%Creator: fedora:wfreeman(Walter)
%%Title: Unix plot file
%%CreationDate: Mon Sep  2 22:43:00 2024
%%DocumentFonts: Courier
%%EndComments
%%BoundingBox: 0 0 4096 4096
% Start of psplot.pro -- prolog for plot(5) translator
% Copyright (c) 1984,1985,1987 Adobe Systems Incorporated. All Rights Reserved. 
%              RESTRICTED RIGHTS LEGEND
% Use, duplication or disclosure by the Government is subject to
% restrictions as set forth in subdivision (b)(3)(ii) of the Rights in
% Technical Data and Computer Software Clause at 252.227-7013.
% Name of Contractor: Adobe Systems Incorporated
% Address:  1870 Embarcadero Road
%	  Palo Alto, California  94303
% RCS: $Header: psplot.pro,v 2.2 87/11/17 16:41:06 byron Rel $
save 50 dict begin /psplot exch def
/StartPSPlot
   {newpath 0 0 moveto 8 setlinewidth 0 setgray 1 setlinecap
    /imtx matrix currentmatrix def /dmtx matrix defaultmatrix def
    /fnt /Courier findfont def /smtx matrix def fnt 8 scalefont setfont}def
/solid {{}0}def
/dotted	{[2 nail 3.5 nail ] 0}def
/longdashed {[10 nail] 0}def
/shortdashed {[6 nail] 0}def
/dotdashed {[2 nail 6 nail 10 nail 6 nail] 0}def
/disconnected {{}0}def
/min {2 copy lt{pop}{exch pop}ifelse}def
/max {2 copy lt{exch pop}{pop}ifelse}def
/len {dup mul exch dup mul add sqrt}def
/nail {0 imtx dtransform len 0 idtransform len}def

/m {newpath moveto}def
/n {lineto currentpoint stroke moveto}def
/p {newpath moveto gsave 1 setlinecap solid setdash
    dmtx setmatrix .4 nail setlinewidth
    .05 0 idtransform rlineto stroke grestore}def
/l {moveto lineto currentpoint stroke moveto}def
/t {smtx currentmatrix pop imtx setmatrix show smtx setmatrix}def
/a {gsave newpath /y2 exch def /x2 exch def 
    /y1 exch def /x1 exch def /yc exch def /xc exch def
    /r x1 xc sub dup mul y1 yc sub dup mul add sqrt
       x2 xc sub dup mul y2 yc sub dup mul add sqrt add 2 div def
    /ang1 y1 yc sub x1 xc sub atan def
    /ang2 y2 yc sub x2 xc sub atan def
    xc yc r ang1 ang2 arc stroke grestore}def
/c {gsave newpath 0 360 arc stroke grestore}def
/e {gsave showpage grestore newpath 0 0 moveto}def
/f {load exec setdash}def
/s {/ury exch def /urx exch def /lly exch def /llx exch def
    imtx setmatrix newpath clippath pathbbox newpath
    /dury exch def /durx exch def /dlly exch def /dllx exch def
    /md durx dllx sub dury dlly sub min def
    /Mu urx llx sub ury lly sub max def
    36 144 translate .8 .8 scale
    dllx dlly translate md Mu div dup scale llx neg lly neg translate}def
/EndPSPlot {clear psplot end restore}def
StartPSPlot
%%EndProlog
%%Page: 1 1
0 0 4096 4096 s
/solid f
650 600 m
651 600 n
651 600 n
652 600 n
653 600 n
653 600 n
654 600 n
655 600 n
655 600 n
656 600 n
657 600 n
657 600 n
658 600 n
658 600 n
659 600 n
660 600 n
660 600 n
661 600 n
662 600 n
662 600 n
663 600 n
664 600 n
664 600 n
665 600 n
666 600 n
666 600 n
667 600 n
668 600 n
668 600 n
669 601 n
670 601 n
670 601 n
671 601 n
671 601 n
672 601 n
673 601 n
673 601 n
674 601 n
675 601 n
675 601 n
676 601 n
677 601 n
677 601 n
678 601 n
679 601 n
679 601 n
680 601 n
681 601 n
681 601 n
682 601 n
683 602 n
683 602 n
684 602 n
684 602 n
685 602 n
686 602 n
686 602 n
687 602 n
688 602 n
688 602 n
689 602 n
690 602 n
690 602 n
691 602 n
692 602 n
692 603 n
693 603 n
694 603 n
694 603 n
695 603 n
695 603 n
696 603 n
697 603 n
697 603 n
698 603 n
699 603 n
699 604 n
700 604 n
701 604 n
701 604 n
702 604 n
703 604 n
703 604 n
704 604 n
705 604 n
705 604 n
706 605 n
707 605 n
707 605 n
708 605 n
708 605 n
709 605 n
710 605 n
710 605 n
711 605 n
712 605 n
712 606 n
713 606 n
714 606 n
714 606 n
715 606 n
716 606 n
716 606 n
717 606 n
718 607 n
718 607 n
719 607 n
720 607 n
720 607 n
721 607 n
722 607 n
722 608 n
723 608 n
723 608 n
724 608 n
725 608 n
725 608 n
726 608 n
727 608 n
727 609 n
728 609 n
729 609 n
729 609 n
730 609 n
731 609 n
731 610 n
732 610 n
733 610 n
733 610 n
734 610 n
734 610 n
735 610 n
736 611 n
736 611 n
737 611 n
738 611 n
738 611 n
739 611 n
740 612 n
740 612 n
741 612 n
742 612 n
742 612 n
743 612 n
744 613 n
744 613 n
745 613 n
746 613 n
746 613 n
747 614 n
748 614 n
748 614 n
749 614 n
749 614 n
750 614 n
751 615 n
751 615 n
752 615 n
753 615 n
753 615 n
754 616 n
755 616 n
755 616 n
756 616 n
757 616 n
757 617 n
758 617 n
759 617 n
759 617 n
760 617 n
761 618 n
761 618 n
762 618 n
762 618 n
763 618 n
764 619 n
764 619 n
765 619 n
766 619 n
766 620 n
767 620 n
768 620 n
768 620 n
769 620 n
770 621 n
770 621 n
771 621 n
772 621 n
772 622 n
773 622 n
773 622 n
774 622 n
775 622 n
775 623 n
776 623 n
777 623 n
777 623 n
778 624 n
779 624 n
779 624 n
780 624 n
781 625 n
781 625 n
782 625 n
783 625 n
783 626 n
784 626 n
785 626 n
785 626 n
786 627 n
786 627 n
787 627 n
788 627 n
788 628 n
789 628 n
790 628 n
790 628 n
791 629 n
792 629 n
792 629 n
793 629 n
794 630 n
794 630 n
795 630 n
796 631 n
796 631 n
797 631 n
798 631 n
798 632 n
799 632 n
799 632 n
800 633 n
801 633 n
801 633 n
802 633 n
803 634 n
803 634 n
804 634 n
805 635 n
805 635 n
806 635 n
807 635 n
807 636 n
808 636 n
809 636 n
809 637 n
810 637 n
811 637 n
811 637 n
812 638 n
813 638 n
813 638 n
814 639 n
814 639 n
815 639 n
816 640 n
816 640 n
817 640 n
818 641 n
818 641 n
819 641 n
820 642 n
820 642 n
821 642 n
822 642 n
822 643 n
823 643 n
824 643 n
824 644 n
825 644 n
826 644 n
826 645 n
827 645 n
827 645 n
828 646 n
829 646 n
829 646 n
830 647 n
831 647 n
831 647 n
832 648 n
833 648 n
833 648 n
834 649 n
835 649 n
835 649 n
836 650 n
837 650 n
837 651 n
838 651 n
839 651 n
839 652 n
840 652 n
840 652 n
841 653 n
842 653 n
842 653 n
843 654 n
844 654 n
844 654 n
845 655 n
846 655 n
846 656 n
847 656 n
848 656 n
848 657 n
849 657 n
850 657 n
850 658 n
851 658 n
851 659 n
852 659 n
853 659 n
853 660 n
854 660 n
855 660 n
855 661 n
856 661 n
857 662 n
857 662 n
858 662 n
859 663 n
859 663 n
860 664 n
861 664 n
861 664 n
862 665 n
863 665 n
863 666 n
864 666 n
864 666 n
865 667 n
866 667 n
866 668 n
867 668 n
868 668 n
868 669 n
869 669 n
870 670 n
870 670 n
871 670 n
872 671 n
872 671 n
873 672 n
874 672 n
874 673 n
875 673 n
876 673 n
876 674 n
877 674 n
878 675 n
878 675 n
879 676 n
879 676 n
880 676 n
881 677 n
881 677 n
882 678 n
883 678 n
883 679 n
884 679 n
885 679 n
885 680 n
886 680 n
887 681 n
887 681 n
888 682 n
889 682 n
889 683 n
890 683 n
891 683 n
891 684 n
892 684 n
892 685 n
893 685 n
894 686 n
894 686 n
895 687 n
896 687 n
896 688 n
897 688 n
898 688 n
898 689 n
899 689 n
900 690 n
900 690 n
901 691 n
902 691 n
902 692 n
903 692 n
904 693 n
904 693 n
905 694 n
905 694 n
906 695 n
907 695 n
907 696 n
908 696 n
909 697 n
909 697 n
910 698 n
911 698 n
911 698 n
912 699 n
913 699 n
913 700 n
914 700 n
915 701 n
915 701 n
916 702 n
916 702 n
917 703 n
918 703 n
918 704 n
919 704 n
920 705 n
920 705 n
921 706 n
922 706 n
922 707 n
923 707 n
924 708 n
924 709 n
925 709 n
926 710 n
926 710 n
927 711 n
928 711 n
928 712 n
929 712 n
930 713 n
930 713 n
931 714 n
931 714 n
932 715 n
933 715 n
933 716 n
934 716 n
935 717 n
935 717 n
936 718 n
937 719 n
937 719 n
938 720 n
939 720 n
939 721 n
940 721 n
941 722 n
941 722 n
942 723 n
943 723 n
943 724 n
944 724 n
944 725 n
945 726 n
946 726 n
946 727 n
947 727 n
948 728 n
948 728 n
949 729 n
950 730 n
950 730 n
951 731 n
952 731 n
952 732 n
953 732 n
954 733 n
954 733 n
955 734 n
955 735 n
956 735 n
957 736 n
957 736 n
958 737 n
959 737 n
959 738 n
960 739 n
961 739 n
961 740 n
962 740 n
963 741 n
963 742 n
964 742 n
965 743 n
965 743 n
966 744 n
967 745 n
967 745 n
968 746 n
969 746 n
969 747 n
970 748 n
970 748 n
971 749 n
972 749 n
972 750 n
973 751 n
974 751 n
974 752 n
975 752 n
976 753 n
976 754 n
977 754 n
978 755 n
978 755 n
979 756 n
980 757 n
980 757 n
981 758 n
981 758 n
982 759 n
983 760 n
983 760 n
984 761 n
985 762 n
985 762 n
986 763 n
987 764 n
987 764 n
988 765 n
989 765 n
989 766 n
990 767 n
991 767 n
991 768 n
992 769 n
993 769 n
993 770 n
994 771 n
995 771 n
995 772 n
996 772 n
996 773 n
997 774 n
998 774 n
998 775 n
999 776 n
1000 776 n
1000 777 n
1001 778 n
1002 778 n
1002 779 n
1003 780 n
1004 780 n
1004 781 n
1005 782 n
1006 782 n
1006 783 n
1007 784 n
1008 784 n
1008 785 n
1009 786 n
1009 786 n
1010 787 n
1011 788 n
1011 788 n
1012 789 n
1013 790 n
1013 790 n
1014 791 n
1015 792 n
1015 792 n
1016 793 n
1017 794 n
1017 795 n
1018 795 n
1019 796 n
1019 797 n
1020 797 n
1020 798 n
1021 799 n
1022 799 n
1022 800 n
1023 801 n
1024 801 n
1024 802 n
1025 803 n
1026 804 n
1026 804 n
1027 805 n
1028 806 n
1028 806 n
1029 807 n
1030 808 n
1030 809 n
1031 809 n
1032 810 n
1032 811 n
1033 811 n
1034 812 n
1034 813 n
1035 814 n
1035 814 n
1036 815 n
1037 816 n
1037 816 n
1038 817 n
1039 818 n
1039 819 n
1040 819 n
1041 820 n
1041 821 n
1042 822 n
1043 822 n
1043 823 n
1044 824 n
1045 825 n
1045 825 n
1046 826 n
1046 827 n
1047 827 n
1048 828 n
1048 829 n
1049 830 n
1050 830 n
1050 831 n
1051 832 n
1052 833 n
1052 833 n
1053 834 n
1054 835 n
1054 836 n
1055 837 n
1056 837 n
1056 838 n
1057 839 n
1058 840 n
1058 840 n
1059 841 n
1060 842 n
1060 843 n
1061 843 n
1061 844 n
1062 845 n
1063 846 n
1063 846 n
1064 847 n
1065 848 n
1065 849 n
1066 850 n
1067 850 n
1067 851 n
1068 852 n
1069 853 n
1069 854 n
1070 854 n
1071 855 n
1071 856 n
1072 857 n
1073 857 n
1073 858 n
1074 859 n
1074 860 n
1075 861 n
1076 861 n
1076 862 n
1077 863 n
1078 864 n
1078 865 n
1079 865 n
1080 866 n
1080 867 n
1081 868 n
1082 869 n
1082 869 n
1083 870 n
1084 871 n
1084 872 n
1085 873 n
1085 874 n
1086 874 n
1087 875 n
1087 876 n
1088 877 n
1089 878 n
1089 878 n
1090 879 n
1091 880 n
1091 881 n
1092 882 n
1093 883 n
1093 883 n
1094 884 n
1095 885 n
1095 886 n
1096 887 n
1097 888 n
1097 888 n
1098 889 n
1099 890 n
1099 891 n
1100 892 n
1100 893 n
1101 893 n
1102 894 n
1102 895 n
1103 896 n
1104 897 n
1104 898 n
1105 899 n
1106 899 n
1106 900 n
1107 901 n
1108 902 n
1108 903 n
1109 904 n
1110 905 n
1110 905 n
1111 906 n
1111 907 n
1112 908 n
1113 909 n
1113 910 n
1114 911 n
1115 912 n
1115 912 n
1116 913 n
1117 914 n
1117 915 n
1118 916 n
1119 917 n
1119 918 n
1120 919 n
1121 919 n
1121 920 n
1122 921 n
1123 922 n
1123 923 n
1124 924 n
1125 925 n
1125 926 n
1126 927 n
1126 927 n
1127 928 n
1128 929 n
1128 930 n
1129 931 n
1130 932 n
1130 933 n
1131 934 n
1132 935 n
1132 935 n
1133 936 n
1134 937 n
1134 938 n
1135 939 n
1136 940 n
1136 941 n
1137 942 n
1138 943 n
1138 944 n
1139 945 n
1139 946 n
1140 946 n
1141 947 n
1141 948 n
1142 949 n
1143 950 n
1143 951 n
1144 952 n
1145 953 n
1145 954 n
1146 955 n
1147 956 n
1147 957 n
1148 958 n
1149 958 n
1149 959 n
1150 960 n
1150 961 n
1151 962 n
1152 963 n
1152 964 n
1153 965 n
1154 966 n
1154 967 n
1155 968 n
1156 969 n
1156 970 n
1157 971 n
1158 972 n
1158 973 n
1159 974 n
1160 975 n
1160 976 n
1161 976 n
1162 977 n
1162 978 n
1163 979 n
1164 980 n
1164 981 n
1165 982 n
1165 983 n
1166 984 n
1167 985 n
1167 986 n
1168 987 n
1169 988 n
1169 989 n
1170 990 n
1171 991 n
1171 992 n
1172 993 n
1173 994 n
1173 995 n
1174 996 n
1175 997 n
1175 998 n
1176 999 n
1177 1000 n
1177 1001 n
1178 1002 n
1178 1003 n
1179 1004 n
1180 1005 n
1180 1006 n
1181 1007 n
1182 1008 n
1182 1009 n
1183 1010 n
1184 1011 n
1184 1012 n
1185 1013 n
1186 1014 n
1186 1015 n
1187 1016 n
1188 1017 n
1188 1018 n
1189 1019 n
1190 1020 n
1190 1021 n
1191 1022 n
1191 1023 n
1192 1024 n
1193 1025 n
1193 1026 n
1194 1027 n
1195 1028 n
1195 1029 n
1196 1030 n
1197 1031 n
1197 1032 n
1198 1033 n
1199 1034 n
1199 1035 n
1200 1036 n
1201 1037 n
1201 1038 n
1202 1039 n
1203 1040 n
1203 1041 n
1204 1042 n
1204 1043 n
1205 1044 n
1206 1045 n
1206 1047 n
1207 1048 n
1208 1049 n
1208 1050 n
1209 1051 n
1210 1052 n
1210 1053 n
1211 1054 n
1212 1055 n
1212 1056 n
1213 1057 n
1214 1058 n
1214 1059 n
1215 1060 n
1215 1061 n
1216 1062 n
1217 1063 n
1217 1064 n
1218 1065 n
1219 1067 n
1219 1068 n
1220 1069 n
1221 1070 n
1221 1071 n
1222 1072 n
1223 1073 n
1223 1074 n
1224 1075 n
1225 1076 n
1225 1077 n
1226 1078 n
1227 1079 n
1227 1081 n
1228 1082 n
1228 1083 n
1229 1084 n
1230 1085 n
1230 1086 n
1231 1087 n
1232 1088 n
1232 1089 n
1233 1090 n
1234 1091 n
1234 1092 n
1235 1094 n
1236 1095 n
1236 1096 n
1237 1097 n
1238 1098 n
1238 1099 n
1239 1100 n
1240 1101 n
1240 1102 n
1241 1104 n
1242 1105 n
1242 1106 n
1243 1107 n
1243 1108 n
1244 1109 n
1245 1110 n
1245 1111 n
1246 1112 n
1247 1114 n
1247 1115 n
1248 1116 n
1249 1117 n
1249 1118 n
1250 1119 n
1251 1120 n
1251 1121 n
1252 1123 n
1253 1124 n
1253 1125 n
1254 1126 n
1255 1127 n
1255 1128 n
1256 1129 n
1256 1130 n
1257 1132 n
1258 1133 n
1258 1134 n
1259 1135 n
1260 1136 n
1260 1137 n
1261 1138 n
1262 1140 n
1262 1141 n
1263 1142 n
1264 1143 n
1264 1144 n
1265 1145 n
1266 1146 n
1266 1148 n
1267 1149 n
1268 1150 n
1268 1151 n
1269 1152 n
1269 1153 n
1270 1155 n
1271 1156 n
1271 1157 n
1272 1158 n
1273 1159 n
1273 1160 n
1274 1162 n
1275 1163 n
1275 1164 n
1276 1165 n
1277 1166 n
1277 1167 n
1278 1169 n
1279 1170 n
1279 1171 n
1280 1172 n
1280 1173 n
1281 1175 n
1282 1176 n
1282 1177 n
1283 1178 n
1284 1179 n
1284 1180 n
1285 1182 n
1286 1183 n
1286 1184 n
1287 1185 n
1288 1186 n
1288 1188 n
1289 1189 n
1290 1190 n
1290 1191 n
1291 1192 n
1292 1194 n
1292 1195 n
1293 1196 n
1293 1197 n
1294 1198 n
1295 1200 n
1295 1201 n
1296 1202 n
1297 1203 n
1297 1205 n
1298 1206 n
1299 1207 n
1299 1208 n
1300 1209 n
1301 1211 n
1301 1212 n
1302 1213 n
1303 1214 n
1303 1215 n
1304 1217 n
1305 1218 n
1305 1219 n
1306 1220 n
1307 1222 n
1307 1223 n
1308 1224 n
1308 1225 n
1309 1226 n
1310 1228 n
1310 1229 n
1311 1230 n
1312 1231 n
1312 1232 n
1313 1234 n
1314 1235 n
1314 1236 n
1315 1237 n
1316 1238 n
1316 1240 n
1317 1241 n
1318 1242 n
1318 1243 n
1319 1244 n
1320 1246 n
1320 1247 n
1321 1248 n
1321 1249 n
1322 1250 n
1323 1252 n
1323 1253 n
1324 1254 n
1325 1255 n
1325 1256 n
1326 1258 n
1327 1259 n
1327 1260 n
1328 1261 n
1329 1262 n
1329 1263 n
1330 1265 n
1331 1266 n
1331 1267 n
1332 1268 n
1333 1269 n
1333 1271 n
1334 1272 n
1334 1273 n
1335 1274 n
1336 1275 n
1336 1276 n
1337 1278 n
1338 1279 n
1338 1280 n
1339 1281 n
1340 1282 n
1340 1284 n
1341 1285 n
1342 1286 n
1342 1287 n
1343 1288 n
1344 1289 n
1344 1291 n
1345 1292 n
1345 1293 n
1346 1294 n
1347 1295 n
1347 1296 n
1348 1297 n
1349 1299 n
1349 1300 n
1350 1301 n
1351 1302 n
1351 1303 n
1352 1304 n
1353 1306 n
1353 1307 n
1354 1308 n
1355 1309 n
1355 1310 n
1356 1311 n
1357 1313 n
1357 1314 n
1358 1315 n
1358 1316 n
1359 1317 n
1360 1318 n
1360 1319 n
1361 1321 n
1362 1322 n
1362 1323 n
1363 1324 n
1364 1325 n
1364 1326 n
1365 1327 n
1366 1329 n
1366 1330 n
1367 1331 n
1368 1332 n
1368 1333 n
1369 1334 n
1370 1335 n
1370 1336 n
1371 1338 n
1372 1339 n
1372 1340 n
1373 1341 n
1373 1342 n
1374 1343 n
1375 1344 n
1375 1346 n
1376 1347 n
1377 1348 n
1377 1349 n
1378 1350 n
1379 1351 n
1379 1352 n
1380 1353 n
1381 1355 n
1381 1356 n
1382 1357 n
1383 1358 n
1383 1359 n
1384 1360 n
1385 1361 n
1385 1362 n
1386 1363 n
1386 1365 n
1387 1366 n
1388 1367 n
1388 1368 n
1389 1369 n
1390 1370 n
1390 1371 n
1391 1372 n
1392 1373 n
1392 1375 n
1393 1376 n
1394 1377 n
1394 1378 n
1395 1379 n
1396 1380 n
1396 1381 n
1397 1382 n
1398 1383 n
1398 1384 n
1399 1386 n
1399 1387 n
1400 1388 n
1401 1389 n
1401 1390 n
1402 1391 n
1403 1392 n
1403 1393 n
1404 1394 n
1405 1395 n
1405 1396 n
1406 1398 n
1407 1399 n
1407 1400 n
1408 1401 n
1409 1402 n
1409 1403 n
1410 1404 n
1410 1405 n
1411 1406 n
1412 1407 n
1412 1408 n
1413 1409 n
1414 1411 n
1414 1412 n
1415 1413 n
1416 1414 n
1416 1415 n
1417 1416 n
1418 1417 n
1418 1418 n
1419 1419 n
1420 1420 n
1420 1421 n
1421 1422 n
1422 1423 n
1422 1425 n
1423 1426 n
1423 1427 n
1424 1428 n
1425 1429 n
1425 1430 n
1426 1431 n
1427 1432 n
1427 1433 n
1428 1434 n
1429 1435 n
1429 1436 n
1430 1437 n
1431 1438 n
1431 1439 n
1432 1440 n
1433 1442 n
1433 1443 n
1434 1444 n
1435 1445 n
1435 1446 n
1436 1447 n
1437 1448 n
1437 1449 n
1438 1450 n
1438 1451 n
1439 1452 n
1440 1453 n
1440 1454 n
1441 1455 n
1442 1456 n
1442 1457 n
1443 1458 n
1444 1459 n
1444 1460 n
1445 1461 n
1446 1462 n
1446 1463 n
1447 1465 n
1448 1466 n
1448 1467 n
1449 1468 n
1450 1469 n
1450 1470 n
1451 1471 n
1451 1472 n
1452 1473 n
1453 1474 n
1453 1475 n
1454 1476 n
1455 1477 n
1455 1478 n
1456 1479 n
1457 1480 n
1457 1481 n
1458 1482 n
1459 1483 n
1459 1484 n
1460 1485 n
1461 1486 n
1461 1487 n
1462 1488 n
1463 1489 n
1463 1490 n
1464 1491 n
1464 1492 n
1465 1493 n
1466 1494 n
1466 1495 n
1467 1496 n
1468 1497 n
1468 1498 n
1469 1499 n
1470 1500 n
1470 1501 n
1471 1502 n
1472 1503 n
1472 1504 n
1473 1505 n
1474 1506 n
1474 1507 n
1475 1508 n
1475 1509 n
1476 1510 n
1477 1511 n
1477 1512 n
1478 1513 n
1479 1514 n
1479 1515 n
1480 1516 n
1481 1517 n
1481 1518 n
1482 1519 n
1483 1520 n
1483 1521 n
1484 1522 n
1485 1523 n
1485 1524 n
1486 1525 n
1487 1526 n
1487 1527 n
1488 1528 n
1488 1529 n
1489 1530 n
1490 1531 n
1490 1532 n
1491 1533 n
1492 1534 n
1492 1535 n
1493 1536 n
1494 1537 n
1494 1538 n
1495 1539 n
1496 1540 n
1496 1541 n
1497 1542 n
1498 1543 n
1498 1544 n
1499 1545 n
1500 1546 n
1500 1547 n
1501 1548 n
1502 1549 n
1502 1550 n
1503 1551 n
1503 1552 n
1504 1553 n
1505 1554 n
1505 1555 n
1506 1556 n
1507 1557 n
1507 1557 n
1508 1558 n
1509 1559 n
1509 1560 n
1510 1561 n
1511 1562 n
1511 1563 n
1512 1564 n
1513 1565 n
1513 1566 n
1514 1567 n
1515 1568 n
1515 1569 n
1516 1570 n
1516 1571 n
1517 1572 n
1518 1573 n
1518 1574 n
1519 1575 n
1520 1576 n
1520 1577 n
1521 1577 n
1522 1578 n
1522 1579 n
1523 1580 n
1524 1581 n
1524 1582 n
1525 1583 n
1526 1584 n
1526 1585 n
1527 1586 n
1528 1587 n
1528 1588 n
1529 1589 n
1529 1590 n
1530 1591 n
1531 1592 n
1531 1592 n
1532 1593 n
1533 1594 n
1533 1595 n
1534 1596 n
1535 1597 n
1535 1598 n
1536 1599 n
1537 1600 n
1537 1601 n
1538 1602 n
1539 1603 n
1539 1604 n
1540 1605 n
1540 1605 n
1541 1606 n
1542 1607 n
1542 1608 n
1543 1609 n
1544 1610 n
1544 1611 n
1545 1612 n
1546 1613 n
1546 1614 n
1547 1615 n
1548 1616 n
1548 1616 n
1549 1617 n
1550 1618 n
1550 1619 n
1551 1620 n
1552 1621 n
1552 1622 n
1553 1623 n
1553 1624 n
1554 1625 n
1555 1625 n
1555 1626 n
1556 1627 n
1557 1628 n
1557 1629 n
1558 1630 n
1559 1631 n
1559 1632 n
1560 1633 n
1561 1634 n
1561 1634 n
1562 1635 n
1563 1636 n
1563 1637 n
1564 1638 n
1565 1639 n
1565 1640 n
1566 1641 n
1567 1642 n
1567 1642 n
1568 1643 n
1568 1644 n
1569 1645 n
1570 1646 n
1570 1647 n
1571 1648 n
1572 1649 n
1572 1650 n
1573 1650 n
1574 1651 n
1574 1652 n
1575 1653 n
1576 1654 n
1576 1655 n
1577 1656 n
1578 1657 n
1578 1657 n
1579 1658 n
1580 1659 n
1580 1660 n
1581 1661 n
1581 1662 n
1582 1663 n
1583 1664 n
1583 1664 n
1584 1665 n
1585 1666 n
1585 1667 n
1586 1668 n
1587 1669 n
1587 1670 n
1588 1670 n
1589 1671 n
1589 1672 n
1590 1673 n
1591 1674 n
1591 1675 n
1592 1676 n
1593 1676 n
1593 1677 n
1594 1678 n
1594 1679 n
1595 1680 n
1596 1681 n
1596 1682 n
1597 1682 n
1598 1683 n
1598 1684 n
1599 1685 n
1600 1686 n
1600 1687 n
1601 1688 n
1602 1688 n
1602 1689 n
1603 1690 n
1604 1691 n
1604 1692 n
1605 1693 n
1605 1693 n
1606 1694 n
1607 1695 n
1607 1696 n
1608 1697 n
1609 1698 n
1609 1698 n
1610 1699 n
1611 1700 n
1611 1701 n
1612 1702 n
1613 1703 n
1613 1703 n
1614 1704 n
1615 1705 n
1615 1706 n
1616 1707 n
1617 1708 n
1617 1708 n
1618 1709 n
1618 1710 n
1619 1711 n
1620 1712 n
1620 1712 n
1621 1713 n
1622 1714 n
1622 1715 n
1623 1716 n
1624 1717 n
1624 1717 n
1625 1718 n
1626 1719 n
1626 1720 n
1627 1721 n
1628 1721 n
1628 1722 n
1629 1723 n
1630 1724 n
1630 1725 n
1631 1726 n
1632 1726 n
1632 1727 n
1633 1728 n
1633 1729 n
1634 1730 n
1635 1730 n
1635 1731 n
1636 1732 n
1637 1733 n
1637 1734 n
1638 1734 n
1639 1735 n
1639 1736 n
1640 1737 n
1641 1738 n
1641 1738 n
1642 1739 n
1643 1740 n
1643 1741 n
1644 1741 n
1645 1742 n
1645 1743 n
1646 1744 n
1646 1745 n
1647 1745 n
1648 1746 n
1648 1747 n
1649 1748 n
1650 1749 n
1650 1749 n
1651 1750 n
1652 1751 n
1652 1752 n
1653 1752 n
1654 1753 n
1654 1754 n
1655 1755 n
1656 1756 n
1656 1756 n
1657 1757 n
1658 1758 n
1658 1759 n
1659 1759 n
1659 1760 n
1660 1761 n
1661 1762 n
1661 1763 n
1662 1763 n
1663 1764 n
1663 1765 n
1664 1766 n
1665 1766 n
1665 1767 n
1666 1768 n
1667 1769 n
1667 1769 n
1668 1770 n
1669 1771 n
1669 1772 n
1670 1772 n
1670 1773 n
1671 1774 n
1672 1775 n
1672 1775 n
1673 1776 n
1674 1777 n
1674 1778 n
1675 1779 n
1676 1779 n
1676 1780 n
1677 1781 n
1678 1782 n
1678 1782 n
1679 1783 n
1680 1784 n
1680 1785 n
1681 1785 n
1682 1786 n
1682 1787 n
1683 1787 n
1683 1788 n
1684 1789 n
1685 1790 n
1685 1790 n
1686 1791 n
1687 1792 n
1687 1793 n
1688 1793 n
1689 1794 n
1689 1795 n
1690 1796 n
1691 1796 n
1691 1797 n
1692 1798 n
1693 1799 n
1693 1799 n
1694 1800 n
1695 1801 n
1695 1801 n
1696 1802 n
1697 1803 n
1697 1804 n
1698 1804 n
1698 1805 n
1699 1806 n
1700 1807 n
1700 1807 n
1701 1808 n
1702 1809 n
1702 1809 n
1703 1810 n
1704 1811 n
1704 1812 n
1705 1812 n
1706 1813 n
1706 1814 n
1707 1814 n
1708 1815 n
1708 1816 n
1709 1817 n
1709 1817 n
1710 1818 n
1711 1819 n
1711 1819 n
1712 1820 n
1713 1821 n
1713 1821 n
1714 1822 n
1715 1823 n
1715 1824 n
1716 1824 n
1717 1825 n
1717 1826 n
1718 1826 n
1719 1827 n
1719 1828 n
1720 1828 n
1721 1829 n
1721 1830 n
1722 1831 n
1723 1831 n
1723 1832 n
1724 1833 n
1724 1833 n
1725 1834 n
1726 1835 n
1726 1835 n
1727 1836 n
1728 1837 n
1728 1837 n
1729 1838 n
1730 1839 n
1730 1839 n
1731 1840 n
1732 1841 n
1732 1842 n
1733 1842 n
1734 1843 n
1734 1844 n
1735 1844 n
1736 1845 n
1736 1846 n
1737 1846 n
1737 1847 n
1738 1848 n
1739 1848 n
1739 1849 n
1740 1850 n
1741 1850 n
1741 1851 n
1742 1852 n
1743 1852 n
1743 1853 n
1744 1854 n
1745 1854 n
1745 1855 n
1746 1856 n
1747 1856 n
1747 1857 n
1748 1858 n
1748 1858 n
1749 1859 n
1750 1860 n
1750 1860 n
1751 1861 n
1752 1862 n
1752 1862 n
1753 1863 n
1754 1864 n
1754 1864 n
1755 1865 n
1756 1866 n
1756 1866 n
1757 1867 n
1758 1867 n
1758 1868 n
1759 1869 n
1760 1869 n
1760 1870 n
1761 1871 n
1762 1871 n
1762 1872 n
1763 1873 n
1763 1873 n
1764 1874 n
1765 1875 n
1765 1875 n
1766 1876 n
1767 1876 n
1767 1877 n
1768 1878 n
1769 1878 n
1769 1879 n
1770 1880 n
1771 1880 n
1771 1881 n
1772 1882 n
1773 1882 n
1773 1883 n
1774 1883 n
1774 1884 n
1775 1885 n
1776 1885 n
1776 1886 n
1777 1887 n
1778 1887 n
1778 1888 n
1779 1888 n
1780 1889 n
1780 1890 n
1781 1890 n
1782 1891 n
1782 1892 n
1783 1892 n
1784 1893 n
1784 1893 n
1785 1894 n
1786 1895 n
1786 1895 n
1787 1896 n
1788 1896 n
1788 1897 n
1789 1898 n
1789 1898 n
1790 1899 n
1791 1899 n
1791 1900 n
1792 1901 n
1793 1901 n
1793 1902 n
1794 1903 n
1795 1903 n
1795 1904 n
1796 1904 n
1797 1905 n
1797 1906 n
1798 1906 n
1799 1907 n
1799 1907 n
1800 1908 n
1801 1909 n
1801 1909 n
1802 1910 n
1802 1910 n
1803 1911 n
1804 1911 n
1804 1912 n
1805 1913 n
1806 1913 n
1806 1914 n
1807 1914 n
1808 1915 n
1808 1916 n
1809 1916 n
1810 1917 n
1810 1917 n
1811 1918 n
1812 1919 n
1812 1919 n
1813 1920 n
1813 1920 n
1814 1921 n
1815 1921 n
1815 1922 n
1816 1923 n
1817 1923 n
1817 1924 n
1818 1924 n
1819 1925 n
1819 1925 n
1820 1926 n
1821 1927 n
1821 1927 n
1822 1928 n
1823 1928 n
1823 1929 n
1824 1929 n
1825 1930 n
1825 1931 n
1826 1931 n
1827 1932 n
1827 1932 n
1828 1933 n
1828 1933 n
1829 1934 n
1830 1934 n
1830 1935 n
1831 1936 n
1832 1936 n
1832 1937 n
1833 1937 n
1834 1938 n
1834 1938 n
1835 1939 n
1836 1939 n
1836 1940 n
1837 1941 n
1838 1941 n
1838 1942 n
1839 1942 n
1839 1943 n
1840 1943 n
1841 1944 n
1841 1944 n
1842 1945 n
1843 1945 n
1843 1946 n
1844 1947 n
1845 1947 n
1845 1948 n
1846 1948 n
1847 1949 n
1847 1949 n
1848 1950 n
1849 1950 n
1849 1951 n
1850 1951 n
1851 1952 n
1851 1952 n
1852 1953 n
1853 1954 n
1853 1954 n
1854 1955 n
1854 1955 n
1855 1956 n
1856 1956 n
1856 1957 n
1857 1957 n
1858 1958 n
1858 1958 n
1859 1959 n
1860 1959 n
1860 1960 n
1861 1960 n
1862 1961 n
1862 1961 n
1863 1962 n
1864 1962 n
1864 1963 n
1865 1963 n
1866 1964 n
1866 1964 n
1867 1965 n
1867 1966 n
1868 1966 n
1869 1967 n
1869 1967 n
1870 1968 n
1871 1968 n
1871 1969 n
1872 1969 n
1873 1970 n
1873 1970 n
1874 1971 n
1875 1971 n
1875 1972 n
1876 1972 n
1877 1973 n
1877 1973 n
1878 1974 n
1878 1974 n
1879 1975 n
1880 1975 n
1880 1976 n
1881 1976 n
1882 1977 n
1882 1977 n
1883 1978 n
1884 1978 n
1884 1979 n
1885 1979 n
1886 1980 n
1886 1980 n
1887 1980 n
1888 1981 n
1888 1981 n
1889 1982 n
1890 1982 n
1890 1983 n
1891 1983 n
1892 1984 n
1892 1984 n
1893 1985 n
1893 1985 n
1894 1986 n
1895 1986 n
1895 1987 n
1896 1987 n
1897 1988 n
1897 1988 n
1898 1989 n
1899 1989 n
1899 1990 n
1900 1990 n
1901 1991 n
1901 1991 n
1902 1991 n
1903 1992 n
1903 1992 n
1904 1993 n
1904 1993 n
1905 1994 n
1906 1994 n
1906 1995 n
1907 1995 n
1908 1996 n
1908 1996 n
1909 1997 n
1910 1997 n
1910 1997 n
1911 1998 n
1912 1998 n
1912 1999 n
1913 1999 n
1914 2000 n
1914 2000 n
1915 2001 n
1916 2001 n
1916 2002 n
1917 2002 n
1918 2002 n
1918 2003 n
1919 2003 n
1919 2004 n
1920 2004 n
1921 2005 n
1921 2005 n
1922 2006 n
1923 2006 n
1923 2006 n
1924 2007 n
1925 2007 n
1925 2008 n
1926 2008 n
1927 2009 n
1927 2009 n
1928 2010 n
1929 2010 n
1929 2010 n
1930 2011 n
1931 2011 n
1931 2012 n
1932 2012 n
1932 2013 n
1933 2013 n
1934 2013 n
1934 2014 n
1935 2014 n
1936 2015 n
1936 2015 n
1937 2016 n
1938 2016 n
1938 2016 n
1939 2017 n
1940 2017 n
1940 2018 n
1941 2018 n
1942 2019 n
1942 2019 n
1943 2019 n
1943 2020 n
1944 2020 n
1945 2021 n
1945 2021 n
1946 2021 n
1947 2022 n
1947 2022 n
1948 2023 n
1949 2023 n
1949 2023 n
1950 2024 n
1951 2024 n
1951 2025 n
1952 2025 n
1953 2026 n
1953 2026 n
1954 2026 n
1955 2027 n
1955 2027 n
1956 2028 n
1957 2028 n
1957 2028 n
1958 2029 n
1958 2029 n
1959 2030 n
1960 2030 n
1960 2030 n
1961 2031 n
1962 2031 n
1962 2032 n
1963 2032 n
1964 2032 n
1964 2033 n
1965 2033 n
1966 2033 n
1966 2034 n
1967 2034 n
1968 2035 n
1968 2035 n
1969 2035 n
1969 2036 n
1970 2036 n
1971 2037 n
1971 2037 n
1972 2037 n
1973 2038 n
1973 2038 n
1974 2038 n
1975 2039 n
1975 2039 n
1976 2040 n
1977 2040 n
1977 2040 n
1978 2041 n
1979 2041 n
1979 2041 n
1980 2042 n
1981 2042 n
1981 2043 n
1982 2043 n
1983 2043 n
1983 2044 n
1984 2044 n
1984 2044 n
1985 2045 n
1986 2045 n
1986 2045 n
1987 2046 n
1988 2046 n
1988 2047 n
1989 2047 n
1990 2047 n
1990 2048 n
1991 2048 n
1992 2048 n
1992 2049 n
1993 2049 n
1994 2049 n
1994 2050 n
1995 2050 n
1996 2050 n
1996 2051 n
1997 2051 n
1997 2052 n
1998 2052 n
1999 2052 n
1999 2053 n
2000 2053 n
2001 2053 n
2001 2054 n
2002 2054 n
2003 2054 n
2003 2055 n
2004 2055 n
2005 2055 n
2005 2056 n
2006 2056 n
2007 2056 n
2007 2057 n
2008 2057 n
2008 2057 n
2009 2058 n
2010 2058 n
2010 2058 n
2011 2059 n
2012 2059 n
2012 2059 n
2013 2060 n
2014 2060 n
2014 2060 n
2015 2061 n
2016 2061 n
2016 2061 n
2017 2062 n
2018 2062 n
2018 2062 n
2019 2063 n
2020 2063 n
2020 2063 n
2021 2064 n
2022 2064 n
2022 2064 n
2023 2065 n
2023 2065 n
2024 2065 n
2025 2065 n
2025 2066 n
2026 2066 n
2027 2066 n
2027 2067 n
2028 2067 n
2029 2067 n
2029 2068 n
2030 2068 n
2031 2068 n
2031 2069 n
2032 2069 n
2033 2069 n
2033 2070 n
2034 2070 n
2034 2070 n
2035 2070 n
2036 2071 n
2036 2071 n
2037 2071 n
2038 2072 n
2038 2072 n
2039 2072 n
2040 2073 n
2040 2073 n
2041 2073 n
2042 2073 n
2042 2074 n
2043 2074 n
2044 2074 n
2044 2075 n
2045 2075 n
2046 2075 n
2046 2075 n
2047 2076 n
2048 2076 n
2048 2076 n
2049 2077 n
2049 2077 n
2050 2077 n
2051 2077 n
2051 2078 n
2052 2078 n
2053 2078 n
2053 2079 n
2054 2079 n
2055 2079 n
2055 2079 n
2056 2080 n
2057 2080 n
2057 2080 n
2058 2080 n
2059 2081 n
2059 2081 n
2060 2081 n
2061 2082 n
2061 2082 n
2062 2082 n
2062 2082 n
2063 2083 n
2064 2083 n
2064 2083 n
2065 2083 n
2066 2084 n
2066 2084 n
2067 2084 n
2068 2084 n
2068 2085 n
2069 2085 n
2070 2085 n
2070 2086 n
2071 2086 n
2072 2086 n
2072 2086 n
2073 2087 n
2073 2087 n
2074 2087 n
2075 2087 n
2075 2088 n
2076 2088 n
2077 2088 n
2077 2088 n
2078 2089 n
2079 2089 n
2079 2089 n
2080 2089 n
2081 2090 n
2081 2090 n
2082 2090 n
2083 2090 n
2083 2091 n
2084 2091 n
2085 2091 n
2085 2091 n
2086 2091 n
2087 2092 n
2087 2092 n
2088 2092 n
2088 2092 n
2089 2093 n
2090 2093 n
2090 2093 n
2091 2093 n
2092 2094 n
2092 2094 n
2093 2094 n
2094 2094 n
2094 2095 n
2095 2095 n
2096 2095 n
2096 2095 n
2097 2095 n
2098 2096 n
2098 2096 n
2099 2096 n
2099 2096 n
2100 2097 n
2101 2097 n
2101 2097 n
2102 2097 n
2103 2097 n
2103 2098 n
2104 2098 n
2105 2098 n
2105 2098 n
2106 2098 n
2107 2099 n
2107 2099 n
2108 2099 n
2109 2099 n
2109 2100 n
2110 2100 n
2111 2100 n
2111 2100 n
2112 2100 n
2113 2101 n
2113 2101 n
2114 2101 n
2114 2101 n
2115 2101 n
2116 2102 n
2116 2102 n
2117 2102 n
2118 2102 n
2118 2102 n
2119 2103 n
2120 2103 n
2120 2103 n
2121 2103 n
2122 2103 n
2122 2104 n
2123 2104 n
2124 2104 n
2124 2104 n
2125 2104 n
2126 2105 n
2126 2105 n
2127 2105 n
2127 2105 n
2128 2105 n
2129 2105 n
2129 2106 n
2130 2106 n
2131 2106 n
2131 2106 n
2132 2106 n
2133 2107 n
2133 2107 n
2134 2107 n
2135 2107 n
2135 2107 n
2136 2107 n
2137 2108 n
2137 2108 n
2138 2108 n
2138 2108 n
2139 2108 n
2140 2108 n
2140 2109 n
2141 2109 n
2142 2109 n
2142 2109 n
2143 2109 n
2144 2109 n
2144 2110 n
2145 2110 n
2146 2110 n
2146 2110 n
2147 2110 n
2148 2110 n
2148 2111 n
2149 2111 n
2150 2111 n
2150 2111 n
2151 2111 n
2152 2111 n
2152 2112 n
2153 2112 n
2153 2112 n
2154 2112 n
2155 2112 n
2155 2112 n
2156 2113 n
2157 2113 n
2157 2113 n
2158 2113 n
2159 2113 n
2159 2113 n
2160 2113 n
2161 2114 n
2161 2114 n
2162 2114 n
2163 2114 n
2163 2114 n
2164 2114 n
2164 2114 n
2165 2115 n
2166 2115 n
2166 2115 n
2167 2115 n
2168 2115 n
2168 2115 n
2169 2115 n
2170 2115 n
2170 2116 n
2171 2116 n
2172 2116 n
2172 2116 n
2173 2116 n
2174 2116 n
2174 2116 n
2175 2117 n
2176 2117 n
2176 2117 n
2177 2117 n
2178 2117 n
2178 2117 n
2179 2117 n
2179 2117 n
2180 2118 n
2181 2118 n
2181 2118 n
2182 2118 n
2183 2118 n
2183 2118 n
2184 2118 n
2185 2118 n
2185 2118 n
2186 2119 n
2187 2119 n
2187 2119 n
2188 2119 n
2189 2119 n
2189 2119 n
2190 2119 n
2191 2119 n
2191 2119 n
2192 2120 n
2192 2120 n
2193 2120 n
2194 2120 n
2194 2120 n
2195 2120 n
2196 2120 n
2196 2120 n
2197 2120 n
2198 2120 n
2198 2121 n
2199 2121 n
2200 2121 n
2200 2121 n
2201 2121 n
2202 2121 n
2202 2121 n
2203 2121 n
2203 2121 n
2204 2121 n
2205 2122 n
2205 2122 n
2206 2122 n
2207 2122 n
2207 2122 n
2208 2122 n
2209 2122 n
2209 2122 n
2210 2122 n
2211 2122 n
2211 2122 n
2212 2122 n
2213 2123 n
2213 2123 n
2214 2123 n
2215 2123 n
2215 2123 n
2216 2123 n
2217 2123 n
2217 2123 n
2218 2123 n
2218 2123 n
2219 2123 n
2220 2123 n
2220 2123 n
2221 2124 n
2222 2124 n
2222 2124 n
2223 2124 n
2224 2124 n
2224 2124 n
2225 2124 n
2226 2124 n
2226 2124 n
2227 2124 n
2228 2124 n
2228 2124 n
2229 2124 n
2229 2124 n
2230 2124 n
2231 2124 n
2231 2125 n
2232 2125 n
2233 2125 n
2233 2125 n
2234 2125 n
2235 2125 n
2235 2125 n
2236 2125 n
2237 2125 n
2237 2125 n
2238 2125 n
2239 2125 n
2239 2125 n
2240 2125 n
2241 2125 n
2241 2125 n
2242 2125 n
2243 2125 n
2243 2125 n
2244 2125 n
2244 2125 n
2245 2126 n
2246 2126 n
2246 2126 n
2247 2126 n
2248 2126 n
2248 2126 n
2249 2126 n
2250 2126 n
2250 2126 n
2251 2126 n
2252 2126 n
2252 2126 n
2253 2126 n
2254 2126 n
2254 2126 n
2255 2126 n
2256 2126 n
2256 2126 n
2257 2126 n
2257 2126 n
2258 2126 n
2259 2126 n
2259 2126 n
2260 2126 n
2261 2126 n
2261 2126 n
2262 2126 n
2263 2126 n
2263 2126 n
2264 2126 n
2265 2126 n
2265 2126 n
2266 2126 n
2267 2126 n
2267 2126 n
2268 2126 n
2268 2126 n
2269 2126 n
2270 2126 n
2270 2126 n
2271 2126 n
2272 2126 n
2272 2126 n
2273 2126 n
2274 2126 n
2274 2126 n
2275 2126 n
2276 2126 n
2276 2126 n
2277 2126 n
2278 2126 n
2278 2126 n
2279 2126 n
2280 2126 n
2280 2126 n
2281 2126 n
2282 2126 n
2282 2126 n
2283 2126 n
2283 2126 n
2284 2126 n
2285 2126 n
2285 2126 n
2286 2126 n
2287 2126 n
2287 2126 n
2288 2126 n
2289 2126 n
2289 2126 n
2290 2126 n
2291 2126 n
2291 2126 n
2292 2126 n
2293 2126 n
2293 2126 n
2294 2126 n
2294 2126 n
2295 2126 n
2296 2126 n
2296 2126 n
2297 2126 n
2298 2126 n
2298 2126 n
2299 2126 n
2300 2126 n
2300 2126 n
2301 2126 n
2302 2126 n
2302 2126 n
2303 2126 n
2304 2126 n
2304 2126 n
2305 2126 n
2306 2126 n
2306 2126 n
2307 2126 n
2308 2126 n
2308 2126 n
2309 2125 n
2309 2125 n
2310 2125 n
2311 2125 n
2311 2125 n
2312 2125 n
2313 2125 n
2313 2125 n
2314 2125 n
2315 2125 n
2315 2125 n
2316 2125 n
2317 2125 n
2317 2125 n
2318 2125 n
2319 2125 n
2319 2125 n
2320 2125 n
2321 2125 n
2321 2125 n
2322 2125 n
2322 2124 n
2323 2124 n
2324 2124 n
2324 2124 n
2325 2124 n
2326 2124 n
2326 2124 n
2327 2124 n
2328 2124 n
2328 2124 n
2329 2124 n
2330 2124 n
2330 2124 n
2331 2124 n
2332 2124 n
2332 2124 n
2333 2123 n
2333 2123 n
2334 2123 n
2335 2123 n
2335 2123 n
2336 2123 n
2337 2123 n
2337 2123 n
2338 2123 n
2339 2123 n
2339 2123 n
2340 2123 n
2341 2123 n
2341 2122 n
2342 2122 n
2343 2122 n
2343 2122 n
2344 2122 n
2345 2122 n
2345 2122 n
2346 2122 n
2347 2122 n
2347 2122 n
2348 2122 n
2348 2122 n
2349 2121 n
2350 2121 n
2350 2121 n
2351 2121 n
2352 2121 n
2352 2121 n
2353 2121 n
2354 2121 n
2354 2121 n
2355 2121 n
2356 2120 n
2356 2120 n
2357 2120 n
2358 2120 n
2358 2120 n
2359 2120 n
2359 2120 n
2360 2120 n
2361 2120 n
2361 2120 n
2362 2119 n
2363 2119 n
2363 2119 n
2364 2119 n
2365 2119 n
2365 2119 n
2366 2119 n
2367 2119 n
2367 2119 n
2368 2118 n
2369 2118 n
2369 2118 n
2370 2118 n
2371 2118 n
2371 2118 n
2372 2118 n
2373 2118 n
2373 2118 n
2374 2117 n
2374 2117 n
2375 2117 n
2376 2117 n
2376 2117 n
2377 2117 n
2378 2117 n
2378 2117 n
2379 2116 n
2380 2116 n
2380 2116 n
2381 2116 n
2382 2116 n
2382 2116 n
2383 2116 n
2384 2115 n
2384 2115 n
2385 2115 n
2386 2115 n
2386 2115 n
2387 2115 n
2387 2115 n
2388 2115 n
2389 2114 n
2389 2114 n
2390 2114 n
2391 2114 n
2391 2114 n
2392 2114 n
2393 2114 n
2393 2113 n
2394 2113 n
2395 2113 n
2395 2113 n
2396 2113 n
2397 2113 n
2397 2113 n
2398 2112 n
2398 2112 n
2399 2112 n
2400 2112 n
2400 2112 n
2401 2112 n
2402 2111 n
2402 2111 n
2403 2111 n
2404 2111 n
2404 2111 n
2405 2111 n
2406 2110 n
2406 2110 n
2407 2110 n
2408 2110 n
2408 2110 n
2409 2110 n
2410 2109 n
2410 2109 n
2411 2109 n
2412 2109 n
2412 2109 n
2413 2109 n
2413 2108 n
2414 2108 n
2415 2108 n
2415 2108 n
2416 2108 n
2417 2108 n
2417 2107 n
2418 2107 n
2419 2107 n
2419 2107 n
2420 2107 n
2421 2107 n
2421 2106 n
2422 2106 n
2423 2106 n
2423 2106 n
2424 2106 n
2424 2105 n
2425 2105 n
2426 2105 n
2426 2105 n
2427 2105 n
2428 2105 n
2428 2104 n
2429 2104 n
2430 2104 n
2430 2104 n
2431 2104 n
2432 2103 n
2432 2103 n
2433 2103 n
2434 2103 n
2434 2103 n
2435 2102 n
2436 2102 n
2436 2102 n
2437 2102 n
2438 2102 n
2438 2101 n
2439 2101 n
2439 2101 n
2440 2101 n
2441 2101 n
2441 2100 n
2442 2100 n
2443 2100 n
2443 2100 n
2444 2100 n
2445 2099 n
2445 2099 n
2446 2099 n
2447 2099 n
2447 2098 n
2448 2098 n
2449 2098 n
2449 2098 n
2450 2098 n
2451 2097 n
2451 2097 n
2452 2097 n
2452 2097 n
2453 2097 n
2454 2096 n
2454 2096 n
2455 2096 n
2456 2096 n
2456 2095 n
2457 2095 n
2458 2095 n
2458 2095 n
2459 2095 n
2460 2094 n
2460 2094 n
2461 2094 n
2462 2094 n
2462 2093 n
2463 2093 n
2463 2093 n
2464 2093 n
2465 2092 n
2465 2092 n
2466 2092 n
2467 2092 n
2467 2091 n
2468 2091 n
2469 2091 n
2469 2091 n
2470 2091 n
2471 2090 n
2471 2090 n
2472 2090 n
2473 2090 n
2473 2089 n
2474 2089 n
2475 2089 n
2475 2089 n
2476 2088 n
2477 2088 n
2477 2088 n
2478 2088 n
2478 2087 n
2479 2087 n
2480 2087 n
2480 2087 n
2481 2086 n
2482 2086 n
2482 2086 n
2483 2086 n
2484 2085 n
2484 2085 n
2485 2085 n
2486 2084 n
2486 2084 n
2487 2084 n
2488 2084 n
2488 2083 n
2489 2083 n
2489 2083 n
2490 2083 n
2491 2082 n
2491 2082 n
2492 2082 n
2493 2082 n
2493 2081 n
2494 2081 n
2495 2081 n
2495 2080 n
2496 2080 n
2497 2080 n
2497 2080 n
2498 2079 n
2499 2079 n
2499 2079 n
2500 2079 n
2501 2078 n
2501 2078 n
2502 2078 n
2503 2077 n
2503 2077 n
2504 2077 n
2504 2077 n
2505 2076 n
2506 2076 n
2506 2076 n
2507 2075 n
2508 2075 n
2508 2075 n
2509 2075 n
2510 2074 n
2510 2074 n
2511 2074 n
2512 2073 n
2512 2073 n
2513 2073 n
2514 2073 n
2514 2072 n
2515 2072 n
2516 2072 n
2516 2071 n
2517 2071 n
2517 2071 n
2518 2070 n
2519 2070 n
2519 2070 n
2520 2070 n
2521 2069 n
2521 2069 n
2522 2069 n
2523 2068 n
2523 2068 n
2524 2068 n
2525 2067 n
2525 2067 n
2526 2067 n
2527 2066 n
2527 2066 n
2528 2066 n
2528 2065 n
2529 2065 n
2530 2065 n
2530 2065 n
2531 2064 n
2532 2064 n
2532 2064 n
2533 2063 n
2534 2063 n
2534 2063 n
2535 2062 n
2536 2062 n
2536 2062 n
2537 2061 n
2538 2061 n
2538 2061 n
2539 2060 n
2540 2060 n
2540 2060 n
2541 2059 n
2542 2059 n
2542 2059 n
2543 2058 n
2543 2058 n
2544 2058 n
2545 2057 n
2545 2057 n
2546 2057 n
2547 2056 n
2547 2056 n
2548 2056 n
2549 2055 n
2549 2055 n
2550 2055 n
2551 2054 n
2551 2054 n
2552 2054 n
2553 2053 n
2553 2053 n
2554 2053 n
2554 2052 n
2555 2052 n
2556 2052 n
2556 2051 n
2557 2051 n
2558 2050 n
2558 2050 n
2559 2050 n
2560 2049 n
2560 2049 n
2561 2049 n
2562 2048 n
2562 2048 n
2563 2048 n
2564 2047 n
2564 2047 n
2565 2047 n
2566 2046 n
2566 2046 n
2567 2045 n
2568 2045 n
2568 2045 n
2569 2044 n
2569 2044 n
2570 2044 n
2571 2043 n
2571 2043 n
2572 2043 n
2573 2042 n
2573 2042 n
2574 2041 n
2575 2041 n
2575 2041 n
2576 2040 n
2577 2040 n
2577 2040 n
2578 2039 n
2579 2039 n
2579 2038 n
2580 2038 n
2581 2038 n
2581 2037 n
2582 2037 n
2582 2037 n
2583 2036 n
2584 2036 n
2584 2035 n
2585 2035 n
2586 2035 n
2586 2034 n
2587 2034 n
2588 2033 n
2588 2033 n
2589 2033 n
2590 2032 n
2590 2032 n
2591 2032 n
2592 2031 n
2592 2031 n
2593 2030 n
2593 2030 n
2594 2030 n
2595 2029 n
2595 2029 n
2596 2028 n
2597 2028 n
2597 2028 n
2598 2027 n
2599 2027 n
2599 2026 n
2600 2026 n
2601 2026 n
2601 2025 n
2602 2025 n
2603 2024 n
2603 2024 n
2604 2023 n
2605 2023 n
2605 2023 n
2606 2022 n
2607 2022 n
2607 2021 n
2608 2021 n
2608 2021 n
2609 2020 n
2610 2020 n
2610 2019 n
2611 2019 n
2612 2019 n
2612 2018 n
2613 2018 n
2614 2017 n
2614 2017 n
2615 2016 n
2616 2016 n
2616 2016 n
2617 2015 n
2618 2015 n
2618 2014 n
2619 2014 n
2619 2013 n
2620 2013 n
2621 2013 n
2621 2012 n
2622 2012 n
2623 2011 n
2623 2011 n
2624 2010 n
2625 2010 n
2625 2010 n
2626 2009 n
2627 2009 n
2627 2008 n
2628 2008 n
2629 2007 n
2629 2007 n
2630 2006 n
2631 2006 n
2631 2006 n
2632 2005 n
2633 2005 n
2633 2004 n
2634 2004 n
2634 2003 n
2635 2003 n
2636 2002 n
2636 2002 n
2637 2002 n
2638 2001 n
2638 2001 n
2639 2000 n
2640 2000 n
2640 1999 n
2641 1999 n
2642 1998 n
2642 1998 n
2643 1997 n
2644 1997 n
2644 1997 n
2645 1996 n
2646 1996 n
2646 1995 n
2647 1995 n
2647 1994 n
2648 1994 n
2649 1993 n
2649 1993 n
2650 1992 n
2651 1992 n
2651 1991 n
2652 1991 n
2653 1991 n
2653 1990 n
2654 1990 n
2655 1989 n
2655 1989 n
2656 1988 n
2657 1988 n
2657 1987 n
2658 1987 n
2658 1986 n
2659 1986 n
2660 1985 n
2660 1985 n
2661 1984 n
2662 1984 n
2662 1983 n
2663 1983 n
2664 1982 n
2664 1982 n
2665 1981 n
2666 1981 n
2666 1980 n
2667 1980 n
2668 1980 n
2668 1979 n
2669 1979 n
2670 1978 n
2670 1978 n
2671 1977 n
2672 1977 n
2672 1976 n
2673 1976 n
2673 1975 n
2674 1975 n
2675 1974 n
2675 1974 n
2676 1973 n
2677 1973 n
2677 1972 n
2678 1972 n
2679 1971 n
2679 1971 n
2680 1970 n
2681 1970 n
2681 1969 n
2682 1969 n
2683 1968 n
2683 1968 n
2684 1967 n
2684 1967 n
2685 1966 n
2686 1966 n
2686 1965 n
2687 1964 n
2688 1964 n
2688 1963 n
2689 1963 n
2690 1962 n
2690 1962 n
2691 1961 n
2692 1961 n
2692 1960 n
2693 1960 n
2694 1959 n
2694 1959 n
2695 1958 n
2696 1958 n
2696 1957 n
2697 1957 n
2698 1956 n
2698 1956 n
2699 1955 n
2699 1955 n
2700 1954 n
2701 1954 n
2701 1953 n
2702 1952 n
2703 1952 n
2703 1951 n
2704 1951 n
2705 1950 n
2705 1950 n
2706 1949 n
2707 1949 n
2707 1948 n
2708 1948 n
2709 1947 n
2709 1947 n
2710 1946 n
2711 1945 n
2711 1945 n
2712 1944 n
2712 1944 n
2713 1943 n
2714 1943 n
2714 1942 n
2715 1942 n
2716 1941 n
2716 1941 n
2717 1940 n
2718 1939 n
2718 1939 n
2719 1938 n
2720 1938 n
2720 1937 n
2721 1937 n
2722 1936 n
2722 1936 n
2723 1935 n
2723 1934 n
2724 1934 n
2725 1933 n
2725 1933 n
2726 1932 n
2727 1932 n
2727 1931 n
2728 1931 n
2729 1930 n
2729 1929 n
2730 1929 n
2731 1928 n
2731 1928 n
2732 1927 n
2733 1927 n
2733 1926 n
2734 1925 n
2735 1925 n
2735 1924 n
2736 1924 n
2736 1923 n
2737 1923 n
2738 1922 n
2738 1921 n
2739 1921 n
2740 1920 n
2740 1920 n
2741 1919 n
2742 1919 n
2742 1918 n
2743 1917 n
2744 1917 n
2744 1916 n
2745 1916 n
2746 1915 n
2746 1914 n
2747 1914 n
2748 1913 n
2748 1913 n
2749 1912 n
2749 1911 n
2750 1911 n
2751 1910 n
2751 1910 n
2752 1909 n
2753 1909 n
2753 1908 n
2754 1907 n
2755 1907 n
2755 1906 n
2756 1906 n
2757 1905 n
2757 1904 n
2758 1904 n
2759 1903 n
2759 1903 n
2760 1902 n
2761 1901 n
2761 1901 n
2762 1900 n
2763 1899 n
2763 1899 n
2764 1898 n
2764 1898 n
2765 1897 n
2766 1896 n
2766 1896 n
2767 1895 n
2768 1895 n
2768 1894 n
2769 1893 n
2770 1893 n
2770 1892 n
2771 1892 n
2772 1891 n
2772 1890 n
2773 1890 n
2774 1889 n
2774 1888 n
2775 1888 n
2776 1887 n
2776 1887 n
2777 1886 n
2777 1885 n
2778 1885 n
2779 1884 n
2779 1883 n
2780 1883 n
2781 1882 n
2781 1882 n
2782 1881 n
2783 1880 n
2783 1880 n
2784 1879 n
2785 1878 n
2785 1878 n
2786 1877 n
2787 1876 n
2787 1876 n
2788 1875 n
2789 1875 n
2789 1874 n
2790 1873 n
2790 1873 n
2791 1872 n
2792 1871 n
2792 1871 n
2793 1870 n
2794 1869 n
2794 1869 n
2795 1868 n
2796 1867 n
2796 1867 n
2797 1866 n
2798 1866 n
2798 1865 n
2799 1864 n
2800 1864 n
2800 1863 n
2801 1862 n
2801 1862 n
2802 1861 n
2803 1860 n
2803 1860 n
2804 1859 n
2805 1858 n
2805 1858 n
2806 1857 n
2807 1856 n
2807 1856 n
2808 1855 n
2809 1854 n
2809 1854 n
2810 1853 n
2811 1852 n
2811 1852 n
2812 1851 n
2813 1850 n
2813 1850 n
2814 1849 n
2814 1848 n
2815 1848 n
2816 1847 n
2816 1846 n
2817 1846 n
2818 1845 n
2818 1844 n
2819 1844 n
2820 1843 n
2820 1842 n
2821 1842 n
2822 1841 n
2822 1840 n
2823 1839 n
2824 1839 n
2824 1838 n
2825 1837 n
2826 1837 n
2826 1836 n
2827 1835 n
2828 1835 n
2828 1834 n
2829 1833 n
2829 1833 n
2830 1832 n
2831 1831 n
2831 1831 n
2832 1830 n
2833 1829 n
2833 1828 n
2834 1828 n
2835 1827 n
2835 1826 n
2836 1826 n
2837 1825 n
2837 1824 n
2838 1824 n
2839 1823 n
2839 1822 n
2840 1821 n
2841 1821 n
2841 1820 n
2842 1819 n
2842 1819 n
2843 1818 n
2844 1817 n
2844 1817 n
2845 1816 n
2846 1815 n
2846 1814 n
2847 1814 n
2848 1813 n
2848 1812 n
2849 1812 n
2850 1811 n
2850 1810 n
2851 1809 n
2852 1809 n
2852 1808 n
2853 1807 n
2854 1807 n
2854 1806 n
2855 1805 n
2855 1804 n
2856 1804 n
2857 1803 n
2857 1802 n
2858 1801 n
2859 1801 n
2859 1800 n
2860 1799 n
2861 1799 n
2861 1798 n
2862 1797 n
2863 1796 n
2863 1796 n
2864 1795 n
2865 1794 n
2865 1793 n
2866 1793 n
2866 1792 n
2867 1791 n
2868 1790 n
2868 1790 n
2869 1789 n
2870 1788 n
2870 1787 n
2871 1787 n
2872 1786 n
2872 1785 n
2873 1785 n
2874 1784 n
2874 1783 n
2875 1782 n
2876 1782 n
2876 1781 n
2877 1780 n
2878 1779 n
2878 1779 n
2879 1778 n
2879 1777 n
2880 1776 n
2881 1775 n
2881 1775 n
2882 1774 n
2883 1773 n
2883 1772 n
2884 1772 n
2885 1771 n
2885 1770 n
2886 1769 n
2887 1769 n
2887 1768 n
2888 1767 n
2889 1766 n
2889 1766 n
2890 1765 n
2891 1764 n
2891 1763 n
2892 1763 n
2893 1762 n
2893 1761 n
2894 1760 n
2894 1759 n
2895 1759 n
2896 1758 n
2896 1757 n
2897 1756 n
2898 1756 n
2898 1755 n
2899 1754 n
2900 1753 n
2900 1752 n
2901 1752 n
2902 1751 n
2902 1750 n
2903 1749 n
2904 1749 n
2904 1748 n
2905 1747 n
2906 1746 n
2906 1745 n
2907 1745 n
2907 1744 n
2908 1743 n
2909 1742 n
2909 1741 n
2910 1741 n
2911 1740 n
2911 1739 n
2912 1738 n
2913 1738 n
2913 1737 n
2914 1736 n
2915 1735 n
2915 1734 n
2916 1734 n
2917 1733 n
2917 1732 n
2918 1731 n
2919 1730 n
2919 1730 n
2920 1729 n
2920 1728 n
2921 1727 n
2922 1726 n
2922 1726 n
2923 1725 n
2924 1724 n
2924 1723 n
2925 1722 n
2926 1721 n
2926 1721 n
2927 1720 n
2928 1719 n
2928 1718 n
2929 1717 n
2930 1717 n
2930 1716 n
2931 1715 n
2931 1714 n
2932 1713 n
2933 1712 n
2933 1712 n
2934 1711 n
2935 1710 n
2935 1709 n
2936 1708 n
2937 1708 n
2937 1707 n
2938 1706 n
2939 1705 n
2939 1704 n
2940 1703 n
2941 1703 n
2941 1702 n
2942 1701 n
2943 1700 n
2943 1699 n
2944 1698 n
2944 1698 n
2945 1697 n
2946 1696 n
2946 1695 n
2947 1694 n
2948 1693 n
2948 1693 n
2949 1692 n
2950 1691 n
2950 1690 n
2951 1689 n
2952 1688 n
2952 1688 n
2953 1687 n
2954 1686 n
2954 1685 n
2955 1684 n
2956 1683 n
2956 1682 n
2957 1682 n
2958 1681 n
2958 1680 n
2959 1679 n
2959 1678 n
2960 1677 n
2961 1676 n
2961 1676 n
2962 1675 n
2963 1674 n
2963 1673 n
2964 1672 n
2965 1671 n
2965 1670 n
2966 1670 n
2967 1669 n
2967 1668 n
2968 1667 n
2969 1666 n
2969 1665 n
2970 1664 n
2971 1664 n
2971 1663 n
2972 1662 n
2972 1661 n
2973 1660 n
2974 1659 n
2974 1658 n
2975 1657 n
2976 1657 n
2976 1656 n
2977 1655 n
2978 1654 n
2978 1653 n
2979 1652 n
2980 1651 n
2980 1650 n
2981 1650 n
2982 1649 n
2982 1648 n
2983 1647 n
2984 1646 n
2984 1645 n
2985 1644 n
2985 1643 n
2986 1642 n
2987 1642 n
2987 1641 n
2988 1640 n
2989 1639 n
2989 1638 n
2990 1637 n
2991 1636 n
2991 1635 n
2992 1634 n
2993 1634 n
2993 1633 n
2994 1632 n
2995 1631 n
2995 1630 n
2996 1629 n
2996 1628 n
2997 1627 n
2998 1626 n
2998 1625 n
2999 1625 n
3000 1624 n
3000 1623 n
3001 1622 n
3002 1621 n
3002 1620 n
3003 1619 n
3004 1618 n
3004 1617 n
3005 1616 n
3006 1616 n
3006 1615 n
3007 1614 n
3008 1613 n
3008 1612 n
3009 1611 n
3009 1610 n
3010 1609 n
3011 1608 n
3011 1607 n
3012 1606 n
3013 1605 n
3013 1605 n
3014 1604 n
3015 1603 n
3015 1602 n
3016 1601 n
3017 1600 n
3017 1599 n
3018 1598 n
3019 1597 n
3019 1596 n
3020 1595 n
3021 1594 n
3021 1593 n
3022 1592 n
3023 1592 n
3023 1591 n
3024 1590 n
3024 1589 n
3025 1588 n
3026 1587 n
3026 1586 n
3027 1585 n
3028 1584 n
3028 1583 n
3029 1582 n
3030 1581 n
3030 1580 n
3031 1579 n
3032 1578 n
3032 1577 n
3033 1577 n
3034 1576 n
3034 1575 n
3035 1574 n
3036 1573 n
3036 1572 n
3037 1571 n
3037 1570 n
3038 1569 n
3039 1568 n
3039 1567 n
3040 1566 n
3041 1565 n
3041 1564 n
3042 1563 n
3043 1562 n
3043 1561 n
3044 1560 n
3045 1559 n
3045 1558 n
3046 1557 n
3047 1557 n
3047 1556 n
3048 1555 n
3049 1554 n
3049 1553 n
3050 1552 n
3050 1551 n
3051 1550 n
3052 1549 n
3052 1548 n
3053 1547 n
3054 1546 n
3054 1545 n
3055 1544 n
3056 1543 n
3056 1542 n
3057 1541 n
3058 1540 n
3058 1539 n
3059 1538 n
3060 1537 n
3060 1536 n
3061 1535 n
3061 1534 n
3062 1533 n
3063 1532 n
3063 1531 n
3064 1530 n
3065 1529 n
3065 1528 n
3066 1527 n
3067 1526 n
3067 1525 n
3068 1524 n
3069 1523 n
3069 1522 n
3070 1521 n
3071 1520 n
3071 1519 n
3072 1518 n
3073 1517 n
3073 1516 n
3074 1515 n
3074 1514 n
3075 1513 n
3076 1512 n
3076 1511 n
3077 1510 n
3078 1509 n
3078 1508 n
3079 1507 n
3080 1506 n
3080 1505 n
3081 1504 n
3082 1503 n
3082 1502 n
3083 1501 n
3084 1500 n
3084 1499 n
3085 1498 n
3086 1497 n
3086 1496 n
3087 1495 n
3088 1494 n
3088 1493 n
3089 1492 n
3089 1491 n
3090 1490 n
3091 1489 n
3091 1488 n
3092 1487 n
3093 1486 n
3093 1485 n
3094 1484 n
3095 1483 n
3095 1482 n
3096 1481 n
3097 1480 n
3097 1479 n
3098 1478 n
3099 1477 n
3099 1476 n
3100 1475 n
3101 1474 n
3101 1473 n
3102 1472 n
3102 1471 n
3103 1470 n
3104 1469 n
3104 1468 n
3105 1467 n
3106 1466 n
3106 1465 n
3107 1463 n
3108 1462 n
3108 1461 n
3109 1460 n
3110 1459 n
3110 1458 n
3111 1457 n
3112 1456 n
3112 1455 n
3113 1454 n
3114 1453 n
3114 1452 n
3115 1451 n
3115 1450 n
3116 1449 n
3117 1448 n
3117 1447 n
3118 1446 n
3119 1445 n
3119 1444 n
3120 1443 n
3121 1442 n
3121 1440 n
3122 1439 n
3123 1438 n
3123 1437 n
3124 1436 n
3125 1435 n
3125 1434 n
3126 1433 n
3126 1432 n
3127 1431 n
3128 1430 n
3128 1429 n
3129 1428 n
3130 1427 n
3130 1426 n
3131 1425 n
3132 1423 n
3132 1422 n
3133 1421 n
3134 1420 n
3134 1419 n
3135 1418 n
3136 1417 n
3136 1416 n
3137 1415 n
3138 1414 n
3138 1413 n
3139 1412 n
3139 1411 n
3140 1409 n
3141 1408 n
3141 1407 n
3142 1406 n
3143 1405 n
3143 1404 n
3144 1403 n
3145 1402 n
3145 1401 n
3146 1400 n
3147 1399 n
3147 1398 n
3148 1396 n
3149 1395 n
3149 1394 n
3150 1393 n
3151 1392 n
3151 1391 n
3152 1390 n
3153 1389 n
3153 1388 n
3154 1387 n
3154 1386 n
3155 1384 n
3156 1383 n
3156 1382 n
3157 1381 n
3158 1380 n
3158 1379 n
3159 1378 n
3160 1377 n
3160 1376 n
3161 1375 n
3162 1373 n
3162 1372 n
3163 1371 n
3164 1370 n
3164 1369 n
3165 1368 n
3166 1367 n
3166 1366 n
3167 1365 n
3167 1363 n
3168 1362 n
3169 1361 n
3169 1360 n
3170 1359 n
3171 1358 n
3171 1357 n
3172 1356 n
3173 1355 n
3173 1353 n
3174 1352 n
3175 1351 n
3175 1350 n
3176 1349 n
3177 1348 n
3177 1347 n
3178 1346 n
3179 1344 n
3179 1343 n
3180 1342 n
3180 1341 n
3181 1340 n
3182 1339 n
3182 1338 n
3183 1336 n
3184 1335 n
3184 1334 n
3185 1333 n
3186 1332 n
3186 1331 n
3187 1330 n
3188 1329 n
3188 1327 n
3189 1326 n
3190 1325 n
3190 1324 n
3191 1323 n
3191 1322 n
3192 1321 n
3193 1319 n
3193 1318 n
3194 1317 n
3195 1316 n
3195 1315 n
3196 1314 n
3197 1313 n
3197 1311 n
3198 1310 n
3199 1309 n
3199 1308 n
3200 1307 n
3201 1306 n
3201 1304 n
3202 1303 n
3203 1302 n
3203 1301 n
3204 1300 n
3204 1299 n
3205 1297 n
3206 1296 n
3206 1295 n
3207 1294 n
3208 1293 n
3208 1292 n
3209 1291 n
3210 1289 n
3210 1288 n
3211 1287 n
3212 1286 n
3212 1285 n
3213 1284 n
3214 1282 n
3214 1281 n
3215 1280 n
3216 1279 n
3216 1278 n
3217 1276 n
3218 1275 n
3218 1274 n
3219 1273 n
3219 1272 n
3220 1271 n
3221 1269 n
3221 1268 n
3222 1267 n
3223 1266 n
3223 1265 n
3224 1263 n
3225 1262 n
3225 1261 n
3226 1260 n
3227 1259 n
3227 1258 n
3228 1256 n
3229 1255 n
3229 1254 n
3230 1253 n
3231 1252 n
3231 1250 n
3232 1249 n
3232 1248 n
3233 1247 n
3234 1246 n
3234 1244 n
3235 1243 n
3236 1242 n
3236 1241 n
3237 1240 n
3238 1238 n
3238 1237 n
3239 1236 n
3240 1235 n
3240 1234 n
3241 1232 n
3242 1231 n
3242 1230 n
3243 1229 n
3244 1228 n
3244 1226 n
3245 1225 n
3245 1224 n
3246 1223 n
3247 1222 n
3247 1220 n
3248 1219 n
3249 1218 n
3249 1217 n
3250 1215 n
3251 1214 n
3251 1213 n
3252 1212 n
3253 1211 n
3253 1209 n
3254 1208 n
3255 1207 n
3255 1206 n
3256 1204 n
3256 1203 n
3257 1202 n
3258 1201 n
3258 1200 n
3259 1198 n
3260 1197 n
3260 1196 n
3261 1195 n
3262 1193 n
3262 1192 n
3263 1191 n
3264 1190 n
3264 1189 n
3265 1187 n
3266 1186 n
3266 1185 n
3267 1184 n
3268 1182 n
3268 1181 n
3269 1180 n
3269 1179 n
3270 1177 n
3271 1176 n
3271 1175 n
3272 1174 n
3273 1172 n
3273 1171 n
3274 1170 n
3275 1169 n
3275 1167 n
3276 1166 n
3277 1165 n
3277 1164 n
3278 1162 n
3279 1161 n
3279 1160 n
3280 1159 n
3281 1157 n
3281 1156 n
3282 1155 n
3283 1154 n
3283 1152 n
3284 1151 n
3284 1150 n
3285 1149 n
3286 1147 n
3286 1146 n
3287 1145 n
3288 1144 n
3288 1142 n
3289 1141 n
3290 1140 n
3290 1138 n
3291 1137 n
3292 1136 n
3292 1135 n
3293 1133 n
3294 1132 n
3294 1131 n
3295 1130 n
3296 1128 n
3296 1127 n
3297 1126 n
3297 1124 n
3298 1123 n
3299 1122 n
3299 1121 n
3300 1119 n
3301 1118 n
3301 1117 n
3302 1116 n
3303 1114 n
3303 1113 n
3304 1112 n
3305 1110 n
3305 1109 n
3306 1108 n
3307 1107 n
3307 1105 n
3308 1104 n
3309 1103 n
3309 1101 n
3310 1100 n
3310 1099 n
3311 1098 n
3312 1096 n
3312 1095 n
3313 1094 n
3314 1092 n
3314 1091 n
3315 1090 n
3316 1088 n
3316 1087 n
3317 1086 n
3318 1085 n
3318 1083 n
3319 1082 n
3320 1081 n
3320 1079 n
3321 1078 n
3321 1077 n
3322 1075 n
3323 1074 n
3323 1073 n
3324 1071 n
3325 1070 n
3325 1069 n
3326 1068 n
3327 1066 n
3327 1065 n
3328 1064 n
3329 1062 n
3329 1061 n
3330 1060 n
3331 1058 n
3331 1057 n
3332 1056 n
3333 1054 n
3333 1053 n
3334 1052 n
3334 1050 n
3335 1049 n
3336 1048 n
3336 1046 n
3337 1045 n
3338 1044 n
3338 1042 n
3339 1041 n
3340 1040 n
3340 1038 n
3341 1037 n
3342 1036 n
3342 1035 n
3343 1033 n
3344 1032 n
3344 1031 n
3345 1029 n
3346 1028 n
3346 1026 n
3347 1025 n
3348 1024 n
3348 1022 n
3349 1021 n
3349 1020 n
3350 1018 n
3351 1017 n
3351 1016 n
3352 1014 n
3353 1013 n
3353 1012 n
3354 1010 n
3355 1009 n
3355 1008 n
3356 1006 n
3357 1005 n
3357 1004 n
3358 1002 n
3359 1001 n
3359 1000 n
3360 998 n
3361 997 n
3361 996 n
3362 994 n
3362 993 n
3363 991 n
3364 990 n
3364 989 n
3365 987 n
3366 986 n
3366 985 n
3367 983 n
3368 982 n
3368 981 n
3369 979 n
3370 978 n
3370 976 n
3371 975 n
3372 974 n
3372 972 n
3373 971 n
3374 970 n
3374 968 n
3375 967 n
3375 966 n
3376 964 n
3377 963 n
3377 961 n
3378 960 n
3379 959 n
3379 957 n
3380 956 n
3381 954 n
3381 953 n
3382 952 n
3383 950 n
3383 949 n
3384 948 n
3385 946 n
3385 945 n
3386 943 n
3386 942 n
3387 941 n
3388 939 n
3388 938 n
3389 936 n
3390 935 n
3390 934 n
3391 932 n
3392 931 n
3392 930 n
3393 928 n
3394 927 n
3394 925 n
3395 924 n
3396 923 n
3396 921 n
3397 920 n
3398 918 n
3398 917 n
3399 916 n
3399 914 n
3400 913 n
3401 911 n
3401 910 n
3402 909 n
3403 907 n
3403 906 n
3404 904 n
3405 903 n
3405 901 n
3406 900 n
3407 899 n
3407 897 n
3408 896 n
3409 894 n
3409 893 n
3410 892 n
3411 890 n
3411 889 n
3412 887 n
3413 886 n
3413 884 n
3414 883 n
3414 882 n
3415 880 n
3416 879 n
3416 877 n
3417 876 n
3418 875 n
3418 873 n
3419 872 n
3420 870 n
3420 869 n
3421 867 n
3422 866 n
3422 865 n
3423 863 n
3424 862 n
3424 860 n
3425 859 n
3426 857 n
3426 856 n
3427 854 n
3427 853 n
3428 852 n
3429 850 n
3429 849 n
3430 847 n
3431 846 n
3431 844 n
3432 843 n
3433 841 n
3433 840 n
3434 839 n
3435 837 n
3435 836 n
3436 834 n
3437 833 n
3437 831 n
3438 830 n
3439 828 n
3439 827 n
3440 826 n
3440 824 n
3441 823 n
3442 821 n
3442 820 n
3443 818 n
3444 817 n
3444 815 n
3445 814 n
3446 812 n
3446 811 n
3447 810 n
3448 808 n
3448 807 n
3449 805 n
3450 804 n
3450 802 n
3451 801 n
3451 799 n
3452 798 n
3453 796 n
3453 795 n
3454 793 n
3455 792 n
3455 790 n
3456 789 n
3457 787 n
3457 786 n
3458 785 n
3459 783 n
3459 782 n
3460 780 n
3461 779 n
3461 777 n
3462 776 n
3463 774 n
3463 773 n
3464 771 n
3464 770 n
3465 768 n
3466 767 n
3466 765 n
3467 764 n
3468 762 n
3468 761 n
3469 759 n
3470 758 n
3470 756 n
3471 755 n
3472 753 n
3472 752 n
3473 750 n
3474 749 n
3474 747 n
3475 746 n
3476 744 n
3476 743 n
3477 741 n
3478 740 n
3478 738 n
3479 737 n
3479 735 n
3480 734 n
3481 732 n
3481 731 n
3482 729 n
3483 728 n
3483 726 n
3484 725 n
3485 723 n
3485 722 n
3486 720 n
3487 719 n
3487 717 n
3488 716 n
3489 714 n
3489 713 n
3490 711 n
3491 710 n
3491 708 n
3492 707 n
3492 705 n
3493 704 n
3494 702 n
3494 701 n
3495 699 n
3496 698 n
3496 696 n
3497 694 n
3498 693 n
3498 691 n
3499 690 n
3500 688 n
3500 687 n
3501 685 n
3502 684 n
3502 682 n
3503 681 n
3504 679 n
3504 678 n
3505 676 n
3505 675 n
3506 673 n
3507 671 n
3507 670 n
3508 668 n
3509 667 n
3509 665 n
3510 664 n
3511 662 n
3511 661 n
3512 659 n
3513 658 n
3513 656 n
3514 655 n
3515 653 n
3515 651 n
3516 650 n
3516 648 n
3517 647 n
3518 645 n
3518 644 n
3519 642 n
3520 641 n
3520 639 n
3521 637 n
3522 636 n
3522 634 n
3523 633 n
3524 631 n
3524 630 n
3525 628 n
3526 627 n
3526 625 n
3527 623 n
3528 622 n
3528 620 n
3529 619 n
3529 617 n
3530 616 n
3531 614 n
3531 612 n
3532 611 n
3533 609 n
3533 608 n
3534 606 n
3535 605 n
3535 603 n
3536 601 n
/solid f
3900 600 650 600 l
3900 2225 n
650 2225 n
650 600 n
780 650 780 600 l
780 2225 780 2175 l
910 650 910 600 l
910 2225 910 2175 l
1040 650 1040 600 l
1040 2225 1040 2175 l
1170 650 1170 600 l
1170 2225 1170 2175 l
1300 750 1300 600 l
1300 2225 1300 2075 l
1430 650 1430 600 l
1430 2225 1430 2175 l
1560 650 1560 600 l
1560 2225 1560 2175 l
1690 650 1690 600 l
1690 2225 1690 2175 l
1820 650 1820 600 l
1820 2225 1820 2175 l
1950 750 1950 600 l
1950 2225 1950 2075 l
2080 650 2080 600 l
2080 2225 2080 2175 l
2210 650 2210 600 l
2210 2225 2210 2175 l
2340 650 2340 600 l
2340 2225 2340 2175 l
2470 650 2470 600 l
2470 2225 2470 2175 l
2600 750 2600 600 l
2600 2225 2600 2075 l
2730 650 2730 600 l
2730 2225 2730 2175 l
2860 650 2860 600 l
2860 2225 2860 2175 l
2990 650 2990 600 l
2990 2225 2990 2175 l
3120 650 3120 600 l
3120 2225 3120 2175 l
3250 750 3250 600 l
3250 2225 3250 2075 l
3380 650 3380 600 l
3380 2225 3380 2175 l
3510 650 3510 600 l
3510 2225 3510 2175 l
3640 650 3640 600 l
3640 2225 3640 2175 l
3770 650 3770 600 l
3770 2225 3770 2175 l
700 681 650 681 l
3900 681 3850 681 l
700 763 650 763 l
3900 763 3850 763 l
700 844 650 844 l
3900 844 3850 844 l
700 925 650 925 l
3900 925 3850 925 l
800 1006 650 1006 l
3900 1006 3750 1006 l
700 1088 650 1088 l
3900 1088 3850 1088 l
700 1169 650 1169 l
3900 1169 3850 1169 l
700 1250 650 1250 l
3900 1250 3850 1250 l
700 1331 650 1331 l
3900 1331 3850 1331 l
800 1413 650 1413 l
3900 1413 3750 1413 l
700 1494 650 1494 l
3900 1494 3850 1494 l
700 1575 650 1575 l
3900 1575 3850 1575 l
700 1656 650 1656 l
3900 1656 3850 1656 l
700 1738 650 1738 l
3900 1738 3850 1738 l
800 1819 650 1819 l
3900 1819 3750 1819 l
700 1900 650 1900 l
3900 1900 3850 1900 l
700 1981 650 1981 l
3900 1981 3850 1981 l
700 2063 650 2063 l
3900 2063 3850 2063 l
700 2144 650 2144 l
3900 2144 3850 2144 l
659 420 m
645 469 m
632 465 n
623 451 n
618 429 n
618 416 n
623 393 n
632 380 n
645 375 n
654 375 n
668 380 n
677 393 n
681 416 n
681 429 n
677 451 n
668 465 n
654 469 n
645 469 n
645 469 m
636 465 n
632 460 n
627 451 n
623 429 n
623 416 n
627 393 n
632 384 n
636 380 n
645 375 n
654 375 m
663 380 n
668 384 n
672 393 n
677 416 n
677 429 n
672 451 n
668 460 n
663 465 n
654 469 n
1230 451 m
1239 456 n
1253 469 n
1253 375 n
1248 465 m
1248 375 n
1230 375 m
1270 375 n
1347 420 m
1333 469 m
1320 465 n
1311 451 n
1306 429 n
1306 416 n
1311 393 n
1320 380 n
1333 375 n
1342 375 n
1356 380 n
1365 393 n
1369 416 n
1369 429 n
1365 451 n
1356 465 n
1342 469 n
1333 469 n
1333 469 m
1324 465 n
1320 460 n
1315 451 n
1311 429 n
1311 416 n
1315 393 n
1320 384 n
1324 380 n
1333 375 n
1342 375 m
1351 380 n
1356 384 n
1360 393 n
1365 416 n
1365 429 n
1360 451 n
1356 460 n
1351 465 n
1342 469 n
1878 451 m
1883 447 n
1878 442 n
1874 447 n
1874 451 n
1878 460 n
1883 465 n
1896 469 n
1914 469 n
1927 465 n
1932 460 n
1936 451 n
1936 442 n
1932 433 n
1918 424 n
1896 416 n
1887 411 n
1878 402 n
1874 389 n
1874 375 n
1914 469 m
1923 465 n
1927 460 n
1932 451 n
1932 442 n
1927 433 n
1914 424 n
1896 416 n
1874 384 m
1878 389 n
1887 389 n
1910 380 n
1923 380 n
1932 384 n
1936 389 n
1887 389 m
1910 375 n
1927 375 n
1932 380 n
1936 389 n
1936 398 n
2004 420 m
1990 469 m
1977 465 n
1968 451 n
1963 429 n
1963 416 n
1968 393 n
1977 380 n
1990 375 n
1999 375 n
2013 380 n
2022 393 n
2026 416 n
2026 429 n
2022 451 n
2013 465 n
1999 469 n
1990 469 n
1990 469 m
1981 465 n
1977 460 n
1972 451 n
1968 429 n
1968 416 n
1972 393 n
1977 384 n
1981 380 n
1990 375 n
1999 375 m
2008 380 n
2013 384 n
2017 393 n
2022 416 n
2022 429 n
2017 451 n
2013 460 n
2008 465 n
1999 469 n
2528 451 m
2533 447 n
2528 442 n
2524 447 n
2524 451 n
2528 460 n
2533 465 n
2546 469 n
2564 469 n
2577 465 n
2582 456 n
2582 442 n
2577 433 n
2564 429 n
2551 429 n
2564 469 m
2573 465 n
2577 456 n
2577 442 n
2573 433 n
2564 429 n
2564 429 m
2573 424 n
2582 416 n
2586 407 n
2586 393 n
2582 384 n
2577 380 n
2564 375 n
2546 375 n
2533 380 n
2528 384 n
2524 393 n
2524 398 n
2528 402 n
2533 398 n
2528 393 n
2577 420 m
2582 407 n
2582 393 n
2577 384 n
2573 380 n
2564 375 n
2654 420 m
2640 469 m
2627 465 n
2618 451 n
2613 429 n
2613 416 n
2618 393 n
2627 380 n
2640 375 n
2649 375 n
2663 380 n
2672 393 n
2676 416 n
2676 429 n
2672 451 n
2663 465 n
2649 469 n
2640 469 n
2640 469 m
2631 465 n
2627 460 n
2622 451 n
2618 429 n
2618 416 n
2622 393 n
2627 384 n
2631 380 n
2640 375 n
2649 375 m
2658 380 n
2663 384 n
2667 393 n
2672 416 n
2672 429 n
2667 451 n
2663 460 n
2658 465 n
2649 469 n
3216 460 m
3216 375 n
3220 469 m
3220 375 n
3220 469 m
3171 402 n
3243 402 n
3203 375 m
3234 375 n
3306 420 m
3292 469 m
3279 465 n
3270 451 n
3265 429 n
3265 416 n
3270 393 n
3279 380 n
3292 375 n
3301 375 n
3315 380 n
3324 393 n
3328 416 n
3328 429 n
3324 451 n
3315 465 n
3301 469 n
3292 469 n
3292 469 m
3283 465 n
3279 460 n
3274 451 n
3270 429 n
3270 416 n
3274 393 n
3279 384 n
3283 380 n
3292 375 n
3301 375 m
3310 380 n
3315 384 n
3319 393 n
3324 416 n
3324 429 n
3319 451 n
3315 460 n
3310 465 n
3301 469 n
3833 469 m
3824 424 n
3824 424 m
3833 433 n
3846 438 n
3860 438 n
3873 433 n
3882 424 n
3886 411 n
3886 402 n
3882 389 n
3873 380 n
3860 375 n
3846 375 n
3833 380 n
3828 384 n
3824 393 n
3824 398 n
3828 402 n
3833 398 n
3828 393 n
3860 438 m
3868 433 n
3877 424 n
3882 411 n
3882 402 n
3877 389 n
3868 380 n
3860 375 n
3833 469 m
3877 469 n
3833 465 m
3855 465 n
3877 469 n
3954 420 m
3940 469 m
3927 465 n
3918 451 n
3913 429 n
3913 416 n
3918 393 n
3927 380 n
3940 375 n
3949 375 n
3963 380 n
3972 393 n
3976 416 n
3976 429 n
3972 451 n
3963 465 n
3949 469 n
3940 469 n
3940 469 m
3931 465 n
3927 460 n
3922 451 n
3918 429 n
3918 416 n
3922 393 n
3927 384 n
3931 380 n
3940 375 n
3949 375 m
3958 380 n
3963 384 n
3967 393 n
3972 416 n
3972 429 n
3967 451 n
3963 460 n
3958 465 n
3949 469 n
408 600 m
480 600 m
552 600 m
538 649 m
525 645 n
516 631 n
511 609 n
511 596 n
516 573 n
525 560 n
538 555 n
547 555 n
561 560 n
570 573 n
574 596 n
574 609 n
570 631 n
561 645 n
547 649 n
538 649 n
538 649 m
529 645 n
525 640 n
520 631 n
516 609 n
516 596 n
520 573 n
525 564 n
529 560 n
538 555 n
547 555 m
556 560 n
561 564 n
565 573 n
570 596 n
570 609 n
565 631 n
561 640 n
556 645 n
547 649 n
372 1006 m
340 1055 m
331 1010 n
331 1010 m
340 1019 n
354 1024 n
367 1024 n
381 1019 n
390 1010 n
394 997 n
394 988 n
390 975 n
381 966 n
367 961 n
354 961 n
340 966 n
336 970 n
331 979 n
331 984 n
336 988 n
340 984 n
336 979 n
367 1024 m
376 1019 n
385 1010 n
390 997 n
390 988 n
385 975 n
376 966 n
367 961 n
340 1055 m
385 1055 n
340 1051 m
363 1051 n
385 1055 n
462 1006 m
448 1055 m
435 1051 n
426 1037 n
421 1015 n
421 1002 n
426 979 n
435 966 n
448 961 n
457 961 n
471 966 n
480 979 n
484 1002 n
484 1015 n
480 1037 n
471 1051 n
457 1055 n
448 1055 n
448 1055 m
439 1051 n
435 1046 n
430 1037 n
426 1015 n
426 1002 n
430 979 n
435 970 n
439 966 n
448 961 n
457 961 m
466 966 n
471 970 n
475 979 n
480 1002 n
480 1015 n
475 1037 n
471 1046 n
466 1051 n
457 1055 n
552 1006 m
538 1055 m
525 1051 n
516 1037 n
511 1015 n
511 1002 n
516 979 n
525 966 n
538 961 n
547 961 n
561 966 n
570 979 n
574 1002 n
574 1015 n
570 1037 n
561 1051 n
547 1055 n
538 1055 n
538 1055 m
529 1051 n
525 1046 n
520 1037 n
516 1015 n
516 1002 n
520 979 n
525 970 n
529 966 n
538 961 n
547 961 m
556 966 n
561 970 n
565 979 n
570 1002 n
570 1015 n
565 1037 n
561 1046 n
556 1051 n
547 1055 n
255 1444 m
264 1449 n
278 1462 n
278 1368 n
273 1458 m
273 1368 n
255 1368 m
295 1368 n
372 1413 m
358 1462 m
345 1458 n
336 1444 n
331 1422 n
331 1409 n
336 1386 n
345 1373 n
358 1368 n
367 1368 n
381 1373 n
390 1386 n
394 1409 n
394 1422 n
390 1444 n
381 1458 n
367 1462 n
358 1462 n
358 1462 m
349 1458 n
345 1453 n
340 1444 n
336 1422 n
336 1409 n
340 1386 n
345 1377 n
349 1373 n
358 1368 n
367 1368 m
376 1373 n
381 1377 n
385 1386 n
390 1409 n
390 1422 n
385 1444 n
381 1453 n
376 1458 n
367 1462 n
462 1413 m
448 1462 m
435 1458 n
426 1444 n
421 1422 n
421 1409 n
426 1386 n
435 1373 n
448 1368 n
457 1368 n
471 1373 n
480 1386 n
484 1409 n
484 1422 n
480 1444 n
471 1458 n
457 1462 n
448 1462 n
448 1462 m
439 1458 n
435 1453 n
430 1444 n
426 1422 n
426 1409 n
430 1386 n
435 1377 n
439 1373 n
448 1368 n
457 1368 m
466 1373 n
471 1377 n
475 1386 n
480 1409 n
480 1422 n
475 1444 n
471 1453 n
466 1458 n
457 1462 n
552 1413 m
538 1462 m
525 1458 n
516 1444 n
511 1422 n
511 1409 n
516 1386 n
525 1373 n
538 1368 n
547 1368 n
561 1373 n
570 1386 n
574 1409 n
574 1422 n
570 1444 n
561 1458 n
547 1462 n
538 1462 n
538 1462 m
529 1458 n
525 1453 n
520 1444 n
516 1422 n
516 1409 n
520 1386 n
525 1377 n
529 1373 n
538 1368 n
547 1368 m
556 1373 n
561 1377 n
565 1386 n
570 1409 n
570 1422 n
565 1444 n
561 1453 n
556 1458 n
547 1462 n
255 1850 m
264 1855 n
278 1868 n
278 1774 n
273 1864 m
273 1774 n
255 1774 m
295 1774 n
372 1819 m
340 1868 m
331 1823 n
331 1823 m
340 1832 n
354 1837 n
367 1837 n
381 1832 n
390 1823 n
394 1810 n
394 1801 n
390 1788 n
381 1779 n
367 1774 n
354 1774 n
340 1779 n
336 1783 n
331 1792 n
331 1797 n
336 1801 n
340 1797 n
336 1792 n
367 1837 m
376 1832 n
385 1823 n
390 1810 n
390 1801 n
385 1788 n
376 1779 n
367 1774 n
340 1868 m
385 1868 n
340 1864 m
363 1864 n
385 1868 n
462 1819 m
448 1868 m
435 1864 n
426 1850 n
421 1828 n
421 1815 n
426 1792 n
435 1779 n
448 1774 n
457 1774 n
471 1779 n
480 1792 n
484 1815 n
484 1828 n
480 1850 n
471 1864 n
457 1868 n
448 1868 n
448 1868 m
439 1864 n
435 1859 n
430 1850 n
426 1828 n
426 1815 n
430 1792 n
435 1783 n
439 1779 n
448 1774 n
457 1774 m
466 1779 n
471 1783 n
475 1792 n
480 1815 n
480 1828 n
475 1850 n
471 1859 n
466 1864 n
457 1868 n
552 1819 m
538 1868 m
525 1864 n
516 1850 n
511 1828 n
511 1815 n
516 1792 n
525 1779 n
538 1774 n
547 1774 n
561 1779 n
570 1792 n
574 1815 n
574 1828 n
570 1850 n
561 1864 n
547 1868 n
538 1868 n
538 1868 m
529 1864 n
525 1859 n
520 1850 n
516 1828 n
516 1815 n
520 1792 n
525 1783 n
529 1779 n
538 1774 n
547 1774 m
556 1779 n
561 1783 n
565 1792 n
570 1815 n
570 1828 n
565 1850 n
561 1859 n
556 1864 n
547 1868 n
246 2256 m
251 2252 n
246 2247 n
242 2252 n
242 2256 n
246 2265 n
251 2270 n
264 2274 n
282 2274 n
295 2270 n
300 2265 n
304 2256 n
304 2247 n
300 2238 n
286 2229 n
264 2221 n
255 2216 n
246 2207 n
242 2194 n
242 2180 n
282 2274 m
291 2270 n
295 2265 n
300 2256 n
300 2247 n
295 2238 n
282 2229 n
264 2221 n
242 2189 m
246 2194 n
255 2194 n
278 2185 n
291 2185 n
300 2189 n
304 2194 n
255 2194 m
278 2180 n
295 2180 n
300 2185 n
304 2194 n
304 2203 n
372 2225 m
358 2274 m
345 2270 n
336 2256 n
331 2234 n
331 2221 n
336 2198 n
345 2185 n
358 2180 n
367 2180 n
381 2185 n
390 2198 n
394 2221 n
394 2234 n
390 2256 n
381 2270 n
367 2274 n
358 2274 n
358 2274 m
349 2270 n
345 2265 n
340 2256 n
336 2234 n
336 2221 n
340 2198 n
345 2189 n
349 2185 n
358 2180 n
367 2180 m
376 2185 n
381 2189 n
385 2198 n
390 2221 n
390 2234 n
385 2256 n
381 2265 n
376 2270 n
367 2274 n
462 2225 m
448 2274 m
435 2270 n
426 2256 n
421 2234 n
421 2221 n
426 2198 n
435 2185 n
448 2180 n
457 2180 n
471 2185 n
480 2198 n
484 2221 n
484 2234 n
480 2256 n
471 2270 n
457 2274 n
448 2274 n
448 2274 m
439 2270 n
435 2265 n
430 2256 n
426 2234 n
426 2221 n
430 2198 n
435 2189 n
439 2185 n
448 2180 n
457 2180 m
466 2185 n
471 2189 n
475 2198 n
480 2221 n
480 2234 n
475 2256 n
471 2265 n
466 2270 n
457 2274 n
552 2225 m
538 2274 m
525 2270 n
516 2256 n
511 2234 n
511 2221 n
516 2198 n
525 2185 n
538 2180 n
547 2180 n
561 2185 n
570 2198 n
574 2221 n
574 2234 n
570 2256 n
561 2270 n
547 2274 n
538 2274 n
538 2274 m
529 2270 n
525 2265 n
520 2256 n
516 2234 n
516 2221 n
520 2198 n
525 2189 n
529 2185 n
538 2180 n
547 2180 m
556 2185 n
561 2189 n
565 2198 n
570 2221 n
570 2234 n
565 2256 n
561 2265 n
556 2270 n
547 2274 n
1985 289 m
1985 213 n
1989 200 n
1998 195 n
2007 195 n
2016 200 n
2020 209 n
1989 289 m
1989 213 n
1994 200 n
1998 195 n
1971 258 m
2007 258 n
2083 240 m
2052 289 m
2047 285 n
2052 280 n
2056 285 n
2052 289 n
2052 258 m
2052 195 n
2056 258 m
2056 195 n
2038 258 m
2056 258 n
2038 195 m
2070 195 n
2133 240 m
2101 258 m
2101 195 n
2106 258 m
2106 195 n
2106 244 m
2115 253 n
2128 258 n
2137 258 n
2151 253 n
2155 244 n
2155 195 n
2137 258 m
2146 253 n
2151 244 n
2151 195 n
2155 244 m
2164 253 n
2178 258 n
2187 258 n
2200 253 n
2205 244 n
2205 195 n
2187 258 m
2196 253 n
2200 244 n
2200 195 n
2088 258 m
2106 258 n
2088 195 m
2119 195 n
2137 195 m
2169 195 n
2187 195 m
2218 195 n
2281 240 m
2245 231 m
2299 231 n
2299 240 n
2295 249 n
2290 253 n
2281 258 n
2268 258 n
2254 253 n
2245 244 n
2241 231 n
2241 222 n
2245 209 n
2254 200 n
2268 195 n
2277 195 n
2290 200 n
2299 209 n
2295 231 m
2295 244 n
2290 253 n
2268 258 m
2259 253 n
2250 244 n
2245 231 n
2245 222 n
2250 209 n
2259 200 n
2268 195 n
2367 240 m
2439 240 m
2434 307 m
2425 298 n
2416 285 n
2407 267 n
2403 244 n
2403 227 n
2407 204 n
2416 186 n
2425 173 n
2434 164 n
2425 298 m
2416 280 n
2412 267 n
2407 244 n
2407 227 n
2412 204 n
2416 191 n
2425 173 n
2502 240 m
2506 249 m
2511 258 n
2511 240 n
2506 249 n
2502 253 n
2493 258 n
2475 258 n
2466 253 n
2461 249 n
2461 240 n
2466 236 n
2475 231 n
2497 222 n
2506 218 n
2511 213 n
2461 244 m
2466 240 n
2475 236 n
2497 227 n
2506 222 n
2511 218 n
2511 204 n
2506 200 n
2497 195 n
2479 195 n
2470 200 n
2466 204 n
2461 213 n
2461 195 n
2466 204 n
2578 240 m
2538 307 m
2547 298 n
2556 285 n
2565 267 n
2569 244 n
2569 227 n
2565 204 n
2556 186 n
2547 173 n
2538 164 n
2547 298 m
2556 280 n
2560 267 n
2565 244 n
2565 227 n
2560 204 n
2556 191 n
2547 173 n
46 1018 m
140 1018 n
46 1022 m
140 1022 n
91 1022 m
82 1031 n
77 1045 n
77 1053 n
82 1067 n
91 1071 n
140 1071 n
77 1053 m
82 1062 n
91 1067 n
140 1067 n
46 1004 m
46 1022 n
140 1004 m
140 1036 n
140 1053 m
140 1085 n
95 1148 m
104 1112 m
104 1166 n
95 1166 n
86 1161 n
82 1157 n
77 1148 n
77 1134 n
82 1121 n
91 1112 n
104 1107 n
113 1107 n
126 1112 n
135 1121 n
140 1134 n
140 1143 n
135 1157 n
126 1166 n
104 1161 m
91 1161 n
82 1157 n
77 1134 m
82 1125 n
91 1116 n
104 1112 n
113 1112 n
126 1116 n
135 1125 n
140 1134 n
95 1233 m
46 1202 m
50 1197 n
55 1202 n
50 1206 n
46 1202 n
77 1202 m
140 1202 n
77 1206 m
140 1206 n
77 1188 m
77 1206 n
140 1188 m
140 1220 n
95 1283 m
77 1265 m
82 1256 n
86 1251 n
95 1247 n
104 1247 n
113 1251 n
117 1256 n
122 1265 n
122 1274 n
117 1283 n
113 1287 n
104 1292 n
95 1292 n
86 1287 n
82 1283 n
77 1274 n
77 1265 n
82 1256 m
91 1251 n
108 1251 n
117 1256 n
117 1283 m
108 1287 n
91 1287 n
82 1283 n
86 1287 m
82 1292 n
77 1301 n
82 1301 n
82 1292 n
113 1251 m
117 1247 n
126 1242 n
131 1242 n
140 1247 n
144 1260 n
144 1283 n
149 1296 n
153 1301 n
131 1242 m
135 1247 n
140 1260 n
140 1283 n
144 1296 n
153 1301 n
158 1301 n
167 1296 n
171 1283 n
171 1256 n
167 1242 n
158 1238 n
153 1238 n
144 1242 n
140 1256 n
95 1368 m
46 1337 m
140 1337 n
46 1341 m
140 1341 n
91 1341 m
82 1350 n
77 1364 n
77 1373 n
82 1386 n
91 1391 n
140 1391 n
77 1373 m
82 1382 n
91 1386 n
140 1386 n
46 1323 m
46 1341 n
140 1323 m
140 1355 n
140 1373 m
140 1404 n
95 1467 m
46 1436 m
122 1436 n
135 1440 n
140 1449 n
140 1458 n
135 1467 n
126 1472 n
46 1440 m
122 1440 n
135 1445 n
140 1449 n
77 1422 m
77 1458 n
95 1535 m
95 1607 m
28 1602 m
37 1593 n
50 1584 n
68 1575 n
91 1571 n
108 1571 n
131 1575 n
149 1584 n
162 1593 n
171 1602 n
37 1593 m
55 1584 n
68 1580 n
91 1575 n
108 1575 n
131 1580 n
144 1584 n
162 1593 n
95 1670 m
77 1638 m
140 1638 n
77 1643 m
140 1643 n
91 1643 m
82 1652 n
77 1665 n
77 1674 n
82 1688 n
91 1692 n
140 1692 n
77 1674 m
82 1683 n
91 1688 n
140 1688 n
91 1692 m
82 1701 n
77 1715 n
77 1724 n
82 1737 n
91 1742 n
140 1742 n
77 1724 m
82 1733 n
91 1737 n
140 1737 n
77 1625 m
77 1643 n
140 1625 m
140 1656 n
140 1674 m
140 1706 n
140 1724 m
140 1755 n
95 1818 m
28 1778 m
37 1787 n
50 1796 n
68 1805 n
91 1809 n
108 1809 n
131 1805 n
149 1796 n
162 1787 n
171 1778 n
37 1787 m
55 1796 n
68 1800 n
91 1805 n
108 1805 n
131 1800 n
144 1796 n
162 1787 n
1 1 m
e
%%Trailer
EndPSPlot
