%!
%%Creator: fedora:wfreeman(Walter)
%%Title: Unix plot file
%%CreationDate: Mon Sep  2 22:43:00 2024
%%DocumentFonts: Courier
%%EndComments
%%BoundingBox: 0 0 4096 4096
% Start of psplot.pro -- prolog for plot(5) translator
% Copyright (c) 1984,1985,1987 Adobe Systems Incorporated. All Rights Reserved. 
%              RESTRICTED RIGHTS LEGEND
% Use, duplication or disclosure by the Government is subject to
% restrictions as set forth in subdivision (b)(3)(ii) of the Rights in
% Technical Data and Computer Software Clause at 252.227-7013.
% Name of Contractor: Adobe Systems Incorporated
% Address:  1870 Embarcadero Road
%	  Palo Alto, California  94303
% RCS: $Header: psplot.pro,v 2.2 87/11/17 16:41:06 byron Rel $
save 50 dict begin /psplot exch def
/StartPSPlot
   {newpath 0 0 moveto 8 setlinewidth 0 setgray 1 setlinecap
    /imtx matrix currentmatrix def /dmtx matrix defaultmatrix def
    /fnt /Courier findfont def /smtx matrix def fnt 8 scalefont setfont}def
/solid {{}0}def
/dotted	{[2 nail 3.5 nail ] 0}def
/longdashed {[10 nail] 0}def
/shortdashed {[6 nail] 0}def
/dotdashed {[2 nail 6 nail 10 nail 6 nail] 0}def
/disconnected {{}0}def
/min {2 copy lt{pop}{exch pop}ifelse}def
/max {2 copy lt{exch pop}{pop}ifelse}def
/len {dup mul exch dup mul add sqrt}def
/nail {0 imtx dtransform len 0 idtransform len}def

/m {newpath moveto}def
/n {lineto currentpoint stroke moveto}def
/p {newpath moveto gsave 1 setlinecap solid setdash
    dmtx setmatrix .4 nail setlinewidth
    .05 0 idtransform rlineto stroke grestore}def
/l {moveto lineto currentpoint stroke moveto}def
/t {smtx currentmatrix pop imtx setmatrix show smtx setmatrix}def
/a {gsave newpath /y2 exch def /x2 exch def 
    /y1 exch def /x1 exch def /yc exch def /xc exch def
    /r x1 xc sub dup mul y1 yc sub dup mul add sqrt
       x2 xc sub dup mul y2 yc sub dup mul add sqrt add 2 div def
    /ang1 y1 yc sub x1 xc sub atan def
    /ang2 y2 yc sub x2 xc sub atan def
    xc yc r ang1 ang2 arc stroke grestore}def
/c {gsave newpath 0 360 arc stroke grestore}def
/e {gsave showpage grestore newpath 0 0 moveto}def
/f {load exec setdash}def
/s {/ury exch def /urx exch def /lly exch def /llx exch def
    imtx setmatrix newpath clippath pathbbox newpath
    /dury exch def /durx exch def /dlly exch def /dllx exch def
    /md durx dllx sub dury dlly sub min def
    /Mu urx llx sub ury lly sub max def
    36 144 translate .8 .8 scale
    dllx dlly translate md Mu div dup scale llx neg lly neg translate}def
/EndPSPlot {clear psplot end restore}def
StartPSPlot
%%EndProlog
%%Page: 1 1
0 0 4096 4096 s
/solid f
650 1413 m
651 1413 n
651 1414 n
652 1414 n
653 1415 n
653 1416 n
654 1416 n
655 1417 n
655 1417 n
656 1418 n
657 1419 n
657 1419 n
658 1420 n
658 1420 n
659 1421 n
660 1422 n
660 1422 n
661 1423 n
662 1423 n
662 1424 n
663 1425 n
664 1425 n
664 1426 n
665 1427 n
666 1427 n
666 1428 n
667 1428 n
668 1429 n
668 1430 n
669 1430 n
670 1431 n
670 1431 n
671 1432 n
671 1433 n
672 1433 n
673 1434 n
673 1434 n
674 1435 n
675 1436 n
675 1436 n
676 1437 n
677 1437 n
677 1438 n
678 1439 n
679 1439 n
679 1440 n
680 1441 n
681 1441 n
681 1442 n
682 1442 n
683 1443 n
683 1444 n
684 1444 n
684 1445 n
685 1445 n
686 1446 n
686 1447 n
687 1447 n
688 1448 n
688 1448 n
689 1449 n
690 1450 n
690 1450 n
691 1451 n
692 1452 n
692 1452 n
693 1453 n
694 1453 n
694 1454 n
695 1455 n
695 1455 n
696 1456 n
697 1456 n
697 1457 n
698 1458 n
699 1458 n
699 1459 n
700 1459 n
701 1460 n
701 1461 n
702 1461 n
703 1462 n
703 1462 n
704 1463 n
705 1464 n
705 1464 n
706 1465 n
707 1466 n
707 1466 n
708 1467 n
708 1467 n
709 1468 n
710 1469 n
710 1469 n
711 1470 n
712 1470 n
712 1471 n
713 1472 n
714 1472 n
714 1473 n
715 1473 n
716 1474 n
716 1475 n
717 1475 n
718 1476 n
718 1476 n
719 1477 n
720 1478 n
720 1478 n
721 1479 n
722 1480 n
722 1480 n
723 1481 n
723 1481 n
724 1482 n
725 1483 n
725 1483 n
726 1484 n
727 1484 n
727 1485 n
728 1486 n
729 1486 n
729 1487 n
730 1487 n
731 1488 n
731 1489 n
732 1489 n
733 1490 n
733 1491 n
734 1491 n
734 1492 n
735 1492 n
736 1493 n
736 1494 n
737 1494 n
738 1495 n
738 1495 n
739 1496 n
740 1497 n
740 1497 n
741 1498 n
742 1498 n
742 1499 n
743 1500 n
744 1500 n
744 1501 n
745 1501 n
746 1502 n
746 1503 n
747 1503 n
748 1504 n
748 1505 n
749 1505 n
749 1506 n
750 1506 n
751 1507 n
751 1508 n
752 1508 n
753 1509 n
753 1509 n
754 1510 n
755 1511 n
755 1511 n
756 1512 n
757 1512 n
757 1513 n
758 1514 n
759 1514 n
759 1515 n
760 1515 n
761 1516 n
761 1517 n
762 1517 n
762 1518 n
763 1519 n
764 1519 n
764 1520 n
765 1520 n
766 1521 n
766 1522 n
767 1522 n
768 1523 n
768 1523 n
769 1524 n
770 1525 n
770 1525 n
771 1526 n
772 1526 n
772 1527 n
773 1528 n
773 1528 n
774 1529 n
775 1529 n
775 1530 n
776 1531 n
777 1531 n
777 1532 n
778 1533 n
779 1533 n
779 1534 n
780 1534 n
781 1535 n
781 1536 n
782 1536 n
783 1537 n
783 1537 n
784 1538 n
785 1539 n
785 1539 n
786 1540 n
786 1540 n
787 1541 n
788 1542 n
788 1542 n
789 1543 n
790 1544 n
790 1544 n
791 1545 n
792 1545 n
792 1546 n
793 1547 n
794 1547 n
794 1548 n
795 1548 n
796 1549 n
796 1550 n
797 1550 n
798 1551 n
798 1551 n
799 1552 n
799 1553 n
800 1553 n
801 1554 n
801 1554 n
802 1555 n
803 1556 n
803 1556 n
804 1557 n
805 1558 n
805 1558 n
806 1559 n
807 1559 n
807 1560 n
808 1561 n
809 1561 n
809 1562 n
810 1562 n
811 1563 n
811 1564 n
812 1564 n
813 1565 n
813 1565 n
814 1566 n
814 1567 n
815 1567 n
816 1568 n
816 1569 n
817 1569 n
818 1570 n
818 1570 n
819 1571 n
820 1572 n
820 1572 n
821 1573 n
822 1573 n
822 1574 n
823 1575 n
824 1575 n
824 1576 n
825 1576 n
826 1577 n
826 1578 n
827 1578 n
827 1579 n
828 1579 n
829 1580 n
829 1581 n
830 1581 n
831 1582 n
831 1583 n
832 1583 n
833 1584 n
833 1584 n
834 1585 n
835 1586 n
835 1586 n
836 1587 n
837 1587 n
837 1588 n
838 1589 n
839 1589 n
839 1590 n
840 1590 n
840 1591 n
841 1592 n
842 1592 n
842 1593 n
843 1593 n
844 1594 n
844 1595 n
845 1595 n
846 1596 n
846 1597 n
847 1597 n
848 1598 n
848 1598 n
849 1599 n
850 1600 n
850 1600 n
851 1601 n
851 1601 n
852 1602 n
853 1603 n
853 1603 n
854 1604 n
855 1604 n
855 1605 n
856 1606 n
857 1606 n
857 1607 n
858 1608 n
859 1608 n
859 1609 n
860 1609 n
861 1610 n
861 1611 n
862 1611 n
863 1612 n
863 1612 n
864 1613 n
864 1614 n
865 1614 n
866 1615 n
866 1615 n
867 1616 n
868 1617 n
868 1617 n
869 1618 n
870 1618 n
870 1619 n
871 1620 n
872 1620 n
872 1621 n
873 1622 n
874 1622 n
874 1623 n
875 1623 n
876 1624 n
876 1625 n
877 1625 n
878 1626 n
878 1626 n
879 1627 n
879 1628 n
880 1628 n
881 1629 n
881 1629 n
882 1630 n
883 1631 n
883 1631 n
884 1632 n
885 1632 n
885 1633 n
886 1634 n
887 1634 n
887 1635 n
888 1636 n
889 1636 n
889 1637 n
890 1637 n
891 1638 n
891 1639 n
892 1639 n
892 1640 n
893 1640 n
894 1641 n
894 1642 n
895 1642 n
896 1643 n
896 1643 n
897 1644 n
898 1645 n
898 1645 n
899 1646 n
900 1646 n
900 1647 n
901 1648 n
902 1648 n
902 1649 n
903 1650 n
904 1650 n
904 1651 n
905 1651 n
905 1652 n
906 1653 n
907 1653 n
907 1654 n
908 1654 n
909 1655 n
909 1656 n
910 1656 n
911 1657 n
911 1657 n
912 1658 n
913 1659 n
913 1659 n
914 1660 n
915 1661 n
915 1661 n
916 1662 n
916 1662 n
917 1663 n
918 1664 n
918 1664 n
919 1665 n
920 1665 n
920 1666 n
921 1667 n
922 1667 n
922 1668 n
923 1668 n
924 1669 n
924 1670 n
925 1670 n
926 1671 n
926 1671 n
927 1672 n
928 1673 n
928 1673 n
929 1674 n
930 1675 n
930 1675 n
931 1676 n
931 1676 n
932 1677 n
933 1678 n
933 1678 n
934 1679 n
935 1679 n
935 1680 n
936 1681 n
937 1681 n
937 1682 n
938 1682 n
939 1683 n
939 1684 n
940 1684 n
941 1685 n
941 1685 n
942 1686 n
943 1687 n
943 1687 n
944 1688 n
944 1689 n
945 1689 n
946 1690 n
946 1690 n
947 1691 n
948 1692 n
948 1692 n
949 1693 n
950 1693 n
950 1694 n
951 1695 n
952 1695 n
952 1696 n
953 1696 n
954 1697 n
954 1698 n
955 1698 n
955 1699 n
956 1700 n
957 1700 n
957 1701 n
958 1701 n
959 1702 n
959 1703 n
960 1703 n
961 1704 n
961 1704 n
962 1705 n
963 1706 n
963 1706 n
964 1707 n
965 1707 n
965 1708 n
966 1709 n
967 1709 n
967 1710 n
968 1710 n
969 1711 n
969 1712 n
970 1712 n
970 1713 n
971 1714 n
972 1714 n
972 1715 n
973 1715 n
974 1716 n
974 1717 n
975 1717 n
976 1718 n
976 1718 n
977 1719 n
978 1720 n
978 1720 n
979 1721 n
980 1721 n
980 1722 n
981 1723 n
981 1723 n
982 1724 n
983 1725 n
983 1725 n
984 1726 n
985 1726 n
985 1727 n
986 1728 n
987 1728 n
987 1729 n
988 1729 n
989 1730 n
989 1731 n
990 1731 n
991 1732 n
991 1732 n
992 1733 n
993 1734 n
993 1734 n
994 1735 n
995 1735 n
995 1736 n
996 1737 n
996 1737 n
997 1738 n
998 1739 n
998 1739 n
999 1740 n
1000 1740 n
1000 1741 n
1001 1742 n
1002 1742 n
1002 1743 n
1003 1743 n
1004 1744 n
1004 1745 n
1005 1745 n
1006 1746 n
1006 1746 n
1007 1747 n
1008 1748 n
1008 1748 n
1009 1749 n
1009 1749 n
1010 1750 n
1011 1751 n
1011 1751 n
1012 1752 n
1013 1753 n
1013 1753 n
1014 1754 n
1015 1754 n
1015 1755 n
1016 1756 n
1017 1756 n
1017 1757 n
1018 1757 n
1019 1758 n
1019 1759 n
1020 1759 n
1020 1760 n
1021 1760 n
1022 1761 n
1022 1762 n
1023 1762 n
1024 1763 n
1024 1764 n
1025 1764 n
1026 1765 n
1026 1765 n
1027 1766 n
1028 1767 n
1028 1767 n
1029 1768 n
1030 1768 n
1030 1769 n
1031 1770 n
1032 1770 n
1032 1771 n
1033 1771 n
1034 1772 n
1034 1773 n
1035 1773 n
1035 1774 n
1036 1774 n
1037 1775 n
1037 1776 n
1038 1776 n
1039 1777 n
1039 1778 n
1040 1778 n
1041 1779 n
1041 1779 n
1042 1780 n
1043 1781 n
1043 1781 n
1044 1782 n
1045 1782 n
1045 1783 n
1046 1784 n
1046 1784 n
1047 1785 n
1048 1785 n
1048 1786 n
1049 1787 n
1050 1787 n
1050 1788 n
1051 1788 n
1052 1789 n
1052 1790 n
1053 1790 n
1054 1791 n
1054 1792 n
1055 1792 n
1056 1793 n
1056 1793 n
1057 1794 n
1058 1795 n
1058 1795 n
1059 1796 n
1060 1796 n
1060 1797 n
1061 1798 n
1061 1798 n
1062 1799 n
1063 1799 n
1063 1800 n
1064 1801 n
1065 1801 n
1065 1802 n
1066 1803 n
1067 1803 n
1067 1804 n
1068 1804 n
1069 1805 n
1069 1806 n
1070 1806 n
1071 1807 n
1071 1807 n
1072 1808 n
1073 1809 n
1073 1809 n
1074 1810 n
1074 1810 n
1075 1811 n
1076 1812 n
1076 1812 n
1077 1813 n
1078 1813 n
1078 1814 n
1079 1815 n
1080 1815 n
1080 1816 n
1081 1817 n
1082 1817 n
1082 1818 n
1083 1818 n
1084 1819 n
1084 1820 n
1085 1820 n
1085 1821 n
1086 1821 n
1087 1822 n
1087 1823 n
1088 1823 n
1089 1824 n
1089 1824 n
1090 1825 n
1091 1826 n
1091 1826 n
1092 1827 n
1093 1827 n
1093 1828 n
1094 1829 n
1095 1829 n
1095 1830 n
1096 1831 n
1097 1831 n
1097 1832 n
1098 1832 n
1099 1833 n
1099 1834 n
1100 1834 n
1100 1835 n
1101 1835 n
1102 1836 n
1102 1837 n
1103 1837 n
1104 1838 n
1104 1838 n
1105 1839 n
1106 1840 n
1106 1840 n
1107 1841 n
1108 1841 n
1108 1842 n
1109 1843 n
1110 1843 n
1110 1844 n
1111 1845 n
1111 1845 n
1112 1846 n
1113 1846 n
1113 1847 n
1114 1848 n
1115 1848 n
1115 1849 n
1116 1849 n
1117 1850 n
1117 1851 n
1118 1851 n
1119 1852 n
1119 1852 n
1120 1853 n
1121 1854 n
1121 1854 n
1122 1855 n
1123 1856 n
1123 1856 n
1124 1857 n
1125 1857 n
1125 1858 n
1126 1859 n
1126 1859 n
1127 1860 n
1128 1860 n
1128 1861 n
1129 1862 n
1130 1862 n
1130 1863 n
1131 1863 n
1132 1864 n
1132 1865 n
1133 1865 n
1134 1866 n
1134 1866 n
1135 1867 n
1136 1868 n
1136 1868 n
1137 1869 n
1138 1870 n
1138 1870 n
1139 1871 n
1139 1871 n
1140 1872 n
1141 1873 n
1141 1873 n
1142 1874 n
1143 1874 n
1143 1875 n
1144 1876 n
1145 1876 n
1145 1877 n
1146 1877 n
1147 1878 n
1147 1879 n
1148 1879 n
1149 1880 n
1149 1880 n
1150 1881 n
1150 1882 n
1151 1882 n
1152 1883 n
1152 1884 n
1153 1884 n
1154 1885 n
1154 1885 n
1155 1886 n
1156 1887 n
1156 1887 n
1157 1888 n
1158 1888 n
1158 1889 n
1159 1890 n
1160 1890 n
1160 1891 n
1161 1891 n
1162 1892 n
1162 1893 n
1163 1893 n
1164 1894 n
1164 1895 n
1165 1895 n
1165 1896 n
1166 1896 n
1167 1897 n
1167 1898 n
1168 1898 n
1169 1899 n
1169 1899 n
1170 1900 n
1171 1901 n
1171 1901 n
1172 1902 n
1173 1902 n
1173 1903 n
1174 1904 n
1175 1904 n
1175 1905 n
1176 1905 n
1177 1906 n
1177 1907 n
1178 1907 n
1178 1908 n
1179 1909 n
1180 1909 n
1180 1910 n
1181 1910 n
1182 1911 n
1182 1912 n
1183 1912 n
1184 1913 n
1184 1913 n
1185 1914 n
1186 1915 n
1186 1915 n
1187 1916 n
1188 1916 n
1188 1917 n
1189 1918 n
1190 1918 n
1190 1919 n
1191 1920 n
1191 1920 n
1192 1921 n
1193 1921 n
1193 1922 n
1194 1923 n
1195 1923 n
1195 1924 n
1196 1924 n
1197 1925 n
1197 1926 n
1198 1926 n
1199 1927 n
1199 1927 n
1200 1928 n
1201 1929 n
1201 1929 n
1202 1930 n
1203 1930 n
1203 1931 n
1204 1932 n
1204 1932 n
1205 1933 n
1206 1934 n
1206 1934 n
1207 1935 n
1208 1935 n
1208 1936 n
1209 1937 n
1210 1937 n
1210 1938 n
1211 1938 n
1212 1939 n
1212 1940 n
1213 1940 n
1214 1941 n
1214 1941 n
1215 1942 n
1215 1943 n
1216 1943 n
1217 1944 n
1217 1944 n
1218 1945 n
1219 1946 n
1219 1946 n
1220 1947 n
1221 1948 n
1221 1948 n
1222 1949 n
1223 1949 n
1223 1950 n
1224 1951 n
1225 1951 n
1225 1952 n
1226 1952 n
1227 1953 n
1227 1954 n
1228 1954 n
1228 1955 n
1229 1955 n
1230 1956 n
1230 1957 n
1231 1957 n
1232 1958 n
1232 1958 n
1233 1959 n
1234 1960 n
1234 1960 n
1235 1961 n
1236 1962 n
1236 1962 n
1237 1963 n
1238 1963 n
1238 1964 n
1239 1965 n
1240 1965 n
1240 1966 n
1241 1966 n
1242 1967 n
1242 1968 n
1243 1968 n
1243 1969 n
1244 1969 n
1245 1970 n
1245 1971 n
1246 1971 n
1247 1972 n
1247 1973 n
1248 1973 n
1249 1974 n
1249 1974 n
1250 1975 n
1251 1976 n
1251 1976 n
1252 1977 n
1253 1977 n
1253 1978 n
1254 1979 n
1255 1979 n
1255 1980 n
1256 1980 n
1256 1981 n
1257 1982 n
1258 1982 n
1258 1983 n
1259 1983 n
1260 1984 n
1260 1985 n
1261 1985 n
1262 1986 n
1262 1987 n
1263 1987 n
1264 1988 n
1264 1988 n
1265 1989 n
1266 1990 n
1266 1990 n
1267 1991 n
1268 1991 n
1268 1992 n
1269 1993 n
1269 1993 n
1270 1994 n
1271 1994 n
1271 1995 n
1272 1996 n
1273 1996 n
1273 1997 n
1274 1998 n
1275 1998 n
1275 1999 n
1276 1999 n
1277 2000 n
1277 2001 n
1278 2001 n
1279 2002 n
1279 2002 n
1280 2003 n
1280 2004 n
1281 2004 n
1282 2005 n
1282 2005 n
1283 2006 n
1284 2007 n
1284 2007 n
1285 2008 n
1286 2008 n
1286 2009 n
1287 2010 n
1288 2010 n
1288 2011 n
1289 2012 n
1290 2012 n
1290 2013 n
1291 2013 n
1292 2014 n
1292 2015 n
1293 2015 n
1293 2016 n
1294 2016 n
1295 2017 n
1295 2018 n
1296 2018 n
1297 2019 n
1297 2019 n
1298 2020 n
1299 2021 n
1299 2021 n
1300 2022 n
1301 2022 n
1301 2022 n
1302 2022 n
1303 2021 n
1303 2021 n
1304 2020 n
1305 2020 n
1305 2020 n
1306 2019 n
1307 2019 n
1307 2018 n
1308 2018 n
1308 2018 n
1309 2017 n
1310 2017 n
1310 2016 n
1311 2016 n
1312 2016 n
1312 2015 n
1313 2015 n
1314 2014 n
1314 2014 n
1315 2014 n
1316 2013 n
1316 2013 n
1317 2012 n
1318 2012 n
1318 2012 n
1319 2011 n
1320 2011 n
1320 2010 n
1321 2010 n
1321 2009 n
1322 2009 n
1323 2009 n
1323 2008 n
1324 2008 n
1325 2007 n
1325 2007 n
1326 2007 n
1327 2006 n
1327 2006 n
1328 2005 n
1329 2005 n
1329 2005 n
1330 2004 n
1331 2004 n
1331 2003 n
1332 2003 n
1333 2003 n
1333 2002 n
1334 2002 n
1334 2001 n
1335 2001 n
1336 2001 n
1336 2000 n
1337 2000 n
1338 1999 n
1338 1999 n
1339 1999 n
1340 1998 n
1340 1998 n
1341 1997 n
1342 1997 n
1342 1996 n
1343 1996 n
1344 1996 n
1344 1995 n
1345 1995 n
1345 1994 n
1346 1994 n
1347 1994 n
1347 1993 n
1348 1993 n
1349 1992 n
1349 1992 n
1350 1992 n
1351 1991 n
1351 1991 n
1352 1990 n
1353 1990 n
1353 1990 n
1354 1989 n
1355 1989 n
1355 1988 n
1356 1988 n
1357 1988 n
1357 1987 n
1358 1987 n
1358 1986 n
1359 1986 n
1360 1986 n
1360 1985 n
1361 1985 n
1362 1984 n
1362 1984 n
1363 1983 n
1364 1983 n
1364 1983 n
1365 1982 n
1366 1982 n
1366 1981 n
1367 1981 n
1368 1981 n
1368 1980 n
1369 1980 n
1370 1979 n
1370 1979 n
1371 1979 n
1372 1978 n
1372 1978 n
1373 1977 n
1373 1977 n
1374 1977 n
1375 1976 n
1375 1976 n
1376 1975 n
1377 1975 n
1377 1975 n
1378 1974 n
1379 1974 n
1379 1973 n
1380 1973 n
1381 1973 n
1381 1972 n
1382 1972 n
1383 1971 n
1383 1971 n
1384 1970 n
1385 1970 n
1385 1970 n
1386 1969 n
1386 1969 n
1387 1968 n
1388 1968 n
1388 1968 n
1389 1967 n
1390 1967 n
1390 1966 n
1391 1966 n
1392 1966 n
1392 1965 n
1393 1965 n
1394 1964 n
1394 1964 n
1395 1964 n
1396 1963 n
1396 1963 n
1397 1962 n
1398 1962 n
1398 1962 n
1399 1961 n
1399 1961 n
1400 1960 n
1401 1960 n
1401 1960 n
1402 1959 n
1403 1959 n
1403 1958 n
1404 1958 n
1405 1957 n
1405 1957 n
1406 1957 n
1407 1956 n
1407 1956 n
1408 1955 n
1409 1955 n
1409 1955 n
1410 1954 n
1410 1954 n
1411 1953 n
1412 1953 n
1412 1953 n
1413 1952 n
1414 1952 n
1414 1951 n
1415 1951 n
1416 1951 n
1416 1950 n
1417 1950 n
1418 1949 n
1418 1949 n
1419 1949 n
1420 1948 n
1420 1948 n
1421 1947 n
1422 1947 n
1422 1947 n
1423 1946 n
1423 1946 n
1424 1945 n
1425 1945 n
1425 1944 n
1426 1944 n
1427 1944 n
1427 1943 n
1428 1943 n
1429 1942 n
1429 1942 n
1430 1942 n
1431 1941 n
1431 1941 n
1432 1940 n
1433 1940 n
1433 1940 n
1434 1939 n
1435 1939 n
1435 1938 n
1436 1938 n
1437 1938 n
1437 1937 n
1438 1937 n
1438 1936 n
1439 1936 n
1440 1936 n
1440 1935 n
1441 1935 n
1442 1934 n
1442 1934 n
1443 1934 n
1444 1933 n
1444 1933 n
1445 1932 n
1446 1932 n
1446 1931 n
1447 1931 n
1448 1931 n
1448 1930 n
1449 1930 n
1450 1929 n
1450 1929 n
1451 1929 n
1451 1928 n
1452 1928 n
1453 1927 n
1453 1927 n
1454 1927 n
1455 1926 n
1455 1926 n
1456 1925 n
1457 1925 n
1457 1925 n
1458 1924 n
1459 1924 n
1459 1923 n
1460 1923 n
1461 1923 n
1461 1922 n
1462 1922 n
1463 1921 n
1463 1921 n
1464 1921 n
1464 1920 n
1465 1920 n
1466 1919 n
1466 1919 n
1467 1918 n
1468 1918 n
1468 1918 n
1469 1917 n
1470 1917 n
1470 1916 n
1471 1916 n
1472 1916 n
1472 1915 n
1473 1915 n
1474 1914 n
1474 1914 n
1475 1914 n
1475 1913 n
1476 1913 n
1477 1912 n
1477 1912 n
1478 1912 n
1479 1911 n
1479 1911 n
1480 1910 n
1481 1910 n
1481 1910 n
1482 1909 n
1483 1909 n
1483 1908 n
1484 1908 n
1485 1908 n
1485 1907 n
1486 1907 n
1487 1906 n
1487 1906 n
1488 1905 n
1488 1905 n
1489 1905 n
1490 1904 n
1490 1904 n
1491 1903 n
1492 1903 n
1492 1903 n
1493 1902 n
1494 1902 n
1494 1901 n
1495 1901 n
1496 1901 n
1496 1900 n
1497 1900 n
1498 1899 n
1498 1899 n
1499 1899 n
1500 1898 n
1500 1898 n
1501 1897 n
1502 1897 n
1502 1897 n
1503 1896 n
1503 1896 n
1504 1895 n
1505 1895 n
1505 1895 n
1506 1894 n
1507 1894 n
1507 1893 n
1508 1893 n
1509 1892 n
1509 1892 n
1510 1892 n
1511 1891 n
1511 1891 n
1512 1890 n
1513 1890 n
1513 1890 n
1514 1889 n
1515 1889 n
1515 1888 n
1516 1888 n
1516 1888 n
1517 1887 n
1518 1887 n
1518 1886 n
1519 1886 n
1520 1886 n
1520 1885 n
1521 1885 n
1522 1884 n
1522 1884 n
1523 1884 n
1524 1883 n
1524 1883 n
1525 1882 n
1526 1882 n
1526 1882 n
1527 1881 n
1528 1881 n
1528 1880 n
1529 1880 n
1529 1879 n
1530 1879 n
1531 1879 n
1531 1878 n
1532 1878 n
1533 1877 n
1533 1877 n
1534 1877 n
1535 1876 n
1535 1876 n
1536 1875 n
1537 1875 n
1537 1875 n
1538 1874 n
1539 1874 n
1539 1873 n
1540 1873 n
1540 1873 n
1541 1872 n
1542 1872 n
1542 1871 n
1543 1871 n
1544 1871 n
1544 1870 n
1545 1870 n
1546 1869 n
1546 1869 n
1547 1869 n
1548 1868 n
1548 1868 n
1549 1867 n
1550 1867 n
1550 1866 n
1551 1866 n
1552 1866 n
1552 1865 n
1553 1865 n
1553 1864 n
1554 1864 n
1555 1864 n
1555 1863 n
1556 1863 n
1557 1862 n
1557 1862 n
1558 1862 n
1559 1861 n
1559 1861 n
1560 1860 n
1561 1860 n
1561 1860 n
1562 1859 n
1563 1859 n
1563 1858 n
1564 1858 n
1565 1858 n
1565 1857 n
1566 1857 n
1567 1856 n
1567 1856 n
1568 1856 n
1568 1855 n
1569 1855 n
1570 1854 n
1570 1854 n
1571 1853 n
1572 1853 n
1572 1853 n
1573 1852 n
1574 1852 n
1574 1851 n
1575 1851 n
1576 1851 n
1576 1850 n
1577 1850 n
1578 1849 n
1578 1849 n
1579 1849 n
1580 1848 n
1580 1848 n
1581 1847 n
1581 1847 n
1582 1847 n
1583 1846 n
1583 1846 n
1584 1845 n
1585 1845 n
1585 1845 n
1586 1844 n
1587 1844 n
1587 1843 n
1588 1843 n
1589 1843 n
1589 1842 n
1590 1842 n
1591 1841 n
1591 1841 n
1592 1840 n
1593 1840 n
1593 1840 n
1594 1839 n
1594 1839 n
1595 1838 n
1596 1838 n
1596 1838 n
1597 1837 n
1598 1837 n
1598 1836 n
1599 1836 n
1600 1836 n
1600 1835 n
1601 1835 n
1602 1834 n
1602 1834 n
1603 1834 n
1604 1833 n
1604 1833 n
1605 1832 n
1605 1832 n
1606 1832 n
1607 1831 n
1607 1831 n
1608 1830 n
1609 1830 n
1609 1830 n
1610 1829 n
1611 1829 n
1611 1828 n
1612 1828 n
1613 1827 n
1613 1827 n
1614 1827 n
1615 1826 n
1615 1826 n
1616 1825 n
1617 1825 n
1617 1825 n
1618 1824 n
1618 1824 n
1619 1823 n
1620 1823 n
1620 1823 n
1621 1822 n
1622 1822 n
1622 1821 n
1623 1821 n
1624 1821 n
1624 1820 n
1625 1820 n
1626 1819 n
1626 1819 n
1627 1819 n
1628 1818 n
1628 1818 n
1629 1817 n
1630 1817 n
1630 1817 n
1631 1816 n
1632 1816 n
1632 1815 n
1633 1815 n
1633 1814 n
1634 1814 n
1635 1814 n
1635 1813 n
1636 1813 n
1637 1812 n
1637 1812 n
1638 1812 n
1639 1811 n
1639 1811 n
1640 1810 n
1641 1810 n
1641 1810 n
1642 1809 n
1643 1809 n
1643 1808 n
1644 1808 n
1645 1808 n
1645 1807 n
1646 1807 n
1646 1806 n
1647 1806 n
1648 1806 n
1648 1805 n
1649 1805 n
1650 1804 n
1650 1804 n
1651 1804 n
1652 1803 n
1652 1803 n
1653 1802 n
1654 1802 n
1654 1801 n
1655 1801 n
1656 1801 n
1656 1800 n
1657 1800 n
1658 1799 n
1658 1799 n
1659 1799 n
1659 1798 n
1660 1798 n
1661 1797 n
1661 1797 n
1662 1797 n
1663 1796 n
1663 1796 n
1664 1795 n
1665 1795 n
1665 1795 n
1666 1794 n
1667 1794 n
1667 1793 n
1668 1793 n
1669 1793 n
1669 1792 n
1670 1792 n
1670 1791 n
1671 1791 n
1672 1791 n
1672 1790 n
1673 1790 n
1674 1789 n
1674 1789 n
1675 1788 n
1676 1788 n
1676 1788 n
1677 1787 n
1678 1787 n
1678 1786 n
1679 1786 n
1680 1786 n
1680 1785 n
1681 1785 n
1682 1784 n
1682 1784 n
1683 1784 n
1683 1783 n
1684 1783 n
1685 1782 n
1685 1782 n
1686 1782 n
1687 1781 n
1687 1781 n
1688 1780 n
1689 1780 n
1689 1780 n
1690 1779 n
1691 1779 n
1691 1778 n
1692 1778 n
1693 1778 n
1693 1777 n
1694 1777 n
1695 1776 n
1695 1776 n
1696 1775 n
1697 1775 n
1697 1775 n
1698 1774 n
1698 1774 n
1699 1773 n
1700 1773 n
1700 1773 n
1701 1772 n
1702 1772 n
1702 1771 n
1703 1771 n
1704 1771 n
1704 1770 n
1705 1770 n
1706 1769 n
1706 1769 n
1707 1769 n
1708 1768 n
1708 1768 n
1709 1767 n
1709 1767 n
1710 1767 n
1711 1766 n
1711 1766 n
1712 1765 n
1713 1765 n
1713 1765 n
1714 1764 n
1715 1764 n
1715 1763 n
1716 1763 n
1717 1762 n
1717 1762 n
1718 1762 n
1719 1761 n
1719 1761 n
1720 1760 n
1721 1760 n
1721 1760 n
1722 1759 n
1723 1759 n
1723 1758 n
1724 1758 n
1724 1758 n
1725 1757 n
1726 1757 n
1726 1756 n
1727 1756 n
1728 1756 n
1728 1755 n
1729 1755 n
1730 1754 n
1730 1754 n
1731 1754 n
1732 1753 n
1732 1753 n
1733 1752 n
1734 1752 n
1734 1752 n
1735 1751 n
1736 1751 n
1736 1750 n
1737 1750 n
1737 1749 n
1738 1749 n
1739 1749 n
1739 1748 n
1740 1748 n
1741 1747 n
1741 1747 n
1742 1747 n
1743 1746 n
1743 1746 n
1744 1745 n
1745 1745 n
1745 1745 n
1746 1744 n
1747 1744 n
1747 1743 n
1748 1743 n
1748 1743 n
1749 1742 n
1750 1742 n
1750 1741 n
1751 1741 n
1752 1741 n
1752 1740 n
1753 1740 n
1754 1739 n
1754 1739 n
1755 1739 n
1756 1738 n
1756 1738 n
1757 1737 n
1758 1737 n
1758 1736 n
1759 1736 n
1760 1736 n
1760 1735 n
1761 1735 n
1762 1734 n
1762 1734 n
1763 1734 n
1763 1733 n
1764 1733 n
1765 1732 n
1765 1732 n
1766 1732 n
1767 1731 n
1767 1731 n
1768 1730 n
1769 1730 n
1769 1730 n
1770 1729 n
1771 1729 n
1771 1728 n
1772 1728 n
1773 1728 n
1773 1727 n
1774 1727 n
1774 1726 n
1775 1726 n
1776 1726 n
1776 1725 n
1777 1725 n
1778 1724 n
1778 1724 n
1779 1723 n
1780 1723 n
1780 1723 n
1781 1722 n
1782 1722 n
1782 1721 n
1783 1721 n
1784 1721 n
1784 1720 n
1785 1720 n
1786 1719 n
1786 1719 n
1787 1719 n
1788 1718 n
1788 1718 n
1789 1717 n
1789 1717 n
1790 1717 n
1791 1716 n
1791 1716 n
1792 1715 n
1793 1715 n
1793 1715 n
1794 1714 n
1795 1714 n
1795 1713 n
1796 1713 n
1797 1713 n
1797 1712 n
1798 1712 n
1799 1711 n
1799 1711 n
1800 1710 n
1801 1710 n
1801 1710 n
1802 1709 n
1802 1709 n
1803 1708 n
1804 1708 n
1804 1708 n
1805 1707 n
1806 1707 n
1806 1706 n
1807 1706 n
1808 1706 n
1808 1705 n
1809 1705 n
1810 1704 n
1810 1704 n
1811 1704 n
1812 1703 n
1812 1703 n
1813 1702 n
1813 1702 n
1814 1702 n
1815 1701 n
1815 1701 n
1816 1700 n
1817 1700 n
1817 1700 n
1818 1699 n
1819 1699 n
1819 1698 n
1820 1698 n
1821 1697 n
1821 1697 n
1822 1697 n
1823 1696 n
1823 1696 n
1824 1695 n
1825 1695 n
1825 1695 n
1826 1694 n
1827 1694 n
1827 1693 n
1828 1693 n
1828 1693 n
1829 1692 n
1830 1692 n
1830 1691 n
1831 1691 n
1832 1691 n
1832 1690 n
1833 1690 n
1834 1689 n
1834 1689 n
1835 1689 n
1836 1688 n
1836 1688 n
1837 1687 n
1838 1687 n
1838 1687 n
1839 1686 n
1839 1686 n
1840 1685 n
1841 1685 n
1841 1684 n
1842 1684 n
1843 1684 n
1843 1683 n
1844 1683 n
1845 1682 n
1845 1682 n
1846 1682 n
1847 1681 n
1847 1681 n
1848 1680 n
1849 1680 n
1849 1680 n
1850 1679 n
1851 1679 n
1851 1678 n
1852 1678 n
1853 1678 n
1853 1677 n
1854 1677 n
1854 1676 n
1855 1676 n
1856 1676 n
1856 1675 n
1857 1675 n
1858 1674 n
1858 1674 n
1859 1674 n
1860 1673 n
1860 1673 n
1861 1672 n
1862 1672 n
1862 1671 n
1863 1671 n
1864 1671 n
1864 1670 n
1865 1670 n
1866 1669 n
1866 1669 n
1867 1669 n
1867 1668 n
1868 1668 n
1869 1667 n
1869 1667 n
1870 1667 n
1871 1666 n
1871 1666 n
1872 1665 n
1873 1665 n
1873 1665 n
1874 1664 n
1875 1664 n
1875 1663 n
1876 1663 n
1877 1663 n
1877 1662 n
1878 1662 n
1878 1661 n
1879 1661 n
1880 1661 n
1880 1660 n
1881 1660 n
1882 1659 n
1882 1659 n
1883 1658 n
1884 1658 n
1884 1658 n
1885 1657 n
1886 1657 n
1886 1656 n
1887 1656 n
1888 1656 n
1888 1655 n
1889 1655 n
1890 1654 n
1890 1654 n
1891 1654 n
1892 1653 n
1892 1653 n
1893 1652 n
1893 1652 n
1894 1652 n
1895 1651 n
1895 1651 n
1896 1650 n
1897 1650 n
1897 1650 n
1898 1649 n
1899 1649 n
1899 1648 n
1900 1648 n
1901 1648 n
1901 1647 n
1902 1647 n
1903 1646 n
1903 1646 n
1904 1645 n
1904 1645 n
1905 1645 n
1906 1644 n
1906 1644 n
1907 1643 n
1908 1643 n
1908 1643 n
1909 1642 n
1910 1642 n
1910 1641 n
1911 1641 n
1912 1641 n
1912 1640 n
1913 1640 n
1914 1639 n
1914 1639 n
1915 1639 n
1916 1638 n
1916 1638 n
1917 1637 n
1918 1637 n
1918 1637 n
1919 1636 n
1919 1636 n
1920 1635 n
1921 1635 n
1921 1635 n
1922 1634 n
1923 1634 n
1923 1633 n
1924 1633 n
1925 1632 n
1925 1632 n
1926 1632 n
1927 1631 n
1927 1631 n
1928 1630 n
1929 1630 n
1929 1630 n
1930 1629 n
1931 1629 n
1931 1628 n
1932 1628 n
1932 1628 n
1933 1627 n
1934 1627 n
1934 1626 n
1935 1626 n
1936 1626 n
1936 1625 n
1937 1625 n
1938 1624 n
1938 1624 n
1939 1624 n
1940 1623 n
1940 1623 n
1941 1622 n
1942 1622 n
1942 1622 n
1943 1621 n
1943 1621 n
1944 1620 n
1945 1620 n
1945 1619 n
1946 1619 n
1947 1619 n
1947 1618 n
1948 1618 n
1949 1617 n
1949 1617 n
1950 1617 n
1951 1616 n
1951 1616 n
1952 1615 n
1953 1615 n
1953 1615 n
1954 1614 n
1955 1614 n
1955 1613 n
1956 1613 n
1957 1613 n
1957 1612 n
1958 1612 n
1958 1611 n
1959 1611 n
1960 1611 n
1960 1610 n
1961 1610 n
1962 1609 n
1962 1609 n
1963 1609 n
1964 1608 n
1964 1608 n
1965 1607 n
1966 1607 n
1966 1606 n
1967 1606 n
1968 1606 n
1968 1605 n
1969 1605 n
1969 1604 n
1970 1604 n
1971 1604 n
1971 1603 n
1972 1603 n
1973 1602 n
1973 1602 n
1974 1602 n
1975 1601 n
1975 1601 n
1976 1600 n
1977 1600 n
1977 1600 n
1978 1599 n
1979 1599 n
1979 1598 n
1980 1598 n
1981 1598 n
1981 1597 n
1982 1597 n
1983 1596 n
1983 1596 n
1984 1596 n
1984 1595 n
1985 1595 n
1986 1594 n
1986 1594 n
1987 1593 n
1988 1593 n
1988 1593 n
1989 1592 n
1990 1592 n
1990 1591 n
1991 1591 n
1992 1591 n
1992 1590 n
1993 1590 n
1994 1589 n
1994 1589 n
1995 1589 n
1996 1588 n
1996 1588 n
1997 1587 n
1997 1587 n
1998 1587 n
1999 1586 n
1999 1586 n
2000 1585 n
2001 1585 n
2001 1585 n
2002 1584 n
2003 1584 n
2003 1583 n
2004 1583 n
2005 1583 n
2005 1582 n
2006 1582 n
2007 1581 n
2007 1581 n
2008 1580 n
2008 1580 n
2009 1580 n
2010 1579 n
2010 1579 n
2011 1578 n
2012 1578 n
2012 1578 n
2013 1577 n
2014 1577 n
2014 1576 n
2015 1576 n
2016 1576 n
2016 1575 n
2017 1575 n
2018 1574 n
2018 1574 n
2019 1574 n
2020 1573 n
2020 1573 n
2021 1572 n
2022 1572 n
2022 1572 n
2023 1571 n
2023 1571 n
2024 1570 n
2025 1570 n
2025 1570 n
2026 1569 n
2027 1569 n
2027 1568 n
2028 1568 n
2029 1567 n
2029 1567 n
2030 1567 n
2031 1566 n
2031 1566 n
2032 1565 n
2033 1565 n
2033 1565 n
2034 1564 n
2034 1564 n
2035 1563 n
2036 1563 n
2036 1563 n
2037 1562 n
2038 1562 n
2038 1561 n
2039 1561 n
2040 1561 n
2040 1560 n
2041 1560 n
2042 1559 n
2042 1559 n
2043 1559 n
2044 1558 n
2044 1558 n
2045 1557 n
2046 1557 n
2046 1557 n
2047 1556 n
2048 1556 n
2048 1555 n
2049 1555 n
2049 1554 n
2050 1554 n
2051 1554 n
2051 1553 n
2052 1553 n
2053 1552 n
2053 1552 n
2054 1552 n
2055 1551 n
2055 1551 n
2056 1550 n
2057 1550 n
2057 1550 n
2058 1549 n
2059 1549 n
2059 1548 n
2060 1548 n
2061 1548 n
2061 1547 n
2062 1547 n
2062 1546 n
2063 1546 n
2064 1546 n
2064 1545 n
2065 1545 n
2066 1544 n
2066 1544 n
2067 1544 n
2068 1543 n
2068 1543 n
2069 1542 n
2070 1542 n
2070 1541 n
2071 1541 n
2072 1541 n
2072 1540 n
2073 1540 n
2073 1539 n
2074 1539 n
2075 1539 n
2075 1538 n
2076 1538 n
2077 1537 n
2077 1537 n
2078 1537 n
2079 1536 n
2079 1536 n
2080 1535 n
2081 1535 n
2081 1535 n
2082 1534 n
2083 1534 n
2083 1533 n
2084 1533 n
2085 1533 n
2085 1532 n
2086 1532 n
2087 1531 n
2087 1531 n
2088 1531 n
2088 1530 n
2089 1530 n
2090 1529 n
2090 1529 n
2091 1528 n
2092 1528 n
2092 1528 n
2093 1527 n
2094 1527 n
2094 1526 n
2095 1526 n
2096 1526 n
2096 1525 n
2097 1525 n
2098 1524 n
2098 1524 n
2099 1524 n
2099 1523 n
2100 1523 n
2101 1522 n
2101 1522 n
2102 1522 n
2103 1521 n
2103 1521 n
2104 1520 n
2105 1520 n
2105 1520 n
2106 1519 n
2107 1519 n
2107 1518 n
2108 1518 n
2109 1518 n
2109 1517 n
2110 1517 n
2111 1516 n
2111 1516 n
2112 1515 n
2113 1515 n
2113 1515 n
2114 1514 n
2114 1514 n
2115 1513 n
2116 1513 n
2116 1513 n
2117 1512 n
2118 1512 n
2118 1511 n
2119 1511 n
2120 1511 n
2120 1510 n
2121 1510 n
2122 1509 n
2122 1509 n
2123 1509 n
2124 1508 n
2124 1508 n
2125 1507 n
2126 1507 n
2126 1507 n
2127 1506 n
2127 1506 n
2128 1505 n
2129 1505 n
2129 1505 n
2130 1504 n
2131 1504 n
2131 1503 n
2132 1503 n
2133 1502 n
2133 1502 n
2134 1502 n
2135 1501 n
2135 1501 n
2136 1500 n
2137 1500 n
2137 1500 n
2138 1499 n
2138 1499 n
2139 1498 n
2140 1498 n
2140 1498 n
2141 1497 n
2142 1497 n
2142 1496 n
2143 1496 n
2144 1496 n
2144 1495 n
2145 1495 n
2146 1494 n
2146 1494 n
2147 1494 n
2148 1493 n
2148 1493 n
2149 1492 n
2150 1492 n
2150 1492 n
2151 1491 n
2152 1491 n
2152 1490 n
2153 1490 n
2153 1489 n
2154 1489 n
2155 1489 n
2155 1488 n
2156 1488 n
2157 1487 n
2157 1487 n
2158 1487 n
2159 1486 n
2159 1486 n
2160 1485 n
2161 1485 n
2161 1485 n
2162 1484 n
2163 1484 n
2163 1483 n
2164 1483 n
2164 1483 n
2165 1482 n
2166 1482 n
2166 1481 n
2167 1481 n
2168 1481 n
2168 1480 n
2169 1480 n
2170 1479 n
2170 1479 n
2171 1479 n
2172 1478 n
2172 1478 n
2173 1477 n
2174 1477 n
2174 1476 n
2175 1476 n
2176 1476 n
2176 1475 n
2177 1475 n
2178 1474 n
2178 1474 n
2179 1474 n
2179 1473 n
2180 1473 n
2181 1472 n
2181 1472 n
2182 1472 n
2183 1471 n
2183 1471 n
2184 1470 n
2185 1470 n
2185 1470 n
2186 1469 n
2187 1469 n
2187 1468 n
2188 1468 n
2189 1468 n
2189 1467 n
2190 1467 n
2191 1466 n
2191 1466 n
2192 1466 n
2192 1465 n
2193 1465 n
2194 1464 n
2194 1464 n
2195 1463 n
2196 1463 n
2196 1463 n
2197 1462 n
2198 1462 n
2198 1461 n
2199 1461 n
2200 1461 n
2200 1460 n
2201 1460 n
2202 1459 n
2202 1459 n
2203 1459 n
2203 1458 n
2204 1458 n
2205 1457 n
2205 1457 n
2206 1457 n
2207 1456 n
2207 1456 n
2208 1455 n
2209 1455 n
2209 1455 n
2210 1454 n
2211 1454 n
2211 1453 n
2212 1453 n
2213 1453 n
2213 1452 n
2214 1452 n
2215 1451 n
2215 1451 n
2216 1450 n
2217 1450 n
2217 1450 n
2218 1449 n
2218 1449 n
2219 1448 n
2220 1448 n
2220 1448 n
2221 1447 n
2222 1447 n
2222 1446 n
2223 1446 n
2224 1446 n
2224 1445 n
2225 1445 n
2226 1444 n
2226 1444 n
2227 1444 n
2228 1443 n
2228 1443 n
2229 1442 n
2229 1442 n
2230 1442 n
2231 1441 n
2231 1441 n
2232 1440 n
2233 1440 n
2233 1440 n
2234 1439 n
2235 1439 n
2235 1438 n
2236 1438 n
2237 1437 n
2237 1437 n
2238 1437 n
2239 1436 n
2239 1436 n
2240 1435 n
2241 1435 n
2241 1435 n
2242 1434 n
2243 1434 n
2243 1433 n
2244 1433 n
2244 1433 n
2245 1432 n
2246 1432 n
2246 1431 n
2247 1431 n
2248 1431 n
2248 1430 n
2249 1430 n
2250 1429 n
2250 1429 n
2251 1429 n
2252 1428 n
2252 1428 n
2253 1427 n
2254 1427 n
2254 1427 n
2255 1426 n
2256 1426 n
2256 1425 n
2257 1425 n
2257 1424 n
2258 1424 n
2259 1424 n
2259 1423 n
2260 1423 n
2261 1422 n
2261 1422 n
2262 1422 n
2263 1421 n
2263 1421 n
2264 1420 n
2265 1420 n
2265 1420 n
2266 1419 n
2267 1419 n
2267 1418 n
2268 1418 n
2268 1418 n
2269 1417 n
2270 1417 n
2270 1416 n
2271 1416 n
2272 1416 n
2272 1415 n
2273 1415 n
2274 1414 n
2274 1414 n
2275 1414 n
2276 1413 n
2276 1413 n
2277 1412 n
2278 1412 n
2278 1411 n
2279 1411 n
2280 1411 n
2280 1410 n
2281 1410 n
2282 1409 n
2282 1409 n
2283 1409 n
2283 1408 n
2284 1408 n
2285 1407 n
2285 1407 n
2286 1407 n
2287 1406 n
2287 1406 n
2288 1405 n
2289 1405 n
2289 1405 n
2290 1404 n
2291 1404 n
2291 1403 n
2292 1403 n
2293 1403 n
2293 1402 n
2294 1402 n
2294 1401 n
2295 1401 n
2296 1401 n
2296 1400 n
2297 1400 n
2298 1399 n
2298 1399 n
2299 1398 n
2300 1398 n
2300 1398 n
2301 1397 n
2302 1397 n
2302 1396 n
2303 1396 n
2304 1396 n
2304 1395 n
2305 1395 n
2306 1394 n
2306 1394 n
2307 1394 n
2308 1393 n
2308 1393 n
2309 1392 n
2309 1392 n
2310 1392 n
2311 1391 n
2311 1391 n
2312 1390 n
2313 1390 n
2313 1390 n
2314 1389 n
2315 1389 n
2315 1388 n
2316 1388 n
2317 1388 n
2317 1387 n
2318 1387 n
2319 1386 n
2319 1386 n
2320 1385 n
2321 1385 n
2321 1385 n
2322 1384 n
2322 1384 n
2323 1383 n
2324 1383 n
2324 1383 n
2325 1382 n
2326 1382 n
2326 1381 n
2327 1381 n
2328 1381 n
2328 1380 n
2329 1380 n
2330 1379 n
2330 1379 n
2331 1379 n
2332 1378 n
2332 1378 n
2333 1377 n
2333 1377 n
2334 1377 n
2335 1376 n
2335 1376 n
2336 1375 n
2337 1375 n
2337 1375 n
2338 1374 n
2339 1374 n
2339 1373 n
2340 1373 n
2341 1372 n
2341 1372 n
2342 1372 n
2343 1371 n
2343 1371 n
2344 1370 n
2345 1370 n
2345 1370 n
2346 1369 n
2347 1369 n
2347 1368 n
2348 1368 n
2348 1368 n
2349 1367 n
2350 1367 n
2350 1366 n
2351 1366 n
2352 1366 n
2352 1365 n
2353 1365 n
2354 1364 n
2354 1364 n
2355 1364 n
2356 1363 n
2356 1363 n
2357 1362 n
2358 1362 n
2358 1362 n
2359 1361 n
2359 1361 n
2360 1360 n
2361 1360 n
2361 1359 n
2362 1359 n
2363 1359 n
2363 1358 n
2364 1358 n
2365 1357 n
2365 1357 n
2366 1357 n
2367 1356 n
2367 1356 n
2368 1355 n
2369 1355 n
2369 1355 n
2370 1354 n
2371 1354 n
2371 1353 n
2372 1353 n
2373 1353 n
2373 1352 n
2374 1352 n
2374 1351 n
2375 1351 n
2376 1351 n
2376 1350 n
2377 1350 n
2378 1349 n
2378 1349 n
2379 1349 n
2380 1348 n
2380 1348 n
2381 1347 n
2382 1347 n
2382 1346 n
2383 1346 n
2384 1346 n
2384 1345 n
2385 1345 n
2386 1344 n
2386 1344 n
2387 1344 n
2387 1343 n
2388 1343 n
2389 1342 n
2389 1342 n
2390 1342 n
2391 1341 n
2391 1341 n
2392 1340 n
2393 1340 n
2393 1340 n
2394 1339 n
2395 1339 n
2395 1338 n
2396 1338 n
2397 1338 n
2397 1337 n
2398 1337 n
2398 1336 n
2399 1336 n
2400 1336 n
2400 1335 n
2401 1335 n
2402 1334 n
2402 1334 n
2403 1333 n
2404 1333 n
2404 1333 n
2405 1332 n
2406 1332 n
2406 1331 n
2407 1331 n
2408 1331 n
2408 1330 n
2409 1330 n
2410 1329 n
2410 1329 n
2411 1329 n
2412 1328 n
2412 1328 n
2413 1327 n
2413 1327 n
2414 1327 n
2415 1326 n
2415 1326 n
2416 1325 n
2417 1325 n
2417 1325 n
2418 1324 n
2419 1324 n
2419 1323 n
2420 1323 n
2421 1323 n
2421 1322 n
2422 1322 n
2423 1321 n
2423 1321 n
2424 1320 n
2424 1320 n
2425 1320 n
2426 1319 n
2426 1319 n
2427 1318 n
2428 1318 n
2428 1318 n
2429 1317 n
2430 1317 n
2430 1316 n
2431 1316 n
2432 1316 n
2432 1315 n
2433 1315 n
2434 1314 n
2434 1314 n
2435 1314 n
2436 1313 n
2436 1313 n
2437 1312 n
2438 1312 n
2438 1312 n
2439 1311 n
2439 1311 n
2440 1310 n
2441 1310 n
2441 1310 n
2442 1309 n
2443 1309 n
2443 1308 n
2444 1308 n
2445 1307 n
2445 1307 n
2446 1307 n
2447 1306 n
2447 1306 n
2448 1305 n
2449 1305 n
2449 1305 n
2450 1304 n
2451 1304 n
2451 1303 n
2452 1303 n
2452 1303 n
2453 1302 n
2454 1302 n
2454 1301 n
2455 1301 n
2456 1301 n
2456 1300 n
2457 1300 n
2458 1299 n
2458 1299 n
2459 1299 n
2460 1298 n
2460 1298 n
2461 1297 n
2462 1297 n
2462 1297 n
2463 1296 n
2463 1296 n
2464 1295 n
2465 1295 n
2465 1294 n
2466 1294 n
2467 1294 n
2467 1293 n
2468 1293 n
2469 1292 n
2469 1292 n
2470 1292 n
2471 1291 n
2471 1291 n
2472 1290 n
2473 1290 n
2473 1290 n
2474 1289 n
2475 1289 n
2475 1288 n
2476 1288 n
2477 1288 n
2477 1287 n
2478 1287 n
2478 1286 n
2479 1286 n
2480 1286 n
2480 1285 n
2481 1285 n
2482 1284 n
2482 1284 n
2483 1284 n
2484 1283 n
2484 1283 n
2485 1282 n
2486 1282 n
2486 1281 n
2487 1281 n
2488 1281 n
2488 1280 n
2489 1280 n
2489 1279 n
2490 1279 n
2491 1279 n
2491 1278 n
2492 1278 n
2493 1277 n
2493 1277 n
2494 1277 n
2495 1276 n
2495 1276 n
2496 1275 n
2497 1275 n
2497 1275 n
2498 1274 n
2499 1274 n
2499 1273 n
2500 1273 n
2501 1273 n
2501 1272 n
2502 1272 n
2503 1271 n
2503 1271 n
2504 1271 n
2504 1270 n
2505 1270 n
2506 1269 n
2506 1269 n
2507 1268 n
2508 1268 n
2508 1268 n
2509 1267 n
2510 1267 n
2510 1266 n
2511 1266 n
2512 1266 n
2512 1265 n
2513 1265 n
2514 1264 n
2514 1264 n
2515 1264 n
2516 1263 n
2516 1263 n
2517 1262 n
2517 1262 n
2518 1262 n
2519 1261 n
2519 1261 n
2520 1260 n
2521 1260 n
2521 1260 n
2522 1259 n
2523 1259 n
2523 1258 n
2524 1258 n
2525 1258 n
2525 1257 n
2526 1257 n
2527 1256 n
2527 1256 n
2528 1255 n
2528 1255 n
2529 1255 n
2530 1254 n
2530 1254 n
2531 1253 n
2532 1253 n
2532 1253 n
2533 1252 n
2534 1252 n
2534 1251 n
2535 1251 n
2536 1251 n
2536 1250 n
2537 1250 n
2538 1249 n
2538 1249 n
2539 1249 n
2540 1248 n
2540 1248 n
2541 1247 n
2542 1247 n
2542 1247 n
2543 1246 n
2543 1246 n
2544 1245 n
2545 1245 n
2545 1245 n
2546 1244 n
2547 1244 n
2547 1243 n
2548 1243 n
2549 1242 n
2549 1242 n
2550 1242 n
2551 1241 n
2551 1241 n
2552 1240 n
2553 1240 n
2553 1240 n
2554 1239 n
2554 1239 n
2555 1238 n
2556 1238 n
2556 1238 n
2557 1237 n
2558 1237 n
2558 1236 n
2559 1236 n
2560 1236 n
2560 1235 n
2561 1235 n
2562 1234 n
2562 1234 n
2563 1234 n
2564 1233 n
2564 1233 n
2565 1232 n
2566 1232 n
2566 1232 n
2567 1231 n
2568 1231 n
2568 1230 n
2569 1230 n
2569 1229 n
2570 1229 n
2571 1229 n
2571 1228 n
2572 1228 n
2573 1227 n
2573 1227 n
2574 1227 n
2575 1226 n
2575 1226 n
2576 1225 n
2577 1225 n
2577 1225 n
2578 1224 n
2579 1224 n
2579 1223 n
2580 1223 n
2581 1223 n
2581 1222 n
2582 1222 n
2582 1221 n
2583 1221 n
2584 1221 n
2584 1220 n
2585 1220 n
2586 1219 n
2586 1219 n
2587 1219 n
2588 1218 n
2588 1218 n
2589 1217 n
2590 1217 n
2590 1216 n
2591 1216 n
2592 1216 n
2592 1215 n
2593 1215 n
2593 1214 n
2594 1214 n
2595 1214 n
2595 1213 n
2596 1213 n
2597 1212 n
2597 1212 n
2598 1212 n
2599 1211 n
2599 1211 n
2600 1210 n
2601 1210 n
2601 1210 n
2602 1209 n
2603 1209 n
2603 1208 n
2604 1208 n
2605 1208 n
2605 1207 n
2606 1207 n
2607 1206 n
2607 1206 n
2608 1206 n
2608 1205 n
2609 1205 n
2610 1204 n
2610 1204 n
2611 1203 n
2612 1203 n
2612 1203 n
2613 1202 n
2614 1202 n
2614 1201 n
2615 1201 n
2616 1201 n
2616 1200 n
2617 1200 n
2618 1199 n
2618 1199 n
2619 1199 n
2619 1198 n
2620 1198 n
2621 1197 n
2621 1197 n
2622 1197 n
2623 1196 n
2623 1196 n
2624 1195 n
2625 1195 n
2625 1195 n
2626 1194 n
2627 1194 n
2627 1193 n
2628 1193 n
2629 1193 n
2629 1192 n
2630 1192 n
2631 1191 n
2631 1191 n
2632 1190 n
2633 1190 n
2633 1190 n
2634 1189 n
2634 1189 n
2635 1188 n
2636 1188 n
2636 1188 n
2637 1187 n
2638 1187 n
2638 1186 n
2639 1186 n
2640 1186 n
2640 1185 n
2641 1185 n
2642 1184 n
2642 1184 n
2643 1184 n
2644 1183 n
2644 1183 n
2645 1182 n
2646 1182 n
2646 1182 n
2647 1181 n
2647 1181 n
2648 1180 n
2649 1180 n
2649 1180 n
2650 1179 n
2651 1179 n
2651 1178 n
2652 1178 n
2653 1177 n
2653 1177 n
2654 1177 n
2655 1176 n
2655 1176 n
2656 1175 n
2657 1175 n
2657 1175 n
2658 1174 n
2658 1174 n
2659 1173 n
2660 1173 n
2660 1173 n
2661 1172 n
2662 1172 n
2662 1171 n
2663 1171 n
2664 1171 n
2664 1170 n
2665 1170 n
2666 1169 n
2666 1169 n
2667 1169 n
2668 1168 n
2668 1168 n
2669 1167 n
2670 1167 n
2670 1167 n
2671 1166 n
2672 1166 n
2672 1165 n
2673 1165 n
2673 1164 n
2674 1164 n
2675 1164 n
2675 1163 n
2676 1163 n
2677 1162 n
2677 1162 n
2678 1162 n
2679 1161 n
2679 1161 n
2680 1160 n
2681 1160 n
2681 1160 n
2682 1159 n
2683 1159 n
2683 1158 n
2684 1158 n
2684 1158 n
2685 1157 n
2686 1157 n
2686 1156 n
2687 1156 n
2688 1156 n
2688 1155 n
2689 1155 n
2690 1154 n
2690 1154 n
2691 1154 n
2692 1153 n
2692 1153 n
2693 1152 n
2694 1152 n
2694 1151 n
2695 1151 n
2696 1151 n
2696 1150 n
2697 1150 n
2698 1149 n
2698 1149 n
2699 1149 n
2699 1148 n
2700 1148 n
2701 1147 n
2701 1147 n
2702 1147 n
2703 1146 n
2703 1146 n
2704 1145 n
2705 1145 n
2705 1145 n
2706 1144 n
2707 1144 n
2707 1143 n
2708 1143 n
2709 1143 n
2709 1142 n
2710 1142 n
2711 1141 n
2711 1141 n
2712 1141 n
2712 1140 n
2713 1140 n
2714 1139 n
2714 1139 n
2715 1138 n
2716 1138 n
2716 1138 n
2717 1137 n
2718 1137 n
2718 1136 n
2719 1136 n
2720 1136 n
2720 1135 n
2721 1135 n
2722 1134 n
2722 1134 n
2723 1134 n
2723 1133 n
2724 1133 n
2725 1132 n
2725 1132 n
2726 1132 n
2727 1131 n
2727 1131 n
2728 1130 n
2729 1130 n
2729 1130 n
2730 1129 n
2731 1129 n
2731 1128 n
2732 1128 n
2733 1128 n
2733 1127 n
2734 1127 n
2735 1126 n
2735 1126 n
2736 1125 n
2736 1125 n
2737 1125 n
2738 1124 n
2738 1124 n
2739 1123 n
2740 1123 n
2740 1123 n
2741 1122 n
2742 1122 n
2742 1121 n
2743 1121 n
2744 1121 n
2744 1120 n
2745 1120 n
2746 1119 n
2746 1119 n
2747 1119 n
2748 1118 n
2748 1118 n
2749 1117 n
2749 1117 n
2750 1117 n
2751 1116 n
2751 1116 n
2752 1115 n
2753 1115 n
2753 1115 n
2754 1114 n
2755 1114 n
2755 1113 n
2756 1113 n
2757 1112 n
2757 1112 n
2758 1112 n
2759 1111 n
2759 1111 n
2760 1110 n
2761 1110 n
2761 1110 n
2762 1109 n
2763 1109 n
2763 1108 n
2764 1108 n
2764 1108 n
2765 1107 n
2766 1107 n
2766 1106 n
2767 1106 n
2768 1106 n
2768 1105 n
2769 1105 n
2770 1104 n
2770 1104 n
2771 1104 n
2772 1103 n
2772 1103 n
2773 1102 n
2774 1102 n
2774 1102 n
2775 1101 n
2776 1101 n
2776 1100 n
2777 1100 n
2777 1099 n
2778 1099 n
2779 1099 n
2779 1098 n
2780 1098 n
2781 1097 n
2781 1097 n
2782 1097 n
2783 1096 n
2783 1096 n
2784 1095 n
2785 1095 n
2785 1095 n
2786 1094 n
2787 1094 n
2787 1093 n
2788 1093 n
2789 1093 n
2789 1092 n
2790 1092 n
2790 1091 n
2791 1091 n
2792 1091 n
2792 1090 n
2793 1090 n
2794 1089 n
2794 1089 n
2795 1089 n
2796 1088 n
2796 1088 n
2797 1087 n
2798 1087 n
2798 1086 n
2799 1086 n
2800 1086 n
2800 1085 n
2801 1085 n
2801 1084 n
2802 1084 n
2803 1084 n
2803 1083 n
2804 1083 n
2805 1082 n
2805 1082 n
2806 1082 n
2807 1081 n
2807 1081 n
2808 1080 n
2809 1080 n
2809 1080 n
2810 1079 n
2811 1079 n
2811 1078 n
2812 1078 n
2813 1078 n
2813 1077 n
2814 1077 n
2814 1076 n
2815 1076 n
2816 1076 n
2816 1075 n
2817 1075 n
2818 1074 n
2818 1074 n
2819 1073 n
2820 1073 n
2820 1073 n
2821 1072 n
2822 1072 n
2822 1071 n
2823 1071 n
2824 1071 n
2824 1070 n
2825 1070 n
2826 1069 n
2826 1069 n
2827 1069 n
2828 1068 n
2828 1068 n
2829 1067 n
2829 1067 n
2830 1067 n
2831 1066 n
2831 1066 n
2832 1065 n
2833 1065 n
2833 1065 n
2834 1064 n
2835 1064 n
2835 1063 n
2836 1063 n
2837 1063 n
2837 1062 n
2838 1062 n
2839 1061 n
2839 1061 n
2840 1060 n
2841 1060 n
2841 1060 n
2842 1059 n
2842 1059 n
2843 1058 n
2844 1058 n
2844 1058 n
2845 1057 n
2846 1057 n
2846 1056 n
2847 1056 n
2848 1056 n
2848 1055 n
2849 1055 n
2850 1054 n
2850 1054 n
2851 1054 n
2852 1053 n
2852 1053 n
2853 1052 n
2854 1052 n
2854 1052 n
2855 1051 n
2855 1051 n
2856 1050 n
2857 1050 n
2857 1050 n
2858 1049 n
2859 1049 n
2859 1048 n
2860 1048 n
2861 1047 n
2861 1047 n
2862 1047 n
2863 1046 n
2863 1046 n
2864 1045 n
2865 1045 n
2865 1045 n
2866 1044 n
2866 1044 n
2867 1043 n
2868 1043 n
2868 1043 n
2869 1042 n
2870 1042 n
2870 1041 n
2871 1041 n
2872 1041 n
2872 1040 n
2873 1040 n
2874 1039 n
2874 1039 n
2875 1039 n
2876 1038 n
2876 1038 n
2877 1037 n
2878 1037 n
2878 1037 n
2879 1036 n
2879 1036 n
2880 1035 n
2881 1035 n
2881 1034 n
2882 1034 n
2883 1034 n
2883 1033 n
2884 1033 n
2885 1032 n
2885 1032 n
2886 1032 n
2887 1031 n
2887 1031 n
2888 1030 n
2889 1030 n
2889 1030 n
2890 1029 n
2891 1029 n
2891 1028 n
2892 1028 n
2893 1028 n
2893 1027 n
2894 1027 n
2894 1026 n
2895 1026 n
2896 1026 n
2896 1025 n
2897 1025 n
2898 1024 n
2898 1024 n
2899 1024 n
2900 1023 n
2900 1023 n
2901 1022 n
2902 1022 n
2902 1021 n
2903 1021 n
2904 1021 n
2904 1020 n
2905 1020 n
2906 1019 n
2906 1019 n
2907 1019 n
2907 1018 n
2908 1018 n
2909 1017 n
2909 1017 n
2910 1017 n
2911 1016 n
2911 1016 n
2912 1015 n
2913 1015 n
2913 1015 n
2914 1014 n
2915 1014 n
2915 1013 n
2916 1013 n
2917 1013 n
2917 1012 n
2918 1012 n
2919 1011 n
2919 1011 n
2920 1011 n
2920 1010 n
2921 1010 n
2922 1009 n
2922 1009 n
2923 1008 n
2924 1008 n
2924 1008 n
2925 1007 n
2926 1007 n
2926 1006 n
2927 1006 n
2928 1006 n
2928 1005 n
2929 1005 n
2930 1004 n
2930 1004 n
2931 1004 n
2931 1003 n
2932 1003 n
2933 1002 n
2933 1002 n
2934 1002 n
2935 1001 n
2935 1001 n
2936 1000 n
2937 1000 n
2937 1000 n
2938 999 n
2939 999 n
2939 998 n
2940 998 n
2941 998 n
2941 997 n
2942 997 n
2943 996 n
2943 996 n
2944 995 n
2944 995 n
2945 995 n
2946 994 n
2946 994 n
2947 993 n
2948 993 n
2948 993 n
2949 992 n
2950 992 n
2950 991 n
2951 991 n
2952 991 n
2952 990 n
2953 990 n
2954 989 n
2954 989 n
2955 989 n
2956 988 n
2956 988 n
2957 987 n
2958 987 n
2958 987 n
2959 986 n
2959 986 n
2960 985 n
2961 985 n
2961 985 n
2962 984 n
2963 984 n
2963 983 n
2964 983 n
2965 982 n
2965 982 n
2966 982 n
2967 981 n
2967 981 n
2968 980 n
2969 980 n
2969 980 n
2970 979 n
2971 979 n
2971 978 n
2972 978 n
2972 978 n
2973 977 n
2974 977 n
2974 976 n
2975 976 n
2976 976 n
2976 975 n
2977 975 n
2978 974 n
2978 974 n
2979 974 n
2980 973 n
2980 973 n
2981 972 n
2982 972 n
2982 972 n
2983 971 n
2984 971 n
2984 970 n
2985 970 n
2985 969 n
2986 969 n
2987 969 n
2987 968 n
2988 968 n
2989 967 n
2989 967 n
2990 967 n
2991 966 n
2991 966 n
2992 965 n
2993 965 n
2993 965 n
2994 964 n
2995 964 n
2995 963 n
2996 963 n
2996 963 n
2997 962 n
2998 962 n
2998 961 n
2999 961 n
3000 961 n
3000 960 n
3001 960 n
3002 959 n
3002 959 n
3003 959 n
3004 958 n
3004 958 n
3005 957 n
3006 957 n
3006 956 n
3007 956 n
3008 956 n
3008 955 n
3009 955 n
3009 954 n
3010 954 n
3011 954 n
3011 953 n
3012 953 n
3013 952 n
3013 952 n
3014 952 n
3015 951 n
3015 951 n
3016 950 n
3017 950 n
3017 950 n
3018 949 n
3019 949 n
3019 948 n
3020 948 n
3021 948 n
3021 947 n
3022 947 n
3023 946 n
3023 946 n
3024 946 n
3024 945 n
3025 945 n
3026 944 n
3026 944 n
3027 943 n
3028 943 n
3028 943 n
3029 942 n
3030 942 n
3030 941 n
3031 941 n
3032 941 n
3032 940 n
3033 940 n
3034 939 n
3034 939 n
3035 939 n
3036 938 n
3036 938 n
3037 937 n
3037 937 n
3038 937 n
3039 936 n
3039 936 n
3040 935 n
3041 935 n
3041 935 n
3042 934 n
3043 934 n
3043 933 n
3044 933 n
3045 933 n
3045 932 n
3046 932 n
3047 931 n
3047 931 n
3048 930 n
3049 930 n
3049 930 n
3050 929 n
3050 929 n
3051 928 n
3052 928 n
3052 928 n
3053 927 n
3054 927 n
3054 926 n
3055 926 n
3056 926 n
3056 925 n
3057 925 n
3058 924 n
3058 924 n
3059 924 n
3060 923 n
3060 923 n
3061 922 n
3061 922 n
3062 922 n
3063 921 n
3063 921 n
3064 920 n
3065 920 n
3065 920 n
3066 919 n
3067 919 n
3067 918 n
3068 918 n
3069 917 n
3069 917 n
3070 917 n
3071 916 n
3071 916 n
3072 915 n
3073 915 n
3073 915 n
3074 914 n
3074 914 n
3075 913 n
3076 913 n
3076 913 n
3077 912 n
3078 912 n
3078 911 n
3079 911 n
3080 911 n
3080 910 n
3081 910 n
3082 909 n
3082 909 n
3083 909 n
3084 908 n
3084 908 n
3085 907 n
3086 907 n
3086 907 n
3087 906 n
3088 906 n
3088 905 n
3089 905 n
3089 904 n
3090 904 n
3091 904 n
3091 903 n
3092 903 n
3093 902 n
3093 902 n
3094 902 n
3095 901 n
3095 901 n
3096 900 n
3097 900 n
3097 900 n
3098 899 n
3099 899 n
3099 898 n
3100 898 n
3101 898 n
3101 897 n
3102 897 n
3102 896 n
3103 896 n
3104 896 n
3104 895 n
3105 895 n
3106 894 n
3106 894 n
3107 894 n
3108 893 n
3108 893 n
3109 892 n
3110 892 n
3110 891 n
3111 891 n
3112 891 n
3112 890 n
3113 890 n
3114 889 n
3114 889 n
3115 889 n
3115 888 n
3116 888 n
3117 887 n
3117 887 n
3118 887 n
3119 886 n
3119 886 n
3120 885 n
3121 885 n
3121 885 n
3122 884 n
3123 884 n
3123 883 n
3124 883 n
3125 883 n
3125 882 n
3126 882 n
3126 881 n
3127 881 n
3128 881 n
3128 880 n
3129 880 n
3130 879 n
3130 879 n
3131 878 n
3132 878 n
3132 878 n
3133 877 n
3134 877 n
3134 876 n
3135 876 n
3136 876 n
3136 875 n
3137 875 n
3138 874 n
3138 874 n
3139 874 n
3139 873 n
3140 873 n
3141 872 n
3141 872 n
3142 872 n
3143 871 n
3143 871 n
3144 870 n
3145 870 n
3145 870 n
3146 869 n
3147 869 n
3147 868 n
3148 868 n
3149 868 n
3149 867 n
3150 867 n
3151 866 n
3151 866 n
3152 865 n
3153 865 n
3153 865 n
3154 864 n
3154 864 n
3155 863 n
3156 863 n
3156 863 n
3157 862 n
3158 862 n
3158 861 n
3159 861 n
3160 861 n
3160 860 n
3161 860 n
3162 859 n
3162 859 n
3163 859 n
3164 858 n
3164 858 n
3165 857 n
3166 857 n
3166 857 n
3167 856 n
3167 856 n
3168 855 n
3169 855 n
3169 855 n
3170 854 n
3171 854 n
3171 853 n
3172 853 n
3173 852 n
3173 852 n
3174 852 n
3175 851 n
3175 851 n
3176 850 n
3177 850 n
3177 850 n
3178 849 n
3179 849 n
3179 848 n
3180 848 n
3180 848 n
3181 847 n
3182 847 n
3182 846 n
3183 846 n
3184 846 n
3184 845 n
3185 845 n
3186 844 n
3186 844 n
3187 844 n
3188 843 n
3188 843 n
3189 842 n
3190 842 n
3190 842 n
3191 841 n
3191 841 n
3192 840 n
3193 840 n
3193 839 n
3194 839 n
3195 839 n
3195 838 n
3196 838 n
3197 837 n
3197 837 n
3198 837 n
3199 836 n
3199 836 n
3200 835 n
3201 835 n
3201 835 n
3202 834 n
3203 834 n
3203 833 n
3204 833 n
3204 833 n
3205 832 n
3206 832 n
3206 831 n
3207 831 n
3208 831 n
3208 830 n
3209 830 n
3210 829 n
3210 829 n
3211 829 n
3212 828 n
3212 828 n
3213 827 n
3214 827 n
3214 826 n
3215 826 n
3216 826 n
3216 825 n
3217 825 n
3218 824 n
3218 824 n
3219 824 n
3219 823 n
3220 823 n
3221 822 n
3221 822 n
3222 822 n
3223 821 n
3223 821 n
3224 820 n
3225 820 n
3225 820 n
3226 819 n
3227 819 n
3227 818 n
3228 818 n
3229 818 n
3229 817 n
3230 817 n
3231 816 n
3231 816 n
3232 816 n
3232 815 n
3233 815 n
3234 814 n
3234 814 n
3235 813 n
3236 813 n
3236 813 n
3237 812 n
3238 812 n
3238 811 n
3239 811 n
3240 811 n
3240 810 n
3241 810 n
3242 809 n
3242 809 n
3243 809 n
3244 808 n
3244 808 n
3245 807 n
3245 807 n
3246 807 n
3247 806 n
3247 806 n
3248 805 n
3249 805 n
3249 805 n
3250 804 n
3251 804 n
3251 803 n
3252 803 n
3253 803 n
3253 802 n
3254 802 n
3255 801 n
3255 801 n
3256 800 n
3256 800 n
3257 800 n
3258 799 n
3258 799 n
3259 798 n
3260 798 n
3260 798 n
3261 797 n
3262 797 n
3262 796 n
3263 796 n
3264 796 n
3264 795 n
3265 795 n
3266 794 n
3266 794 n
3267 794 n
3268 793 n
3268 793 n
3269 792 n
3269 792 n
3270 792 n
3271 791 n
3271 791 n
3272 790 n
3273 790 n
3273 790 n
3274 789 n
3275 789 n
3275 788 n
3276 788 n
3277 787 n
3277 787 n
3278 787 n
3279 786 n
3279 786 n
3280 785 n
3281 785 n
3281 785 n
3282 784 n
3283 784 n
3283 783 n
3284 783 n
3284 783 n
3285 782 n
3286 782 n
3286 781 n
3287 781 n
3288 781 n
3288 780 n
3289 780 n
3290 779 n
3290 779 n
3291 779 n
3292 778 n
3292 778 n
3293 777 n
3294 777 n
3294 777 n
3295 776 n
3296 776 n
3296 775 n
3297 775 n
3297 774 n
3298 774 n
3299 774 n
3299 773 n
3300 773 n
3301 772 n
3301 772 n
3302 772 n
3303 771 n
3303 771 n
3304 770 n
3305 770 n
3305 770 n
3306 769 n
3307 769 n
3307 768 n
3308 768 n
3309 768 n
3309 767 n
3310 767 n
3310 766 n
3311 766 n
3312 766 n
3312 765 n
3313 765 n
3314 764 n
3314 764 n
3315 764 n
3316 763 n
3316 763 n
3317 762 n
3318 762 n
3318 761 n
3319 761 n
3320 761 n
3320 760 n
3321 760 n
3321 759 n
3322 759 n
3323 759 n
3323 758 n
3324 758 n
3325 757 n
3325 757 n
3326 757 n
3327 756 n
3327 756 n
3328 755 n
3329 755 n
3329 755 n
3330 754 n
3331 754 n
3331 753 n
3332 753 n
3333 753 n
3333 752 n
3334 752 n
3334 751 n
3335 751 n
3336 751 n
3336 750 n
3337 750 n
3338 749 n
3338 749 n
3339 748 n
3340 748 n
3340 748 n
3341 747 n
3342 747 n
3342 746 n
3343 746 n
3344 746 n
3344 745 n
3345 745 n
3346 744 n
3346 744 n
3347 744 n
3348 743 n
3348 743 n
3349 742 n
3349 742 n
3350 742 n
3351 741 n
3351 741 n
3352 740 n
3353 740 n
3353 740 n
3354 739 n
3355 739 n
3355 738 n
3356 738 n
3357 738 n
3357 737 n
3358 737 n
3359 736 n
3359 736 n
3360 735 n
3361 735 n
3361 735 n
3362 734 n
3362 734 n
3363 733 n
3364 733 n
3364 733 n
3365 732 n
3366 732 n
3366 731 n
3367 731 n
3368 731 n
3368 730 n
3369 730 n
3370 729 n
3370 729 n
3371 729 n
3372 728 n
3372 728 n
3373 727 n
3374 727 n
3374 727 n
3375 726 n
3375 726 n
3376 725 n
3377 725 n
3377 725 n
3378 724 n
3379 724 n
3379 723 n
3380 723 n
3381 722 n
3381 722 n
3382 722 n
3383 721 n
3383 721 n
3384 720 n
3385 720 n
3385 720 n
3386 719 n
3386 719 n
3387 718 n
3388 718 n
3388 718 n
3389 717 n
3390 717 n
3390 716 n
3391 716 n
3392 716 n
3392 715 n
3393 715 n
3394 714 n
3394 714 n
3395 714 n
3396 713 n
3396 713 n
3397 712 n
3398 712 n
3398 712 n
3399 711 n
3399 711 n
3400 710 n
3401 710 n
3401 709 n
3402 709 n
3403 709 n
3403 708 n
3404 708 n
3405 707 n
3405 707 n
3406 707 n
3407 706 n
3407 706 n
3408 705 n
3409 705 n
3409 705 n
3410 704 n
3411 704 n
3411 703 n
3412 703 n
3413 703 n
3413 702 n
3414 702 n
3414 701 n
3415 701 n
3416 701 n
3416 700 n
3417 700 n
3418 699 n
3418 699 n
3419 699 n
3420 698 n
3420 698 n
3421 697 n
3422 697 n
3422 696 n
3423 696 n
3424 696 n
3424 695 n
3425 695 n
3426 694 n
3426 694 n
3427 694 n
3427 693 n
3428 693 n
3429 692 n
3429 692 n
3430 692 n
3431 691 n
3431 691 n
3432 690 n
3433 690 n
3433 690 n
3434 689 n
3435 689 n
3435 688 n
3436 688 n
3437 688 n
3437 687 n
3438 687 n
3439 686 n
3439 686 n
3440 686 n
3440 685 n
3441 685 n
3442 684 n
3442 684 n
3443 683 n
3444 683 n
3444 683 n
3445 682 n
3446 682 n
3446 681 n
3447 681 n
3448 681 n
3448 680 n
3449 680 n
3450 679 n
3450 679 n
3451 679 n
3451 678 n
3452 678 n
3453 677 n
3453 677 n
3454 677 n
3455 676 n
3455 676 n
3456 675 n
3457 675 n
3457 675 n
3458 674 n
3459 674 n
3459 673 n
3460 673 n
3461 673 n
3461 672 n
3462 672 n
3463 671 n
3463 671 n
3464 670 n
3464 670 n
3465 670 n
3466 669 n
3466 669 n
3467 668 n
3468 668 n
3468 668 n
3469 667 n
3470 667 n
3470 666 n
3471 666 n
3472 666 n
3472 665 n
3473 665 n
3474 664 n
3474 664 n
3475 664 n
3476 663 n
3476 663 n
3477 662 n
3478 662 n
3478 662 n
3479 661 n
3479 661 n
3480 660 n
3481 660 n
3481 660 n
3482 659 n
3483 659 n
3483 658 n
3484 658 n
3485 657 n
3485 657 n
3486 657 n
3487 656 n
3487 656 n
3488 655 n
3489 655 n
3489 655 n
3490 654 n
3491 654 n
3491 653 n
3492 653 n
3492 653 n
3493 652 n
3494 652 n
3494 651 n
3495 651 n
3496 651 n
3496 650 n
3497 650 n
3498 649 n
3498 649 n
3499 649 n
3500 648 n
3500 648 n
3501 647 n
3502 647 n
3502 647 n
3503 646 n
3504 646 n
3504 645 n
3505 645 n
3505 644 n
3506 644 n
3507 644 n
3507 643 n
3508 643 n
3509 642 n
3509 642 n
3510 642 n
3511 641 n
3511 641 n
3512 640 n
3513 640 n
3513 640 n
3514 639 n
3515 639 n
3515 638 n
3516 638 n
3516 638 n
3517 637 n
3518 637 n
3518 636 n
3519 636 n
3520 636 n
3520 635 n
3521 635 n
3522 634 n
3522 634 n
3523 634 n
3524 633 n
3524 633 n
3525 632 n
3526 632 n
3526 631 n
3527 631 n
3528 631 n
3528 630 n
3529 630 n
3529 629 n
3530 629 n
3531 629 n
3531 628 n
3532 628 n
3533 627 n
3533 627 n
3534 627 n
3535 626 n
3535 626 n
3536 625 n
/solid f
3900 600 650 600 l
3900 2225 n
650 2225 n
650 600 n
780 650 780 600 l
780 2225 780 2175 l
910 650 910 600 l
910 2225 910 2175 l
1040 650 1040 600 l
1040 2225 1040 2175 l
1170 650 1170 600 l
1170 2225 1170 2175 l
1300 750 1300 600 l
1300 2225 1300 2075 l
1430 650 1430 600 l
1430 2225 1430 2175 l
1560 650 1560 600 l
1560 2225 1560 2175 l
1690 650 1690 600 l
1690 2225 1690 2175 l
1820 650 1820 600 l
1820 2225 1820 2175 l
1950 750 1950 600 l
1950 2225 1950 2075 l
2080 650 2080 600 l
2080 2225 2080 2175 l
2210 650 2210 600 l
2210 2225 2210 2175 l
2340 650 2340 600 l
2340 2225 2340 2175 l
2470 650 2470 600 l
2470 2225 2470 2175 l
2600 750 2600 600 l
2600 2225 2600 2075 l
2730 650 2730 600 l
2730 2225 2730 2175 l
2860 650 2860 600 l
2860 2225 2860 2175 l
2990 650 2990 600 l
2990 2225 2990 2175 l
3120 650 3120 600 l
3120 2225 3120 2175 l
3250 750 3250 600 l
3250 2225 3250 2075 l
3380 650 3380 600 l
3380 2225 3380 2175 l
3510 650 3510 600 l
3510 2225 3510 2175 l
3640 650 3640 600 l
3640 2225 3640 2175 l
3770 650 3770 600 l
3770 2225 3770 2175 l
700 681 650 681 l
3900 681 3850 681 l
700 763 650 763 l
3900 763 3850 763 l
700 844 650 844 l
3900 844 3850 844 l
700 925 650 925 l
3900 925 3850 925 l
800 1006 650 1006 l
3900 1006 3750 1006 l
700 1088 650 1088 l
3900 1088 3850 1088 l
700 1169 650 1169 l
3900 1169 3850 1169 l
700 1250 650 1250 l
3900 1250 3850 1250 l
700 1331 650 1331 l
3900 1331 3850 1331 l
800 1413 650 1413 l
3900 1413 3750 1413 l
700 1494 650 1494 l
3900 1494 3850 1494 l
700 1575 650 1575 l
3900 1575 3850 1575 l
700 1656 650 1656 l
3900 1656 3850 1656 l
700 1738 650 1738 l
3900 1738 3850 1738 l
800 1819 650 1819 l
3900 1819 3750 1819 l
700 1900 650 1900 l
3900 1900 3850 1900 l
700 1981 650 1981 l
3900 1981 3850 1981 l
700 2063 650 2063 l
3900 2063 3850 2063 l
700 2144 650 2144 l
3900 2144 3850 2144 l
659 420 m
645 469 m
632 465 n
623 451 n
618 429 n
618 416 n
623 393 n
632 380 n
645 375 n
654 375 n
668 380 n
677 393 n
681 416 n
681 429 n
677 451 n
668 465 n
654 469 n
645 469 n
645 469 m
636 465 n
632 460 n
627 451 n
623 429 n
623 416 n
627 393 n
632 384 n
636 380 n
645 375 n
654 375 m
663 380 n
668 384 n
672 393 n
677 416 n
677 429 n
672 451 n
668 460 n
663 465 n
654 469 n
1230 451 m
1239 456 n
1253 469 n
1253 375 n
1248 465 m
1248 375 n
1230 375 m
1270 375 n
1347 420 m
1333 469 m
1320 465 n
1311 451 n
1306 429 n
1306 416 n
1311 393 n
1320 380 n
1333 375 n
1342 375 n
1356 380 n
1365 393 n
1369 416 n
1369 429 n
1365 451 n
1356 465 n
1342 469 n
1333 469 n
1333 469 m
1324 465 n
1320 460 n
1315 451 n
1311 429 n
1311 416 n
1315 393 n
1320 384 n
1324 380 n
1333 375 n
1342 375 m
1351 380 n
1356 384 n
1360 393 n
1365 416 n
1365 429 n
1360 451 n
1356 460 n
1351 465 n
1342 469 n
1878 451 m
1883 447 n
1878 442 n
1874 447 n
1874 451 n
1878 460 n
1883 465 n
1896 469 n
1914 469 n
1927 465 n
1932 460 n
1936 451 n
1936 442 n
1932 433 n
1918 424 n
1896 416 n
1887 411 n
1878 402 n
1874 389 n
1874 375 n
1914 469 m
1923 465 n
1927 460 n
1932 451 n
1932 442 n
1927 433 n
1914 424 n
1896 416 n
1874 384 m
1878 389 n
1887 389 n
1910 380 n
1923 380 n
1932 384 n
1936 389 n
1887 389 m
1910 375 n
1927 375 n
1932 380 n
1936 389 n
1936 398 n
2004 420 m
1990 469 m
1977 465 n
1968 451 n
1963 429 n
1963 416 n
1968 393 n
1977 380 n
1990 375 n
1999 375 n
2013 380 n
2022 393 n
2026 416 n
2026 429 n
2022 451 n
2013 465 n
1999 469 n
1990 469 n
1990 469 m
1981 465 n
1977 460 n
1972 451 n
1968 429 n
1968 416 n
1972 393 n
1977 384 n
1981 380 n
1990 375 n
1999 375 m
2008 380 n
2013 384 n
2017 393 n
2022 416 n
2022 429 n
2017 451 n
2013 460 n
2008 465 n
1999 469 n
2528 451 m
2533 447 n
2528 442 n
2524 447 n
2524 451 n
2528 460 n
2533 465 n
2546 469 n
2564 469 n
2577 465 n
2582 456 n
2582 442 n
2577 433 n
2564 429 n
2551 429 n
2564 469 m
2573 465 n
2577 456 n
2577 442 n
2573 433 n
2564 429 n
2564 429 m
2573 424 n
2582 416 n
2586 407 n
2586 393 n
2582 384 n
2577 380 n
2564 375 n
2546 375 n
2533 380 n
2528 384 n
2524 393 n
2524 398 n
2528 402 n
2533 398 n
2528 393 n
2577 420 m
2582 407 n
2582 393 n
2577 384 n
2573 380 n
2564 375 n
2654 420 m
2640 469 m
2627 465 n
2618 451 n
2613 429 n
2613 416 n
2618 393 n
2627 380 n
2640 375 n
2649 375 n
2663 380 n
2672 393 n
2676 416 n
2676 429 n
2672 451 n
2663 465 n
2649 469 n
2640 469 n
2640 469 m
2631 465 n
2627 460 n
2622 451 n
2618 429 n
2618 416 n
2622 393 n
2627 384 n
2631 380 n
2640 375 n
2649 375 m
2658 380 n
2663 384 n
2667 393 n
2672 416 n
2672 429 n
2667 451 n
2663 460 n
2658 465 n
2649 469 n
3216 460 m
3216 375 n
3220 469 m
3220 375 n
3220 469 m
3171 402 n
3243 402 n
3203 375 m
3234 375 n
3306 420 m
3292 469 m
3279 465 n
3270 451 n
3265 429 n
3265 416 n
3270 393 n
3279 380 n
3292 375 n
3301 375 n
3315 380 n
3324 393 n
3328 416 n
3328 429 n
3324 451 n
3315 465 n
3301 469 n
3292 469 n
3292 469 m
3283 465 n
3279 460 n
3274 451 n
3270 429 n
3270 416 n
3274 393 n
3279 384 n
3283 380 n
3292 375 n
3301 375 m
3310 380 n
3315 384 n
3319 393 n
3324 416 n
3324 429 n
3319 451 n
3315 460 n
3310 465 n
3301 469 n
3833 469 m
3824 424 n
3824 424 m
3833 433 n
3846 438 n
3860 438 n
3873 433 n
3882 424 n
3886 411 n
3886 402 n
3882 389 n
3873 380 n
3860 375 n
3846 375 n
3833 380 n
3828 384 n
3824 393 n
3824 398 n
3828 402 n
3833 398 n
3828 393 n
3860 438 m
3868 433 n
3877 424 n
3882 411 n
3882 402 n
3877 389 n
3868 380 n
3860 375 n
3833 469 m
3877 469 n
3833 465 m
3855 465 n
3877 469 n
3954 420 m
3940 469 m
3927 465 n
3918 451 n
3913 429 n
3913 416 n
3918 393 n
3927 380 n
3940 375 n
3949 375 n
3963 380 n
3972 393 n
3976 416 n
3976 429 n
3972 451 n
3963 465 n
3949 469 n
3940 469 n
3940 469 m
3931 465 n
3927 460 n
3922 451 n
3918 429 n
3918 416 n
3922 393 n
3927 384 n
3931 380 n
3940 375 n
3949 375 m
3958 380 n
3963 384 n
3967 393 n
3972 416 n
3972 429 n
3967 451 n
3963 460 n
3958 465 n
3949 469 n
219 596 m
300 596 n
372 600 m
336 631 m
340 627 n
336 622 n
331 627 n
331 631 n
336 640 n
340 645 n
354 649 n
372 649 n
385 645 n
390 640 n
394 631 n
394 622 n
390 613 n
376 604 n
354 596 n
345 591 n
336 582 n
331 569 n
331 555 n
372 649 m
381 645 n
385 640 n
390 631 n
390 622 n
385 613 n
372 604 n
354 596 n
331 564 m
336 569 n
345 569 n
367 560 n
381 560 n
390 564 n
394 569 n
345 569 m
367 555 n
385 555 n
390 560 n
394 569 n
394 578 n
462 600 m
448 649 m
435 645 n
426 631 n
421 609 n
421 596 n
426 573 n
435 560 n
448 555 n
457 555 n
471 560 n
480 573 n
484 596 n
484 609 n
480 631 n
471 645 n
457 649 n
448 649 n
448 649 m
439 645 n
435 640 n
430 631 n
426 609 n
426 596 n
430 573 n
435 564 n
439 560 n
448 555 n
457 555 m
466 560 n
471 564 n
475 573 n
480 596 n
480 609 n
475 631 n
471 640 n
466 645 n
457 649 n
552 600 m
538 649 m
525 645 n
516 631 n
511 609 n
511 596 n
516 573 n
525 560 n
538 555 n
547 555 n
561 560 n
570 573 n
574 596 n
574 609 n
570 631 n
561 645 n
547 649 n
538 649 n
538 649 m
529 645 n
525 640 n
520 631 n
516 609 n
516 596 n
520 573 n
525 564 n
529 560 n
538 555 n
547 555 m
556 560 n
561 564 n
565 573 n
570 596 n
570 609 n
565 631 n
561 640 n
556 645 n
547 649 n
219 1002 m
300 1002 n
372 1006 m
345 1037 m
354 1042 n
367 1055 n
367 961 n
363 1051 m
363 961 n
345 961 m
385 961 n
462 1006 m
448 1055 m
435 1051 n
426 1037 n
421 1015 n
421 1002 n
426 979 n
435 966 n
448 961 n
457 961 n
471 966 n
480 979 n
484 1002 n
484 1015 n
480 1037 n
471 1051 n
457 1055 n
448 1055 n
448 1055 m
439 1051 n
435 1046 n
430 1037 n
426 1015 n
426 1002 n
430 979 n
435 970 n
439 966 n
448 961 n
457 961 m
466 966 n
471 970 n
475 979 n
480 1002 n
480 1015 n
475 1037 n
471 1046 n
466 1051 n
457 1055 n
552 1006 m
538 1055 m
525 1051 n
516 1037 n
511 1015 n
511 1002 n
516 979 n
525 966 n
538 961 n
547 961 n
561 966 n
570 979 n
574 1002 n
574 1015 n
570 1037 n
561 1051 n
547 1055 n
538 1055 n
538 1055 m
529 1051 n
525 1046 n
520 1037 n
516 1015 n
516 1002 n
520 979 n
525 970 n
529 966 n
538 961 n
547 961 m
556 966 n
561 970 n
565 979 n
570 1002 n
570 1015 n
565 1037 n
561 1046 n
556 1051 n
547 1055 n
408 1413 m
480 1413 m
552 1413 m
538 1462 m
525 1458 n
516 1444 n
511 1422 n
511 1409 n
516 1386 n
525 1373 n
538 1368 n
547 1368 n
561 1373 n
570 1386 n
574 1409 n
574 1422 n
570 1444 n
561 1458 n
547 1462 n
538 1462 n
538 1462 m
529 1458 n
525 1453 n
520 1444 n
516 1422 n
516 1409 n
520 1386 n
525 1377 n
529 1373 n
538 1368 n
547 1368 m
556 1373 n
561 1377 n
565 1386 n
570 1409 n
570 1422 n
565 1444 n
561 1453 n
556 1458 n
547 1462 n
372 1819 m
345 1850 m
354 1855 n
367 1868 n
367 1774 n
363 1864 m
363 1774 n
345 1774 m
385 1774 n
462 1819 m
448 1868 m
435 1864 n
426 1850 n
421 1828 n
421 1815 n
426 1792 n
435 1779 n
448 1774 n
457 1774 n
471 1779 n
480 1792 n
484 1815 n
484 1828 n
480 1850 n
471 1864 n
457 1868 n
448 1868 n
448 1868 m
439 1864 n
435 1859 n
430 1850 n
426 1828 n
426 1815 n
430 1792 n
435 1783 n
439 1779 n
448 1774 n
457 1774 m
466 1779 n
471 1783 n
475 1792 n
480 1815 n
480 1828 n
475 1850 n
471 1859 n
466 1864 n
457 1868 n
552 1819 m
538 1868 m
525 1864 n
516 1850 n
511 1828 n
511 1815 n
516 1792 n
525 1779 n
538 1774 n
547 1774 n
561 1779 n
570 1792 n
574 1815 n
574 1828 n
570 1850 n
561 1864 n
547 1868 n
538 1868 n
538 1868 m
529 1864 n
525 1859 n
520 1850 n
516 1828 n
516 1815 n
520 1792 n
525 1783 n
529 1779 n
538 1774 n
547 1774 m
556 1779 n
561 1783 n
565 1792 n
570 1815 n
570 1828 n
565 1850 n
561 1859 n
556 1864 n
547 1868 n
372 2225 m
336 2256 m
340 2252 n
336 2247 n
331 2252 n
331 2256 n
336 2265 n
340 2270 n
354 2274 n
372 2274 n
385 2270 n
390 2265 n
394 2256 n
394 2247 n
390 2238 n
376 2229 n
354 2221 n
345 2216 n
336 2207 n
331 2194 n
331 2180 n
372 2274 m
381 2270 n
385 2265 n
390 2256 n
390 2247 n
385 2238 n
372 2229 n
354 2221 n
331 2189 m
336 2194 n
345 2194 n
367 2185 n
381 2185 n
390 2189 n
394 2194 n
345 2194 m
367 2180 n
385 2180 n
390 2185 n
394 2194 n
394 2203 n
462 2225 m
448 2274 m
435 2270 n
426 2256 n
421 2234 n
421 2221 n
426 2198 n
435 2185 n
448 2180 n
457 2180 n
471 2185 n
480 2198 n
484 2221 n
484 2234 n
480 2256 n
471 2270 n
457 2274 n
448 2274 n
448 2274 m
439 2270 n
435 2265 n
430 2256 n
426 2234 n
426 2221 n
430 2198 n
435 2189 n
439 2185 n
448 2180 n
457 2180 m
466 2185 n
471 2189 n
475 2198 n
480 2221 n
480 2234 n
475 2256 n
471 2265 n
466 2270 n
457 2274 n
552 2225 m
538 2274 m
525 2270 n
516 2256 n
511 2234 n
511 2221 n
516 2198 n
525 2185 n
538 2180 n
547 2180 n
561 2185 n
570 2198 n
574 2221 n
574 2234 n
570 2256 n
561 2270 n
547 2274 n
538 2274 n
538 2274 m
529 2270 n
525 2265 n
520 2256 n
516 2234 n
516 2221 n
520 2198 n
525 2189 n
529 2185 n
538 2180 n
547 2180 m
556 2185 n
561 2189 n
565 2198 n
570 2221 n
570 2234 n
565 2256 n
561 2265 n
556 2270 n
547 2274 n
1985 289 m
1985 213 n
1989 200 n
1998 195 n
2007 195 n
2016 200 n
2020 209 n
1989 289 m
1989 213 n
1994 200 n
1998 195 n
1971 258 m
2007 258 n
2083 240 m
2052 289 m
2047 285 n
2052 280 n
2056 285 n
2052 289 n
2052 258 m
2052 195 n
2056 258 m
2056 195 n
2038 258 m
2056 258 n
2038 195 m
2070 195 n
2133 240 m
2101 258 m
2101 195 n
2106 258 m
2106 195 n
2106 244 m
2115 253 n
2128 258 n
2137 258 n
2151 253 n
2155 244 n
2155 195 n
2137 258 m
2146 253 n
2151 244 n
2151 195 n
2155 244 m
2164 253 n
2178 258 n
2187 258 n
2200 253 n
2205 244 n
2205 195 n
2187 258 m
2196 253 n
2200 244 n
2200 195 n
2088 258 m
2106 258 n
2088 195 m
2119 195 n
2137 195 m
2169 195 n
2187 195 m
2218 195 n
2281 240 m
2245 231 m
2299 231 n
2299 240 n
2295 249 n
2290 253 n
2281 258 n
2268 258 n
2254 253 n
2245 244 n
2241 231 n
2241 222 n
2245 209 n
2254 200 n
2268 195 n
2277 195 n
2290 200 n
2299 209 n
2295 231 m
2295 244 n
2290 253 n
2268 258 m
2259 253 n
2250 244 n
2245 231 n
2245 222 n
2250 209 n
2259 200 n
2268 195 n
2367 240 m
2439 240 m
2434 307 m
2425 298 n
2416 285 n
2407 267 n
2403 244 n
2403 227 n
2407 204 n
2416 186 n
2425 173 n
2434 164 n
2425 298 m
2416 280 n
2412 267 n
2407 244 n
2407 227 n
2412 204 n
2416 191 n
2425 173 n
2502 240 m
2506 249 m
2511 258 n
2511 240 n
2506 249 n
2502 253 n
2493 258 n
2475 258 n
2466 253 n
2461 249 n
2461 240 n
2466 236 n
2475 231 n
2497 222 n
2506 218 n
2511 213 n
2461 244 m
2466 240 n
2475 236 n
2497 227 n
2506 222 n
2511 218 n
2511 204 n
2506 200 n
2497 195 n
2479 195 n
2470 200 n
2466 204 n
2461 213 n
2461 195 n
2466 204 n
2578 240 m
2538 307 m
2547 298 n
2556 285 n
2565 267 n
2569 244 n
2569 227 n
2565 204 n
2556 186 n
2547 173 n
2538 164 n
2547 298 m
2556 280 n
2560 267 n
2565 244 n
2565 227 n
2560 204 n
2556 191 n
2547 173 n
77 870 m
140 897 n
77 874 m
131 897 n
77 923 m
140 897 n
77 861 m
77 888 n
77 906 m
77 932 n
95 991 m
104 955 m
104 1009 n
95 1009 n
86 1004 n
82 1000 n
77 991 n
77 977 n
82 964 n
91 955 n
104 950 n
113 950 n
126 955 n
135 964 n
140 977 n
140 986 n
135 1000 n
126 1009 n
104 1004 m
91 1004 n
82 1000 n
77 977 m
82 968 n
91 959 n
104 955 n
113 955 n
126 959 n
135 968 n
140 977 n
95 1076 m
46 1045 m
140 1045 n
46 1049 m
140 1049 n
46 1031 m
46 1049 n
140 1031 m
140 1063 n
95 1126 m
77 1112 m
82 1099 n
91 1090 n
104 1085 n
113 1085 n
126 1090 n
135 1099 n
140 1112 n
140 1121 n
135 1135 n
126 1144 n
113 1148 n
104 1148 n
91 1144 n
82 1135 n
77 1121 n
77 1112 n
77 1112 m
82 1103 n
91 1094 n
104 1090 n
113 1090 n
126 1094 n
135 1103 n
140 1112 n
140 1121 m
135 1130 n
126 1139 n
113 1144 n
104 1144 n
91 1139 n
82 1130 n
77 1121 n
95 1216 m
91 1229 m
95 1225 n
99 1229 n
95 1234 n
91 1234 n
82 1225 n
77 1216 n
77 1202 n
82 1189 n
91 1180 n
104 1175 n
113 1175 n
126 1180 n
135 1189 n
140 1202 n
140 1211 n
135 1225 n
126 1234 n
77 1202 m
82 1193 n
91 1184 n
104 1180 n
113 1180 n
126 1184 n
135 1193 n
140 1202 n
95 1301 m
46 1270 m
50 1265 n
55 1270 n
50 1274 n
46 1270 n
77 1270 m
140 1270 n
77 1274 m
140 1274 n
77 1256 m
77 1274 n
140 1256 m
140 1288 n
95 1351 m
46 1319 m
122 1319 n
135 1324 n
140 1333 n
140 1342 n
135 1351 n
126 1355 n
46 1324 m
122 1324 n
135 1328 n
140 1333 n
77 1306 m
77 1342 n
95 1418 m
77 1382 m
140 1409 n
77 1387 m
131 1409 n
77 1436 m
140 1409 n
158 1400 n
167 1391 n
171 1382 n
171 1378 n
167 1373 n
162 1378 n
167 1382 n
77 1373 m
77 1400 n
77 1418 m
77 1445 n
95 1504 m
95 1576 m
28 1571 m
37 1562 n
50 1553 n
68 1544 n
91 1540 n
108 1540 n
131 1544 n
149 1553 n
162 1562 n
171 1571 n
37 1562 m
55 1553 n
68 1549 n
91 1544 n
108 1544 n
131 1549 n
144 1553 n
162 1562 n
95 1639 m
77 1607 m
140 1607 n
77 1612 m
140 1612 n
91 1612 m
82 1621 n
77 1634 n
77 1643 n
82 1657 n
91 1661 n
140 1661 n
77 1643 m
82 1652 n
91 1657 n
140 1657 n
91 1661 m
82 1670 n
77 1684 n
77 1693 n
82 1706 n
91 1711 n
140 1711 n
77 1693 m
82 1702 n
91 1706 n
140 1706 n
77 1594 m
77 1612 n
140 1594 m
140 1625 n
140 1643 m
140 1675 n
140 1693 m
140 1724 n
95 1787 m
28 1823 m
171 1742 n
95 1886 m
86 1891 m
77 1895 n
95 1895 n
86 1891 n
82 1886 n
77 1877 n
77 1859 n
82 1850 n
86 1846 n
95 1846 n
99 1850 n
104 1859 n
113 1882 n
117 1891 n
122 1895 n
91 1846 m
95 1850 n
99 1859 n
108 1882 n
113 1891 n
117 1895 n
131 1895 n
135 1891 n
140 1882 n
140 1864 n
135 1855 n
131 1850 n
122 1846 n
140 1846 n
131 1850 n
95 1963 m
28 1922 m
37 1931 n
50 1940 n
68 1949 n
91 1954 n
108 1954 n
131 1949 n
149 1940 n
162 1931 n
171 1922 n
37 1931 m
55 1940 n
68 1945 n
91 1949 n
108 1949 n
131 1945 n
144 1940 n
162 1931 n
1 1 m
e
%%Trailer
EndPSPlot
