%!
%%Creator: fedora:wfreeman(Walter)
%%Title: Unix plot file
%%CreationDate: Wed Feb  7 22:49:20 2024
%%DocumentFonts: Courier
%%EndComments
%%BoundingBox: 0 0 4096 4096
% Start of psplot.pro -- prolog for plot(5) translator
% Copyright (c) 1984,1985,1987 Adobe Systems Incorporated. All Rights Reserved. 
%              RESTRICTED RIGHTS LEGEND
% Use, duplication or disclosure by the Government is subject to
% restrictions as set forth in subdivision (b)(3)(ii) of the Rights in
% Technical Data and Computer Software Clause at 252.227-7013.
% Name of Contractor: Adobe Systems Incorporated
% Address:  1870 Embarcadero Road
%	  Palo Alto, California  94303
% RCS: $Header: psplot.pro,v 2.2 87/11/17 16:41:06 byron Rel $
save 50 dict begin /psplot exch def
/StartPSPlot
   {newpath 0 0 moveto 8 setlinewidth 0 setgray 1 setlinecap
    /imtx matrix currentmatrix def /dmtx matrix defaultmatrix def
    /fnt /Courier findfont def /smtx matrix def fnt 8 scalefont setfont}def
/solid {{}0}def
/dotted	{[2 nail 3.5 nail ] 0}def
/longdashed {[10 nail] 0}def
/shortdashed {[6 nail] 0}def
/dotdashed {[2 nail 6 nail 10 nail 6 nail] 0}def
/disconnected {{}0}def
/min {2 copy lt{pop}{exch pop}ifelse}def
/max {2 copy lt{exch pop}{pop}ifelse}def
/len {dup mul exch dup mul add sqrt}def
/nail {0 imtx dtransform len 0 idtransform len}def

/m {newpath moveto}def
/n {lineto currentpoint stroke moveto}def
/p {newpath moveto gsave 1 setlinecap solid setdash
    dmtx setmatrix .4 nail setlinewidth
    .05 0 idtransform rlineto stroke grestore}def
/l {moveto lineto currentpoint stroke moveto}def
/t {smtx currentmatrix pop imtx setmatrix show smtx setmatrix}def
/a {gsave newpath /y2 exch def /x2 exch def 
    /y1 exch def /x1 exch def /yc exch def /xc exch def
    /r x1 xc sub dup mul y1 yc sub dup mul add sqrt
       x2 xc sub dup mul y2 yc sub dup mul add sqrt add 2 div def
    /ang1 y1 yc sub x1 xc sub atan def
    /ang2 y2 yc sub x2 xc sub atan def
    xc yc r ang1 ang2 arc stroke grestore}def
/c {gsave newpath 0 360 arc stroke grestore}def
/e {gsave showpage grestore newpath 0 0 moveto}def
/f {load exec setdash}def
/s {/ury exch def /urx exch def /lly exch def /llx exch def
    imtx setmatrix newpath clippath pathbbox newpath
    /dury exch def /durx exch def /dlly exch def /dllx exch def
    /md durx dllx sub dury dlly sub min def
    /Mu urx llx sub ury lly sub max def
    36 144 translate .8 .8 scale
    dllx dlly translate md Mu div dup scale llx neg lly neg translate}def
/EndPSPlot {clear psplot end restore}def
StartPSPlot
%%EndProlog
%%Page: 1 1
0 0 4096 4096 s
/dotted f
1.00 1.00 0.00 0 setcmykcolor
/solid f
0.00 1.00 1.00 0 setcmykcolor
650 699 m
650 718 n
813 718 n
813 699 n
813 699 n
813 737 n
975 737 n
975 699 n
975 699 n
975 699 n
1138 699 n
1138 699 n
1138 699 n
1138 718 n
1300 718 n
1300 699 n
1300 699 n
1300 718 n
1463 718 n
1463 699 n
1463 699 n
1463 795 n
1625 795 n
1625 699 n
1625 699 n
1625 814 n
1788 814 n
1788 699 n
1788 699 n
1788 966 n
1950 966 n
1950 699 n
1950 699 n
1950 852 n
2113 852 n
2113 699 n
2113 699 n
2113 1157 n
2275 1157 n
2275 699 n
2275 699 n
2275 1138 n
2438 1138 n
2438 699 n
2438 699 n
2438 1119 n
2600 1119 n
2600 699 n
2600 699 n
2600 1195 n
2763 1195 n
2763 699 n
2763 699 n
2763 1253 n
2925 1253 n
2925 699 n
2925 699 n
2925 1272 n
3088 1272 n
3088 699 n
3088 699 n
3088 1234 n
3250 1234 n
3250 699 n
3250 699 n
3250 1253 n
3413 1253 n
3413 699 n
3413 699 n
3413 1329 n
3575 1329 n
3575 699 n
3575 699 n
3575 1883 n
3738 1883 n
3738 699 n
3738 699 n
3738 2684 n
3900 2684 n
3900 699 n
/dotdashed f
1.00 0.31 1.00 0 setcmykcolor
3109 600 m
3109 2875 n
/dotted f
1.00 1.00 0.00 0 setcmykcolor
3141 600 m
3141 2875 n
3076 600 m
3076 2875 n
/solid f
/solid f
0 0 0 1 setcmykcolor
3900 600 650 600 l
3900 2875 n
650 2875 n
650 600 n
780 650 780 600 l
780 2875 780 2825 l
910 650 910 600 l
910 2875 910 2825 l
1040 650 1040 600 l
1040 2875 1040 2825 l
1170 650 1170 600 l
1170 2875 1170 2825 l
1300 750 1300 600 l
1300 2875 1300 2725 l
1430 650 1430 600 l
1430 2875 1430 2825 l
1560 650 1560 600 l
1560 2875 1560 2825 l
1690 650 1690 600 l
1690 2875 1690 2825 l
1820 650 1820 600 l
1820 2875 1820 2825 l
1950 750 1950 600 l
1950 2875 1950 2725 l
2080 650 2080 600 l
2080 2875 2080 2825 l
2210 650 2210 600 l
2210 2875 2210 2825 l
2340 650 2340 600 l
2340 2875 2340 2825 l
2470 650 2470 600 l
2470 2875 2470 2825 l
2600 750 2600 600 l
2600 2875 2600 2725 l
2730 650 2730 600 l
2730 2875 2730 2825 l
2860 650 2860 600 l
2860 2875 2860 2825 l
2990 650 2990 600 l
2990 2875 2990 2825 l
3120 650 3120 600 l
3120 2875 3120 2825 l
3250 750 3250 600 l
3250 2875 3250 2725 l
3380 650 3380 600 l
3380 2875 3380 2825 l
3510 650 3510 600 l
3510 2875 3510 2825 l
3640 650 3640 600 l
3640 2875 3640 2825 l
3770 650 3770 600 l
3770 2875 3770 2825 l
800 699 650 699 l
3900 699 3750 699 l
700 890 650 890 l
3900 890 3850 890 l
700 1081 650 1081 l
3900 1081 3850 1081 l
700 1272 650 1272 l
3900 1272 3850 1272 l
700 1463 650 1463 l
3900 1463 3850 1463 l
800 1654 650 1654 l
3900 1654 3750 1654 l
700 1844 650 1844 l
3900 1844 3850 1844 l
700 2035 650 2035 l
3900 2035 3850 2035 l
700 2226 650 2226 l
3900 2226 3850 2226 l
700 2417 650 2417 l
3900 2417 3850 2417 l
800 2608 650 2608 l
3900 2608 3750 2608 l
602 420 m
674 420 m
660 469 m
647 465 n
638 451 n
633 429 n
633 416 n
638 393 n
647 380 n
660 375 n
669 375 n
683 380 n
692 393 n
696 416 n
696 429 n
692 451 n
683 465 n
669 469 n
660 469 n
660 469 m
651 465 n
647 460 n
642 451 n
638 429 n
638 416 n
642 393 n
647 384 n
651 380 n
660 375 n
669 375 m
678 380 n
683 384 n
687 393 n
692 416 n
692 429 n
687 451 n
683 460 n
678 465 n
669 469 n
1264 420 m
1228 451 m
1232 447 n
1228 442 n
1223 447 n
1223 451 n
1228 460 n
1232 465 n
1246 469 n
1264 469 n
1277 465 n
1282 460 n
1286 451 n
1286 442 n
1282 433 n
1268 424 n
1246 416 n
1237 411 n
1228 402 n
1223 389 n
1223 375 n
1264 469 m
1273 465 n
1277 460 n
1282 451 n
1282 442 n
1277 433 n
1264 424 n
1246 416 n
1223 384 m
1228 389 n
1237 389 n
1259 380 n
1273 380 n
1282 384 n
1286 389 n
1237 389 m
1259 375 n
1277 375 n
1282 380 n
1286 389 n
1286 398 n
1354 420 m
1340 469 m
1327 465 n
1318 451 n
1313 429 n
1313 416 n
1318 393 n
1327 380 n
1340 375 n
1349 375 n
1363 380 n
1372 393 n
1376 416 n
1376 429 n
1372 451 n
1363 465 n
1349 469 n
1340 469 n
1340 469 m
1331 465 n
1327 460 n
1322 451 n
1318 429 n
1318 416 n
1322 393 n
1327 384 n
1331 380 n
1340 375 n
1349 375 m
1358 380 n
1363 384 n
1367 393 n
1372 416 n
1372 429 n
1367 451 n
1363 460 n
1358 465 n
1349 469 n
1916 420 m
1916 460 m
1916 375 n
1920 469 m
1920 375 n
1920 469 m
1871 402 n
1943 402 n
1902 375 m
1934 375 n
2006 420 m
1992 469 m
1979 465 n
1970 451 n
1965 429 n
1965 416 n
1970 393 n
1979 380 n
1992 375 n
2001 375 n
2015 380 n
2024 393 n
2028 416 n
2028 429 n
2024 451 n
2015 465 n
2001 469 n
1992 469 n
1992 469 m
1983 465 n
1979 460 n
1974 451 n
1970 429 n
1970 416 n
1974 393 n
1979 384 n
1983 380 n
1992 375 n
2001 375 m
2010 380 n
2015 384 n
2019 393 n
2024 416 n
2024 429 n
2019 451 n
2015 460 n
2010 465 n
2001 469 n
2564 420 m
2577 456 m
2573 451 n
2577 447 n
2582 451 n
2582 456 n
2577 465 n
2568 469 n
2555 469 n
2541 465 n
2532 456 n
2528 447 n
2523 429 n
2523 402 n
2528 389 n
2537 380 n
2550 375 n
2559 375 n
2573 380 n
2582 389 n
2586 402 n
2586 407 n
2582 420 n
2573 429 n
2559 433 n
2555 433 n
2541 429 n
2532 420 n
2528 407 n
2555 469 m
2546 465 n
2537 456 n
2532 447 n
2528 429 n
2528 402 n
2532 389 n
2541 380 n
2550 375 n
2559 375 m
2568 380 n
2577 389 n
2582 402 n
2582 407 n
2577 420 n
2568 429 n
2559 433 n
2654 420 m
2640 469 m
2627 465 n
2618 451 n
2613 429 n
2613 416 n
2618 393 n
2627 380 n
2640 375 n
2649 375 n
2663 380 n
2672 393 n
2676 416 n
2676 429 n
2672 451 n
2663 465 n
2649 469 n
2640 469 n
2640 469 m
2631 465 n
2627 460 n
2622 451 n
2618 429 n
2618 416 n
2622 393 n
2627 384 n
2631 380 n
2640 375 n
2649 375 m
2658 380 n
2663 384 n
2667 393 n
2672 416 n
2672 429 n
2667 451 n
2663 460 n
2658 465 n
2649 469 n
3214 420 m
3196 469 m
3182 465 n
3178 456 n
3178 442 n
3182 433 n
3196 429 n
3214 429 n
3227 433 n
3232 442 n
3232 456 n
3227 465 n
3214 469 n
3196 469 n
3196 469 m
3187 465 n
3182 456 n
3182 442 n
3187 433 n
3196 429 n
3214 429 m
3223 433 n
3227 442 n
3227 456 n
3223 465 n
3214 469 n
3196 429 m
3182 424 n
3178 420 n
3173 411 n
3173 393 n
3178 384 n
3182 380 n
3196 375 n
3214 375 n
3227 380 n
3232 384 n
3236 393 n
3236 411 n
3232 420 n
3227 424 n
3214 429 n
3196 429 m
3187 424 n
3182 420 n
3178 411 n
3178 393 n
3182 384 n
3187 380 n
3196 375 n
3214 375 m
3223 380 n
3227 384 n
3232 393 n
3232 411 n
3227 420 n
3223 424 n
3214 429 n
3304 420 m
3290 469 m
3277 465 n
3268 451 n
3263 429 n
3263 416 n
3268 393 n
3277 380 n
3290 375 n
3299 375 n
3313 380 n
3322 393 n
3326 416 n
3326 429 n
3322 451 n
3313 465 n
3299 469 n
3290 469 n
3290 469 m
3281 465 n
3277 460 n
3272 451 n
3268 429 n
3268 416 n
3272 393 n
3277 384 n
3281 380 n
3290 375 n
3299 375 m
3308 380 n
3313 384 n
3317 393 n
3322 416 n
3322 429 n
3317 451 n
3313 460 n
3308 465 n
3299 469 n
3785 451 m
3794 456 n
3808 469 n
3808 375 n
3803 465 m
3803 375 n
3785 375 m
3825 375 n
3902 420 m
3888 469 m
3875 465 n
3866 451 n
3861 429 n
3861 416 n
3866 393 n
3875 380 n
3888 375 n
3897 375 n
3911 380 n
3920 393 n
3924 416 n
3924 429 n
3920 451 n
3911 465 n
3897 469 n
3888 469 n
3888 469 m
3879 465 n
3875 460 n
3870 451 n
3866 429 n
3866 416 n
3870 393 n
3875 384 n
3879 380 n
3888 375 n
3897 375 m
3906 380 n
3911 384 n
3915 393 n
3920 416 n
3920 429 n
3915 451 n
3911 460 n
3906 465 n
3897 469 n
3992 420 m
3978 469 m
3965 465 n
3956 451 n
3951 429 n
3951 416 n
3956 393 n
3965 380 n
3978 375 n
3987 375 n
4001 380 n
4010 393 n
4014 416 n
4014 429 n
4010 451 n
4001 465 n
3987 469 n
3978 469 n
3978 469 m
3969 465 n
3965 460 n
3960 451 n
3956 429 n
3956 416 n
3960 393 n
3965 384 n
3969 380 n
3978 375 n
3987 375 m
3996 380 n
4001 384 n
4005 393 n
4010 416 n
4010 429 n
4005 451 n
4001 460 n
3996 465 n
3987 469 n
480 699 m
552 699 m
538 748 m
525 744 n
516 730 n
511 708 n
511 695 n
516 672 n
525 659 n
538 654 n
547 654 n
561 659 n
570 672 n
574 695 n
574 708 n
570 730 n
561 744 n
547 748 n
538 748 n
538 748 m
529 744 n
525 739 n
520 730 n
516 708 n
516 695 n
520 672 n
525 663 n
529 659 n
538 654 n
547 654 m
556 659 n
561 663 n
565 672 n
570 695 n
570 708 n
565 730 n
561 739 n
556 744 n
547 748 n
462 1654 m
430 1703 m
421 1658 n
421 1658 m
430 1667 n
444 1672 n
457 1672 n
471 1667 n
480 1658 n
484 1645 n
484 1636 n
480 1623 n
471 1614 n
457 1609 n
444 1609 n
430 1614 n
426 1618 n
421 1627 n
421 1632 n
426 1636 n
430 1632 n
426 1627 n
457 1672 m
466 1667 n
475 1658 n
480 1645 n
480 1636 n
475 1623 n
466 1614 n
457 1609 n
430 1703 m
475 1703 n
430 1699 m
453 1699 n
475 1703 n
552 1654 m
538 1703 m
525 1699 n
516 1685 n
511 1663 n
511 1650 n
516 1627 n
525 1614 n
538 1609 n
547 1609 n
561 1614 n
570 1627 n
574 1650 n
574 1663 n
570 1685 n
561 1699 n
547 1703 n
538 1703 n
538 1703 m
529 1699 n
525 1694 n
520 1685 n
516 1663 n
516 1650 n
520 1627 n
525 1618 n
529 1614 n
538 1609 n
547 1609 m
556 1614 n
561 1618 n
565 1627 n
570 1650 n
570 1663 n
565 1685 n
561 1694 n
556 1699 n
547 1703 n
345 2639 m
354 2644 n
368 2657 n
368 2563 n
363 2653 m
363 2563 n
345 2563 m
385 2563 n
462 2608 m
448 2657 m
435 2653 n
426 2639 n
421 2617 n
421 2604 n
426 2581 n
435 2568 n
448 2563 n
457 2563 n
471 2568 n
480 2581 n
484 2604 n
484 2617 n
480 2639 n
471 2653 n
457 2657 n
448 2657 n
448 2657 m
439 2653 n
435 2648 n
430 2639 n
426 2617 n
426 2604 n
430 2581 n
435 2572 n
439 2568 n
448 2563 n
457 2563 m
466 2568 n
471 2572 n
475 2581 n
480 2604 n
480 2617 n
475 2639 n
471 2648 n
466 2653 n
457 2657 n
552 2608 m
538 2657 m
525 2653 n
516 2639 n
511 2617 n
511 2604 n
516 2581 n
525 2568 n
538 2563 n
547 2563 n
561 2568 n
570 2581 n
574 2604 n
574 2617 n
570 2639 n
561 2653 n
547 2657 n
538 2657 n
538 2657 m
529 2653 n
525 2648 n
520 2639 n
516 2617 n
516 2604 n
520 2581 n
525 2572 n
529 2568 n
538 2563 n
547 2563 m
556 2568 n
561 2572 n
565 2581 n
570 2604 n
570 2617 n
565 2639 n
561 2648 n
556 2653 n
547 2657 n
1 1 m
e
%%Trailer
EndPSPlot
