%!
%%Creator: fedora:wfreeman(Walter)
%%Title: Unix plot file
%%CreationDate: Wed Feb  7 22:49:20 2024
%%DocumentFonts: Courier
%%EndComments
%%BoundingBox: 0 0 4096 4096
% Start of psplot.pro -- prolog for plot(5) translator
% Copyright (c) 1984,1985,1987 Adobe Systems Incorporated. All Rights Reserved. 
%              RESTRICTED RIGHTS LEGEND
% Use, duplication or disclosure by the Government is subject to
% restrictions as set forth in subdivision (b)(3)(ii) of the Rights in
% Technical Data and Computer Software Clause at 252.227-7013.
% Name of Contractor: Adobe Systems Incorporated
% Address:  1870 Embarcadero Road
%	  Palo Alto, California  94303
% RCS: $Header: psplot.pro,v 2.2 87/11/17 16:41:06 byron Rel $
save 50 dict begin /psplot exch def
/StartPSPlot
   {newpath 0 0 moveto 8 setlinewidth 0 setgray 1 setlinecap
    /imtx matrix currentmatrix def /dmtx matrix defaultmatrix def
    /fnt /Courier findfont def /smtx matrix def fnt 8 scalefont setfont}def
/solid {{}0}def
/dotted	{[2 nail 3.5 nail ] 0}def
/longdashed {[10 nail] 0}def
/shortdashed {[6 nail] 0}def
/dotdashed {[2 nail 6 nail 10 nail 6 nail] 0}def
/disconnected {{}0}def
/min {2 copy lt{pop}{exch pop}ifelse}def
/max {2 copy lt{exch pop}{pop}ifelse}def
/len {dup mul exch dup mul add sqrt}def
/nail {0 imtx dtransform len 0 idtransform len}def

/m {newpath moveto}def
/n {lineto currentpoint stroke moveto}def
/p {newpath moveto gsave 1 setlinecap solid setdash
    dmtx setmatrix .4 nail setlinewidth
    .05 0 idtransform rlineto stroke grestore}def
/l {moveto lineto currentpoint stroke moveto}def
/t {smtx currentmatrix pop imtx setmatrix show smtx setmatrix}def
/a {gsave newpath /y2 exch def /x2 exch def 
    /y1 exch def /x1 exch def /yc exch def /xc exch def
    /r x1 xc sub dup mul y1 yc sub dup mul add sqrt
       x2 xc sub dup mul y2 yc sub dup mul add sqrt add 2 div def
    /ang1 y1 yc sub x1 xc sub atan def
    /ang2 y2 yc sub x2 xc sub atan def
    xc yc r ang1 ang2 arc stroke grestore}def
/c {gsave newpath 0 360 arc stroke grestore}def
/e {gsave showpage grestore newpath 0 0 moveto}def
/f {load exec setdash}def
/s {/ury exch def /urx exch def /lly exch def /llx exch def
    imtx setmatrix newpath clippath pathbbox newpath
    /dury exch def /durx exch def /dlly exch def /dllx exch def
    /md durx dllx sub dury dlly sub min def
    /Mu urx llx sub ury lly sub max def
    36 144 translate .8 .8 scale
    dllx dlly translate md Mu div dup scale llx neg lly neg translate}def
/EndPSPlot {clear psplot end restore}def
StartPSPlot
%%EndProlog
%%Page: 1 1
0 0 4096 4096 s
/dotted f
/solid f
0.00 1.00 1.00 0 setcmykcolor
1235 657 m
1235 770 n
1440 770 n
1440 657 n
1440 657 n
1440 827 n
1645 827 n
1645 657 n
1645 657 n
1645 941 n
1850 941 n
1850 657 n
1850 657 n
1850 1073 n
2055 1073 n
2055 657 n
2055 657 n
2055 998 n
2260 998 n
2260 657 n
2260 657 n
2260 1319 n
2465 1319 n
2465 657 n
2465 657 n
2465 1338 n
2670 1338 n
2670 657 n
2670 657 n
2670 1509 n
2875 1509 n
2875 657 n
2875 657 n
2875 1319 n
3080 1319 n
3080 657 n
3080 657 n
3080 1395 n
3285 1395 n
3285 657 n
3285 657 n
3285 1376 n
3490 1376 n
3490 657 n
3490 657 n
3490 2039 n
3695 2039 n
3695 657 n
3695 657 n
3695 2152 n
3900 2152 n
3900 657 n
0 0 0 1 setcmykcolor
975 1603 m
944 1652 m
944 1558 n
948 1652 m
975 1572 n
944 1652 m
975 1558 n
1006 1652 m
975 1558 n
1006 1652 m
1006 1558 n
1011 1652 m
1011 1558 n
930 1652 m
948 1652 n
1006 1652 m
1024 1652 n
930 1558 m
957 1558 n
993 1558 m
1024 1558 n
1087 1603 m
1051 1594 m
1105 1594 n
1105 1603 n
1101 1612 n
1096 1616 n
1087 1621 n
1074 1621 n
1060 1616 n
1051 1607 n
1047 1594 n
1047 1585 n
1051 1572 n
1060 1563 n
1074 1558 n
1083 1558 n
1096 1563 n
1105 1572 n
1101 1594 m
1101 1607 n
1096 1616 n
1074 1621 m
1065 1616 n
1056 1607 n
1051 1594 n
1051 1585 n
1056 1572 n
1065 1563 n
1074 1558 n
1173 1603 m
1186 1652 m
1186 1558 n
1191 1652 m
1191 1558 n
1186 1607 m
1177 1616 n
1168 1621 n
1159 1621 n
1146 1616 n
1137 1607 n
1132 1594 n
1132 1585 n
1137 1572 n
1146 1563 n
1159 1558 n
1168 1558 n
1177 1563 n
1186 1572 n
1159 1621 m
1150 1616 n
1141 1607 n
1137 1594 n
1137 1585 n
1141 1572 n
1150 1563 n
1159 1558 n
1173 1652 m
1191 1652 n
1186 1558 m
1204 1558 n
1267 1603 m
1236 1652 m
1231 1648 n
1236 1643 n
1240 1648 n
1236 1652 n
1236 1621 m
1236 1558 n
1240 1621 m
1240 1558 n
1222 1621 m
1240 1621 n
1222 1558 m
1254 1558 n
1317 1603 m
1285 1612 m
1285 1607 n
1281 1607 n
1281 1612 n
1285 1616 n
1294 1621 n
1312 1621 n
1321 1616 n
1326 1612 n
1330 1603 n
1330 1572 n
1335 1563 n
1339 1558 n
1326 1612 m
1326 1572 n
1330 1563 n
1339 1558 n
1344 1558 n
1326 1603 m
1321 1599 n
1294 1594 n
1281 1590 n
1276 1581 n
1276 1572 n
1281 1563 n
1294 1558 n
1308 1558 n
1317 1563 n
1326 1572 n
1294 1594 m
1285 1590 n
1281 1581 n
1281 1572 n
1285 1563 n
1294 1558 n
1407 1603 m
1375 1621 m
1375 1558 n
1380 1621 m
1380 1558 n
1380 1607 m
1389 1616 n
1402 1621 n
1411 1621 n
1425 1616 n
1429 1607 n
1429 1558 n
1411 1621 m
1420 1616 n
1425 1607 n
1425 1558 n
1362 1621 m
1380 1621 n
1362 1558 m
1393 1558 n
1411 1558 m
1443 1558 n
1506 1603 m
1578 1603 m
1560 1621 m
1551 1616 n
1546 1612 n
1542 1603 n
1542 1594 n
1546 1585 n
1551 1581 n
1560 1576 n
1569 1576 n
1578 1581 n
1582 1585 n
1587 1594 n
1587 1603 n
1582 1612 n
1578 1616 n
1569 1621 n
1560 1621 n
1551 1616 m
1546 1607 n
1546 1590 n
1551 1581 n
1578 1581 m
1582 1590 n
1582 1607 n
1578 1616 n
1582 1612 m
1587 1616 n
1596 1621 n
1596 1616 n
1587 1616 n
1546 1585 m
1542 1581 n
1537 1572 n
1537 1567 n
1542 1558 n
1555 1554 n
1578 1554 n
1591 1549 n
1596 1545 n
1537 1567 m
1542 1563 n
1555 1558 n
1578 1558 n
1591 1554 n
1596 1545 n
1596 1540 n
1591 1531 n
1578 1527 n
1551 1527 n
1537 1531 n
1533 1540 n
1533 1545 n
1537 1554 n
1551 1558 n
1663 1603 m
1632 1621 m
1632 1558 n
1636 1621 m
1636 1558 n
1636 1594 m
1641 1607 n
1650 1616 n
1659 1621 n
1672 1621 n
1677 1616 n
1677 1612 n
1672 1607 n
1668 1612 n
1672 1616 n
1618 1621 m
1636 1621 n
1618 1558 m
1650 1558 n
1740 1603 m
1708 1612 m
1708 1607 n
1704 1607 n
1704 1612 n
1708 1616 n
1717 1621 n
1735 1621 n
1744 1616 n
1749 1612 n
1753 1603 n
1753 1572 n
1758 1563 n
1762 1558 n
1749 1612 m
1749 1572 n
1753 1563 n
1762 1558 n
1767 1558 n
1749 1603 m
1744 1599 n
1717 1594 n
1704 1590 n
1699 1581 n
1699 1572 n
1704 1563 n
1717 1558 n
1731 1558 n
1740 1563 n
1749 1572 n
1717 1594 m
1708 1590 n
1704 1581 n
1704 1572 n
1708 1563 n
1717 1558 n
1830 1603 m
1843 1652 m
1843 1558 n
1848 1652 m
1848 1558 n
1843 1607 m
1834 1616 n
1825 1621 n
1816 1621 n
1803 1616 n
1794 1607 n
1789 1594 n
1789 1585 n
1794 1572 n
1803 1563 n
1816 1558 n
1825 1558 n
1834 1563 n
1843 1572 n
1816 1621 m
1807 1616 n
1798 1607 n
1794 1594 n
1794 1585 n
1798 1572 n
1807 1563 n
1816 1558 n
1830 1652 m
1848 1652 n
1843 1558 m
1861 1558 n
1924 1603 m
1888 1594 m
1942 1594 n
1942 1603 n
1938 1612 n
1933 1616 n
1924 1621 n
1911 1621 n
1897 1616 n
1888 1607 n
1884 1594 n
1884 1585 n
1888 1572 n
1897 1563 n
1911 1558 n
1920 1558 n
1933 1563 n
1942 1572 n
1938 1594 m
1938 1607 n
1933 1616 n
1911 1621 m
1902 1616 n
1893 1607 n
1888 1594 n
1888 1585 n
1893 1572 n
1902 1563 n
1911 1558 n
2010 1603 m
1978 1621 m
1974 1616 n
1978 1612 n
1983 1616 n
1978 1621 n
1978 1567 m
1974 1563 n
1978 1558 n
1983 1563 n
1978 1567 n
2055 1603 m
2127 1603 m
2086 1652 m
2086 1625 n
2086 1634 m
2091 1643 n
2100 1652 n
2109 1652 n
2131 1639 n
2140 1639 n
2145 1643 n
2149 1652 n
2091 1643 m
2100 1648 n
2109 1648 n
2131 1639 n
2149 1652 m
2149 1639 n
2145 1625 n
2127 1603 n
2122 1594 n
2118 1581 n
2118 1558 n
2145 1625 m
2122 1603 n
2118 1594 n
2113 1581 n
2113 1558 n
2217 1603 m
2185 1652 m
2176 1607 n
2176 1607 m
2185 1616 n
2199 1621 n
2212 1621 n
2226 1616 n
2235 1607 n
2239 1594 n
2239 1585 n
2235 1572 n
2226 1563 n
2212 1558 n
2199 1558 n
2185 1563 n
2181 1567 n
2176 1576 n
2176 1581 n
2181 1585 n
2185 1581 n
2181 1576 n
2212 1621 m
2221 1616 n
2230 1607 n
2235 1594 n
2235 1585 n
2230 1572 n
2221 1563 n
2212 1558 n
2185 1652 m
2230 1652 n
2185 1648 m
2208 1648 n
2230 1652 n
2307 1603 m
2347 1652 m
2266 1558 n
2289 1652 m
2298 1643 n
2298 1634 n
2293 1625 n
2284 1621 n
2275 1621 n
2266 1630 n
2266 1639 n
2271 1648 n
2280 1652 n
2289 1652 n
2298 1648 n
2311 1643 n
2325 1643 n
2338 1648 n
2347 1652 n
2329 1590 m
2320 1585 n
2316 1576 n
2316 1567 n
2325 1558 n
2334 1558 n
2343 1563 n
2347 1572 n
2347 1581 n
2338 1590 n
2329 1590 n
975 1603 m
3575 2266 m
3566 2315 m
3535 2221 n
3566 2315 m
3597 2221 n
3566 2302 m
3593 2221 n
3544 2248 m
3584 2248 n
3526 2221 m
3553 2221 n
3579 2221 m
3606 2221 n
3575 2266 m
3023 2266 m
2992 2315 m
2992 2221 n
2996 2315 m
2996 2221 n
2978 2315 m
3032 2315 n
3045 2311 n
3050 2306 n
3054 2297 n
3054 2288 n
3050 2279 n
3045 2275 n
3032 2270 n
3032 2315 m
3041 2311 n
3045 2306 n
3050 2297 n
3050 2288 n
3045 2279 n
3041 2275 n
3032 2270 n
2996 2270 m
3032 2270 n
3045 2266 n
3050 2262 n
3054 2253 n
3054 2239 n
3050 2230 n
3045 2226 n
3032 2221 n
2978 2221 n
3032 2270 m
3041 2266 n
3045 2262 n
3050 2253 n
3050 2239 n
3045 2230 n
3041 2226 n
3032 2221 n
3023 2266 m
2600 2266 m
2622 2302 m
2627 2288 n
2627 2315 n
2622 2302 n
2613 2311 n
2600 2315 n
2591 2315 n
2578 2311 n
2569 2302 n
2564 2293 n
2560 2279 n
2560 2257 n
2564 2244 n
2569 2235 n
2578 2226 n
2591 2221 n
2600 2221 n
2613 2226 n
2622 2235 n
2627 2244 n
2591 2315 m
2582 2311 n
2573 2302 n
2569 2293 n
2564 2279 n
2564 2257 n
2569 2244 n
2573 2235 n
2582 2226 n
2591 2221 n
2600 2266 m
2340 2266 m
2309 2315 m
2309 2221 n
2313 2315 m
2313 2221 n
2295 2315 m
2340 2315 n
2353 2311 n
2362 2302 n
2367 2293 n
2371 2279 n
2371 2257 n
2367 2244 n
2362 2235 n
2353 2226 n
2340 2221 n
2295 2221 n
2340 2315 m
2349 2311 n
2358 2302 n
2362 2293 n
2367 2279 n
2367 2257 n
2362 2244 n
2358 2235 n
2349 2226 n
2340 2221 n
2340 2266 m
/dotted f
3250 657 m
3250 2361 n
2763 657 m
2763 2361 n
2438 657 m
2438 2361 n
2275 657 m
2275 2361 n
/solid f
/solid f
3900 600 650 600 l
3900 2550 n
650 2550 n
650 600 n
780 650 780 600 l
780 2550 780 2500 l
910 650 910 600 l
910 2550 910 2500 l
1040 650 1040 600 l
1040 2550 1040 2500 l
1170 650 1170 600 l
1170 2550 1170 2500 l
1300 750 1300 600 l
1300 2550 1300 2400 l
1430 650 1430 600 l
1430 2550 1430 2500 l
1560 650 1560 600 l
1560 2550 1560 2500 l
1690 650 1690 600 l
1690 2550 1690 2500 l
1820 650 1820 600 l
1820 2550 1820 2500 l
1950 750 1950 600 l
1950 2550 1950 2400 l
2080 650 2080 600 l
2080 2550 2080 2500 l
2210 650 2210 600 l
2210 2550 2210 2500 l
2340 650 2340 600 l
2340 2550 2340 2500 l
2470 650 2470 600 l
2470 2550 2470 2500 l
2600 750 2600 600 l
2600 2550 2600 2400 l
2730 650 2730 600 l
2730 2550 2730 2500 l
2860 650 2860 600 l
2860 2550 2860 2500 l
2990 650 2990 600 l
2990 2550 2990 2500 l
3120 650 3120 600 l
3120 2550 3120 2500 l
3250 750 3250 600 l
3250 2550 3250 2400 l
3380 650 3380 600 l
3380 2550 3380 2500 l
3510 650 3510 600 l
3510 2550 3510 2500 l
3640 650 3640 600 l
3640 2550 3640 2500 l
3770 650 3770 600 l
3770 2550 3770 2500 l
800 657 650 657 l
3900 657 3750 657 l
700 846 650 846 l
3900 846 3850 846 l
700 1035 650 1035 l
3900 1035 3850 1035 l
700 1225 650 1225 l
3900 1225 3850 1225 l
700 1414 650 1414 l
3900 1414 3850 1414 l
800 1603 650 1603 l
3900 1603 3750 1603 l
700 1793 650 1793 l
3900 1793 3850 1793 l
700 1982 650 1982 l
3900 1982 3850 1982 l
700 2171 650 2171 l
3900 2171 3850 2171 l
700 2361 650 2361 l
3900 2361 3850 2361 l
602 420 m
674 420 m
660 469 m
647 465 n
638 451 n
633 429 n
633 416 n
638 393 n
647 380 n
660 375 n
669 375 n
683 380 n
692 393 n
696 416 n
696 429 n
692 451 n
683 465 n
669 469 n
660 469 n
660 469 m
651 465 n
647 460 n
642 451 n
638 429 n
638 416 n
642 393 n
647 384 n
651 380 n
660 375 n
669 375 m
678 380 n
683 384 n
687 393 n
692 416 n
692 429 n
687 451 n
683 460 n
678 465 n
669 469 n
1264 420 m
1228 451 m
1232 447 n
1228 442 n
1223 447 n
1223 451 n
1228 460 n
1232 465 n
1246 469 n
1264 469 n
1277 465 n
1282 460 n
1286 451 n
1286 442 n
1282 433 n
1268 424 n
1246 416 n
1237 411 n
1228 402 n
1223 389 n
1223 375 n
1264 469 m
1273 465 n
1277 460 n
1282 451 n
1282 442 n
1277 433 n
1264 424 n
1246 416 n
1223 384 m
1228 389 n
1237 389 n
1259 380 n
1273 380 n
1282 384 n
1286 389 n
1237 389 m
1259 375 n
1277 375 n
1282 380 n
1286 389 n
1286 398 n
1354 420 m
1340 469 m
1327 465 n
1318 451 n
1313 429 n
1313 416 n
1318 393 n
1327 380 n
1340 375 n
1349 375 n
1363 380 n
1372 393 n
1376 416 n
1376 429 n
1372 451 n
1363 465 n
1349 469 n
1340 469 n
1340 469 m
1331 465 n
1327 460 n
1322 451 n
1318 429 n
1318 416 n
1322 393 n
1327 384 n
1331 380 n
1340 375 n
1349 375 m
1358 380 n
1363 384 n
1367 393 n
1372 416 n
1372 429 n
1367 451 n
1363 460 n
1358 465 n
1349 469 n
1916 420 m
1916 460 m
1916 375 n
1920 469 m
1920 375 n
1920 469 m
1871 402 n
1943 402 n
1902 375 m
1934 375 n
2006 420 m
1992 469 m
1979 465 n
1970 451 n
1965 429 n
1965 416 n
1970 393 n
1979 380 n
1992 375 n
2001 375 n
2015 380 n
2024 393 n
2028 416 n
2028 429 n
2024 451 n
2015 465 n
2001 469 n
1992 469 n
1992 469 m
1983 465 n
1979 460 n
1974 451 n
1970 429 n
1970 416 n
1974 393 n
1979 384 n
1983 380 n
1992 375 n
2001 375 m
2010 380 n
2015 384 n
2019 393 n
2024 416 n
2024 429 n
2019 451 n
2015 460 n
2010 465 n
2001 469 n
2564 420 m
2577 456 m
2573 451 n
2577 447 n
2582 451 n
2582 456 n
2577 465 n
2568 469 n
2555 469 n
2541 465 n
2532 456 n
2528 447 n
2523 429 n
2523 402 n
2528 389 n
2537 380 n
2550 375 n
2559 375 n
2573 380 n
2582 389 n
2586 402 n
2586 407 n
2582 420 n
2573 429 n
2559 433 n
2555 433 n
2541 429 n
2532 420 n
2528 407 n
2555 469 m
2546 465 n
2537 456 n
2532 447 n
2528 429 n
2528 402 n
2532 389 n
2541 380 n
2550 375 n
2559 375 m
2568 380 n
2577 389 n
2582 402 n
2582 407 n
2577 420 n
2568 429 n
2559 433 n
2654 420 m
2640 469 m
2627 465 n
2618 451 n
2613 429 n
2613 416 n
2618 393 n
2627 380 n
2640 375 n
2649 375 n
2663 380 n
2672 393 n
2676 416 n
2676 429 n
2672 451 n
2663 465 n
2649 469 n
2640 469 n
2640 469 m
2631 465 n
2627 460 n
2622 451 n
2618 429 n
2618 416 n
2622 393 n
2627 384 n
2631 380 n
2640 375 n
2649 375 m
2658 380 n
2663 384 n
2667 393 n
2672 416 n
2672 429 n
2667 451 n
2663 460 n
2658 465 n
2649 469 n
3214 420 m
3196 469 m
3182 465 n
3178 456 n
3178 442 n
3182 433 n
3196 429 n
3214 429 n
3227 433 n
3232 442 n
3232 456 n
3227 465 n
3214 469 n
3196 469 n
3196 469 m
3187 465 n
3182 456 n
3182 442 n
3187 433 n
3196 429 n
3214 429 m
3223 433 n
3227 442 n
3227 456 n
3223 465 n
3214 469 n
3196 429 m
3182 424 n
3178 420 n
3173 411 n
3173 393 n
3178 384 n
3182 380 n
3196 375 n
3214 375 n
3227 380 n
3232 384 n
3236 393 n
3236 411 n
3232 420 n
3227 424 n
3214 429 n
3196 429 m
3187 424 n
3182 420 n
3178 411 n
3178 393 n
3182 384 n
3187 380 n
3196 375 n
3214 375 m
3223 380 n
3227 384 n
3232 393 n
3232 411 n
3227 420 n
3223 424 n
3214 429 n
3304 420 m
3290 469 m
3277 465 n
3268 451 n
3263 429 n
3263 416 n
3268 393 n
3277 380 n
3290 375 n
3299 375 n
3313 380 n
3322 393 n
3326 416 n
3326 429 n
3322 451 n
3313 465 n
3299 469 n
3290 469 n
3290 469 m
3281 465 n
3277 460 n
3272 451 n
3268 429 n
3268 416 n
3272 393 n
3277 384 n
3281 380 n
3290 375 n
3299 375 m
3308 380 n
3313 384 n
3317 393 n
3322 416 n
3322 429 n
3317 451 n
3313 460 n
3308 465 n
3299 469 n
3785 451 m
3794 456 n
3808 469 n
3808 375 n
3803 465 m
3803 375 n
3785 375 m
3825 375 n
3902 420 m
3888 469 m
3875 465 n
3866 451 n
3861 429 n
3861 416 n
3866 393 n
3875 380 n
3888 375 n
3897 375 n
3911 380 n
3920 393 n
3924 416 n
3924 429 n
3920 451 n
3911 465 n
3897 469 n
3888 469 n
3888 469 m
3879 465 n
3875 460 n
3870 451 n
3866 429 n
3866 416 n
3870 393 n
3875 384 n
3879 380 n
3888 375 n
3897 375 m
3906 380 n
3911 384 n
3915 393 n
3920 416 n
3920 429 n
3915 451 n
3911 460 n
3906 465 n
3897 469 n
3992 420 m
3978 469 m
3965 465 n
3956 451 n
3951 429 n
3951 416 n
3956 393 n
3965 380 n
3978 375 n
3987 375 n
4001 380 n
4010 393 n
4014 416 n
4014 429 n
4010 451 n
4001 465 n
3987 469 n
3978 469 n
3978 469 m
3969 465 n
3965 460 n
3960 451 n
3956 429 n
3956 416 n
3960 393 n
3965 384 n
3969 380 n
3978 375 n
3987 375 m
3996 380 n
4001 384 n
4005 393 n
4010 416 n
4010 429 n
4005 451 n
4001 460 n
3996 465 n
3987 469 n
480 657 m
552 657 m
538 706 m
525 702 n
516 688 n
511 666 n
511 653 n
516 630 n
525 617 n
538 612 n
547 612 n
561 617 n
570 630 n
574 653 n
574 666 n
570 688 n
561 702 n
547 706 n
538 706 n
538 706 m
529 702 n
525 697 n
520 688 n
516 666 n
516 653 n
520 630 n
525 621 n
529 617 n
538 612 n
547 612 m
556 617 n
561 621 n
565 630 n
570 653 n
570 666 n
565 688 n
561 697 n
556 702 n
547 706 n
462 1603 m
430 1652 m
421 1607 n
421 1607 m
430 1616 n
444 1621 n
457 1621 n
471 1616 n
480 1607 n
484 1594 n
484 1585 n
480 1572 n
471 1563 n
457 1558 n
444 1558 n
430 1563 n
426 1567 n
421 1576 n
421 1581 n
426 1585 n
430 1581 n
426 1576 n
457 1621 m
466 1616 n
475 1607 n
480 1594 n
480 1585 n
475 1572 n
466 1563 n
457 1558 n
430 1652 m
475 1652 n
430 1648 m
453 1648 n
475 1652 n
552 1603 m
538 1652 m
525 1648 n
516 1634 n
511 1612 n
511 1599 n
516 1576 n
525 1563 n
538 1558 n
547 1558 n
561 1563 n
570 1576 n
574 1599 n
574 1612 n
570 1634 n
561 1648 n
547 1652 n
538 1652 n
538 1652 m
529 1648 n
525 1643 n
520 1634 n
516 1612 n
516 1599 n
520 1576 n
525 1567 n
529 1563 n
538 1558 n
547 1558 m
556 1563 n
561 1567 n
565 1576 n
570 1599 n
570 1612 n
565 1634 n
561 1643 n
556 1648 n
547 1652 n
345 2581 m
354 2586 n
368 2599 n
368 2505 n
363 2595 m
363 2505 n
345 2505 m
385 2505 n
462 2550 m
448 2599 m
435 2595 n
426 2581 n
421 2559 n
421 2546 n
426 2523 n
435 2510 n
448 2505 n
457 2505 n
471 2510 n
480 2523 n
484 2546 n
484 2559 n
480 2581 n
471 2595 n
457 2599 n
448 2599 n
448 2599 m
439 2595 n
435 2590 n
430 2581 n
426 2559 n
426 2546 n
430 2523 n
435 2514 n
439 2510 n
448 2505 n
457 2505 m
466 2510 n
471 2514 n
475 2523 n
480 2546 n
480 2559 n
475 2581 n
471 2590 n
466 2595 n
457 2599 n
552 2550 m
538 2599 m
525 2595 n
516 2581 n
511 2559 n
511 2546 n
516 2523 n
525 2510 n
538 2505 n
547 2505 n
561 2510 n
570 2523 n
574 2546 n
574 2559 n
570 2581 n
561 2595 n
547 2599 n
538 2599 n
538 2599 m
529 2595 n
525 2590 n
520 2581 n
516 2559 n
516 2546 n
520 2523 n
525 2514 n
529 2510 n
538 2505 n
547 2505 m
556 2510 n
561 2514 n
565 2523 n
570 2546 n
570 2559 n
565 2581 n
561 2590 n
556 2595 n
547 2599 n
1 1 m
e
%%Trailer
EndPSPlot
