\headcommand {\slideentry {0}{0}{1}{1/1}{}{0}}
\headcommand {\beamer@framepages {1}{1}}
\headcommand {\slideentry {0}{0}{2}{2/3}{}{0}}
\headcommand {\beamer@framepages {2}{3}}
\headcommand {\slideentry {0}{0}{3}{4/4}{}{0}}
\headcommand {\beamer@framepages {4}{4}}
\headcommand {\slideentry {0}{0}{4}{5/6}{}{0}}
\headcommand {\beamer@framepages {5}{6}}
\headcommand {\slideentry {0}{0}{5}{7/7}{}{0}}
\headcommand {\beamer@framepages {7}{7}}
\headcommand {\slideentry {0}{0}{6}{8/10}{}{0}}
\headcommand {\beamer@framepages {8}{10}}
\headcommand {\slideentry {0}{0}{7}{11/12}{}{0}}
\headcommand {\beamer@framepages {11}{12}}
\headcommand {\slideentry {0}{0}{8}{13/13}{}{0}}
\headcommand {\beamer@framepages {13}{13}}
\headcommand {\slideentry {0}{0}{9}{14/14}{}{0}}
\headcommand {\beamer@framepages {14}{14}}
\headcommand {\beamer@partpages {1}{14}}
\headcommand {\beamer@subsectionpages {1}{14}}
\headcommand {\beamer@sectionpages {1}{14}}
\headcommand {\beamer@documentpages {14}}
\headcommand {\gdef \inserttotalframenumber {9}}
