\relax 
\providecommand\hyper@newdestlabel[2]{}
\providecommand\HyperFirstAtBeginDocument{\AtBeginDocument}
\HyperFirstAtBeginDocument{\ifx\hyper@anchor\@undefined
\global\let\oldcontentsline\contentsline
\gdef\contentsline#1#2#3#4{\oldcontentsline{#1}{#2}{#3}}
\global\let\oldnewlabel\newlabel
\gdef\newlabel#1#2{\newlabelxx{#1}#2}
\gdef\newlabelxx#1#2#3#4#5#6{\oldnewlabel{#1}{{#2}{#3}}}
\AtEndDocument{\ifx\hyper@anchor\@undefined
\let\contentsline\oldcontentsline
\let\newlabel\oldnewlabel
\fi}
\fi}
\global\let\hyper@last\relax 
\gdef\HyperFirstAtBeginDocument#1{#1}
\providecommand\HyField@AuxAddToFields[1]{}
\providecommand\HyField@AuxAddToCoFields[2]{}
\@writefile{toc}{\beamer@endinputifotherversion {3.36pt}}
\@writefile{nav}{\beamer@endinputifotherversion {3.36pt}}
\@writefile{nav}{\headcommand {\slideentry {0}{0}{1}{1/1}{}{0}}}
\@writefile{nav}{\headcommand {\beamer@framepages {1}{1}}}
\@writefile{nav}{\headcommand {\slideentry {0}{0}{2}{2/3}{}{0}}}
\@writefile{nav}{\headcommand {\beamer@framepages {2}{3}}}
\@writefile{nav}{\headcommand {\slideentry {0}{0}{3}{4/4}{}{0}}}
\@writefile{nav}{\headcommand {\beamer@framepages {4}{4}}}
\@writefile{nav}{\headcommand {\slideentry {0}{0}{4}{5/6}{}{0}}}
\@writefile{nav}{\headcommand {\beamer@framepages {5}{6}}}
\@writefile{nav}{\headcommand {\slideentry {0}{0}{5}{7/7}{}{0}}}
\@writefile{nav}{\headcommand {\beamer@framepages {7}{7}}}
\@writefile{nav}{\headcommand {\slideentry {0}{0}{6}{8/8}{}{0}}}
\@writefile{nav}{\headcommand {\beamer@framepages {8}{8}}}
\@writefile{nav}{\headcommand {\slideentry {0}{0}{7}{9/11}{}{0}}}
\@writefile{nav}{\headcommand {\beamer@framepages {9}{11}}}
\@writefile{nav}{\headcommand {\slideentry {0}{0}{8}{12/14}{}{0}}}
\@writefile{nav}{\headcommand {\beamer@framepages {12}{14}}}
\@writefile{nav}{\headcommand {\slideentry {0}{0}{9}{15/15}{}{0}}}
\@writefile{nav}{\headcommand {\beamer@framepages {15}{15}}}
\@writefile{nav}{\headcommand {\slideentry {0}{0}{10}{16/16}{}{0}}}
\@writefile{nav}{\headcommand {\beamer@framepages {16}{16}}}
\@writefile{nav}{\headcommand {\slideentry {0}{0}{11}{17/18}{}{0}}}
\@writefile{nav}{\headcommand {\beamer@framepages {17}{18}}}
\@writefile{nav}{\headcommand {\slideentry {0}{0}{12}{19/19}{}{0}}}
\@writefile{nav}{\headcommand {\beamer@framepages {19}{19}}}
\@writefile{nav}{\headcommand {\slideentry {0}{0}{13}{20/21}{}{0}}}
\@writefile{nav}{\headcommand {\beamer@framepages {20}{21}}}
\@writefile{nav}{\headcommand {\beamer@partpages {1}{21}}}
\@writefile{nav}{\headcommand {\beamer@subsectionpages {1}{21}}}
\@writefile{nav}{\headcommand {\beamer@sectionpages {1}{21}}}
\@writefile{nav}{\headcommand {\beamer@documentpages {21}}}
\@writefile{nav}{\headcommand {\def \inserttotalframenumber {13}}}
