%!
%%Creator: shemhazai:wfreeman(Walter,,,)
%%Title: Unix plot file
%%CreationDate: Wed Feb 24 22:16:13 2016
%%DocumentFonts: Courier
%%EndComments
%%BoundingBox: 0 0 4096 4096
% Start of psplot.pro -- prolog for plot(5) translator
% Copyright (c) 1984,1985,1987 Adobe Systems Incorporated. All Rights Reserved. 
%              RESTRICTED RIGHTS LEGEND
% Use, duplication or disclosure by the Government is subject to
% restrictions as set forth in subdivision (b)(3)(ii) of the Rights in
% Technical Data and Computer Software Clause at 252.227-7013.
% Name of Contractor: Adobe Systems Incorporated
% Address:  1870 Embarcadero Road
%	  Palo Alto, California  94303
% RCS: $Header: psplot.pro,v 2.2 87/11/17 16:41:06 byron Rel $
save 50 dict begin /psplot exch def
/StartPSPlot
   {newpath 0 0 moveto 8 setlinewidth 0 setgray 1 setlinecap
    /imtx matrix currentmatrix def /dmtx matrix defaultmatrix def
    /fnt /Courier findfont def /smtx matrix def fnt 8 scalefont setfont}def
/solid {{}0}def
/dotted	{[2 nail 3.5 nail ] 0}def
/longdashed {[10 nail] 0}def
/shortdashed {[6 nail] 0}def
/dotdashed {[2 nail 6 nail 10 nail 6 nail] 0}def
/disconnected {{}0}def
/min {2 copy lt{pop}{exch pop}ifelse}def
/max {2 copy lt{exch pop}{pop}ifelse}def
/len {dup mul exch dup mul add sqrt}def
/nail {0 imtx dtransform len 0 idtransform len}def

/m {newpath moveto}def
/n {lineto currentpoint stroke moveto}def
/p {newpath moveto gsave 1 setlinecap solid setdash
    dmtx setmatrix .4 nail setlinewidth
    .05 0 idtransform rlineto stroke grestore}def
/l {moveto lineto currentpoint stroke moveto}def
/t {smtx currentmatrix pop imtx setmatrix show smtx setmatrix}def
/a {gsave newpath /y2 exch def /x2 exch def 
    /y1 exch def /x1 exch def /yc exch def /xc exch def
    /r x1 xc sub dup mul y1 yc sub dup mul add sqrt
       x2 xc sub dup mul y2 yc sub dup mul add sqrt add 2 div def
    /ang1 y1 yc sub x1 xc sub atan def
    /ang2 y2 yc sub x2 xc sub atan def
    xc yc r ang1 ang2 arc stroke grestore}def
/c {gsave newpath 0 360 arc stroke grestore}def
/e {gsave showpage grestore newpath 0 0 moveto}def
/f {load exec setdash}def
/s {/ury exch def /urx exch def /lly exch def /llx exch def
    imtx setmatrix newpath clippath pathbbox newpath
    /dury exch def /durx exch def /dlly exch def /dllx exch def
    /md durx dllx sub dury dlly sub min def
    /Mu urx llx sub ury lly sub max def
    36 144 translate .8 .8 scale
    dllx dlly translate md Mu div dup scale llx neg lly neg translate}def
/EndPSPlot {clear psplot end restore}def
StartPSPlot
%%EndProlog
%%Page: 1 1
0 0 4096 4096 s
/solid f
/dotted f
1.00 0.31 1.00 0 setcmykcolor
650 674 m
650 773 n
876 773 n
876 674 n
876 674 n
876 897 n
1101 897 n
1101 674 n
1101 674 n
1101 1342 n
1327 1342 n
1327 674 n
1327 674 n
1327 1342 n
1553 1342 n
1553 674 n
1553 674 n
1553 1812 n
1778 1812 n
1778 674 n
1778 674 n
1778 1935 n
2004 1935 n
2004 674 n
2004 674 n
2004 2059 n
2230 2059 n
2230 674 n
2230 674 n
2230 2034 n
2456 2034 n
2456 674 n
2456 674 n
2456 1911 n
2681 1911 n
2681 674 n
2681 674 n
2681 2504 n
2907 2504 n
2907 674 n
2907 674 n
2907 1737 n
3133 1737 n
3133 674 n
3133 674 n
3133 1465 n
3358 1465 n
3358 674 n
/solid f
0.00 1.00 1.00 0 setcmykcolor
650 674 m
650 699 n
876 699 n
876 674 n
876 674 n
876 724 n
1101 724 n
1101 674 n
1101 674 n
1101 1169 n
1327 1169 n
1327 674 n
1327 674 n
1327 1317 n
1553 1317 n
1553 674 n
1553 674 n
1553 1342 n
1778 1342 n
1778 674 n
1778 674 n
1778 1985 n
2004 1985 n
2004 674 n
2004 674 n
2004 2430 n
2230 2430 n
2230 674 n
2230 674 n
2230 2331 n
2456 2331 n
2456 674 n
2456 674 n
2456 2010 n
2681 2010 n
2681 674 n
2681 674 n
2681 2677 n
2907 2677 n
2907 674 n
2907 674 n
2907 1861 n
3133 1861 n
3133 674 n
3133 674 n
3133 1589 n
3358 1589 n
3358 674 n
/solid f
0 0 0 1 setcmykcolor
3900 600 650 600 l
3900 2875 n
650 2875 n
650 600 n
867 650 867 600 l
867 2875 867 2825 l
1083 650 1083 600 l
1083 2875 1083 2825 l
1300 650 1300 600 l
1300 2875 1300 2825 l
1517 650 1517 600 l
1517 2875 1517 2825 l
1733 750 1733 600 l
1733 2875 1733 2725 l
1950 650 1950 600 l
1950 2875 1950 2825 l
2167 650 2167 600 l
2167 2875 2167 2825 l
2383 650 2383 600 l
2383 2875 2383 2825 l
2600 650 2600 600 l
2600 2875 2600 2825 l
2817 750 2817 600 l
2817 2875 2817 2725 l
3033 650 3033 600 l
3033 2875 3033 2825 l
3250 650 3250 600 l
3250 2875 3250 2825 l
3467 650 3467 600 l
3467 2875 3467 2825 l
3683 650 3683 600 l
3683 2875 3683 2825 l
800 674 650 674 l
3900 674 3750 674 l
700 773 650 773 l
3900 773 3850 773 l
700 872 650 872 l
3900 872 3850 872 l
700 971 650 971 l
3900 971 3850 971 l
700 1070 650 1070 l
3900 1070 3850 1070 l
800 1169 650 1169 l
3900 1169 3750 1169 l
700 1268 650 1268 l
3900 1268 3850 1268 l
700 1367 650 1367 l
3900 1367 3850 1367 l
700 1465 650 1465 l
3900 1465 3850 1465 l
700 1564 650 1564 l
3900 1564 3850 1564 l
800 1663 650 1663 l
3900 1663 3750 1663 l
700 1762 650 1762 l
3900 1762 3850 1762 l
700 1861 650 1861 l
3900 1861 3850 1861 l
700 1960 650 1960 l
3900 1960 3850 1960 l
700 2059 650 2059 l
3900 2059 3850 2059 l
800 2158 650 2158 l
3900 2158 3750 2158 l
700 2257 650 2257 l
3900 2257 3850 2257 l
700 2356 650 2356 l
3900 2356 3850 2356 l
700 2455 650 2455 l
3900 2455 3850 2455 l
700 2554 650 2554 l
3900 2554 3850 2554 l
800 2652 650 2652 l
3900 2652 3750 2652 l
700 2751 650 2751 l
3900 2751 3850 2751 l
602 420 m
674 420 m
660 469 m
647 465 n
638 451 n
633 429 n
633 416 n
638 393 n
647 380 n
660 375 n
669 375 n
683 380 n
692 393 n
696 416 n
696 429 n
692 451 n
683 465 n
669 469 n
660 469 n
660 469 m
651 465 n
647 460 n
642 451 n
638 429 n
638 416 n
642 393 n
647 384 n
651 380 n
660 375 n
669 375 m
678 380 n
683 384 n
687 393 n
692 416 n
692 429 n
687 451 n
683 460 n
678 465 n
669 469 n
1697 420 m
1665 469 m
1656 424 n
1656 424 m
1665 433 n
1679 438 n
1692 438 n
1706 433 n
1715 424 n
1719 411 n
1719 402 n
1715 389 n
1706 380 n
1692 375 n
1679 375 n
1665 380 n
1661 384 n
1656 393 n
1656 398 n
1661 402 n
1665 398 n
1661 393 n
1692 438 m
1701 433 n
1710 424 n
1715 411 n
1715 402 n
1710 389 n
1701 380 n
1692 375 n
1665 469 m
1710 469 n
1665 465 m
1688 465 n
1710 469 n
1787 420 m
1773 469 m
1760 465 n
1751 451 n
1746 429 n
1746 416 n
1751 393 n
1760 380 n
1773 375 n
1782 375 n
1796 380 n
1805 393 n
1809 416 n
1809 429 n
1805 451 n
1796 465 n
1782 469 n
1773 469 n
1773 469 m
1764 465 n
1760 460 n
1755 451 n
1751 429 n
1751 416 n
1755 393 n
1760 384 n
1764 380 n
1773 375 n
1782 375 m
1791 380 n
1796 384 n
1800 393 n
1805 416 n
1805 429 n
1800 451 n
1796 460 n
1791 465 n
1782 469 n
2702 451 m
2711 456 n
2725 469 n
2725 375 n
2720 465 m
2720 375 n
2702 375 m
2742 375 n
2819 420 m
2805 469 m
2792 465 n
2783 451 n
2778 429 n
2778 416 n
2783 393 n
2792 380 n
2805 375 n
2814 375 n
2828 380 n
2837 393 n
2841 416 n
2841 429 n
2837 451 n
2828 465 n
2814 469 n
2805 469 n
2805 469 m
2796 465 n
2792 460 n
2787 451 n
2783 429 n
2783 416 n
2787 393 n
2792 384 n
2796 380 n
2805 375 n
2814 375 m
2823 380 n
2828 384 n
2832 393 n
2837 416 n
2837 429 n
2832 451 n
2828 460 n
2823 465 n
2814 469 n
2909 420 m
2895 469 m
2882 465 n
2873 451 n
2868 429 n
2868 416 n
2873 393 n
2882 380 n
2895 375 n
2904 375 n
2918 380 n
2927 393 n
2931 416 n
2931 429 n
2927 451 n
2918 465 n
2904 469 n
2895 469 n
2895 469 m
2886 465 n
2882 460 n
2877 451 n
2873 429 n
2873 416 n
2877 393 n
2882 384 n
2886 380 n
2895 375 n
2904 375 m
2913 380 n
2918 384 n
2922 393 n
2927 416 n
2927 429 n
2922 451 n
2918 460 n
2913 465 n
2904 469 n
3785 451 m
3794 456 n
3808 469 n
3808 375 n
3803 465 m
3803 375 n
3785 375 m
3825 375 n
3902 420 m
3870 469 m
3861 424 n
3861 424 m
3870 433 n
3884 438 n
3897 438 n
3911 433 n
3920 424 n
3924 411 n
3924 402 n
3920 389 n
3911 380 n
3897 375 n
3884 375 n
3870 380 n
3866 384 n
3861 393 n
3861 398 n
3866 402 n
3870 398 n
3866 393 n
3897 438 m
3906 433 n
3915 424 n
3920 411 n
3920 402 n
3915 389 n
3906 380 n
3897 375 n
3870 469 m
3915 469 n
3870 465 m
3893 465 n
3915 469 n
3992 420 m
3978 469 m
3965 465 n
3956 451 n
3951 429 n
3951 416 n
3956 393 n
3965 380 n
3978 375 n
3987 375 n
4001 380 n
4010 393 n
4014 416 n
4014 429 n
4010 451 n
4001 465 n
3987 469 n
3978 469 n
3978 469 m
3969 465 n
3965 460 n
3960 451 n
3956 429 n
3956 416 n
3960 393 n
3965 384 n
3969 380 n
3978 375 n
3987 375 m
3996 380 n
4001 384 n
4005 393 n
4010 416 n
4010 429 n
4005 451 n
4001 460 n
3996 465 n
3987 469 n
552 674 m
538 723 m
525 719 n
516 705 n
511 683 n
511 670 n
516 647 n
525 634 n
538 629 n
547 629 n
561 634 n
570 647 n
574 670 n
574 683 n
570 705 n
561 719 n
547 723 n
538 723 n
538 723 m
529 719 n
525 714 n
520 705 n
516 683 n
516 670 n
520 647 n
525 638 n
529 634 n
538 629 n
547 629 m
556 634 n
561 638 n
565 647 n
570 670 n
570 683 n
565 705 n
561 714 n
556 719 n
547 723 n
426 1200 m
431 1196 n
426 1191 n
422 1196 n
422 1200 n
426 1209 n
431 1214 n
444 1218 n
462 1218 n
475 1214 n
480 1209 n
484 1200 n
484 1191 n
480 1182 n
466 1173 n
444 1165 n
435 1160 n
426 1151 n
422 1138 n
422 1124 n
462 1218 m
471 1214 n
475 1209 n
480 1200 n
480 1191 n
475 1182 n
462 1173 n
444 1165 n
422 1133 m
426 1138 n
435 1138 n
458 1129 n
471 1129 n
480 1133 n
484 1138 n
435 1138 m
458 1124 n
475 1124 n
480 1129 n
484 1138 n
484 1147 n
552 1169 m
538 1218 m
525 1214 n
516 1200 n
511 1178 n
511 1165 n
516 1142 n
525 1129 n
538 1124 n
547 1124 n
561 1129 n
570 1142 n
574 1165 n
574 1178 n
570 1200 n
561 1214 n
547 1218 n
538 1218 n
538 1218 m
529 1214 n
525 1209 n
520 1200 n
516 1178 n
516 1165 n
520 1142 n
525 1133 n
529 1129 n
538 1124 n
547 1124 m
556 1129 n
561 1133 n
565 1142 n
570 1165 n
570 1178 n
565 1200 n
561 1209 n
556 1214 n
547 1218 n
462 1703 m
462 1618 n
466 1712 m
466 1618 n
466 1712 m
417 1645 n
489 1645 n
449 1618 m
480 1618 n
552 1663 m
538 1712 m
525 1708 n
516 1694 n
511 1672 n
511 1659 n
516 1636 n
525 1623 n
538 1618 n
547 1618 n
561 1623 n
570 1636 n
574 1659 n
574 1672 n
570 1694 n
561 1708 n
547 1712 n
538 1712 n
538 1712 m
529 1708 n
525 1703 n
520 1694 n
516 1672 n
516 1659 n
520 1636 n
525 1627 n
529 1623 n
538 1618 n
547 1618 m
556 1623 n
561 1627 n
565 1636 n
570 1659 n
570 1672 n
565 1694 n
561 1703 n
556 1708 n
547 1712 n
475 2194 m
471 2189 n
475 2185 n
480 2189 n
480 2194 n
475 2203 n
466 2207 n
453 2207 n
440 2203 n
431 2194 n
426 2185 n
422 2167 n
422 2140 n
426 2127 n
435 2118 n
449 2113 n
458 2113 n
471 2118 n
480 2127 n
484 2140 n
484 2145 n
480 2158 n
471 2167 n
458 2171 n
453 2171 n
440 2167 n
431 2158 n
426 2145 n
453 2207 m
444 2203 n
435 2194 n
431 2185 n
426 2167 n
426 2140 n
431 2127 n
440 2118 n
449 2113 n
458 2113 m
466 2118 n
475 2127 n
480 2140 n
480 2145 n
475 2158 n
466 2167 n
458 2171 n
552 2158 m
538 2207 m
525 2203 n
516 2189 n
511 2167 n
511 2154 n
516 2131 n
525 2118 n
538 2113 n
547 2113 n
561 2118 n
570 2131 n
574 2154 n
574 2167 n
570 2189 n
561 2203 n
547 2207 n
538 2207 n
538 2207 m
529 2203 n
525 2198 n
520 2189 n
516 2167 n
516 2154 n
520 2131 n
525 2122 n
529 2118 n
538 2113 n
547 2113 m
556 2118 n
561 2122 n
565 2131 n
570 2154 n
570 2167 n
565 2189 n
561 2198 n
556 2203 n
547 2207 n
444 2701 m
431 2697 n
426 2688 n
426 2674 n
431 2665 n
444 2661 n
462 2661 n
475 2665 n
480 2674 n
480 2688 n
475 2697 n
462 2701 n
444 2701 n
444 2701 m
435 2697 n
431 2688 n
431 2674 n
435 2665 n
444 2661 n
462 2661 m
471 2665 n
475 2674 n
475 2688 n
471 2697 n
462 2701 n
444 2661 m
431 2656 n
426 2652 n
422 2643 n
422 2625 n
426 2616 n
431 2612 n
444 2607 n
462 2607 n
475 2612 n
480 2616 n
484 2625 n
484 2643 n
480 2652 n
475 2656 n
462 2661 n
444 2661 m
435 2656 n
431 2652 n
426 2643 n
426 2625 n
431 2616 n
435 2612 n
444 2607 n
462 2607 m
471 2612 n
475 2616 n
480 2625 n
480 2643 n
475 2652 n
471 2656 n
462 2661 n
552 2652 m
538 2701 m
525 2697 n
516 2683 n
511 2661 n
511 2648 n
516 2625 n
525 2612 n
538 2607 n
547 2607 n
561 2612 n
570 2625 n
574 2648 n
574 2661 n
570 2683 n
561 2697 n
547 2701 n
538 2701 n
538 2701 m
529 2697 n
525 2692 n
520 2683 n
516 2661 n
516 2648 n
520 2625 n
525 2616 n
529 2612 n
538 2607 n
547 2607 m
556 2612 n
561 2616 n
565 2625 n
570 2648 n
570 2661 n
565 2683 n
561 2692 n
556 2697 n
547 2701 n
1 1 m
e
%%Trailer
EndPSPlot
