\relax 
\providecommand\hyper@newdestlabel[2]{}
\providecommand\HyperFirstAtBeginDocument{\AtBeginDocument}
\HyperFirstAtBeginDocument{\ifx\hyper@anchor\@undefined
\global\let\oldnewlabel\newlabel
\gdef\newlabel#1#2{\newlabelxx{#1}#2}
\gdef\newlabelxx#1#2#3#4#5#6{\oldnewlabel{#1}{{#2}{#3}}}
\AtEndDocument{\ifx\hyper@anchor\@undefined
\let\newlabel\oldnewlabel
\fi}
\fi}
\global\let\hyper@last\relax 
\gdef\HyperFirstAtBeginDocument#1{#1}
\providecommand\HyField@AuxAddToFields[1]{}
\providecommand\HyField@AuxAddToCoFields[2]{}
\@writefile{nav}{\headcommand {\slideentry {0}{0}{1}{1/1}{}{0}}}
\@writefile{nav}{\headcommand {\beamer@framepages {1}{1}}}
\@writefile{nav}{\headcommand {\slideentry {0}{0}{2}{2/2}{}{0}}}
\@writefile{nav}{\headcommand {\beamer@framepages {2}{2}}}
\@writefile{nav}{\headcommand {\slideentry {0}{0}{3}{3/3}{}{0}}}
\@writefile{nav}{\headcommand {\beamer@framepages {3}{3}}}
\@writefile{nav}{\headcommand {\slideentry {0}{0}{4}{4/7}{}{0}}}
\@writefile{nav}{\headcommand {\beamer@framepages {4}{7}}}
\@writefile{nav}{\headcommand {\slideentry {0}{0}{5}{8/9}{}{0}}}
\@writefile{nav}{\headcommand {\beamer@framepages {8}{9}}}
\@writefile{nav}{\headcommand {\slideentry {0}{0}{6}{10/10}{}{0}}}
\@writefile{nav}{\headcommand {\beamer@framepages {10}{10}}}
\@writefile{nav}{\headcommand {\slideentry {0}{0}{7}{11/12}{}{0}}}
\@writefile{nav}{\headcommand {\beamer@framepages {11}{12}}}
\@writefile{nav}{\headcommand {\slideentry {0}{0}{8}{13/13}{}{0}}}
\@writefile{nav}{\headcommand {\beamer@framepages {13}{13}}}
\@writefile{nav}{\headcommand {\slideentry {0}{0}{9}{14/14}{}{0}}}
\@writefile{nav}{\headcommand {\beamer@framepages {14}{14}}}
\@writefile{nav}{\headcommand {\slideentry {0}{0}{10}{15/15}{}{0}}}
\@writefile{nav}{\headcommand {\beamer@framepages {15}{15}}}
\@writefile{nav}{\headcommand {\slideentry {0}{0}{11}{16/16}{}{0}}}
\@writefile{nav}{\headcommand {\beamer@framepages {16}{16}}}
\@writefile{nav}{\headcommand {\slideentry {0}{0}{12}{17/17}{}{0}}}
\@writefile{nav}{\headcommand {\beamer@framepages {17}{17}}}
\@writefile{nav}{\headcommand {\slideentry {0}{0}{13}{18/19}{}{0}}}
\@writefile{nav}{\headcommand {\beamer@framepages {18}{19}}}
\@writefile{nav}{\headcommand {\slideentry {0}{0}{14}{20/20}{}{0}}}
\@writefile{nav}{\headcommand {\beamer@framepages {20}{20}}}
\@writefile{nav}{\headcommand {\slideentry {0}{0}{15}{21/23}{}{0}}}
\@writefile{nav}{\headcommand {\beamer@framepages {21}{23}}}
\@writefile{nav}{\headcommand {\slideentry {0}{0}{16}{24/24}{}{0}}}
\@writefile{nav}{\headcommand {\beamer@framepages {24}{24}}}
\@writefile{nav}{\headcommand {\slideentry {0}{0}{17}{25/25}{}{0}}}
\@writefile{nav}{\headcommand {\beamer@framepages {25}{25}}}
\@writefile{nav}{\headcommand {\beamer@partpages {1}{25}}}
\@writefile{nav}{\headcommand {\beamer@subsectionpages {1}{25}}}
\@writefile{nav}{\headcommand {\beamer@sectionpages {1}{25}}}
\@writefile{nav}{\headcommand {\beamer@documentpages {25}}}
\@writefile{nav}{\headcommand {\gdef \inserttotalframenumber {17}}}
\gdef \@abspage@last{25}
