\relax 
\@writefile{toc}{\contentsline {section}{\numberline {1}Introduction}{1}\protected@file@percent }
\@writefile{toc}{\contentsline {section}{\numberline {2}Coordinate systems}{1}\protected@file@percent }
\@writefile{toc}{\contentsline {section}{\numberline {3}Acceleration, velocity, and position}{2}\protected@file@percent }
\@writefile{toc}{\contentsline {subsection}{\numberline {3.1}Going from position to velocity to acceleration: derivatives}{2}\protected@file@percent }
\@writefile{toc}{\contentsline {subsection}{\numberline {3.2}Going from acceleration to velocity to position: integrals}{2}\protected@file@percent }
\@writefile{toc}{\contentsline {subsection}{\numberline {3.3}Constant acceleration kinematics}{2}\protected@file@percent }
