%!
%%Creator: fedora:wfreeman(Walter)
%%Title: Unix plot file
%%CreationDate: Mon Jan 13 23:35:57 2025
%%DocumentFonts: Courier
%%EndComments
%%BoundingBox: 0 0 4096 4096
% Start of psplot.pro -- prolog for plot(5) translator
% Copyright (c) 1984,1985,1987 Adobe Systems Incorporated. All Rights Reserved. 
%              RESTRICTED RIGHTS LEGEND
% Use, duplication or disclosure by the Government is subject to
% restrictions as set forth in subdivision (b)(3)(ii) of the Rights in
% Technical Data and Computer Software Clause at 252.227-7013.
% Name of Contractor: Adobe Systems Incorporated
% Address:  1870 Embarcadero Road
%	  Palo Alto, California  94303
% RCS: $Header: psplot.pro,v 2.2 87/11/17 16:41:06 byron Rel $
save 50 dict begin /psplot exch def
/StartPSPlot
   {newpath 0 0 moveto 8 setlinewidth 0 setgray 1 setlinecap
    /imtx matrix currentmatrix def /dmtx matrix defaultmatrix def
    /fnt /Courier findfont def /smtx matrix def fnt 8 scalefont setfont}def
/solid {{}0}def
/dotted	{[2 nail 3.5 nail ] 0}def
/longdashed {[10 nail] 0}def
/shortdashed {[6 nail] 0}def
/dotdashed {[2 nail 6 nail 10 nail 6 nail] 0}def
/disconnected {{}0}def
/min {2 copy lt{pop}{exch pop}ifelse}def
/max {2 copy lt{exch pop}{pop}ifelse}def
/len {dup mul exch dup mul add sqrt}def
/nail {0 imtx dtransform len 0 idtransform len}def

/m {newpath moveto}def
/n {lineto currentpoint stroke moveto}def
/p {newpath moveto gsave 1 setlinecap solid setdash
    dmtx setmatrix .4 nail setlinewidth
    .05 0 idtransform rlineto stroke grestore}def
/l {moveto lineto currentpoint stroke moveto}def
/t {smtx currentmatrix pop imtx setmatrix show smtx setmatrix}def
/a {gsave newpath /y2 exch def /x2 exch def 
    /y1 exch def /x1 exch def /yc exch def /xc exch def
    /r x1 xc sub dup mul y1 yc sub dup mul add sqrt
       x2 xc sub dup mul y2 yc sub dup mul add sqrt add 2 div def
    /ang1 y1 yc sub x1 xc sub atan def
    /ang2 y2 yc sub x2 xc sub atan def
    xc yc r ang1 ang2 arc stroke grestore}def
/c {gsave newpath 0 360 arc stroke grestore}def
/e {gsave showpage grestore newpath 0 0 moveto}def
/f {load exec setdash}def
/s {/ury exch def /urx exch def /lly exch def /llx exch def
    imtx setmatrix newpath clippath pathbbox newpath
    /dury exch def /durx exch def /dlly exch def /dllx exch def
    /md durx dllx sub dury dlly sub min def
    /Mu urx llx sub ury lly sub max def
    36 144 translate .8 .8 scale
    dllx dlly translate md Mu div dup scale llx neg lly neg translate}def
/EndPSPlot {clear psplot end restore}def
StartPSPlot
%%EndProlog
%%Page: 1 1
0 0 4096 4096 s
/solid f
0.00 1.00 1.00 0 setcmykcolor
650 1575 m
660 1640 n
671 1704 n
681 1767 n
691 1828 n
702 1887 n
712 1942 n
722 1994 n
733 2041 n
743 2084 n
754 2122 n
764 2154 n
774 2181 n
785 2201 n
795 2216 n
805 2223 n
816 2225 n
826 2220 n
836 2208 n
847 2190 n
857 2166 n
867 2136 n
878 2101 n
888 2060 n
898 2014 n
909 1964 n
919 1910 n
929 1853 n
940 1793 n
950 1731 n
961 1667 n
971 1602 n
981 1537 n
992 1472 n
1002 1409 n
1012 1347 n
1023 1287 n
1033 1231 n
1043 1177 n
1054 1128 n
1064 1083 n
1074 1043 n
1085 1008 n
1095 979 n
1105 956 n
1116 940 n
1126 929 n
1136 925 n
1147 927 n
1157 936 n
1168 952 n
1178 973 n
1188 1001 n
1199 1034 n
1209 1073 n
1219 1116 n
1230 1165 n
1240 1217 n
1250 1273 n
1261 1332 n
1271 1393 n
1281 1457 n
1292 1521 n
1302 1586 n
1312 1651 n
1323 1715 n
1333 1778 n
1343 1838 n
1354 1896 n
1364 1951 n
1375 2002 n
1385 2049 n
1395 2091 n
1406 2128 n
1416 2159 n
1426 2185 n
1437 2204 n
1447 2217 n
1457 2224 n
1468 2224 n
1478 2218 n
1488 2205 n
1499 2186 n
1509 2161 n
1519 2130 n
1530 2094 n
1540 2052 n
1550 2006 n
1561 1955 n
1571 1901 n
1582 1843 n
1592 1782 n
1602 1720 n
1613 1656 n
1623 1591 n
1633 1526 n
1644 1462 n
1654 1398 n
1664 1337 n
1675 1278 n
1685 1221 n
1695 1169 n
1706 1120 n
1716 1076 n
1726 1037 n
1737 1003 n
1747 975 n
1757 953 n
1768 937 n
1778 928 n
1789 925 n
1799 929 n
1809 939 n
1820 955 n
1830 977 n
1840 1006 n
1851 1040 n
1861 1080 n
1871 1124 n
1882 1173 n
1892 1226 n
1902 1283 n
1913 1342 n
1923 1404 n
1933 1467 n
1944 1532 n
1954 1597 n
1964 1662 n
1975 1725 n
1985 1788 n
1996 1848 n
2006 1906 n
2016 1960 n
2027 2010 n
2037 2056 n
2047 2097 n
2058 2133 n
2068 2164 n
2078 2188 n
2089 2207 n
2099 2219 n
2109 2225 n
2120 2224 n
2130 2216 n
2140 2203 n
2151 2183 n
2161 2157 n
2171 2125 n
2182 2087 n
2192 2045 n
2203 1998 n
2213 1946 n
2223 1891 n
2234 1833 n
2244 1772 n
2254 1709 n
2265 1645 n
2275 1580 n
2285 1515 n
2296 1451 n
2306 1388 n
2316 1327 n
2327 1268 n
2337 1212 n
2347 1160 n
2358 1112 n
2368 1069 n
2379 1031 n
2389 998 n
2399 971 n
2410 950 n
2420 935 n
2430 927 n
2441 925 n
2451 930 n
2461 941 n
2472 958 n
2482 982 n
2492 1011 n
2503 1046 n
2513 1087 n
2523 1132 n
2534 1182 n
2544 1235 n
2554 1293 n
2565 1352 n
2575 1414 n
2586 1478 n
2596 1543 n
2606 1608 n
2617 1672 n
2627 1736 n
2637 1798 n
2648 1858 n
2658 1915 n
2668 1969 n
2679 2018 n
2689 2064 n
2699 2104 n
2710 2139 n
2720 2168 n
2730 2192 n
2741 2209 n
2751 2220 n
2761 2225 n
2772 2223 n
2782 2215 n
2793 2200 n
2803 2179 n
2813 2152 n
2824 2119 n
2834 2081 n
2844 2037 n
2855 1989 n
2865 1937 n
2875 1882 n
2886 1823 n
2896 1762 n
2906 1698 n
2917 1634 n
2927 1569 n
2937 1504 n
2948 1440 n
2958 1377 n
2968 1317 n
2979 1258 n
2989 1203 n
3000 1152 n
3010 1105 n
3020 1062 n
3031 1025 n
3041 993 n
3051 967 n
3062 947 n
3072 934 n
3082 926 n
3093 925 n
3103 931 n
3113 943 n
3124 962 n
3134 986 n
3144 1017 n
3155 1053 n
3165 1094 n
3175 1140 n
3186 1191 n
3196 1245 n
3207 1302 n
3217 1363 n
3227 1425 n
3238 1489 n
3248 1554 n
3258 1619 n
3269 1683 n
3279 1747 n
3289 1808 n
3300 1868 n
3310 1924 n
3320 1977 n
3331 2026 n
3341 2071 n
3351 2110 n
3362 2144 n
3372 2173 n
3382 2195 n
3393 2212 n
3403 2222 n
3414 2225 n
3424 2222 n
3434 2212 n
3445 2197 n
3455 2175 n
3465 2147 n
3476 2113 n
3486 2074 n
3496 2030 n
3507 1981 n
3517 1928 n
3527 1872 n
3538 1813 n
3548 1751 n
3558 1688 n
3569 1623 n
3579 1558 n
3589 1494 n
3600 1430 n
3610 1367 n
3621 1307 n
3631 1249 n
3641 1194 n
3652 1144 n
3662 1097 n
3672 1056 n
3683 1019 n
3693 988 n
3703 963 n
3714 944 n
3724 932 n
3734 926 n
3745 926 n
3755 933 n
3765 946 n
3776 966 n
3786 991 n
3796 1023 n
3807 1059 n
3817 1102 n
3828 1148 n
3838 1199 n
3848 1254 n
3859 1312 n
3869 1373 n
3879 1436 n
3890 1500 n
3900 1565 n
/solid f
0 0 0 1 setcmykcolor
3900 600 650 600 l
3900 2550 n
650 2550 n
650 600 n
857 650 857 600 l
857 2550 857 2500 l
1064 650 1064 600 l
1064 2550 1064 2500 l
1271 650 1271 600 l
1271 2550 1271 2500 l
1478 650 1478 600 l
1478 2550 1478 2500 l
1685 750 1685 600 l
1685 2550 1685 2400 l
1892 650 1892 600 l
1892 2550 1892 2500 l
2099 650 2099 600 l
2099 2550 2099 2500 l
2306 650 2306 600 l
2306 2550 2306 2500 l
2513 650 2513 600 l
2513 2550 2513 2500 l
2720 750 2720 600 l
2720 2550 2720 2400 l
2927 650 2927 600 l
2927 2550 2927 2500 l
3134 650 3134 600 l
3134 2550 3134 2500 l
3341 650 3341 600 l
3341 2550 3341 2500 l
3548 650 3548 600 l
3548 2550 3548 2500 l
3755 750 3755 600 l
3755 2550 3755 2400 l
700 665 650 665 l
3900 665 3850 665 l
700 795 650 795 l
3900 795 3850 795 l
800 925 650 925 l
3900 925 3750 925 l
700 1055 650 1055 l
3900 1055 3850 1055 l
700 1185 650 1185 l
3900 1185 3850 1185 l
700 1315 650 1315 l
3900 1315 3850 1315 l
700 1445 650 1445 l
3900 1445 3850 1445 l
800 1575 650 1575 l
3900 1575 3750 1575 l
700 1705 650 1705 l
3900 1705 3850 1705 l
700 1835 650 1835 l
3900 1835 3850 1835 l
700 1965 650 1965 l
3900 1965 3850 1965 l
700 2095 650 2095 l
3900 2095 3850 2095 l
800 2225 650 2225 l
3900 2225 3750 2225 l
700 2355 650 2355 l
3900 2355 3850 2355 l
700 2485 650 2485 l
3900 2485 3850 2485 l
659 420 m
645 469 m
632 465 n
623 451 n
618 429 n
618 416 n
623 393 n
632 380 n
645 375 n
654 375 n
668 380 n
677 393 n
681 416 n
681 429 n
677 451 n
668 465 n
654 469 n
645 469 n
645 469 m
636 465 n
632 460 n
627 451 n
623 429 n
623 416 n
627 393 n
632 384 n
636 380 n
645 375 n
654 375 m
663 380 n
668 384 n
672 393 n
677 416 n
677 429 n
672 451 n
668 460 n
663 465 n
654 469 n
1694 420 m
1662 469 m
1653 424 n
1653 424 m
1662 433 n
1676 438 n
1689 438 n
1703 433 n
1712 424 n
1716 411 n
1716 402 n
1712 389 n
1703 380 n
1689 375 n
1676 375 n
1662 380 n
1658 384 n
1653 393 n
1653 398 n
1658 402 n
1662 398 n
1658 393 n
1689 438 m
1698 433 n
1707 424 n
1712 411 n
1712 402 n
1707 389 n
1698 380 n
1689 375 n
1662 469 m
1707 469 n
1662 465 m
1685 465 n
1707 469 n
2650 451 m
2659 456 n
2673 469 n
2673 375 n
2668 465 m
2668 375 n
2650 375 m
2690 375 n
2767 420 m
2753 469 m
2740 465 n
2731 451 n
2726 429 n
2726 416 n
2731 393 n
2740 380 n
2753 375 n
2762 375 n
2776 380 n
2785 393 n
2789 416 n
2789 429 n
2785 451 n
2776 465 n
2762 469 n
2753 469 n
2753 469 m
2744 465 n
2740 460 n
2735 451 n
2731 429 n
2731 416 n
2735 393 n
2740 384 n
2744 380 n
2753 375 n
2762 375 m
2771 380 n
2776 384 n
2780 393 n
2785 416 n
2785 429 n
2780 451 n
2776 460 n
2771 465 n
2762 469 n
3685 451 m
3694 456 n
3708 469 n
3708 375 n
3703 465 m
3703 375 n
3685 375 m
3725 375 n
3802 420 m
3770 469 m
3761 424 n
3761 424 m
3770 433 n
3784 438 n
3797 438 n
3811 433 n
3820 424 n
3824 411 n
3824 402 n
3820 389 n
3811 380 n
3797 375 n
3784 375 n
3770 380 n
3766 384 n
3761 393 n
3761 398 n
3766 402 n
3770 398 n
3766 393 n
3797 438 m
3806 433 n
3815 424 n
3820 411 n
3820 402 n
3815 389 n
3806 380 n
3797 375 n
3770 469 m
3815 469 n
3770 465 m
3793 465 n
3815 469 n
399 921 m
480 921 n
552 925 m
516 956 m
520 952 n
516 947 n
511 952 n
511 956 n
516 965 n
520 970 n
534 974 n
552 974 n
565 970 n
570 965 n
574 956 n
574 947 n
570 938 n
556 929 n
534 921 n
525 916 n
516 907 n
511 894 n
511 880 n
552 974 m
561 970 n
565 965 n
570 956 n
570 947 n
565 938 n
552 929 n
534 921 n
511 889 m
516 894 n
525 894 n
547 885 n
561 885 n
570 889 n
574 894 n
525 894 m
547 880 n
565 880 n
570 885 n
574 894 n
574 903 n
552 1575 m
538 1624 m
525 1620 n
516 1606 n
511 1584 n
511 1571 n
516 1548 n
525 1535 n
538 1530 n
547 1530 n
561 1535 n
570 1548 n
574 1571 n
574 1584 n
570 1606 n
561 1620 n
547 1624 n
538 1624 n
538 1624 m
529 1620 n
525 1615 n
520 1606 n
516 1584 n
516 1571 n
520 1548 n
525 1539 n
529 1535 n
538 1530 n
547 1530 m
556 1535 n
561 1539 n
565 1548 n
570 1571 n
570 1584 n
565 1606 n
561 1615 n
556 1620 n
547 1624 n
552 2225 m
516 2256 m
520 2252 n
516 2247 n
511 2252 n
511 2256 n
516 2265 n
520 2270 n
534 2274 n
552 2274 n
565 2270 n
570 2265 n
574 2256 n
574 2247 n
570 2238 n
556 2229 n
534 2221 n
525 2216 n
516 2207 n
511 2194 n
511 2180 n
552 2274 m
561 2270 n
565 2265 n
570 2256 n
570 2247 n
565 2238 n
552 2229 n
534 2221 n
511 2189 m
516 2194 n
525 2194 n
547 2185 n
561 2185 n
570 2189 n
574 2194 n
525 2194 m
547 2180 n
565 2180 n
570 2185 n
574 2194 n
574 2203 n
2133 289 m
2133 195 n
2137 289 m
2137 195 n
2106 289 m
2101 262 n
2101 289 n
2168 289 n
2168 262 n
2164 289 n
2119 195 m
2150 195 n
2231 240 m
2200 289 m
2195 285 n
2200 280 n
2204 285 n
2200 289 n
2200 258 m
2200 195 n
2204 258 m
2204 195 n
2186 258 m
2204 258 n
2186 195 m
2218 195 n
2281 240 m
2249 258 m
2249 195 n
2254 258 m
2254 195 n
2254 244 m
2263 253 n
2276 258 n
2285 258 n
2299 253 n
2303 244 n
2303 195 n
2285 258 m
2294 253 n
2299 244 n
2299 195 n
2303 244 m
2312 253 n
2326 258 n
2335 258 n
2348 253 n
2353 244 n
2353 195 n
2335 258 m
2344 253 n
2348 244 n
2348 195 n
2236 258 m
2254 258 n
2236 195 m
2267 195 n
2285 195 m
2317 195 n
2335 195 m
2366 195 n
2429 240 m
2393 231 m
2447 231 n
2447 240 n
2443 249 n
2438 253 n
2429 258 n
2416 258 n
2402 253 n
2393 244 n
2389 231 n
2389 222 n
2393 209 n
2402 200 n
2416 195 n
2425 195 n
2438 200 n
2447 209 n
2443 231 m
2443 244 n
2438 253 n
2416 258 m
2407 253 n
2398 244 n
2393 231 n
2393 222 n
2398 209 n
2407 200 n
2416 195 n
226 853 m
320 853 n
226 857 m
320 857 n
226 911 m
320 911 n
226 915 m
320 915 n
226 839 m
226 871 n
226 897 m
226 929 n
271 857 m
271 911 n
320 839 m
320 871 n
320 897 m
320 929 n
275 992 m
257 978 m
262 965 n
271 956 n
284 951 n
293 951 n
306 956 n
315 965 n
320 978 n
320 987 n
315 1001 n
306 1010 n
293 1014 n
284 1014 n
271 1010 n
262 1001 n
257 987 n
257 978 n
257 978 m
262 969 n
271 960 n
284 956 n
293 956 n
306 960 n
315 969 n
320 978 n
320 987 m
315 996 n
306 1005 n
293 1010 n
284 1010 n
271 1005 n
262 996 n
257 987 n
275 1082 m
257 1050 m
320 1050 n
257 1055 m
320 1055 n
284 1055 m
271 1059 n
262 1068 n
257 1077 n
257 1091 n
262 1095 n
266 1095 n
271 1091 n
266 1086 n
262 1091 n
257 1037 m
257 1055 n
320 1037 m
320 1068 n
275 1158 m
226 1127 m
230 1122 n
235 1127 n
230 1131 n
226 1127 n
257 1127 m
320 1127 n
257 1131 m
320 1131 n
257 1113 m
257 1131 n
320 1113 m
320 1145 n
275 1208 m
257 1217 m
320 1167 n
257 1221 m
320 1172 n
257 1172 m
275 1167 n
257 1167 n
257 1221 n
320 1167 m
320 1221 n
302 1221 n
320 1217 n
275 1289 m
257 1275 m
262 1262 n
271 1253 n
284 1248 n
293 1248 n
306 1253 n
315 1262 n
320 1275 n
320 1284 n
315 1298 n
306 1307 n
293 1311 n
284 1311 n
271 1307 n
262 1298 n
257 1284 n
257 1275 n
257 1275 m
262 1266 n
271 1257 n
284 1253 n
293 1253 n
306 1257 n
315 1266 n
320 1275 n
320 1284 m
315 1293 n
306 1302 n
293 1307 n
284 1307 n
271 1302 n
262 1293 n
257 1284 n
275 1379 m
257 1347 m
320 1347 n
257 1352 m
320 1352 n
271 1352 m
262 1361 n
257 1374 n
257 1383 n
262 1397 n
271 1401 n
320 1401 n
257 1383 m
262 1392 n
271 1397 n
320 1397 n
257 1334 m
257 1352 n
320 1334 m
320 1365 n
320 1383 m
320 1415 n
275 1478 m
226 1446 m
302 1446 n
315 1451 n
320 1460 n
320 1469 n
315 1478 n
306 1482 n
226 1451 m
302 1451 n
315 1455 n
320 1460 n
257 1433 m
257 1469 n
275 1545 m
266 1514 m
271 1514 n
271 1509 n
266 1509 n
262 1514 n
257 1523 n
257 1541 n
262 1550 n
266 1554 n
275 1559 n
306 1559 n
315 1563 n
320 1568 n
266 1554 m
306 1554 n
315 1559 n
320 1568 n
320 1572 n
275 1554 m
279 1550 n
284 1523 n
288 1509 n
297 1505 n
306 1505 n
315 1509 n
320 1523 n
320 1536 n
315 1545 n
306 1554 n
284 1523 m
288 1514 n
297 1509 n
306 1509 n
315 1514 n
320 1523 n
275 1635 m
226 1604 m
320 1604 n
226 1608 m
320 1608 n
226 1590 m
226 1608 n
320 1590 m
320 1622 n
275 1685 m
275 1757 m
257 1725 m
351 1725 n
257 1730 m
351 1730 n
271 1730 m
262 1739 n
257 1748 n
257 1757 n
262 1770 n
271 1779 n
284 1784 n
293 1784 n
306 1779 n
315 1770 n
320 1757 n
320 1748 n
315 1739 n
306 1730 n
257 1757 m
262 1766 n
271 1775 n
284 1779 n
293 1779 n
306 1775 n
315 1766 n
320 1757 n
257 1712 m
257 1730 n
351 1712 m
351 1743 n
275 1851 m
257 1838 m
262 1824 n
271 1815 n
284 1811 n
293 1811 n
306 1815 n
315 1824 n
320 1838 n
320 1847 n
315 1860 n
306 1869 n
293 1874 n
284 1874 n
271 1869 n
262 1860 n
257 1847 n
257 1838 n
257 1838 m
262 1829 n
271 1820 n
284 1815 n
293 1815 n
306 1820 n
315 1829 n
320 1838 n
320 1847 m
315 1856 n
306 1865 n
293 1869 n
284 1869 n
271 1865 n
262 1856 n
257 1847 n
275 1941 m
266 1946 m
257 1950 n
275 1950 n
266 1946 n
262 1941 n
257 1932 n
257 1914 n
262 1905 n
266 1901 n
275 1901 n
279 1905 n
284 1914 n
293 1937 n
297 1946 n
302 1950 n
271 1901 m
275 1905 n
279 1914 n
288 1937 n
293 1946 n
297 1950 n
311 1950 n
315 1946 n
320 1937 n
320 1919 n
315 1910 n
311 1905 n
302 1901 n
320 1901 n
311 1905 n
275 2018 m
226 1986 m
230 1982 n
235 1986 n
230 1991 n
226 1986 n
257 1986 m
320 1986 n
257 1991 m
320 1991 n
257 1973 m
257 1991 n
320 1973 m
320 2004 n
275 2067 m
226 2036 m
302 2036 n
315 2040 n
320 2049 n
320 2058 n
315 2067 n
306 2072 n
226 2040 m
302 2040 n
315 2045 n
320 2049 n
257 2022 m
257 2058 n
275 2135 m
226 2103 m
230 2099 n
235 2103 n
230 2108 n
226 2103 n
257 2103 m
320 2103 n
257 2108 m
320 2108 n
257 2090 m
257 2108 n
320 2090 m
320 2121 n
275 2184 m
257 2171 m
262 2157 n
271 2148 n
284 2144 n
293 2144 n
306 2148 n
315 2157 n
320 2171 n
320 2180 n
315 2193 n
306 2202 n
293 2207 n
284 2207 n
271 2202 n
262 2193 n
257 2180 n
257 2171 n
257 2171 m
262 2162 n
271 2153 n
284 2148 n
293 2148 n
306 2153 n
315 2162 n
320 2171 n
320 2180 m
315 2189 n
306 2198 n
293 2202 n
284 2202 n
271 2198 n
262 2189 n
257 2180 n
275 2274 m
257 2243 m
320 2243 n
257 2247 m
320 2247 n
271 2247 m
262 2256 n
257 2270 n
257 2279 n
262 2292 n
271 2297 n
320 2297 n
257 2279 m
262 2288 n
271 2292 n
320 2292 n
257 2229 m
257 2247 n
320 2229 m
320 2261 n
320 2279 m
320 2310 n
1 1 m
e
%%Trailer
EndPSPlot
