\headcommand {\slideentry {0}{0}{1}{1/1}{}{0}}
\headcommand {\beamer@framepages {1}{1}}
\headcommand {\slideentry {0}{0}{2}{2/2}{}{0}}
\headcommand {\beamer@framepages {2}{2}}
\headcommand {\slideentry {0}{0}{3}{3/3}{}{0}}
\headcommand {\beamer@framepages {3}{3}}
\headcommand {\slideentry {0}{0}{4}{4/4}{}{0}}
\headcommand {\beamer@framepages {4}{4}}
\headcommand {\slideentry {0}{0}{5}{5/5}{}{0}}
\headcommand {\beamer@framepages {5}{5}}
\headcommand {\slideentry {0}{0}{6}{6/7}{}{0}}
\headcommand {\beamer@framepages {6}{7}}
\headcommand {\slideentry {0}{0}{7}{8/12}{}{0}}
\headcommand {\beamer@framepages {8}{12}}
\headcommand {\slideentry {0}{0}{8}{13/14}{}{0}}
\headcommand {\beamer@framepages {13}{14}}
\headcommand {\slideentry {0}{0}{9}{15/15}{}{0}}
\headcommand {\beamer@framepages {15}{15}}
\headcommand {\slideentry {0}{0}{10}{16/19}{}{0}}
\headcommand {\beamer@framepages {16}{19}}
\headcommand {\slideentry {0}{0}{11}{20/22}{}{0}}
\headcommand {\beamer@framepages {20}{22}}
\headcommand {\slideentry {0}{0}{12}{23/25}{}{0}}
\headcommand {\beamer@framepages {23}{25}}
\headcommand {\slideentry {0}{0}{13}{26/27}{}{0}}
\headcommand {\beamer@framepages {26}{27}}
\headcommand {\slideentry {0}{0}{14}{28/29}{}{0}}
\headcommand {\beamer@framepages {28}{29}}
\headcommand {\slideentry {0}{0}{15}{30/31}{}{0}}
\headcommand {\beamer@framepages {30}{31}}
\headcommand {\slideentry {0}{0}{16}{32/33}{}{0}}
\headcommand {\beamer@framepages {32}{33}}
\headcommand {\beamer@partpages {1}{33}}
\headcommand {\beamer@subsectionpages {1}{33}}
\headcommand {\beamer@sectionpages {1}{33}}
\headcommand {\beamer@documentpages {33}}
\headcommand {\gdef \inserttotalframenumber {16}}
