%!
%%Creator: fedora:wfreeman(Walter)
%%Title: Unix plot file
%%CreationDate: Mon Mar 18 22:48:05 2024
%%DocumentFonts: Courier
%%EndComments
%%BoundingBox: 0 0 4096 4096
% Start of psplot.pro -- prolog for plot(5) translator
% Copyright (c) 1984,1985,1987 Adobe Systems Incorporated. All Rights Reserved. 
%              RESTRICTED RIGHTS LEGEND
% Use, duplication or disclosure by the Government is subject to
% restrictions as set forth in subdivision (b)(3)(ii) of the Rights in
% Technical Data and Computer Software Clause at 252.227-7013.
% Name of Contractor: Adobe Systems Incorporated
% Address:  1870 Embarcadero Road
%	  Palo Alto, California  94303
% RCS: $Header: psplot.pro,v 2.2 87/11/17 16:41:06 byron Rel $
save 50 dict begin /psplot exch def
/StartPSPlot
   {newpath 0 0 moveto 8 setlinewidth 0 setgray 1 setlinecap
    /imtx matrix currentmatrix def /dmtx matrix defaultmatrix def
    /fnt /Courier findfont def /smtx matrix def fnt 8 scalefont setfont}def
/solid {{}0}def
/dotted	{[2 nail 3.5 nail ] 0}def
/longdashed {[10 nail] 0}def
/shortdashed {[6 nail] 0}def
/dotdashed {[2 nail 6 nail 10 nail 6 nail] 0}def
/disconnected {{}0}def
/min {2 copy lt{pop}{exch pop}ifelse}def
/max {2 copy lt{exch pop}{pop}ifelse}def
/len {dup mul exch dup mul add sqrt}def
/nail {0 imtx dtransform len 0 idtransform len}def

/m {newpath moveto}def
/n {lineto currentpoint stroke moveto}def
/p {newpath moveto gsave 1 setlinecap solid setdash
    dmtx setmatrix .4 nail setlinewidth
    .05 0 idtransform rlineto stroke grestore}def
/l {moveto lineto currentpoint stroke moveto}def
/t {smtx currentmatrix pop imtx setmatrix show smtx setmatrix}def
/a {gsave newpath /y2 exch def /x2 exch def 
    /y1 exch def /x1 exch def /yc exch def /xc exch def
    /r x1 xc sub dup mul y1 yc sub dup mul add sqrt
       x2 xc sub dup mul y2 yc sub dup mul add sqrt add 2 div def
    /ang1 y1 yc sub x1 xc sub atan def
    /ang2 y2 yc sub x2 xc sub atan def
    xc yc r ang1 ang2 arc stroke grestore}def
/c {gsave newpath 0 360 arc stroke grestore}def
/e {gsave showpage grestore newpath 0 0 moveto}def
/f {load exec setdash}def
/s {/ury exch def /urx exch def /lly exch def /llx exch def
    imtx setmatrix newpath clippath pathbbox newpath
    /dury exch def /durx exch def /dlly exch def /dllx exch def
    /md durx dllx sub dury dlly sub min def
    /Mu urx llx sub ury lly sub max def
    36 144 translate .8 .8 scale
    dllx dlly translate md Mu div dup scale llx neg lly neg translate}def
/EndPSPlot {clear psplot end restore}def
StartPSPlot
%%EndProlog
%%Page: 1 1
0 0 4096 4096 s
/solid f
0.00 1.00 1.00 0 setcmykcolor
650 1556 m
653 1555 n
656 1555 n
660 1555 n
663 1555 n
666 1555 n
669 1555 n
673 1555 n
676 1555 n
679 1555 n
683 1555 n
686 1554 n
689 1554 n
692 1554 n
696 1554 n
699 1553 n
702 1553 n
705 1553 n
709 1552 n
712 1552 n
715 1552 n
718 1551 n
721 1551 n
725 1551 n
728 1550 n
731 1550 n
734 1549 n
738 1549 n
741 1548 n
744 1548 n
748 1547 n
751 1547 n
754 1546 n
757 1545 n
761 1545 n
764 1544 n
767 1543 n
770 1543 n
773 1542 n
777 1541 n
780 1541 n
783 1540 n
786 1539 n
790 1538 n
793 1538 n
796 1537 n
800 1536 n
803 1535 n
806 1534 n
809 1533 n
813 1532 n
816 1532 n
819 1531 n
822 1530 n
826 1529 n
829 1528 n
832 1527 n
835 1526 n
838 1525 n
842 1524 n
845 1523 n
848 1521 n
852 1520 n
855 1519 n
858 1518 n
861 1517 n
865 1516 n
868 1515 n
871 1513 n
874 1512 n
877 1511 n
881 1510 n
884 1509 n
887 1507 n
891 1506 n
894 1505 n
897 1503 n
900 1502 n
903 1501 n
907 1499 n
910 1498 n
913 1497 n
916 1495 n
920 1494 n
923 1492 n
926 1491 n
930 1489 n
933 1488 n
936 1486 n
939 1485 n
942 1483 n
946 1482 n
949 1480 n
952 1479 n
955 1477 n
959 1476 n
962 1474 n
965 1472 n
969 1471 n
972 1469 n
975 1468 n
978 1466 n
981 1464 n
985 1463 n
988 1461 n
991 1459 n
994 1457 n
998 1456 n
1001 1454 n
1004 1452 n
1008 1450 n
1011 1449 n
1014 1447 n
1017 1445 n
1020 1443 n
1024 1442 n
1027 1440 n
1030 1438 n
1033 1436 n
1037 1434 n
1040 1432 n
1043 1430 n
1047 1429 n
1050 1427 n
1053 1425 n
1056 1423 n
1059 1421 n
1063 1419 n
1066 1417 n
1069 1415 n
1072 1413 n
1076 1411 n
1079 1409 n
1082 1407 n
1086 1405 n
1089 1403 n
1092 1401 n
1095 1399 n
1098 1397 n
1102 1395 n
1105 1393 n
1108 1391 n
1111 1389 n
1115 1387 n
1118 1385 n
1121 1383 n
1125 1381 n
1128 1378 n
1131 1376 n
1134 1374 n
1138 1372 n
1141 1370 n
1144 1368 n
1147 1366 n
1150 1364 n
1154 1361 n
1157 1359 n
1160 1357 n
1164 1355 n
1167 1353 n
1170 1351 n
1173 1348 n
1177 1346 n
1180 1344 n
1183 1342 n
1186 1340 n
1189 1337 n
1193 1335 n
1196 1333 n
1199 1331 n
1203 1329 n
1206 1326 n
1209 1324 n
1212 1322 n
1216 1320 n
1219 1317 n
1222 1315 n
1225 1313 n
1228 1311 n
1232 1308 n
1235 1306 n
1238 1304 n
1242 1302 n
1245 1299 n
1248 1297 n
1251 1295 n
1255 1292 n
1258 1290 n
1261 1288 n
1264 1286 n
1267 1283 n
1271 1281 n
1274 1279 n
1277 1276 n
1281 1274 n
1284 1272 n
1287 1270 n
1290 1267 n
1294 1265 n
1297 1263 n
1300 1260 n
1303 1258 n
1306 1256 n
1310 1253 n
1313 1251 n
1316 1249 n
1319 1247 n
1323 1244 n
1326 1242 n
1329 1240 n
1332 1237 n
1336 1235 n
1339 1233 n
1342 1230 n
1346 1228 n
1349 1226 n
1352 1223 n
1355 1221 n
1359 1219 n
1362 1217 n
1365 1214 n
1368 1212 n
1372 1210 n
1375 1207 n
1378 1205 n
1381 1203 n
1384 1200 n
1388 1198 n
1391 1196 n
1394 1194 n
1397 1191 n
1401 1189 n
1404 1187 n
1407 1184 n
1410 1182 n
1414 1180 n
1417 1178 n
1420 1175 n
1424 1173 n
1427 1171 n
1430 1168 n
1433 1166 n
1437 1164 n
1440 1162 n
1443 1159 n
1446 1157 n
1450 1155 n
1453 1153 n
1456 1150 n
1459 1148 n
1463 1146 n
1466 1144 n
1469 1141 n
1472 1139 n
1475 1137 n
1479 1135 n
1482 1133 n
1485 1130 n
1488 1128 n
1492 1126 n
1495 1124 n
1498 1121 n
1501 1119 n
1505 1117 n
1508 1115 n
1511 1113 n
1515 1110 n
1518 1108 n
1521 1106 n
1524 1104 n
1528 1102 n
1531 1100 n
1534 1097 n
1537 1095 n
1541 1093 n
1544 1091 n
1547 1089 n
1550 1087 n
1553 1085 n
1557 1082 n
1560 1080 n
1563 1078 n
1566 1076 n
1570 1074 n
1573 1072 n
1576 1070 n
1579 1068 n
1583 1066 n
1586 1063 n
1589 1061 n
1593 1059 n
1596 1057 n
1599 1055 n
1602 1053 n
1606 1051 n
1609 1049 n
1612 1047 n
1615 1045 n
1619 1043 n
1622 1041 n
1625 1039 n
1628 1037 n
1631 1035 n
1635 1033 n
1638 1031 n
1641 1029 n
1644 1027 n
1648 1025 n
1651 1023 n
1654 1021 n
1657 1019 n
1661 1017 n
1664 1015 n
1667 1013 n
1671 1011 n
1674 1009 n
1677 1007 n
1680 1005 n
1684 1003 n
1687 1001 n
1690 999 n
1693 997 n
1697 996 n
1700 994 n
1703 992 n
1706 990 n
1709 988 n
1713 986 n
1716 984 n
1719 982 n
1722 981 n
1726 979 n
1729 977 n
1732 975 n
1735 973 n
1739 971 n
1742 970 n
1745 968 n
1749 966 n
1752 964 n
1755 962 n
1758 961 n
1762 959 n
1765 957 n
1768 955 n
1771 953 n
1775 952 n
1778 950 n
1781 948 n
1784 946 n
1788 945 n
1791 943 n
1794 941 n
1797 940 n
1800 938 n
1804 936 n
1807 934 n
1810 933 n
1813 931 n
1817 929 n
1820 928 n
1823 926 n
1826 924 n
1830 923 n
1833 921 n
1836 919 n
1840 918 n
1843 916 n
1846 915 n
1849 913 n
1853 911 n
1856 910 n
1859 908 n
1862 907 n
1866 905 n
1869 903 n
1872 902 n
1875 900 n
1878 899 n
1882 897 n
1885 896 n
1888 894 n
1891 893 n
1895 891 n
1898 890 n
1901 888 n
1904 886 n
1908 885 n
1911 883 n
1914 882 n
1918 881 n
1921 879 n
1924 878 n
1927 876 n
1931 875 n
1934 873 n
1937 872 n
1940 870 n
1944 869 n
1947 867 n
1950 866 n
1953 865 n
1956 863 n
1960 862 n
1963 860 n
1966 859 n
1969 858 n
1973 856 n
1976 855 n
1979 854 n
1982 852 n
1986 851 n
1989 849 n
1992 848 n
1995 847 n
1999 845 n
2002 844 n
2005 843 n
2008 841 n
2012 840 n
2015 839 n
2018 838 n
2021 836 n
2025 835 n
2028 834 n
2031 832 n
2035 831 n
2038 830 n
2041 829 n
2044 827 n
2048 826 n
2051 825 n
2054 824 n
2057 822 n
2061 821 n
2064 820 n
2067 819 n
2070 818 n
2074 816 n
2077 815 n
2080 814 n
2083 813 n
2087 812 n
2090 811 n
2093 809 n
2096 808 n
2100 807 n
2103 806 n
2106 805 n
2109 804 n
2113 802 n
2116 801 n
2119 800 n
2122 799 n
2125 798 n
2129 797 n
2132 796 n
2135 795 n
2138 794 n
2142 793 n
2145 791 n
2148 790 n
2151 789 n
2155 788 n
2158 787 n
2161 786 n
2164 785 n
2168 784 n
2171 783 n
2174 782 n
2177 781 n
2181 780 n
2184 779 n
2187 778 n
2190 777 n
2194 776 n
2197 775 n
2200 774 n
2204 773 n
2207 772 n
2210 771 n
2213 770 n
2217 769 n
2220 768 n
2223 767 n
2226 766 n
2230 765 n
2233 764 n
2236 763 n
2239 762 n
2243 762 n
2246 761 n
2249 760 n
2252 759 n
2256 758 n
2259 757 n
2262 756 n
2265 755 n
2269 754 n
2272 753 n
2275 753 n
2278 752 n
2281 751 n
2285 750 n
2288 749 n
2291 748 n
2294 747 n
2298 746 n
2301 746 n
2304 745 n
2307 744 n
2311 743 n
2314 742 n
2317 741 n
2320 741 n
2324 740 n
2327 739 n
2330 738 n
2333 737 n
2337 737 n
2340 736 n
2343 735 n
2346 734 n
2350 733 n
2353 733 n
2356 732 n
2360 731 n
2363 730 n
2366 730 n
2369 729 n
2373 728 n
2376 727 n
2379 727 n
2382 726 n
2386 725 n
2389 724 n
2392 724 n
2395 723 n
2399 722 n
2402 722 n
2405 721 n
2408 720 n
2412 719 n
2415 719 n
2418 718 n
2421 717 n
2425 717 n
2428 716 n
2431 715 n
2434 715 n
2438 714 n
2441 713 n
2444 713 n
2447 712 n
2450 711 n
2454 711 n
2457 710 n
2460 709 n
2463 709 n
2467 708 n
2470 707 n
2473 707 n
2476 706 n
2480 706 n
2483 705 n
2486 704 n
2489 704 n
2493 703 n
2496 702 n
2499 702 n
2502 701 n
2506 701 n
2509 700 n
2512 699 n
2515 699 n
2519 698 n
2522 698 n
2525 697 n
2529 697 n
2532 696 n
2535 695 n
2538 695 n
2542 694 n
2545 694 n
2548 693 n
2551 693 n
2555 692 n
2558 691 n
2561 691 n
2564 690 n
2568 690 n
2571 689 n
2574 689 n
2577 688 n
2581 688 n
2584 687 n
2587 687 n
2590 686 n
2594 686 n
2597 685 n
2600 685 n
2603 684 n
2606 684 n
2610 683 n
2613 683 n
2616 682 n
2619 682 n
2623 681 n
2626 681 n
2629 680 n
2632 680 n
2636 679 n
2639 679 n
2642 678 n
2645 678 n
2649 677 n
2652 677 n
2655 676 n
2658 676 n
2662 676 n
2665 675 n
2668 675 n
2671 674 n
2675 674 n
2678 673 n
2681 673 n
2685 672 n
2688 672 n
2691 672 n
2694 671 n
2698 671 n
2701 670 n
2704 670 n
2707 669 n
2711 669 n
2714 669 n
2717 668 n
2720 668 n
2724 667 n
2727 667 n
2730 667 n
2733 666 n
2737 666 n
2740 665 n
2743 665 n
2746 665 n
2750 664 n
2753 664 n
2756 663 n
2759 663 n
2763 663 n
2766 662 n
2769 662 n
2772 661 n
2775 661 n
2779 661 n
2782 660 n
2785 660 n
2788 660 n
2792 659 n
2795 659 n
2798 659 n
2801 658 n
2805 658 n
2808 657 n
2811 657 n
2814 657 n
2818 656 n
2821 656 n
2824 656 n
2827 655 n
2831 655 n
2834 655 n
2837 654 n
2840 654 n
2844 654 n
2847 653 n
2850 653 n
2854 653 n
2857 652 n
2860 652 n
2863 652 n
2867 652 n
2870 651 n
2873 651 n
2876 651 n
2880 650 n
2883 650 n
2886 650 n
2889 649 n
2893 649 n
2896 649 n
2899 648 n
2902 648 n
2906 648 n
2909 648 n
2912 647 n
2915 647 n
2919 647 n
2922 646 n
2925 646 n
2928 646 n
2931 646 n
2935 645 n
2938 645 n
2941 645 n
2944 644 n
2948 644 n
2951 644 n
2954 644 n
2957 643 n
2961 643 n
2964 643 n
2967 643 n
2970 642 n
2974 642 n
2977 642 n
2980 642 n
2983 641 n
2987 641 n
2990 641 n
2993 641 n
2996 640 n
3000 640 n
3003 640 n
3006 640 n
3010 639 n
3013 639 n
3016 639 n
3019 639 n
3023 638 n
3026 638 n
3029 638 n
3032 638 n
3036 637 n
3039 637 n
3042 637 n
3045 637 n
3049 637 n
3052 636 n
3055 636 n
3058 636 n
3062 636 n
3065 635 n
3068 635 n
3071 635 n
3075 635 n
3078 635 n
3081 634 n
3084 634 n
3088 634 n
3091 634 n
3094 634 n
3097 633 n
3100 633 n
3104 633 n
3107 633 n
3110 632 n
3113 632 n
3117 632 n
3120 632 n
3123 632 n
3126 632 n
3130 631 n
3133 631 n
3136 631 n
3139 631 n
3143 631 n
3146 630 n
3149 630 n
3152 630 n
3156 630 n
3159 630 n
3162 629 n
3165 629 n
3169 629 n
3172 629 n
3175 629 n
3179 629 n
3182 628 n
3185 628 n
3188 628 n
3192 628 n
3195 628 n
3198 628 n
3201 627 n
3205 627 n
3208 627 n
3211 627 n
3214 627 n
3218 626 n
3221 626 n
3224 626 n
3227 626 n
3231 626 n
3234 626 n
3237 626 n
3240 625 n
3244 625 n
3247 625 n
3250 625 n
3253 625 n
3257 625 n
3260 624 n
3263 624 n
3266 624 n
3270 624 n
3273 624 n
3276 624 n
3279 624 n
3283 623 n
3286 623 n
3289 623 n
3292 623 n
3296 623 n
3299 623 n
3302 623 n
3305 622 n
3309 622 n
3312 622 n
3315 622 n
3318 622 n
3322 622 n
3325 622 n
3328 621 n
3331 621 n
3335 621 n
3338 621 n
3341 621 n
3344 621 n
3348 621 n
3351 621 n
3354 620 n
3357 620 n
3361 620 n
3364 620 n
3367 620 n
3370 620 n
3374 620 n
3377 620 n
3380 619 n
3383 619 n
3387 619 n
3390 619 n
3393 619 n
3396 619 n
3400 619 n
3403 619 n
3406 618 n
3409 618 n
3413 618 n
3416 618 n
3419 618 n
3422 618 n
3425 618 n
3429 618 n
3432 618 n
3435 617 n
3438 617 n
3442 617 n
3445 617 n
3448 617 n
3451 617 n
3455 617 n
3458 617 n
3461 617 n
3464 617 n
3468 616 n
3471 616 n
3474 616 n
3477 616 n
3481 616 n
3484 616 n
3487 616 n
3490 616 n
3494 616 n
3497 616 n
3500 615 n
3503 615 n
3507 615 n
3510 615 n
3513 615 n
3516 615 n
3520 615 n
3523 615 n
3526 615 n
3529 615 n
3533 615 n
3536 614 n
3539 614 n
3542 614 n
3546 614 n
3549 614 n
3552 614 n
3555 614 n
3559 614 n
3562 614 n
3565 614 n
3568 614 n
3572 613 n
3575 613 n
3578 613 n
3582 613 n
3585 613 n
3588 613 n
3591 613 n
3595 613 n
3598 613 n
3601 613 n
3604 613 n
3608 613 n
3611 612 n
3614 612 n
3617 612 n
3621 612 n
3624 612 n
3627 612 n
3630 612 n
3634 612 n
3637 612 n
3640 612 n
3643 612 n
3647 612 n
3650 612 n
3653 612 n
3656 611 n
3660 611 n
3663 611 n
3666 611 n
3669 611 n
3673 611 n
3676 611 n
3679 611 n
3682 611 n
3686 611 n
3689 611 n
3692 611 n
3695 611 n
3699 611 n
3702 610 n
3705 610 n
3708 610 n
3712 610 n
3715 610 n
3718 610 n
3721 610 n
3725 610 n
3728 610 n
3731 610 n
3734 610 n
3738 610 n
3741 610 n
3744 610 n
3747 610 n
3750 610 n
3754 609 n
3757 609 n
3760 609 n
3763 609 n
3767 609 n
3770 609 n
3773 609 n
3776 609 n
3780 609 n
3783 609 n
3786 609 n
3789 609 n
3793 609 n
3796 609 n
3799 609 n
3802 609 n
3806 609 n
3809 609 n
3812 608 n
3815 608 n
3819 608 n
3822 608 n
3825 608 n
3828 608 n
3832 608 n
3835 608 n
3838 608 n
3841 608 n
3845 608 n
3848 608 n
3851 608 n
3854 608 n
3858 608 n
3861 608 n
3864 608 n
3867 608 n
3871 608 n
3874 608 n
3877 607 n
3880 607 n
3884 607 n
3887 607 n
3890 607 n
3893 607 n
3897 607 n
3900 607 n
/solid f
0 0 0 1 setcmykcolor
3900 600 650 600 l
3900 1575 n
650 1575 n
650 600 n
780 650 780 600 l
780 1575 780 1525 l
910 650 910 600 l
910 1575 910 1525 l
1040 650 1040 600 l
1040 1575 1040 1525 l
1170 650 1170 600 l
1170 1575 1170 1525 l
1300 750 1300 600 l
1300 1575 1300 1425 l
1430 650 1430 600 l
1430 1575 1430 1525 l
1560 650 1560 600 l
1560 1575 1560 1525 l
1690 650 1690 600 l
1690 1575 1690 1525 l
1820 650 1820 600 l
1820 1575 1820 1525 l
1950 750 1950 600 l
1950 1575 1950 1425 l
2080 650 2080 600 l
2080 1575 2080 1525 l
2210 650 2210 600 l
2210 1575 2210 1525 l
2340 650 2340 600 l
2340 1575 2340 1525 l
2470 650 2470 600 l
2470 1575 2470 1525 l
2600 750 2600 600 l
2600 1575 2600 1425 l
2730 650 2730 600 l
2730 1575 2730 1525 l
2860 650 2860 600 l
2860 1575 2860 1525 l
2990 650 2990 600 l
2990 1575 2990 1525 l
3120 650 3120 600 l
3120 1575 3120 1525 l
3250 750 3250 600 l
3250 1575 3250 1425 l
3380 650 3380 600 l
3380 1575 3380 1525 l
3510 650 3510 600 l
3510 1575 3510 1525 l
3640 650 3640 600 l
3640 1575 3640 1525 l
3770 650 3770 600 l
3770 1575 3770 1525 l
700 639 650 639 l
3900 639 3850 639 l
700 678 650 678 l
3900 678 3850 678 l
700 717 650 717 l
3900 717 3850 717 l
700 756 650 756 l
3900 756 3850 756 l
800 795 650 795 l
3900 795 3750 795 l
700 834 650 834 l
3900 834 3850 834 l
700 873 650 873 l
3900 873 3850 873 l
700 912 650 912 l
3900 912 3850 912 l
700 951 650 951 l
3900 951 3850 951 l
800 990 650 990 l
3900 990 3750 990 l
700 1029 650 1029 l
3900 1029 3850 1029 l
700 1068 650 1068 l
3900 1068 3850 1068 l
700 1107 650 1107 l
3900 1107 3850 1107 l
700 1146 650 1146 l
3900 1146 3850 1146 l
800 1185 650 1185 l
3900 1185 3750 1185 l
700 1224 650 1224 l
3900 1224 3850 1224 l
700 1263 650 1263 l
3900 1263 3850 1263 l
700 1302 650 1302 l
3900 1302 3850 1302 l
700 1341 650 1341 l
3900 1341 3850 1341 l
800 1380 650 1380 l
3900 1380 3750 1380 l
700 1419 650 1419 l
3900 1419 3850 1419 l
700 1458 650 1458 l
3900 1458 3850 1458 l
700 1497 650 1497 l
3900 1497 3850 1497 l
700 1536 650 1536 l
3900 1536 3850 1536 l
659 420 m
645 469 m
632 465 n
623 451 n
618 429 n
618 416 n
623 393 n
632 380 n
645 375 n
654 375 n
668 380 n
677 393 n
681 416 n
681 429 n
677 451 n
668 465 n
654 469 n
645 469 n
645 469 m
636 465 n
632 460 n
627 451 n
623 429 n
623 416 n
627 393 n
632 384 n
636 380 n
645 375 n
654 375 m
663 380 n
668 384 n
672 393 n
677 416 n
677 429 n
672 451 n
668 460 n
663 465 n
654 469 n
1309 420 m
1273 451 m
1277 447 n
1273 442 n
1268 447 n
1268 451 n
1273 460 n
1277 465 n
1291 469 n
1309 469 n
1322 465 n
1327 460 n
1331 451 n
1331 442 n
1327 433 n
1313 424 n
1291 416 n
1282 411 n
1273 402 n
1268 389 n
1268 375 n
1309 469 m
1318 465 n
1322 460 n
1327 451 n
1327 442 n
1322 433 n
1309 424 n
1291 416 n
1268 384 m
1273 389 n
1282 389 n
1304 380 n
1318 380 n
1327 384 n
1331 389 n
1282 389 m
1304 375 n
1322 375 n
1327 380 n
1331 389 n
1331 398 n
1959 420 m
1959 460 m
1959 375 n
1963 469 m
1963 375 n
1963 469 m
1914 402 n
1986 402 n
1945 375 m
1977 375 n
2609 420 m
2622 456 m
2618 451 n
2622 447 n
2627 451 n
2627 456 n
2622 465 n
2613 469 n
2600 469 n
2586 465 n
2577 456 n
2573 447 n
2568 429 n
2568 402 n
2573 389 n
2582 380 n
2595 375 n
2604 375 n
2618 380 n
2627 389 n
2631 402 n
2631 407 n
2627 420 n
2618 429 n
2604 433 n
2600 433 n
2586 429 n
2577 420 n
2573 407 n
2600 469 m
2591 465 n
2582 456 n
2577 447 n
2573 429 n
2573 402 n
2577 389 n
2586 380 n
2595 375 n
2604 375 m
2613 380 n
2622 389 n
2627 402 n
2627 407 n
2622 420 n
2613 429 n
2604 433 n
3259 420 m
3241 469 m
3227 465 n
3223 456 n
3223 442 n
3227 433 n
3241 429 n
3259 429 n
3272 433 n
3277 442 n
3277 456 n
3272 465 n
3259 469 n
3241 469 n
3241 469 m
3232 465 n
3227 456 n
3227 442 n
3232 433 n
3241 429 n
3259 429 m
3268 433 n
3272 442 n
3272 456 n
3268 465 n
3259 469 n
3241 429 m
3227 424 n
3223 420 n
3218 411 n
3218 393 n
3223 384 n
3227 380 n
3241 375 n
3259 375 n
3272 380 n
3277 384 n
3281 393 n
3281 411 n
3277 420 n
3272 424 n
3259 429 n
3241 429 m
3232 424 n
3227 420 n
3223 411 n
3223 393 n
3227 384 n
3232 380 n
3241 375 n
3259 375 m
3268 380 n
3272 384 n
3277 393 n
3277 411 n
3272 420 n
3268 424 n
3259 429 n
3830 451 m
3839 456 n
3853 469 n
3853 375 n
3848 465 m
3848 375 n
3830 375 m
3870 375 n
3947 420 m
3933 469 m
3920 465 n
3911 451 n
3906 429 n
3906 416 n
3911 393 n
3920 380 n
3933 375 n
3942 375 n
3956 380 n
3965 393 n
3969 416 n
3969 429 n
3965 451 n
3956 465 n
3942 469 n
3933 469 n
3933 469 m
3924 465 n
3920 460 n
3915 451 n
3911 429 n
3911 416 n
3915 393 n
3920 384 n
3924 380 n
3933 375 n
3942 375 m
3951 380 n
3956 384 n
3960 393 n
3965 416 n
3965 429 n
3960 451 n
3956 460 n
3951 465 n
3942 469 n
552 600 m
538 649 m
525 645 n
516 631 n
511 609 n
511 596 n
516 573 n
525 560 n
538 555 n
547 555 n
561 560 n
570 573 n
574 596 n
574 609 n
570 631 n
561 645 n
547 649 n
538 649 n
538 649 m
529 645 n
525 640 n
520 631 n
516 609 n
516 596 n
520 573 n
525 564 n
529 560 n
538 555 n
547 555 m
556 560 n
561 564 n
565 573 n
570 596 n
570 609 n
565 631 n
561 640 n
556 645 n
547 649 n
552 795 m
516 826 m
520 822 n
516 817 n
511 822 n
511 826 n
516 835 n
520 840 n
534 844 n
552 844 n
565 840 n
570 835 n
574 826 n
574 817 n
570 808 n
556 799 n
534 791 n
525 786 n
516 777 n
511 764 n
511 750 n
552 844 m
561 840 n
565 835 n
570 826 n
570 817 n
565 808 n
552 799 n
534 791 n
511 759 m
516 764 n
525 764 n
547 755 n
561 755 n
570 759 n
574 764 n
525 764 m
547 750 n
565 750 n
570 755 n
574 764 n
574 773 n
548 990 m
548 1030 m
548 945 n
552 1039 m
552 945 n
552 1039 m
503 972 n
575 972 n
534 945 m
566 945 n
552 1185 m
565 1221 m
561 1216 n
565 1212 n
570 1216 n
570 1221 n
565 1230 n
556 1234 n
543 1234 n
529 1230 n
520 1221 n
516 1212 n
511 1194 n
511 1167 n
516 1154 n
525 1145 n
538 1140 n
547 1140 n
561 1145 n
570 1154 n
574 1167 n
574 1172 n
570 1185 n
561 1194 n
547 1198 n
543 1198 n
529 1194 n
520 1185 n
516 1172 n
543 1234 m
534 1230 n
525 1221 n
520 1212 n
516 1194 n
516 1167 n
520 1154 n
529 1145 n
538 1140 n
547 1140 m
556 1145 n
565 1154 n
570 1167 n
570 1172 n
565 1185 n
556 1194 n
547 1198 n
552 1380 m
534 1429 m
520 1425 n
516 1416 n
516 1402 n
520 1393 n
534 1389 n
552 1389 n
565 1393 n
570 1402 n
570 1416 n
565 1425 n
552 1429 n
534 1429 n
534 1429 m
525 1425 n
520 1416 n
520 1402 n
525 1393 n
534 1389 n
552 1389 m
561 1393 n
565 1402 n
565 1416 n
561 1425 n
552 1429 n
534 1389 m
520 1384 n
516 1380 n
511 1371 n
511 1353 n
516 1344 n
520 1340 n
534 1335 n
552 1335 n
565 1340 n
570 1344 n
574 1353 n
574 1371 n
570 1380 n
565 1384 n
552 1389 n
534 1389 m
525 1384 n
520 1380 n
516 1371 n
516 1353 n
520 1344 n
525 1340 n
534 1335 n
552 1335 m
561 1340 n
565 1344 n
570 1353 n
570 1371 n
565 1380 n
561 1384 n
552 1389 n
435 1606 m
444 1611 n
458 1624 n
458 1530 n
453 1620 m
453 1530 n
435 1530 m
475 1530 n
552 1575 m
538 1624 m
525 1620 n
516 1606 n
511 1584 n
511 1571 n
516 1548 n
525 1535 n
538 1530 n
547 1530 n
561 1535 n
570 1548 n
574 1571 n
574 1584 n
570 1606 n
561 1620 n
547 1624 n
538 1624 n
538 1624 m
529 1620 n
525 1615 n
520 1606 n
516 1584 n
516 1571 n
520 1548 n
525 1539 n
529 1535 n
538 1530 n
547 1530 m
556 1535 n
561 1539 n
565 1548 n
570 1571 n
570 1584 n
565 1606 n
561 1615 n
556 1620 n
547 1624 n
226 646 m
320 615 n
226 646 m
320 677 n
239 646 m
320 673 n
293 624 m
293 664 n
320 606 m
320 633 n
320 659 m
320 686 n
275 745 m
271 758 m
275 754 n
279 758 n
275 763 n
271 763 n
262 754 n
257 745 n
257 731 n
262 718 n
271 709 n
284 704 n
293 704 n
306 709 n
315 718 n
320 731 n
320 740 n
315 754 n
306 763 n
257 731 m
262 722 n
271 713 n
284 709 n
293 709 n
306 713 n
315 722 n
320 731 n
275 830 m
271 844 m
275 839 n
279 844 n
275 848 n
271 848 n
262 839 n
257 830 n
257 817 n
262 803 n
271 794 n
284 790 n
293 790 n
306 794 n
315 803 n
320 817 n
320 826 n
315 839 n
306 848 n
257 817 m
262 808 n
271 799 n
284 794 n
293 794 n
306 799 n
315 808 n
320 817 n
275 916 m
284 880 m
284 934 n
275 934 n
266 929 n
262 925 n
257 916 n
257 902 n
262 889 n
271 880 n
284 875 n
293 875 n
306 880 n
315 889 n
320 902 n
320 911 n
315 925 n
306 934 n
284 929 m
271 929 n
262 925 n
257 902 m
262 893 n
271 884 n
284 880 n
293 880 n
306 884 n
315 893 n
320 902 n
275 1001 m
226 970 m
320 970 n
226 974 m
320 974 n
226 956 m
226 974 n
320 956 m
320 988 n
275 1051 m
275 1123 m
208 1118 m
217 1109 n
230 1100 n
248 1091 n
271 1087 n
288 1087 n
311 1091 n
329 1100 n
342 1109 n
351 1118 n
217 1109 m
235 1100 n
248 1096 n
271 1091 n
288 1091 n
311 1096 n
324 1100 n
342 1109 n
275 1186 m
257 1154 m
320 1154 n
257 1159 m
320 1159 n
271 1159 m
262 1168 n
257 1181 n
257 1190 n
262 1204 n
271 1208 n
320 1208 n
257 1190 m
262 1199 n
271 1204 n
320 1204 n
271 1208 m
262 1217 n
257 1231 n
257 1240 n
262 1253 n
271 1258 n
320 1258 n
257 1240 m
262 1249 n
271 1253 n
320 1253 n
257 1141 m
257 1159 n
320 1141 m
320 1172 n
320 1190 m
320 1222 n
320 1240 m
320 1271 n
275 1334 m
208 1370 m
351 1289 n
275 1433 m
266 1438 m
257 1442 n
275 1442 n
266 1438 n
262 1433 n
257 1424 n
257 1406 n
262 1397 n
266 1393 n
275 1393 n
279 1397 n
284 1406 n
293 1429 n
297 1438 n
302 1442 n
271 1393 m
275 1397 n
279 1406 n
288 1429 n
293 1438 n
297 1442 n
311 1442 n
315 1438 n
320 1429 n
320 1411 n
315 1402 n
311 1397 n
302 1393 n
320 1393 n
311 1397 n
275 1510 m
200 1474 m
203 1477 n
206 1474 n
203 1471 n
200 1471 n
194 1474 n
191 1477 n
188 1486 n
188 1498 n
191 1507 n
194 1510 n
200 1513 n
206 1513 n
212 1510 n
218 1501 n
224 1486 n
227 1480 n
233 1474 n
242 1471 n
251 1471 n
188 1498 m
191 1504 n
194 1507 n
200 1510 n
206 1510 n
212 1507 n
218 1498 n
224 1486 n
245 1471 m
242 1474 n
242 1480 n
248 1495 n
248 1504 n
245 1510 n
242 1513 n
242 1480 m
251 1495 n
251 1507 n
248 1510 n
242 1513 n
236 1513 n
221 1558 m
208 1535 m
217 1544 n
230 1553 n
248 1562 n
271 1567 n
288 1567 n
311 1562 n
329 1553 n
342 1544 n
351 1535 n
217 1544 m
235 1553 n
248 1558 n
271 1562 n
288 1562 n
311 1558 n
324 1553 n
342 1544 n
1 1 m
e
%%Trailer
EndPSPlot
