%!
%%Creator: fedora:wfreeman(Walter)
%%Title: Unix plot file
%%CreationDate: Mon Mar 18 22:48:05 2024
%%DocumentFonts: Courier
%%EndComments
%%BoundingBox: 0 0 4096 4096
% Start of psplot.pro -- prolog for plot(5) translator
% Copyright (c) 1984,1985,1987 Adobe Systems Incorporated. All Rights Reserved. 
%              RESTRICTED RIGHTS LEGEND
% Use, duplication or disclosure by the Government is subject to
% restrictions as set forth in subdivision (b)(3)(ii) of the Rights in
% Technical Data and Computer Software Clause at 252.227-7013.
% Name of Contractor: Adobe Systems Incorporated
% Address:  1870 Embarcadero Road
%	  Palo Alto, California  94303
% RCS: $Header: psplot.pro,v 2.2 87/11/17 16:41:06 byron Rel $
save 50 dict begin /psplot exch def
/StartPSPlot
   {newpath 0 0 moveto 8 setlinewidth 0 setgray 1 setlinecap
    /imtx matrix currentmatrix def /dmtx matrix defaultmatrix def
    /fnt /Courier findfont def /smtx matrix def fnt 8 scalefont setfont}def
/solid {{}0}def
/dotted	{[2 nail 3.5 nail ] 0}def
/longdashed {[10 nail] 0}def
/shortdashed {[6 nail] 0}def
/dotdashed {[2 nail 6 nail 10 nail 6 nail] 0}def
/disconnected {{}0}def
/min {2 copy lt{pop}{exch pop}ifelse}def
/max {2 copy lt{exch pop}{pop}ifelse}def
/len {dup mul exch dup mul add sqrt}def
/nail {0 imtx dtransform len 0 idtransform len}def

/m {newpath moveto}def
/n {lineto currentpoint stroke moveto}def
/p {newpath moveto gsave 1 setlinecap solid setdash
    dmtx setmatrix .4 nail setlinewidth
    .05 0 idtransform rlineto stroke grestore}def
/l {moveto lineto currentpoint stroke moveto}def
/t {smtx currentmatrix pop imtx setmatrix show smtx setmatrix}def
/a {gsave newpath /y2 exch def /x2 exch def 
    /y1 exch def /x1 exch def /yc exch def /xc exch def
    /r x1 xc sub dup mul y1 yc sub dup mul add sqrt
       x2 xc sub dup mul y2 yc sub dup mul add sqrt add 2 div def
    /ang1 y1 yc sub x1 xc sub atan def
    /ang2 y2 yc sub x2 xc sub atan def
    xc yc r ang1 ang2 arc stroke grestore}def
/c {gsave newpath 0 360 arc stroke grestore}def
/e {gsave showpage grestore newpath 0 0 moveto}def
/f {load exec setdash}def
/s {/ury exch def /urx exch def /lly exch def /llx exch def
    imtx setmatrix newpath clippath pathbbox newpath
    /dury exch def /durx exch def /dlly exch def /dllx exch def
    /md durx dllx sub dury dlly sub min def
    /Mu urx llx sub ury lly sub max def
    36 144 translate .8 .8 scale
    dllx dlly translate md Mu div dup scale llx neg lly neg translate}def
/EndPSPlot {clear psplot end restore}def
StartPSPlot
%%EndProlog
%%Page: 1 1
0 0 4096 4096 s
/solid f
0.00 1.00 1.00 0 setcmykcolor
650 600 m
653 600 n
656 600 n
660 600 n
663 600 n
666 600 n
669 600 n
673 600 n
676 601 n
679 601 n
683 601 n
686 601 n
689 601 n
692 602 n
696 602 n
699 602 n
702 602 n
705 603 n
709 603 n
712 603 n
715 604 n
718 604 n
721 605 n
725 605 n
728 605 n
731 606 n
734 606 n
738 607 n
741 607 n
744 608 n
748 608 n
751 609 n
754 610 n
757 610 n
761 611 n
764 611 n
767 612 n
770 613 n
773 613 n
777 614 n
780 615 n
783 616 n
786 616 n
790 617 n
793 618 n
796 619 n
800 620 n
803 620 n
806 621 n
809 622 n
813 623 n
816 624 n
819 625 n
822 626 n
826 627 n
829 628 n
832 629 n
835 630 n
838 631 n
842 632 n
845 633 n
848 634 n
852 635 n
855 636 n
858 637 n
861 639 n
865 640 n
868 641 n
871 642 n
874 643 n
877 644 n
881 646 n
884 647 n
887 648 n
891 650 n
894 651 n
897 652 n
900 653 n
903 655 n
907 656 n
910 658 n
913 659 n
916 660 n
920 662 n
923 663 n
926 665 n
930 666 n
933 668 n
936 669 n
939 671 n
942 672 n
946 674 n
949 675 n
952 677 n
955 678 n
959 680 n
962 681 n
965 683 n
969 685 n
972 686 n
975 688 n
978 690 n
981 691 n
985 693 n
988 695 n
991 696 n
994 698 n
998 700 n
1001 702 n
1004 703 n
1008 705 n
1011 707 n
1014 709 n
1017 710 n
1020 712 n
1024 714 n
1027 716 n
1030 718 n
1033 720 n
1037 721 n
1040 723 n
1043 725 n
1047 727 n
1050 729 n
1053 731 n
1056 733 n
1059 735 n
1063 737 n
1066 739 n
1069 740 n
1072 742 n
1076 744 n
1079 746 n
1082 748 n
1086 750 n
1089 752 n
1092 754 n
1095 756 n
1098 758 n
1102 760 n
1105 763 n
1108 765 n
1111 767 n
1115 769 n
1118 771 n
1121 773 n
1125 775 n
1128 777 n
1131 779 n
1134 781 n
1138 783 n
1141 786 n
1144 788 n
1147 790 n
1150 792 n
1154 794 n
1157 796 n
1160 798 n
1164 801 n
1167 803 n
1170 805 n
1173 807 n
1177 809 n
1180 811 n
1183 814 n
1186 816 n
1189 818 n
1193 820 n
1196 823 n
1199 825 n
1203 827 n
1206 829 n
1209 831 n
1212 834 n
1216 836 n
1219 838 n
1222 840 n
1225 843 n
1228 845 n
1232 847 n
1235 849 n
1238 852 n
1242 854 n
1245 856 n
1248 858 n
1251 861 n
1255 863 n
1258 865 n
1261 868 n
1264 870 n
1267 872 n
1271 874 n
1274 877 n
1277 879 n
1281 881 n
1284 884 n
1287 886 n
1290 888 n
1294 891 n
1297 893 n
1300 895 n
1303 897 n
1306 900 n
1310 902 n
1313 904 n
1316 907 n
1319 909 n
1323 911 n
1326 914 n
1329 916 n
1332 918 n
1336 920 n
1339 923 n
1342 925 n
1346 927 n
1349 930 n
1352 932 n
1355 934 n
1359 937 n
1362 939 n
1365 941 n
1368 944 n
1372 946 n
1375 948 n
1378 950 n
1381 953 n
1384 955 n
1388 957 n
1391 960 n
1394 962 n
1397 964 n
1401 966 n
1404 969 n
1407 971 n
1410 973 n
1414 976 n
1417 978 n
1420 980 n
1424 982 n
1427 985 n
1430 987 n
1433 989 n
1437 992 n
1440 994 n
1443 996 n
1446 998 n
1450 1001 n
1453 1003 n
1456 1005 n
1459 1007 n
1463 1010 n
1466 1012 n
1469 1014 n
1472 1016 n
1475 1019 n
1479 1021 n
1482 1023 n
1485 1025 n
1488 1027 n
1492 1030 n
1495 1032 n
1498 1034 n
1501 1036 n
1505 1038 n
1508 1041 n
1511 1043 n
1515 1045 n
1518 1047 n
1521 1049 n
1524 1052 n
1528 1054 n
1531 1056 n
1534 1058 n
1537 1060 n
1541 1062 n
1544 1065 n
1547 1067 n
1550 1069 n
1553 1071 n
1557 1073 n
1560 1075 n
1563 1077 n
1566 1079 n
1570 1082 n
1573 1084 n
1576 1086 n
1579 1088 n
1583 1090 n
1586 1092 n
1589 1094 n
1593 1096 n
1596 1098 n
1599 1100 n
1602 1102 n
1606 1104 n
1609 1107 n
1612 1109 n
1615 1111 n
1619 1113 n
1622 1115 n
1625 1117 n
1628 1119 n
1631 1121 n
1635 1123 n
1638 1125 n
1641 1127 n
1644 1129 n
1648 1131 n
1651 1133 n
1654 1135 n
1657 1137 n
1661 1139 n
1664 1141 n
1667 1143 n
1671 1145 n
1674 1146 n
1677 1148 n
1680 1150 n
1684 1152 n
1687 1154 n
1690 1156 n
1693 1158 n
1697 1160 n
1700 1162 n
1703 1164 n
1706 1166 n
1709 1167 n
1713 1169 n
1716 1171 n
1719 1173 n
1722 1175 n
1726 1177 n
1729 1179 n
1732 1180 n
1735 1182 n
1739 1184 n
1742 1186 n
1745 1188 n
1749 1190 n
1752 1191 n
1755 1193 n
1758 1195 n
1762 1197 n
1765 1199 n
1768 1200 n
1771 1202 n
1775 1204 n
1778 1206 n
1781 1207 n
1784 1209 n
1788 1211 n
1791 1213 n
1794 1214 n
1797 1216 n
1800 1218 n
1804 1219 n
1807 1221 n
1810 1223 n
1813 1224 n
1817 1226 n
1820 1228 n
1823 1229 n
1826 1231 n
1830 1233 n
1833 1234 n
1836 1236 n
1840 1238 n
1843 1239 n
1846 1241 n
1849 1243 n
1853 1244 n
1856 1246 n
1859 1247 n
1862 1249 n
1866 1250 n
1869 1252 n
1872 1254 n
1875 1255 n
1878 1257 n
1882 1258 n
1885 1260 n
1888 1261 n
1891 1263 n
1895 1264 n
1898 1266 n
1901 1267 n
1904 1269 n
1908 1271 n
1911 1272 n
1914 1273 n
1918 1275 n
1921 1276 n
1924 1278 n
1927 1279 n
1931 1281 n
1934 1282 n
1937 1284 n
1940 1285 n
1944 1287 n
1947 1288 n
1950 1289 n
1953 1291 n
1956 1292 n
1960 1294 n
1963 1295 n
1966 1296 n
1969 1298 n
1973 1299 n
1976 1301 n
1979 1302 n
1982 1303 n
1986 1305 n
1989 1306 n
1992 1307 n
1995 1309 n
1999 1310 n
2002 1311 n
2005 1313 n
2008 1314 n
2012 1315 n
2015 1317 n
2018 1318 n
2021 1319 n
2025 1321 n
2028 1322 n
2031 1323 n
2035 1324 n
2038 1326 n
2041 1327 n
2044 1328 n
2048 1329 n
2051 1331 n
2054 1332 n
2057 1333 n
2061 1334 n
2064 1335 n
2067 1337 n
2070 1338 n
2074 1339 n
2077 1340 n
2080 1341 n
2083 1343 n
2087 1344 n
2090 1345 n
2093 1346 n
2096 1347 n
2100 1348 n
2103 1350 n
2106 1351 n
2109 1352 n
2113 1353 n
2116 1354 n
2119 1355 n
2122 1356 n
2125 1357 n
2129 1359 n
2132 1360 n
2135 1361 n
2138 1362 n
2142 1363 n
2145 1364 n
2148 1365 n
2151 1366 n
2155 1367 n
2158 1368 n
2161 1369 n
2164 1370 n
2168 1371 n
2171 1372 n
2174 1373 n
2177 1375 n
2181 1376 n
2184 1377 n
2187 1378 n
2190 1379 n
2194 1380 n
2197 1381 n
2200 1382 n
2204 1383 n
2207 1384 n
2210 1384 n
2213 1385 n
2217 1386 n
2220 1387 n
2223 1388 n
2226 1389 n
2230 1390 n
2233 1391 n
2236 1392 n
2239 1393 n
2243 1394 n
2246 1395 n
2249 1396 n
2252 1397 n
2256 1398 n
2259 1399 n
2262 1399 n
2265 1400 n
2269 1401 n
2272 1402 n
2275 1403 n
2278 1404 n
2281 1405 n
2285 1406 n
2288 1406 n
2291 1407 n
2294 1408 n
2298 1409 n
2301 1410 n
2304 1411 n
2307 1412 n
2311 1412 n
2314 1413 n
2317 1414 n
2320 1415 n
2324 1416 n
2327 1416 n
2330 1417 n
2333 1418 n
2337 1419 n
2340 1420 n
2343 1420 n
2346 1421 n
2350 1422 n
2353 1423 n
2356 1424 n
2360 1424 n
2363 1425 n
2366 1426 n
2369 1427 n
2373 1427 n
2376 1428 n
2379 1429 n
2382 1430 n
2386 1430 n
2389 1431 n
2392 1432 n
2395 1432 n
2399 1433 n
2402 1434 n
2405 1435 n
2408 1435 n
2412 1436 n
2415 1437 n
2418 1437 n
2421 1438 n
2425 1439 n
2428 1440 n
2431 1440 n
2434 1441 n
2438 1442 n
2441 1442 n
2444 1443 n
2447 1444 n
2450 1444 n
2454 1445 n
2457 1446 n
2460 1446 n
2463 1447 n
2467 1447 n
2470 1448 n
2473 1449 n
2476 1449 n
2480 1450 n
2483 1451 n
2486 1451 n
2489 1452 n
2493 1452 n
2496 1453 n
2499 1454 n
2502 1454 n
2506 1455 n
2509 1455 n
2512 1456 n
2515 1457 n
2519 1457 n
2522 1458 n
2525 1458 n
2529 1459 n
2532 1460 n
2535 1460 n
2538 1461 n
2542 1461 n
2545 1462 n
2548 1462 n
2551 1463 n
2555 1463 n
2558 1464 n
2561 1465 n
2564 1465 n
2568 1466 n
2571 1466 n
2574 1467 n
2577 1467 n
2581 1468 n
2584 1468 n
2587 1469 n
2590 1469 n
2594 1470 n
2597 1470 n
2600 1471 n
2603 1471 n
2606 1472 n
2610 1472 n
2613 1473 n
2616 1473 n
2619 1474 n
2623 1474 n
2626 1475 n
2629 1475 n
2632 1476 n
2636 1476 n
2639 1477 n
2642 1477 n
2645 1478 n
2649 1478 n
2652 1479 n
2655 1479 n
2658 1480 n
2662 1480 n
2665 1480 n
2668 1481 n
2671 1481 n
2675 1482 n
2678 1482 n
2681 1483 n
2685 1483 n
2688 1484 n
2691 1484 n
2694 1484 n
2698 1485 n
2701 1485 n
2704 1486 n
2707 1486 n
2711 1487 n
2714 1487 n
2717 1487 n
2720 1488 n
2724 1488 n
2727 1489 n
2730 1489 n
2733 1489 n
2737 1490 n
2740 1490 n
2743 1491 n
2746 1491 n
2750 1491 n
2753 1492 n
2756 1492 n
2759 1493 n
2763 1493 n
2766 1493 n
2769 1494 n
2772 1494 n
2775 1494 n
2779 1495 n
2782 1495 n
2785 1496 n
2788 1496 n
2792 1496 n
2795 1497 n
2798 1497 n
2801 1497 n
2805 1498 n
2808 1498 n
2811 1498 n
2814 1499 n
2818 1499 n
2821 1499 n
2824 1500 n
2827 1500 n
2831 1500 n
2834 1501 n
2837 1501 n
2840 1501 n
2844 1502 n
2847 1502 n
2850 1502 n
2854 1503 n
2857 1503 n
2860 1503 n
2863 1504 n
2867 1504 n
2870 1504 n
2873 1505 n
2876 1505 n
2880 1505 n
2883 1506 n
2886 1506 n
2889 1506 n
2893 1506 n
2896 1507 n
2899 1507 n
2902 1507 n
2906 1508 n
2909 1508 n
2912 1508 n
2915 1509 n
2919 1509 n
2922 1509 n
2925 1509 n
2928 1510 n
2931 1510 n
2935 1510 n
2938 1510 n
2941 1511 n
2944 1511 n
2948 1511 n
2951 1512 n
2954 1512 n
2957 1512 n
2961 1512 n
2964 1513 n
2967 1513 n
2970 1513 n
2974 1513 n
2977 1514 n
2980 1514 n
2983 1514 n
2987 1514 n
2990 1515 n
2993 1515 n
2996 1515 n
3000 1515 n
3003 1516 n
3006 1516 n
3010 1516 n
3013 1516 n
3016 1517 n
3019 1517 n
3023 1517 n
3026 1517 n
3029 1518 n
3032 1518 n
3036 1518 n
3039 1518 n
3042 1519 n
3045 1519 n
3049 1519 n
3052 1519 n
3055 1519 n
3058 1520 n
3062 1520 n
3065 1520 n
3068 1520 n
3071 1521 n
3075 1521 n
3078 1521 n
3081 1521 n
3084 1521 n
3088 1522 n
3091 1522 n
3094 1522 n
3097 1522 n
3100 1522 n
3104 1523 n
3107 1523 n
3110 1523 n
3113 1523 n
3117 1523 n
3120 1524 n
3123 1524 n
3126 1524 n
3130 1524 n
3133 1524 n
3136 1525 n
3139 1525 n
3143 1525 n
3146 1525 n
3149 1525 n
3152 1526 n
3156 1526 n
3159 1526 n
3162 1526 n
3165 1526 n
3169 1526 n
3172 1527 n
3175 1527 n
3179 1527 n
3182 1527 n
3185 1527 n
3188 1527 n
3192 1528 n
3195 1528 n
3198 1528 n
3201 1528 n
3205 1528 n
3208 1529 n
3211 1529 n
3214 1529 n
3218 1529 n
3221 1529 n
3224 1529 n
3227 1529 n
3231 1530 n
3234 1530 n
3237 1530 n
3240 1530 n
3244 1530 n
3247 1530 n
3250 1531 n
3253 1531 n
3257 1531 n
3260 1531 n
3263 1531 n
3266 1531 n
3270 1532 n
3273 1532 n
3276 1532 n
3279 1532 n
3283 1532 n
3286 1532 n
3289 1532 n
3292 1533 n
3296 1533 n
3299 1533 n
3302 1533 n
3305 1533 n
3309 1533 n
3312 1533 n
3315 1533 n
3318 1534 n
3322 1534 n
3325 1534 n
3328 1534 n
3331 1534 n
3335 1534 n
3338 1534 n
3341 1535 n
3344 1535 n
3348 1535 n
3351 1535 n
3354 1535 n
3357 1535 n
3361 1535 n
3364 1535 n
3367 1536 n
3370 1536 n
3374 1536 n
3377 1536 n
3380 1536 n
3383 1536 n
3387 1536 n
3390 1536 n
3393 1537 n
3396 1537 n
3400 1537 n
3403 1537 n
3406 1537 n
3409 1537 n
3413 1537 n
3416 1537 n
3419 1537 n
3422 1538 n
3425 1538 n
3429 1538 n
3432 1538 n
3435 1538 n
3438 1538 n
3442 1538 n
3445 1538 n
3448 1538 n
3451 1539 n
3455 1539 n
3458 1539 n
3461 1539 n
3464 1539 n
3468 1539 n
3471 1539 n
3474 1539 n
3477 1539 n
3481 1539 n
3484 1540 n
3487 1540 n
3490 1540 n
3494 1540 n
3497 1540 n
3500 1540 n
3503 1540 n
3507 1540 n
3510 1540 n
3513 1540 n
3516 1541 n
3520 1541 n
3523 1541 n
3526 1541 n
3529 1541 n
3533 1541 n
3536 1541 n
3539 1541 n
3542 1541 n
3546 1541 n
3549 1541 n
3552 1542 n
3555 1542 n
3559 1542 n
3562 1542 n
3565 1542 n
3568 1542 n
3572 1542 n
3575 1542 n
3578 1542 n
3582 1542 n
3585 1542 n
3588 1542 n
3591 1543 n
3595 1543 n
3598 1543 n
3601 1543 n
3604 1543 n
3608 1543 n
3611 1543 n
3614 1543 n
3617 1543 n
3621 1543 n
3624 1543 n
3627 1543 n
3630 1543 n
3634 1544 n
3637 1544 n
3640 1544 n
3643 1544 n
3647 1544 n
3650 1544 n
3653 1544 n
3656 1544 n
3660 1544 n
3663 1544 n
3666 1544 n
3669 1544 n
3673 1544 n
3676 1544 n
3679 1545 n
3682 1545 n
3686 1545 n
3689 1545 n
3692 1545 n
3695 1545 n
3699 1545 n
3702 1545 n
3705 1545 n
3708 1545 n
3712 1545 n
3715 1545 n
3718 1545 n
3721 1545 n
3725 1545 n
3728 1546 n
3731 1546 n
3734 1546 n
3738 1546 n
3741 1546 n
3744 1546 n
3747 1546 n
3750 1546 n
3754 1546 n
3757 1546 n
3760 1546 n
3763 1546 n
3767 1546 n
3770 1546 n
3773 1546 n
3776 1546 n
3780 1546 n
3783 1547 n
3786 1547 n
3789 1547 n
3793 1547 n
3796 1547 n
3799 1547 n
3802 1547 n
3806 1547 n
3809 1547 n
3812 1547 n
3815 1547 n
3819 1547 n
3822 1547 n
3825 1547 n
3828 1547 n
3832 1547 n
3835 1547 n
3838 1547 n
3841 1547 n
3845 1548 n
3848 1548 n
3851 1548 n
3854 1548 n
3858 1548 n
3861 1548 n
3864 1548 n
3867 1548 n
3871 1548 n
3874 1548 n
3877 1548 n
3880 1548 n
3884 1548 n
3887 1548 n
3890 1548 n
3893 1548 n
3897 1548 n
3900 1548 n
/solid f
0 0 0 1 setcmykcolor
3900 600 650 600 l
3900 1575 n
650 1575 n
650 600 n
780 650 780 600 l
780 1575 780 1525 l
910 650 910 600 l
910 1575 910 1525 l
1040 650 1040 600 l
1040 1575 1040 1525 l
1170 650 1170 600 l
1170 1575 1170 1525 l
1300 750 1300 600 l
1300 1575 1300 1425 l
1430 650 1430 600 l
1430 1575 1430 1525 l
1560 650 1560 600 l
1560 1575 1560 1525 l
1690 650 1690 600 l
1690 1575 1690 1525 l
1820 650 1820 600 l
1820 1575 1820 1525 l
1950 750 1950 600 l
1950 1575 1950 1425 l
2080 650 2080 600 l
2080 1575 2080 1525 l
2210 650 2210 600 l
2210 1575 2210 1525 l
2340 650 2340 600 l
2340 1575 2340 1525 l
2470 650 2470 600 l
2470 1575 2470 1525 l
2600 750 2600 600 l
2600 1575 2600 1425 l
2730 650 2730 600 l
2730 1575 2730 1525 l
2860 650 2860 600 l
2860 1575 2860 1525 l
2990 650 2990 600 l
2990 1575 2990 1525 l
3120 650 3120 600 l
3120 1575 3120 1525 l
3250 750 3250 600 l
3250 1575 3250 1425 l
3380 650 3380 600 l
3380 1575 3380 1525 l
3510 650 3510 600 l
3510 1575 3510 1525 l
3640 650 3640 600 l
3640 1575 3640 1525 l
3770 650 3770 600 l
3770 1575 3770 1525 l
700 639 650 639 l
3900 639 3850 639 l
700 678 650 678 l
3900 678 3850 678 l
700 717 650 717 l
3900 717 3850 717 l
700 756 650 756 l
3900 756 3850 756 l
800 795 650 795 l
3900 795 3750 795 l
700 834 650 834 l
3900 834 3850 834 l
700 873 650 873 l
3900 873 3850 873 l
700 912 650 912 l
3900 912 3850 912 l
700 951 650 951 l
3900 951 3850 951 l
800 990 650 990 l
3900 990 3750 990 l
700 1029 650 1029 l
3900 1029 3850 1029 l
700 1068 650 1068 l
3900 1068 3850 1068 l
700 1107 650 1107 l
3900 1107 3850 1107 l
700 1146 650 1146 l
3900 1146 3850 1146 l
800 1185 650 1185 l
3900 1185 3750 1185 l
700 1224 650 1224 l
3900 1224 3850 1224 l
700 1263 650 1263 l
3900 1263 3850 1263 l
700 1302 650 1302 l
3900 1302 3850 1302 l
700 1341 650 1341 l
3900 1341 3850 1341 l
800 1380 650 1380 l
3900 1380 3750 1380 l
700 1419 650 1419 l
3900 1419 3850 1419 l
700 1458 650 1458 l
3900 1458 3850 1458 l
700 1497 650 1497 l
3900 1497 3850 1497 l
700 1536 650 1536 l
3900 1536 3850 1536 l
659 420 m
645 469 m
632 465 n
623 451 n
618 429 n
618 416 n
623 393 n
632 380 n
645 375 n
654 375 n
668 380 n
677 393 n
681 416 n
681 429 n
677 451 n
668 465 n
654 469 n
645 469 n
645 469 m
636 465 n
632 460 n
627 451 n
623 429 n
623 416 n
627 393 n
632 384 n
636 380 n
645 375 n
654 375 m
663 380 n
668 384 n
672 393 n
677 416 n
677 429 n
672 451 n
668 460 n
663 465 n
654 469 n
1309 420 m
1273 451 m
1277 447 n
1273 442 n
1268 447 n
1268 451 n
1273 460 n
1277 465 n
1291 469 n
1309 469 n
1322 465 n
1327 460 n
1331 451 n
1331 442 n
1327 433 n
1313 424 n
1291 416 n
1282 411 n
1273 402 n
1268 389 n
1268 375 n
1309 469 m
1318 465 n
1322 460 n
1327 451 n
1327 442 n
1322 433 n
1309 424 n
1291 416 n
1268 384 m
1273 389 n
1282 389 n
1304 380 n
1318 380 n
1327 384 n
1331 389 n
1282 389 m
1304 375 n
1322 375 n
1327 380 n
1331 389 n
1331 398 n
1959 420 m
1959 460 m
1959 375 n
1963 469 m
1963 375 n
1963 469 m
1914 402 n
1986 402 n
1945 375 m
1977 375 n
2609 420 m
2622 456 m
2618 451 n
2622 447 n
2627 451 n
2627 456 n
2622 465 n
2613 469 n
2600 469 n
2586 465 n
2577 456 n
2573 447 n
2568 429 n
2568 402 n
2573 389 n
2582 380 n
2595 375 n
2604 375 n
2618 380 n
2627 389 n
2631 402 n
2631 407 n
2627 420 n
2618 429 n
2604 433 n
2600 433 n
2586 429 n
2577 420 n
2573 407 n
2600 469 m
2591 465 n
2582 456 n
2577 447 n
2573 429 n
2573 402 n
2577 389 n
2586 380 n
2595 375 n
2604 375 m
2613 380 n
2622 389 n
2627 402 n
2627 407 n
2622 420 n
2613 429 n
2604 433 n
3259 420 m
3241 469 m
3227 465 n
3223 456 n
3223 442 n
3227 433 n
3241 429 n
3259 429 n
3272 433 n
3277 442 n
3277 456 n
3272 465 n
3259 469 n
3241 469 n
3241 469 m
3232 465 n
3227 456 n
3227 442 n
3232 433 n
3241 429 n
3259 429 m
3268 433 n
3272 442 n
3272 456 n
3268 465 n
3259 469 n
3241 429 m
3227 424 n
3223 420 n
3218 411 n
3218 393 n
3223 384 n
3227 380 n
3241 375 n
3259 375 n
3272 380 n
3277 384 n
3281 393 n
3281 411 n
3277 420 n
3272 424 n
3259 429 n
3241 429 m
3232 424 n
3227 420 n
3223 411 n
3223 393 n
3227 384 n
3232 380 n
3241 375 n
3259 375 m
3268 380 n
3272 384 n
3277 393 n
3277 411 n
3272 420 n
3268 424 n
3259 429 n
3830 451 m
3839 456 n
3853 469 n
3853 375 n
3848 465 m
3848 375 n
3830 375 m
3870 375 n
3947 420 m
3933 469 m
3920 465 n
3911 451 n
3906 429 n
3906 416 n
3911 393 n
3920 380 n
3933 375 n
3942 375 n
3956 380 n
3965 393 n
3969 416 n
3969 429 n
3965 451 n
3956 465 n
3942 469 n
3933 469 n
3933 469 m
3924 465 n
3920 460 n
3915 451 n
3911 429 n
3911 416 n
3915 393 n
3920 384 n
3924 380 n
3933 375 n
3942 375 m
3951 380 n
3956 384 n
3960 393 n
3965 416 n
3965 429 n
3960 451 n
3956 460 n
3951 465 n
3942 469 n
552 600 m
538 649 m
525 645 n
516 631 n
511 609 n
511 596 n
516 573 n
525 560 n
538 555 n
547 555 n
561 560 n
570 573 n
574 596 n
574 609 n
570 631 n
561 645 n
547 649 n
538 649 n
538 649 m
529 645 n
525 640 n
520 631 n
516 609 n
516 596 n
520 573 n
525 564 n
529 560 n
538 555 n
547 555 m
556 560 n
561 564 n
565 573 n
570 596 n
570 609 n
565 631 n
561 640 n
556 645 n
547 649 n
552 795 m
516 826 m
520 822 n
516 817 n
511 822 n
511 826 n
516 835 n
520 840 n
534 844 n
552 844 n
565 840 n
570 835 n
574 826 n
574 817 n
570 808 n
556 799 n
534 791 n
525 786 n
516 777 n
511 764 n
511 750 n
552 844 m
561 840 n
565 835 n
570 826 n
570 817 n
565 808 n
552 799 n
534 791 n
511 759 m
516 764 n
525 764 n
547 755 n
561 755 n
570 759 n
574 764 n
525 764 m
547 750 n
565 750 n
570 755 n
574 764 n
574 773 n
548 990 m
548 1030 m
548 945 n
552 1039 m
552 945 n
552 1039 m
503 972 n
575 972 n
534 945 m
566 945 n
552 1185 m
565 1221 m
561 1216 n
565 1212 n
570 1216 n
570 1221 n
565 1230 n
556 1234 n
543 1234 n
529 1230 n
520 1221 n
516 1212 n
511 1194 n
511 1167 n
516 1154 n
525 1145 n
538 1140 n
547 1140 n
561 1145 n
570 1154 n
574 1167 n
574 1172 n
570 1185 n
561 1194 n
547 1198 n
543 1198 n
529 1194 n
520 1185 n
516 1172 n
543 1234 m
534 1230 n
525 1221 n
520 1212 n
516 1194 n
516 1167 n
520 1154 n
529 1145 n
538 1140 n
547 1140 m
556 1145 n
565 1154 n
570 1167 n
570 1172 n
565 1185 n
556 1194 n
547 1198 n
552 1380 m
534 1429 m
520 1425 n
516 1416 n
516 1402 n
520 1393 n
534 1389 n
552 1389 n
565 1393 n
570 1402 n
570 1416 n
565 1425 n
552 1429 n
534 1429 n
534 1429 m
525 1425 n
520 1416 n
520 1402 n
525 1393 n
534 1389 n
552 1389 m
561 1393 n
565 1402 n
565 1416 n
561 1425 n
552 1429 n
534 1389 m
520 1384 n
516 1380 n
511 1371 n
511 1353 n
516 1344 n
520 1340 n
534 1335 n
552 1335 n
565 1340 n
570 1344 n
574 1353 n
574 1371 n
570 1380 n
565 1384 n
552 1389 n
534 1389 m
525 1384 n
520 1380 n
516 1371 n
516 1353 n
520 1344 n
525 1340 n
534 1335 n
552 1335 m
561 1340 n
565 1344 n
570 1353 n
570 1371 n
565 1380 n
561 1384 n
552 1389 n
435 1606 m
444 1611 n
458 1624 n
458 1530 n
453 1620 m
453 1530 n
435 1530 m
475 1530 n
552 1575 m
538 1624 m
525 1620 n
516 1606 n
511 1584 n
511 1571 n
516 1548 n
525 1535 n
538 1530 n
547 1530 n
561 1535 n
570 1548 n
574 1571 n
574 1584 n
570 1606 n
561 1620 n
547 1624 n
538 1624 n
538 1624 m
529 1620 n
525 1615 n
520 1606 n
516 1584 n
516 1571 n
520 1548 n
525 1539 n
529 1535 n
538 1530 n
547 1530 m
556 1535 n
561 1539 n
565 1548 n
570 1571 n
570 1584 n
565 1606 n
561 1615 n
556 1620 n
547 1624 n
2133 289 m
2133 195 n
2137 289 m
2137 195 n
2106 289 m
2101 262 n
2101 289 n
2168 289 n
2168 262 n
2164 289 n
2119 195 m
2150 195 n
2231 240 m
2200 289 m
2195 285 n
2200 280 n
2204 285 n
2200 289 n
2200 258 m
2200 195 n
2204 258 m
2204 195 n
2186 258 m
2204 258 n
2186 195 m
2218 195 n
2281 240 m
2249 258 m
2249 195 n
2254 258 m
2254 195 n
2254 244 m
2263 253 n
2276 258 n
2285 258 n
2299 253 n
2303 244 n
2303 195 n
2285 258 m
2294 253 n
2299 244 n
2299 195 n
2303 244 m
2312 253 n
2326 258 n
2335 258 n
2348 253 n
2353 244 n
2353 195 n
2335 258 m
2344 253 n
2348 244 n
2348 195 n
2236 258 m
2254 258 n
2236 195 m
2267 195 n
2285 195 m
2317 195 n
2335 195 m
2366 195 n
2429 240 m
2393 231 m
2447 231 n
2447 240 n
2443 249 n
2438 253 n
2429 258 n
2416 258 n
2402 253 n
2393 244 n
2389 231 n
2389 222 n
2393 209 n
2402 200 n
2416 195 n
2425 195 n
2438 200 n
2447 209 n
2443 231 m
2443 244 n
2438 253 n
2416 258 m
2407 253 n
2398 244 n
2393 231 n
2393 222 n
2398 209 n
2407 200 n
2416 195 n
226 795 m
320 795 n
226 799 m
320 799 n
253 826 m
288 826 n
226 781 m
226 853 n
253 853 n
226 848 n
271 799 m
271 826 n
320 781 m
320 813 n
275 916 m
296 913 m
359 913 n
296 916 m
359 916 n
326 913 m
320 907 n
317 901 n
317 895 n
320 886 n
326 880 n
335 877 n
341 877 n
350 880 n
356 886 n
359 895 n
359 901 n
356 907 n
350 913 n
317 895 m
320 889 n
326 883 n
335 880 n
341 880 n
350 883 n
356 889 n
359 895 n
296 904 m
296 916 n
359 913 m
359 925 n
329 967 m
317 946 m
359 946 n
317 949 m
359 949 n
335 949 m
326 952 n
320 958 n
317 964 n
317 973 n
320 976 n
323 976 n
326 973 n
323 970 n
320 973 n
317 937 m
317 949 n
359 937 m
359 958 n
329 1018 m
323 997 m
326 997 n
326 994 n
323 994 n
320 997 n
317 1003 n
317 1015 n
320 1021 n
323 1024 n
329 1027 n
350 1027 n
356 1030 n
359 1033 n
323 1024 m
350 1024 n
356 1027 n
359 1033 n
359 1036 n
329 1024 m
332 1021 n
335 1003 n
338 994 n
344 991 n
350 991 n
356 994 n
359 1003 n
359 1012 n
356 1018 n
350 1024 n
335 1003 m
338 997 n
344 994 n
350 994 n
356 997 n
359 1003 n
329 1078 m
317 1066 m
320 1060 n
323 1057 n
329 1054 n
335 1054 n
341 1057 n
344 1060 n
347 1066 n
347 1072 n
344 1078 n
341 1081 n
335 1084 n
329 1084 n
323 1081 n
320 1078 n
317 1072 n
317 1066 n
320 1060 m
326 1057 n
338 1057 n
344 1060 n
344 1078 m
338 1081 n
326 1081 n
320 1078 n
323 1081 m
320 1084 n
317 1090 n
320 1090 n
320 1084 n
341 1057 m
344 1054 n
350 1051 n
353 1051 n
359 1054 n
362 1063 n
362 1078 n
365 1087 n
368 1090 n
353 1051 m
356 1054 n
359 1063 n
359 1078 n
362 1087 n
368 1090 n
371 1090 n
377 1087 n
380 1078 n
380 1060 n
377 1051 n
371 1048 n
368 1048 n
362 1051 n
359 1060 n
329 1135 m
275 1225 m
208 1220 m
217 1211 n
230 1202 n
248 1193 n
271 1189 n
288 1189 n
311 1193 n
329 1202 n
342 1211 n
351 1220 n
217 1211 m
235 1202 n
248 1198 n
271 1193 n
288 1193 n
311 1198 n
324 1202 n
342 1211 n
275 1288 m
226 1256 m
320 1256 n
226 1261 m
311 1315 n
235 1261 m
320 1315 n
226 1315 m
320 1315 n
226 1243 m
226 1261 n
226 1301 m
226 1328 n
320 1243 m
320 1270 n
275 1391 m
208 1351 m
217 1360 n
230 1369 n
248 1378 n
271 1382 n
288 1382 n
311 1378 n
329 1369 n
342 1360 n
351 1351 n
217 1360 m
235 1369 n
248 1373 n
271 1378 n
288 1378 n
311 1373 n
324 1369 n
342 1360 n
1 1 m
e
%%Trailer
EndPSPlot
