%!
%%Creator: fedora:wfreeman(Walter)
%%Title: Unix plot file
%%CreationDate: Mon Mar 18 22:48:05 2024
%%DocumentFonts: Courier
%%EndComments
%%BoundingBox: 0 0 4096 4096
% Start of psplot.pro -- prolog for plot(5) translator
% Copyright (c) 1984,1985,1987 Adobe Systems Incorporated. All Rights Reserved. 
%              RESTRICTED RIGHTS LEGEND
% Use, duplication or disclosure by the Government is subject to
% restrictions as set forth in subdivision (b)(3)(ii) of the Rights in
% Technical Data and Computer Software Clause at 252.227-7013.
% Name of Contractor: Adobe Systems Incorporated
% Address:  1870 Embarcadero Road
%	  Palo Alto, California  94303
% RCS: $Header: psplot.pro,v 2.2 87/11/17 16:41:06 byron Rel $
save 50 dict begin /psplot exch def
/StartPSPlot
   {newpath 0 0 moveto 8 setlinewidth 0 setgray 1 setlinecap
    /imtx matrix currentmatrix def /dmtx matrix defaultmatrix def
    /fnt /Courier findfont def /smtx matrix def fnt 8 scalefont setfont}def
/solid {{}0}def
/dotted	{[2 nail 3.5 nail ] 0}def
/longdashed {[10 nail] 0}def
/shortdashed {[6 nail] 0}def
/dotdashed {[2 nail 6 nail 10 nail 6 nail] 0}def
/disconnected {{}0}def
/min {2 copy lt{pop}{exch pop}ifelse}def
/max {2 copy lt{exch pop}{pop}ifelse}def
/len {dup mul exch dup mul add sqrt}def
/nail {0 imtx dtransform len 0 idtransform len}def

/m {newpath moveto}def
/n {lineto currentpoint stroke moveto}def
/p {newpath moveto gsave 1 setlinecap solid setdash
    dmtx setmatrix .4 nail setlinewidth
    .05 0 idtransform rlineto stroke grestore}def
/l {moveto lineto currentpoint stroke moveto}def
/t {smtx currentmatrix pop imtx setmatrix show smtx setmatrix}def
/a {gsave newpath /y2 exch def /x2 exch def 
    /y1 exch def /x1 exch def /yc exch def /xc exch def
    /r x1 xc sub dup mul y1 yc sub dup mul add sqrt
       x2 xc sub dup mul y2 yc sub dup mul add sqrt add 2 div def
    /ang1 y1 yc sub x1 xc sub atan def
    /ang2 y2 yc sub x2 xc sub atan def
    xc yc r ang1 ang2 arc stroke grestore}def
/c {gsave newpath 0 360 arc stroke grestore}def
/e {gsave showpage grestore newpath 0 0 moveto}def
/f {load exec setdash}def
/s {/ury exch def /urx exch def /lly exch def /llx exch def
    imtx setmatrix newpath clippath pathbbox newpath
    /dury exch def /durx exch def /dlly exch def /dllx exch def
    /md durx dllx sub dury dlly sub min def
    /Mu urx llx sub ury lly sub max def
    36 144 translate .8 .8 scale
    dllx dlly translate md Mu div dup scale llx neg lly neg translate}def
/EndPSPlot {clear psplot end restore}def
StartPSPlot
%%EndProlog
%%Page: 1 1
0 0 4096 4096 s
/solid f
1.00 0.31 1.00 0 setcmykcolor
650 600 m
653 602 n
656 605 n
660 607 n
663 610 n
666 612 n
669 614 n
673 617 n
676 619 n
679 621 n
683 624 n
686 626 n
689 629 n
692 631 n
696 633 n
699 636 n
702 638 n
705 641 n
709 643 n
712 645 n
715 648 n
718 650 n
721 652 n
725 655 n
728 657 n
731 660 n
734 662 n
738 664 n
741 667 n
744 669 n
748 671 n
751 674 n
754 676 n
757 679 n
761 681 n
764 683 n
767 686 n
770 688 n
773 690 n
777 693 n
780 695 n
783 697 n
786 700 n
790 702 n
793 704 n
796 707 n
800 709 n
803 711 n
806 714 n
809 716 n
813 718 n
816 721 n
819 723 n
822 725 n
826 728 n
829 730 n
832 732 n
835 735 n
838 737 n
842 739 n
845 742 n
848 744 n
852 746 n
855 749 n
858 751 n
861 753 n
865 756 n
868 758 n
871 760 n
874 762 n
877 765 n
881 767 n
884 769 n
887 771 n
891 774 n
894 776 n
897 778 n
900 781 n
903 783 n
907 785 n
910 787 n
913 790 n
916 792 n
920 794 n
923 796 n
926 798 n
930 801 n
933 803 n
936 805 n
939 807 n
942 810 n
946 812 n
949 814 n
952 816 n
955 818 n
959 821 n
962 823 n
965 825 n
969 827 n
972 829 n
975 831 n
978 834 n
981 836 n
985 838 n
988 840 n
991 842 n
994 844 n
998 847 n
1001 849 n
1004 851 n
1008 853 n
1011 855 n
1014 857 n
1017 859 n
1020 861 n
1024 864 n
1027 866 n
1030 868 n
1033 870 n
1037 872 n
1040 874 n
1043 876 n
1047 878 n
1050 880 n
1053 882 n
1056 884 n
1059 886 n
1063 888 n
1066 891 n
1069 893 n
1072 895 n
1076 897 n
1079 899 n
1082 901 n
1086 903 n
1089 905 n
1092 907 n
1095 909 n
1098 911 n
1102 913 n
1105 915 n
1108 917 n
1111 919 n
1115 921 n
1118 923 n
1121 925 n
1125 927 n
1128 928 n
1131 930 n
1134 932 n
1138 934 n
1141 936 n
1144 938 n
1147 940 n
1150 942 n
1154 944 n
1157 946 n
1160 948 n
1164 950 n
1167 951 n
1170 953 n
1173 955 n
1177 957 n
1180 959 n
1183 961 n
1186 963 n
1189 965 n
1193 966 n
1196 968 n
1199 970 n
1203 972 n
1206 974 n
1209 976 n
1212 977 n
1216 979 n
1219 981 n
1222 983 n
1225 985 n
1228 986 n
1232 988 n
1235 990 n
1238 992 n
1242 993 n
1245 995 n
1248 997 n
1251 999 n
1255 1000 n
1258 1002 n
1261 1004 n
1264 1006 n
1267 1007 n
1271 1009 n
1274 1011 n
1277 1012 n
1281 1014 n
1284 1016 n
1287 1017 n
1290 1019 n
1294 1021 n
1297 1022 n
1300 1024 n
1303 1026 n
1306 1027 n
1310 1029 n
1313 1031 n
1316 1032 n
1319 1034 n
1323 1036 n
1326 1037 n
1329 1039 n
1332 1040 n
1336 1042 n
1339 1044 n
1342 1045 n
1346 1047 n
1349 1048 n
1352 1050 n
1355 1051 n
1359 1053 n
1362 1054 n
1365 1056 n
1368 1058 n
1372 1059 n
1375 1061 n
1378 1062 n
1381 1064 n
1384 1065 n
1388 1067 n
1391 1068 n
1394 1070 n
1397 1071 n
1401 1073 n
1404 1074 n
1407 1076 n
1410 1077 n
1414 1078 n
1417 1080 n
1420 1081 n
1424 1083 n
1427 1084 n
1430 1086 n
1433 1087 n
1437 1088 n
1440 1090 n
1443 1091 n
1446 1093 n
1450 1094 n
1453 1095 n
1456 1097 n
1459 1098 n
1463 1100 n
1466 1101 n
1469 1102 n
1472 1104 n
1475 1105 n
1479 1106 n
1482 1108 n
1485 1109 n
1488 1110 n
1492 1112 n
1495 1113 n
1498 1114 n
1501 1116 n
1505 1117 n
1508 1118 n
1511 1119 n
1515 1121 n
1518 1122 n
1521 1123 n
1524 1125 n
1528 1126 n
1531 1127 n
1534 1128 n
1537 1130 n
1541 1131 n
1544 1132 n
1547 1133 n
1550 1134 n
1553 1136 n
1557 1137 n
1560 1138 n
1563 1139 n
1566 1141 n
1570 1142 n
1573 1143 n
1576 1144 n
1579 1145 n
1583 1146 n
1586 1148 n
1589 1149 n
1593 1150 n
1596 1151 n
1599 1152 n
1602 1153 n
1606 1154 n
1609 1156 n
1612 1157 n
1615 1158 n
1619 1159 n
1622 1160 n
1625 1161 n
1628 1162 n
1631 1163 n
1635 1164 n
1638 1166 n
1641 1167 n
1644 1168 n
1648 1169 n
1651 1170 n
1654 1171 n
1657 1172 n
1661 1173 n
1664 1174 n
1667 1175 n
1671 1176 n
1674 1177 n
1677 1178 n
1680 1179 n
1684 1180 n
1687 1181 n
1690 1182 n
1693 1183 n
1697 1184 n
1700 1185 n
1703 1186 n
1706 1187 n
1709 1188 n
1713 1189 n
1716 1190 n
1719 1191 n
1722 1192 n
1726 1193 n
1729 1194 n
1732 1195 n
1735 1196 n
1739 1197 n
1742 1198 n
1745 1198 n
1749 1199 n
1752 1200 n
1755 1201 n
1758 1202 n
1762 1203 n
1765 1204 n
1768 1205 n
1771 1206 n
1775 1207 n
1778 1207 n
1781 1208 n
1784 1209 n
1788 1210 n
1791 1211 n
1794 1212 n
1797 1213 n
1800 1213 n
1804 1214 n
1807 1215 n
1810 1216 n
1813 1217 n
1817 1218 n
1820 1219 n
1823 1219 n
1826 1220 n
1830 1221 n
1833 1222 n
1836 1223 n
1840 1223 n
1843 1224 n
1846 1225 n
1849 1226 n
1853 1227 n
1856 1227 n
1859 1228 n
1862 1229 n
1866 1230 n
1869 1230 n
1872 1231 n
1875 1232 n
1878 1233 n
1882 1233 n
1885 1234 n
1888 1235 n
1891 1236 n
1895 1236 n
1898 1237 n
1901 1238 n
1904 1238 n
1908 1239 n
1911 1240 n
1914 1241 n
1918 1241 n
1921 1242 n
1924 1243 n
1927 1243 n
1931 1244 n
1934 1245 n
1937 1245 n
1940 1246 n
1944 1247 n
1947 1248 n
1950 1248 n
1953 1249 n
1956 1250 n
1960 1250 n
1963 1251 n
1966 1251 n
1969 1252 n
1973 1253 n
1976 1253 n
1979 1254 n
1982 1255 n
1986 1255 n
1989 1256 n
1992 1257 n
1995 1257 n
1999 1258 n
2002 1258 n
2005 1259 n
2008 1260 n
2012 1260 n
2015 1261 n
2018 1261 n
2021 1262 n
2025 1263 n
2028 1263 n
2031 1264 n
2035 1264 n
2038 1265 n
2041 1266 n
2044 1266 n
2048 1267 n
2051 1267 n
2054 1268 n
2057 1268 n
2061 1269 n
2064 1269 n
2067 1270 n
2070 1271 n
2074 1271 n
2077 1272 n
2080 1272 n
2083 1273 n
2087 1273 n
2090 1274 n
2093 1274 n
2096 1275 n
2100 1275 n
2103 1276 n
2106 1276 n
2109 1277 n
2113 1277 n
2116 1278 n
2119 1278 n
2122 1279 n
2125 1279 n
2129 1280 n
2132 1280 n
2135 1281 n
2138 1281 n
2142 1282 n
2145 1282 n
2148 1283 n
2151 1283 n
2155 1284 n
2158 1284 n
2161 1285 n
2164 1285 n
2168 1286 n
2171 1286 n
2174 1287 n
2177 1287 n
2181 1287 n
2184 1288 n
2187 1288 n
2190 1289 n
2194 1289 n
2197 1290 n
2200 1290 n
2204 1291 n
2207 1291 n
2210 1291 n
2213 1292 n
2217 1292 n
2220 1293 n
2223 1293 n
2226 1294 n
2230 1294 n
2233 1294 n
2236 1295 n
2239 1295 n
2243 1296 n
2246 1296 n
2249 1296 n
2252 1297 n
2256 1297 n
2259 1298 n
2262 1298 n
2265 1298 n
2269 1299 n
2272 1299 n
2275 1300 n
2278 1300 n
2281 1300 n
2285 1301 n
2288 1301 n
2291 1301 n
2294 1302 n
2298 1302 n
2301 1303 n
2304 1303 n
2307 1303 n
2311 1304 n
2314 1304 n
2317 1304 n
2320 1305 n
2324 1305 n
2327 1305 n
2330 1306 n
2333 1306 n
2337 1306 n
2340 1307 n
2343 1307 n
2346 1307 n
2350 1308 n
2353 1308 n
2356 1308 n
2360 1309 n
2363 1309 n
2366 1309 n
2369 1310 n
2373 1310 n
2376 1310 n
2379 1311 n
2382 1311 n
2386 1311 n
2389 1312 n
2392 1312 n
2395 1312 n
2399 1313 n
2402 1313 n
2405 1313 n
2408 1313 n
2412 1314 n
2415 1314 n
2418 1314 n
2421 1315 n
2425 1315 n
2428 1315 n
2431 1316 n
2434 1316 n
2438 1316 n
2441 1316 n
2444 1317 n
2447 1317 n
2450 1317 n
2454 1318 n
2457 1318 n
2460 1318 n
2463 1318 n
2467 1319 n
2470 1319 n
2473 1319 n
2476 1319 n
2480 1320 n
2483 1320 n
2486 1320 n
2489 1320 n
2493 1321 n
2496 1321 n
2499 1321 n
2502 1322 n
2506 1322 n
2509 1322 n
2512 1322 n
2515 1323 n
2519 1323 n
2522 1323 n
2525 1323 n
2529 1323 n
2532 1324 n
2535 1324 n
2538 1324 n
2542 1324 n
2545 1325 n
2548 1325 n
2551 1325 n
2555 1325 n
2558 1326 n
2561 1326 n
2564 1326 n
2568 1326 n
2571 1327 n
2574 1327 n
2577 1327 n
2581 1327 n
2584 1327 n
2587 1328 n
2590 1328 n
2594 1328 n
2597 1328 n
2600 1328 n
2603 1329 n
2606 1329 n
2610 1329 n
2613 1329 n
2616 1330 n
2619 1330 n
2623 1330 n
2626 1330 n
2629 1330 n
2632 1331 n
2636 1331 n
2639 1331 n
2642 1331 n
2645 1331 n
2649 1332 n
2652 1332 n
2655 1332 n
2658 1332 n
2662 1332 n
2665 1332 n
2668 1333 n
2671 1333 n
2675 1333 n
2678 1333 n
2681 1333 n
2685 1334 n
2688 1334 n
2691 1334 n
2694 1334 n
2698 1334 n
2701 1334 n
2704 1335 n
2707 1335 n
2711 1335 n
2714 1335 n
2717 1335 n
2720 1336 n
2724 1336 n
2727 1336 n
2730 1336 n
2733 1336 n
2737 1336 n
2740 1337 n
2743 1337 n
2746 1337 n
2750 1337 n
2753 1337 n
2756 1337 n
2759 1337 n
2763 1338 n
2766 1338 n
2769 1338 n
2772 1338 n
2775 1338 n
2779 1338 n
2782 1339 n
2785 1339 n
2788 1339 n
2792 1339 n
2795 1339 n
2798 1339 n
2801 1339 n
2805 1340 n
2808 1340 n
2811 1340 n
2814 1340 n
2818 1340 n
2821 1340 n
2824 1340 n
2827 1341 n
2831 1341 n
2834 1341 n
2837 1341 n
2840 1341 n
2844 1341 n
2847 1341 n
2850 1342 n
2854 1342 n
2857 1342 n
2860 1342 n
2863 1342 n
2867 1342 n
2870 1342 n
2873 1342 n
2876 1343 n
2880 1343 n
2883 1343 n
2886 1343 n
2889 1343 n
2893 1343 n
2896 1343 n
2899 1343 n
2902 1344 n
2906 1344 n
2909 1344 n
2912 1344 n
2915 1344 n
2919 1344 n
2922 1344 n
2925 1344 n
2928 1345 n
2931 1345 n
2935 1345 n
2938 1345 n
2941 1345 n
2944 1345 n
2948 1345 n
2951 1345 n
2954 1345 n
2957 1346 n
2961 1346 n
2964 1346 n
2967 1346 n
2970 1346 n
2974 1346 n
2977 1346 n
2980 1346 n
2983 1346 n
2987 1346 n
2990 1347 n
2993 1347 n
2996 1347 n
3000 1347 n
3003 1347 n
3006 1347 n
3010 1347 n
3013 1347 n
3016 1347 n
3019 1347 n
3023 1348 n
3026 1348 n
3029 1348 n
3032 1348 n
3036 1348 n
3039 1348 n
3042 1348 n
3045 1348 n
3049 1348 n
3052 1348 n
3055 1349 n
3058 1349 n
3062 1349 n
3065 1349 n
3068 1349 n
3071 1349 n
3075 1349 n
3078 1349 n
3081 1349 n
3084 1349 n
3088 1349 n
3091 1349 n
3094 1350 n
3097 1350 n
3100 1350 n
3104 1350 n
3107 1350 n
3110 1350 n
3113 1350 n
3117 1350 n
3120 1350 n
3123 1350 n
3126 1350 n
3130 1350 n
3133 1351 n
3136 1351 n
3139 1351 n
3143 1351 n
3146 1351 n
3149 1351 n
3152 1351 n
3156 1351 n
3159 1351 n
3162 1351 n
3165 1351 n
3169 1351 n
3172 1351 n
3175 1352 n
3179 1352 n
3182 1352 n
3185 1352 n
3188 1352 n
3192 1352 n
3195 1352 n
3198 1352 n
3201 1352 n
3205 1352 n
3208 1352 n
3211 1352 n
3214 1352 n
3218 1352 n
3221 1352 n
3224 1353 n
3227 1353 n
3231 1353 n
3234 1353 n
3237 1353 n
3240 1353 n
3244 1353 n
3247 1353 n
3250 1353 n
3253 1353 n
3257 1353 n
3260 1353 n
3263 1353 n
3266 1353 n
3270 1353 n
3273 1353 n
3276 1354 n
3279 1354 n
3283 1354 n
3286 1354 n
3289 1354 n
3292 1354 n
3296 1354 n
3299 1354 n
3302 1354 n
3305 1354 n
3309 1354 n
3312 1354 n
3315 1354 n
3318 1354 n
3322 1354 n
3325 1354 n
3328 1354 n
3331 1354 n
3335 1355 n
3338 1355 n
3341 1355 n
3344 1355 n
3348 1355 n
3351 1355 n
3354 1355 n
3357 1355 n
3361 1355 n
3364 1355 n
3367 1355 n
3370 1355 n
3374 1355 n
3377 1355 n
3380 1355 n
3383 1355 n
3387 1355 n
3390 1355 n
3393 1355 n
3396 1355 n
3400 1356 n
3403 1356 n
3406 1356 n
3409 1356 n
3413 1356 n
3416 1356 n
3419 1356 n
3422 1356 n
3425 1356 n
3429 1356 n
3432 1356 n
3435 1356 n
3438 1356 n
3442 1356 n
3445 1356 n
3448 1356 n
3451 1356 n
3455 1356 n
3458 1356 n
3461 1356 n
3464 1356 n
3468 1356 n
3471 1357 n
3474 1357 n
3477 1357 n
3481 1357 n
3484 1357 n
3487 1357 n
3490 1357 n
3494 1357 n
3497 1357 n
3500 1357 n
3503 1357 n
3507 1357 n
3510 1357 n
3513 1357 n
3516 1357 n
3520 1357 n
3523 1357 n
3526 1357 n
3529 1357 n
3533 1357 n
3536 1357 n
3539 1357 n
3542 1357 n
3546 1357 n
3549 1357 n
3552 1357 n
3555 1357 n
3559 1358 n
3562 1358 n
3565 1358 n
3568 1358 n
3572 1358 n
3575 1358 n
3578 1358 n
3582 1358 n
3585 1358 n
3588 1358 n
3591 1358 n
3595 1358 n
3598 1358 n
3601 1358 n
3604 1358 n
3608 1358 n
3611 1358 n
3614 1358 n
3617 1358 n
3621 1358 n
3624 1358 n
3627 1358 n
3630 1358 n
3634 1358 n
3637 1358 n
3640 1358 n
3643 1358 n
3647 1358 n
3650 1358 n
3653 1358 n
3656 1358 n
3660 1359 n
3663 1359 n
3666 1359 n
3669 1359 n
3673 1359 n
3676 1359 n
3679 1359 n
3682 1359 n
3686 1359 n
3689 1359 n
3692 1359 n
3695 1359 n
3699 1359 n
3702 1359 n
3705 1359 n
3708 1359 n
3712 1359 n
3715 1359 n
3718 1359 n
3721 1359 n
3725 1359 n
3728 1359 n
3731 1359 n
3734 1359 n
3738 1359 n
3741 1359 n
3744 1359 n
3747 1359 n
3750 1359 n
3754 1359 n
3757 1359 n
3760 1359 n
3763 1359 n
3767 1359 n
3770 1359 n
3773 1359 n
3776 1359 n
3780 1359 n
3783 1359 n
3786 1359 n
3789 1360 n
3793 1360 n
3796 1360 n
3799 1360 n
3802 1360 n
3806 1360 n
3809 1360 n
3812 1360 n
3815 1360 n
3819 1360 n
3822 1360 n
3825 1360 n
3828 1360 n
3832 1360 n
3835 1360 n
3838 1360 n
3841 1360 n
3845 1360 n
3848 1360 n
3851 1360 n
3854 1360 n
3858 1360 n
3861 1360 n
3864 1360 n
3867 1360 n
3871 1360 n
3874 1360 n
3877 1360 n
3880 1360 n
3884 1360 n
3887 1360 n
3890 1360 n
3893 1360 n
3897 1360 n
3900 1360 n
/solid f
0 0 0 1 setcmykcolor
3900 600 650 600 l
3900 1575 n
650 1575 n
650 600 n
780 650 780 600 l
780 1575 780 1525 l
910 650 910 600 l
910 1575 910 1525 l
1040 650 1040 600 l
1040 1575 1040 1525 l
1170 650 1170 600 l
1170 1575 1170 1525 l
1300 750 1300 600 l
1300 1575 1300 1425 l
1430 650 1430 600 l
1430 1575 1430 1525 l
1560 650 1560 600 l
1560 1575 1560 1525 l
1690 650 1690 600 l
1690 1575 1690 1525 l
1820 650 1820 600 l
1820 1575 1820 1525 l
1950 750 1950 600 l
1950 1575 1950 1425 l
2080 650 2080 600 l
2080 1575 2080 1525 l
2210 650 2210 600 l
2210 1575 2210 1525 l
2340 650 2340 600 l
2340 1575 2340 1525 l
2470 650 2470 600 l
2470 1575 2470 1525 l
2600 750 2600 600 l
2600 1575 2600 1425 l
2730 650 2730 600 l
2730 1575 2730 1525 l
2860 650 2860 600 l
2860 1575 2860 1525 l
2990 650 2990 600 l
2990 1575 2990 1525 l
3120 650 3120 600 l
3120 1575 3120 1525 l
3250 750 3250 600 l
3250 1575 3250 1425 l
3380 650 3380 600 l
3380 1575 3380 1525 l
3510 650 3510 600 l
3510 1575 3510 1525 l
3640 650 3640 600 l
3640 1575 3640 1525 l
3770 650 3770 600 l
3770 1575 3770 1525 l
700 649 650 649 l
3900 649 3850 649 l
700 698 650 698 l
3900 698 3850 698 l
700 746 650 746 l
3900 746 3850 746 l
700 795 650 795 l
3900 795 3850 795 l
800 844 650 844 l
3900 844 3750 844 l
700 893 650 893 l
3900 893 3850 893 l
700 941 650 941 l
3900 941 3850 941 l
700 990 650 990 l
3900 990 3850 990 l
700 1039 650 1039 l
3900 1039 3850 1039 l
800 1088 650 1088 l
3900 1088 3750 1088 l
700 1136 650 1136 l
3900 1136 3850 1136 l
700 1185 650 1185 l
3900 1185 3850 1185 l
700 1234 650 1234 l
3900 1234 3850 1234 l
700 1283 650 1283 l
3900 1283 3850 1283 l
800 1331 650 1331 l
3900 1331 3750 1331 l
700 1380 650 1380 l
3900 1380 3850 1380 l
700 1429 650 1429 l
3900 1429 3850 1429 l
700 1478 650 1478 l
3900 1478 3850 1478 l
700 1526 650 1526 l
3900 1526 3850 1526 l
659 420 m
645 469 m
632 465 n
623 451 n
618 429 n
618 416 n
623 393 n
632 380 n
645 375 n
654 375 n
668 380 n
677 393 n
681 416 n
681 429 n
677 451 n
668 465 n
654 469 n
645 469 n
645 469 m
636 465 n
632 460 n
627 451 n
623 429 n
623 416 n
627 393 n
632 384 n
636 380 n
645 375 n
654 375 m
663 380 n
668 384 n
672 393 n
677 416 n
677 429 n
672 451 n
668 460 n
663 465 n
654 469 n
1309 420 m
1273 451 m
1277 447 n
1273 442 n
1268 447 n
1268 451 n
1273 460 n
1277 465 n
1291 469 n
1309 469 n
1322 465 n
1327 460 n
1331 451 n
1331 442 n
1327 433 n
1313 424 n
1291 416 n
1282 411 n
1273 402 n
1268 389 n
1268 375 n
1309 469 m
1318 465 n
1322 460 n
1327 451 n
1327 442 n
1322 433 n
1309 424 n
1291 416 n
1268 384 m
1273 389 n
1282 389 n
1304 380 n
1318 380 n
1327 384 n
1331 389 n
1282 389 m
1304 375 n
1322 375 n
1327 380 n
1331 389 n
1331 398 n
1959 420 m
1959 460 m
1959 375 n
1963 469 m
1963 375 n
1963 469 m
1914 402 n
1986 402 n
1945 375 m
1977 375 n
2609 420 m
2622 456 m
2618 451 n
2622 447 n
2627 451 n
2627 456 n
2622 465 n
2613 469 n
2600 469 n
2586 465 n
2577 456 n
2573 447 n
2568 429 n
2568 402 n
2573 389 n
2582 380 n
2595 375 n
2604 375 n
2618 380 n
2627 389 n
2631 402 n
2631 407 n
2627 420 n
2618 429 n
2604 433 n
2600 433 n
2586 429 n
2577 420 n
2573 407 n
2600 469 m
2591 465 n
2582 456 n
2577 447 n
2573 429 n
2573 402 n
2577 389 n
2586 380 n
2595 375 n
2604 375 m
2613 380 n
2622 389 n
2627 402 n
2627 407 n
2622 420 n
2613 429 n
2604 433 n
3259 420 m
3241 469 m
3227 465 n
3223 456 n
3223 442 n
3227 433 n
3241 429 n
3259 429 n
3272 433 n
3277 442 n
3277 456 n
3272 465 n
3259 469 n
3241 469 n
3241 469 m
3232 465 n
3227 456 n
3227 442 n
3232 433 n
3241 429 n
3259 429 m
3268 433 n
3272 442 n
3272 456 n
3268 465 n
3259 469 n
3241 429 m
3227 424 n
3223 420 n
3218 411 n
3218 393 n
3223 384 n
3227 380 n
3241 375 n
3259 375 n
3272 380 n
3277 384 n
3281 393 n
3281 411 n
3277 420 n
3272 424 n
3259 429 n
3241 429 m
3232 424 n
3227 420 n
3223 411 n
3223 393 n
3227 384 n
3232 380 n
3241 375 n
3259 375 m
3268 380 n
3272 384 n
3277 393 n
3277 411 n
3272 420 n
3268 424 n
3259 429 n
3830 451 m
3839 456 n
3853 469 n
3853 375 n
3848 465 m
3848 375 n
3830 375 m
3870 375 n
3947 420 m
3933 469 m
3920 465 n
3911 451 n
3906 429 n
3906 416 n
3911 393 n
3920 380 n
3933 375 n
3942 375 n
3956 380 n
3965 393 n
3969 416 n
3969 429 n
3965 451 n
3956 465 n
3942 469 n
3933 469 n
3933 469 m
3924 465 n
3920 460 n
3915 451 n
3911 429 n
3911 416 n
3915 393 n
3920 384 n
3924 380 n
3933 375 n
3942 375 m
3951 380 n
3956 384 n
3960 393 n
3965 416 n
3965 429 n
3960 451 n
3956 460 n
3951 465 n
3942 469 n
552 600 m
538 649 m
525 645 n
516 631 n
511 609 n
511 596 n
516 573 n
525 560 n
538 555 n
547 555 n
561 560 n
570 573 n
574 596 n
574 609 n
570 631 n
561 645 n
547 649 n
538 649 n
538 649 m
529 645 n
525 640 n
520 631 n
516 609 n
516 596 n
520 573 n
525 564 n
529 560 n
538 555 n
547 555 m
556 560 n
561 564 n
565 573 n
570 596 n
570 609 n
565 631 n
561 640 n
556 645 n
547 649 n
435 875 m
444 880 n
458 893 n
458 799 n
453 889 m
453 799 n
435 799 m
475 799 n
552 844 m
538 893 m
525 889 n
516 875 n
511 853 n
511 840 n
516 817 n
525 804 n
538 799 n
547 799 n
561 804 n
570 817 n
574 840 n
574 853 n
570 875 n
561 889 n
547 893 n
538 893 n
538 893 m
529 889 n
525 884 n
520 875 n
516 853 n
516 840 n
520 817 n
525 808 n
529 804 n
538 799 n
547 799 m
556 804 n
561 808 n
565 817 n
570 840 n
570 853 n
565 875 n
561 884 n
556 889 n
547 893 n
426 1119 m
431 1115 n
426 1110 n
422 1115 n
422 1119 n
426 1128 n
431 1133 n
444 1137 n
462 1137 n
475 1133 n
480 1128 n
484 1119 n
484 1110 n
480 1101 n
466 1092 n
444 1084 n
435 1079 n
426 1070 n
422 1057 n
422 1043 n
462 1137 m
471 1133 n
475 1128 n
480 1119 n
480 1110 n
475 1101 n
462 1092 n
444 1084 n
422 1052 m
426 1057 n
435 1057 n
458 1048 n
471 1048 n
480 1052 n
484 1057 n
435 1057 m
458 1043 n
475 1043 n
480 1048 n
484 1057 n
484 1066 n
552 1088 m
538 1137 m
525 1133 n
516 1119 n
511 1097 n
511 1084 n
516 1061 n
525 1048 n
538 1043 n
547 1043 n
561 1048 n
570 1061 n
574 1084 n
574 1097 n
570 1119 n
561 1133 n
547 1137 n
538 1137 n
538 1137 m
529 1133 n
525 1128 n
520 1119 n
516 1097 n
516 1084 n
520 1061 n
525 1052 n
529 1048 n
538 1043 n
547 1043 m
556 1048 n
561 1052 n
565 1061 n
570 1084 n
570 1097 n
565 1119 n
561 1128 n
556 1133 n
547 1137 n
426 1362 m
431 1358 n
426 1353 n
422 1358 n
422 1362 n
426 1371 n
431 1376 n
444 1380 n
462 1380 n
475 1376 n
480 1367 n
480 1353 n
475 1344 n
462 1340 n
449 1340 n
462 1380 m
471 1376 n
475 1367 n
475 1353 n
471 1344 n
462 1340 n
462 1340 m
471 1335 n
480 1327 n
484 1318 n
484 1304 n
480 1295 n
475 1291 n
462 1286 n
444 1286 n
431 1291 n
426 1295 n
422 1304 n
422 1309 n
426 1313 n
431 1309 n
426 1304 n
475 1331 m
480 1318 n
480 1304 n
475 1295 n
471 1291 n
462 1286 n
552 1331 m
538 1380 m
525 1376 n
516 1362 n
511 1340 n
511 1327 n
516 1304 n
525 1291 n
538 1286 n
547 1286 n
561 1291 n
570 1304 n
574 1327 n
574 1340 n
570 1362 n
561 1376 n
547 1380 n
538 1380 n
538 1380 m
529 1376 n
525 1371 n
520 1362 n
516 1340 n
516 1327 n
520 1304 n
525 1295 n
529 1291 n
538 1286 n
547 1286 m
556 1291 n
561 1295 n
565 1304 n
570 1327 n
570 1340 n
565 1362 n
561 1371 n
556 1376 n
547 1380 n
462 1615 m
462 1530 n
466 1624 m
466 1530 n
466 1624 m
417 1557 n
489 1557 n
449 1530 m
480 1530 n
552 1575 m
538 1624 m
525 1620 n
516 1606 n
511 1584 n
511 1571 n
516 1548 n
525 1535 n
538 1530 n
547 1530 n
561 1535 n
570 1548 n
574 1571 n
574 1584 n
570 1606 n
561 1620 n
547 1624 n
538 1624 n
538 1624 m
529 1620 n
525 1615 n
520 1606 n
516 1584 n
516 1571 n
520 1548 n
525 1539 n
529 1535 n
538 1530 n
547 1530 m
556 1535 n
561 1539 n
565 1548 n
570 1571 n
570 1584 n
565 1606 n
561 1615 n
556 1620 n
547 1624 n
257 801 m
320 828 n
257 805 m
311 828 n
257 854 m
320 828 n
257 792 m
257 819 n
257 837 m
257 863 n
275 922 m
275 994 m
208 989 m
217 980 n
230 971 n
248 962 n
271 958 n
288 958 n
311 962 n
329 971 n
342 980 n
351 989 n
217 980 m
235 971 n
248 967 n
271 962 n
288 962 n
311 967 n
324 971 n
342 980 n
275 1057 m
257 1025 m
320 1025 n
257 1030 m
320 1030 n
271 1030 m
262 1039 n
257 1052 n
257 1061 n
262 1075 n
271 1079 n
320 1079 n
257 1061 m
262 1070 n
271 1075 n
320 1075 n
271 1079 m
262 1088 n
257 1102 n
257 1111 n
262 1124 n
271 1129 n
320 1129 n
257 1111 m
262 1120 n
271 1124 n
320 1124 n
257 1012 m
257 1030 n
320 1012 m
320 1043 n
320 1061 m
320 1093 n
320 1111 m
320 1142 n
275 1205 m
208 1241 m
351 1160 n
275 1304 m
266 1309 m
257 1313 n
275 1313 n
266 1309 n
262 1304 n
257 1295 n
257 1277 n
262 1268 n
266 1264 n
275 1264 n
279 1268 n
284 1277 n
293 1300 n
297 1309 n
302 1313 n
271 1264 m
275 1268 n
279 1277 n
288 1300 n
293 1309 n
297 1313 n
311 1313 n
315 1309 n
320 1300 n
320 1282 n
315 1273 n
311 1268 n
302 1264 n
320 1264 n
311 1268 n
275 1381 m
208 1340 m
217 1349 n
230 1358 n
248 1367 n
271 1372 n
288 1372 n
311 1367 n
329 1358 n
342 1349 n
351 1340 n
217 1349 m
235 1358 n
248 1363 n
271 1367 n
288 1367 n
311 1363 n
324 1358 n
342 1349 n
1 1 m
e
%%Trailer
EndPSPlot
