\relax 
\providecommand\hyper@newdestlabel[2]{}
\providecommand\HyperFirstAtBeginDocument{\AtBeginDocument}
\HyperFirstAtBeginDocument{\ifx\hyper@anchor\@undefined
\global\let\oldnewlabel\newlabel
\gdef\newlabel#1#2{\newlabelxx{#1}#2}
\gdef\newlabelxx#1#2#3#4#5#6{\oldnewlabel{#1}{{#2}{#3}}}
\AtEndDocument{\ifx\hyper@anchor\@undefined
\let\newlabel\oldnewlabel
\fi}
\fi}
\global\let\hyper@last\relax 
\gdef\HyperFirstAtBeginDocument#1{#1}
\providecommand\HyField@AuxAddToFields[1]{}
\providecommand\HyField@AuxAddToCoFields[2]{}
\@writefile{nav}{\headcommand {\slideentry {0}{0}{1}{1/1}{}{0}}}
\@writefile{nav}{\headcommand {\beamer@framepages {1}{1}}}
\@writefile{nav}{\headcommand {\slideentry {0}{0}{2}{2/2}{}{0}}}
\@writefile{nav}{\headcommand {\beamer@framepages {2}{2}}}
\@writefile{nav}{\headcommand {\slideentry {0}{0}{3}{3/3}{}{0}}}
\@writefile{nav}{\headcommand {\beamer@framepages {3}{3}}}
\@writefile{nav}{\headcommand {\slideentry {0}{0}{4}{4/6}{}{0}}}
\@writefile{nav}{\headcommand {\beamer@framepages {4}{6}}}
\@writefile{nav}{\headcommand {\slideentry {0}{0}{5}{7/9}{}{0}}}
\@writefile{nav}{\headcommand {\beamer@framepages {7}{9}}}
\@writefile{nav}{\headcommand {\slideentry {0}{0}{6}{10/10}{}{0}}}
\@writefile{nav}{\headcommand {\beamer@framepages {10}{10}}}
\@writefile{nav}{\headcommand {\slideentry {0}{0}{7}{11/11}{}{0}}}
\@writefile{nav}{\headcommand {\beamer@framepages {11}{11}}}
\@writefile{nav}{\headcommand {\slideentry {0}{0}{8}{12/12}{}{0}}}
\@writefile{nav}{\headcommand {\beamer@framepages {12}{12}}}
\@writefile{nav}{\headcommand {\slideentry {0}{0}{9}{13/15}{}{0}}}
\@writefile{nav}{\headcommand {\beamer@framepages {13}{15}}}
\@writefile{nav}{\headcommand {\slideentry {0}{0}{10}{16/19}{}{0}}}
\@writefile{nav}{\headcommand {\beamer@framepages {16}{19}}}
\@writefile{nav}{\headcommand {\slideentry {0}{0}{11}{20/21}{}{0}}}
\@writefile{nav}{\headcommand {\beamer@framepages {20}{21}}}
\@writefile{nav}{\headcommand {\slideentry {0}{0}{12}{22/22}{}{0}}}
\@writefile{nav}{\headcommand {\beamer@framepages {22}{22}}}
\@writefile{nav}{\headcommand {\slideentry {0}{0}{13}{23/23}{}{0}}}
\@writefile{nav}{\headcommand {\beamer@framepages {23}{23}}}
\@writefile{nav}{\headcommand {\slideentry {0}{0}{14}{24/24}{}{0}}}
\@writefile{nav}{\headcommand {\beamer@framepages {24}{24}}}
\@writefile{nav}{\headcommand {\slideentry {0}{0}{15}{25/25}{}{0}}}
\@writefile{nav}{\headcommand {\beamer@framepages {25}{25}}}
\@writefile{nav}{\headcommand {\slideentry {0}{0}{16}{26/27}{}{0}}}
\@writefile{nav}{\headcommand {\beamer@framepages {26}{27}}}
\@writefile{nav}{\headcommand {\slideentry {0}{0}{17}{28/29}{}{0}}}
\@writefile{nav}{\headcommand {\beamer@framepages {28}{29}}}
\@writefile{nav}{\headcommand {\slideentry {0}{0}{18}{30/31}{}{0}}}
\@writefile{nav}{\headcommand {\beamer@framepages {30}{31}}}
\@writefile{nav}{\headcommand {\slideentry {0}{0}{19}{32/33}{}{0}}}
\@writefile{nav}{\headcommand {\beamer@framepages {32}{33}}}
\@writefile{nav}{\headcommand {\slideentry {0}{0}{20}{34/34}{}{0}}}
\@writefile{nav}{\headcommand {\beamer@framepages {34}{34}}}
\@writefile{nav}{\headcommand {\slideentry {0}{0}{21}{35/35}{}{0}}}
\@writefile{nav}{\headcommand {\beamer@framepages {35}{35}}}
\@writefile{nav}{\headcommand {\slideentry {0}{0}{22}{36/36}{}{0}}}
\@writefile{nav}{\headcommand {\beamer@framepages {36}{36}}}
\@writefile{nav}{\headcommand {\slideentry {0}{0}{23}{37/37}{}{0}}}
\@writefile{nav}{\headcommand {\beamer@framepages {37}{37}}}
\@writefile{nav}{\headcommand {\slideentry {0}{0}{24}{38/38}{}{0}}}
\@writefile{nav}{\headcommand {\beamer@framepages {38}{38}}}
\@writefile{nav}{\headcommand {\slideentry {0}{0}{25}{39/42}{}{0}}}
\@writefile{nav}{\headcommand {\beamer@framepages {39}{42}}}
\@writefile{nav}{\headcommand {\slideentry {0}{0}{26}{43/45}{}{0}}}
\@writefile{nav}{\headcommand {\beamer@framepages {43}{45}}}
\@writefile{nav}{\headcommand {\slideentry {0}{0}{27}{46/46}{}{0}}}
\@writefile{nav}{\headcommand {\beamer@framepages {46}{46}}}
\@writefile{nav}{\headcommand {\slideentry {0}{0}{28}{47/47}{}{0}}}
\@writefile{nav}{\headcommand {\beamer@framepages {47}{47}}}
\@writefile{nav}{\headcommand {\slideentry {0}{0}{29}{48/48}{}{0}}}
\@writefile{nav}{\headcommand {\beamer@framepages {48}{48}}}
\@writefile{nav}{\headcommand {\beamer@partpages {1}{48}}}
\@writefile{nav}{\headcommand {\beamer@subsectionpages {1}{48}}}
\@writefile{nav}{\headcommand {\beamer@sectionpages {1}{48}}}
\@writefile{nav}{\headcommand {\beamer@documentpages {48}}}
\@writefile{nav}{\headcommand {\gdef \inserttotalframenumber {29}}}
\gdef \@abspage@last{48}
