%!
%%Creator: syn-2603-7081-4b3c-c000-dbe6-51a1-31ba-c1ba.res6.spectrum.com:wfreeman(Walter)
%%Title: Unix plot file
%%CreationDate: Mon Jan 27 21:59:59 2025
%%DocumentFonts: Courier
%%EndComments
%%BoundingBox: 0 0 4096 4096
% Start of psplot.pro -- prolog for plot(5) translator
% Copyright (c) 1984,1985,1987 Adobe Systems Incorporated. All Rights Reserved. 
%              RESTRICTED RIGHTS LEGEND
% Use, duplication or disclosure by the Government is subject to
% restrictions as set forth in subdivision (b)(3)(ii) of the Rights in
% Technical Data and Computer Software Clause at 252.227-7013.
% Name of Contractor: Adobe Systems Incorporated
% Address:  1870 Embarcadero Road
%	  Palo Alto, California  94303
% RCS: $Header: psplot.pro,v 2.2 87/11/17 16:41:06 byron Rel $
save 50 dict begin /psplot exch def
/StartPSPlot
   {newpath 0 0 moveto 8 setlinewidth 0 setgray 1 setlinecap
    /imtx matrix currentmatrix def /dmtx matrix defaultmatrix def
    /fnt /Courier findfont def /smtx matrix def fnt 8 scalefont setfont}def
/solid {{}0}def
/dotted	{[2 nail 3.5 nail ] 0}def
/longdashed {[10 nail] 0}def
/shortdashed {[6 nail] 0}def
/dotdashed {[2 nail 6 nail 10 nail 6 nail] 0}def
/disconnected {{}0}def
/min {2 copy lt{pop}{exch pop}ifelse}def
/max {2 copy lt{exch pop}{pop}ifelse}def
/len {dup mul exch dup mul add sqrt}def
/nail {0 imtx dtransform len 0 idtransform len}def

/m {newpath moveto}def
/n {lineto currentpoint stroke moveto}def
/p {newpath moveto gsave 1 setlinecap solid setdash
    dmtx setmatrix .4 nail setlinewidth
    .05 0 idtransform rlineto stroke grestore}def
/l {moveto lineto currentpoint stroke moveto}def
/t {smtx currentmatrix pop imtx setmatrix show smtx setmatrix}def
/a {gsave newpath /y2 exch def /x2 exch def 
    /y1 exch def /x1 exch def /yc exch def /xc exch def
    /r x1 xc sub dup mul y1 yc sub dup mul add sqrt
       x2 xc sub dup mul y2 yc sub dup mul add sqrt add 2 div def
    /ang1 y1 yc sub x1 xc sub atan def
    /ang2 y2 yc sub x2 xc sub atan def
    xc yc r ang1 ang2 arc stroke grestore}def
/c {gsave newpath 0 360 arc stroke grestore}def
/e {gsave showpage grestore newpath 0 0 moveto}def
/f {load exec setdash}def
/s {/ury exch def /urx exch def /lly exch def /llx exch def
    imtx setmatrix newpath clippath pathbbox newpath
    /dury exch def /durx exch def /dlly exch def /dllx exch def
    /md durx dllx sub dury dlly sub min def
    /Mu urx llx sub ury lly sub max def
    36 144 translate .8 .8 scale
    dllx dlly translate md Mu div dup scale llx neg lly neg translate}def
/EndPSPlot {clear psplot end restore}def
StartPSPlot
%%EndProlog
%%Page: 1 1
0 0 4096 4096 s
/solid f
1.00 1.00 0.00 0 setcmykcolor
0 0 0 1 setcmykcolor
1950 2225 m
3575 2225 n
1.00 0.31 1.00 0 setcmykcolor
2210 2225 m
2242 2274 n
2275 2225 m
2242 2274 n
2242 2274 m
2242 2355 n
2242 2339 m
2210 2323 n
2242 2339 m
2275 2323 n
2242 2388 m
2248 2387 n
2248 2387 m
2252 2384 n
2252 2384 m
2256 2381 n
2256 2381 m
2258 2376 n
2258 2376 m
2259 2371 n
2259 2371 m
2258 2366 n
2258 2366 m
2256 2362 n
2256 2362 m
2252 2358 n
2252 2358 m
2248 2356 n
2248 2356 m
2242 2355 n
2242 2355 m
2237 2356 n
2237 2356 m
2233 2358 n
2233 2358 m
2229 2362 n
2229 2362 m
2227 2366 n
2227 2366 m
2226 2371 n
2226 2371 m
2227 2376 n
2227 2376 m
2229 2381 n
2229 2381 m
2233 2384 n
2233 2384 m
2237 2387 n
2237 2387 m
2242 2388 n
2275 2225 m
2557 2561 n
2557 2561 m
2474 2516 n
2557 2561 m
2528 2471 n
2529 2527 m
2474 2516 n
2529 2527 m
2528 2471 n
2557 2642 m
2517 2660 m
2544 2597 n
2521 2660 m
2544 2606 n
2570 2660 m
2544 2597 n
2508 2660 m
2535 2660 n
2553 2660 m
2579 2660 n
2638 2642 m
2617 2621 m
2608 2618 n
2602 2609 n
2599 2594 n
2599 2585 n
2602 2570 n
2608 2561 n
2617 2558 n
2623 2558 n
2632 2561 n
2638 2570 n
2641 2585 n
2641 2594 n
2638 2609 n
2632 2618 n
2623 2621 n
2617 2621 n
2617 2621 m
2611 2618 n
2608 2615 n
2605 2609 n
2602 2594 n
2602 2585 n
2605 2570 n
2608 2564 n
2611 2561 n
2617 2558 n
2623 2558 m
2629 2561 n
2632 2564 n
2635 2570 n
2638 2585 n
2638 2594 n
2635 2609 n
2632 2615 n
2629 2618 n
2623 2621 n
2557 2642 m
0.00 1.00 1.00 0 setcmykcolor
2300 2255 m
2275 2225 n
2326 2284 m
2351 2312 n
2377 2338 m
2402 2363 n
2427 2387 m
2453 2409 n
2478 2430 m
2503 2450 n
2529 2468 m
2554 2485 n
2580 2501 m
2605 2516 n
2630 2529 m
2656 2541 n
2681 2551 m
2706 2560 n
2732 2568 m
2757 2575 n
2783 2580 m
2808 2584 n
2833 2586 m
2859 2588 n
2884 2588 m
2910 2586 n
2935 2584 m
2960 2580 n
2986 2574 m
3011 2568 n
3036 2560 m
3062 2551 n
3087 2540 m
3113 2528 n
3138 2515 m
3163 2501 n
3189 2485 m
3214 2468 n
3240 2449 m
3265 2429 n
3290 2408 m
3316 2386 n
3341 2362 m
3366 2337 n
3392 2311 m
3417 2283 n
3443 2254 m
3468 2224 n
1.00 1.00 0.00 0 setcmykcolor
2275 2063 m
2762 2063 n
2848 2063 m
2854 2086 m
2854 2042 n
2856 2086 m
2856 2042 n
2854 2065 m
2850 2069 n
2846 2071 n
2842 2071 n
2836 2069 n
2832 2065 n
2830 2059 n
2830 2055 n
2832 2049 n
2836 2045 n
2842 2042 n
2846 2042 n
2850 2045 n
2854 2049 n
2842 2071 m
2838 2069 n
2834 2065 n
2832 2059 n
2832 2055 n
2834 2049 n
2838 2045 n
2842 2042 n
2848 2086 m
2856 2086 n
2854 2042 m
2862 2042 n
2892 2063 m
2875 2067 m
2913 2067 n
2875 2055 m
2913 2055 n
2946 2063 m
2929 2077 m
2932 2075 n
2929 2073 n
2927 2075 n
2927 2077 n
2929 2081 n
2932 2084 n
2936 2086 n
2942 2086 n
2948 2084 n
2950 2081 n
2953 2077 n
2953 2073 n
2950 2069 n
2948 2067 n
2940 2063 n
2940 2057 n
2942 2086 m
2946 2084 n
2948 2081 n
2950 2077 n
2950 2073 n
2948 2069 n
2944 2065 n
2940 2047 m
2938 2045 n
2940 2042 n
2942 2045 n
2940 2047 n
2848 2063 m
3006 2063 m
3493 2063 n
2275 1981 m
2275 2144 n
3493 1981 m
3493 2144 n
/solid f
1 1 m
e
%%Trailer
EndPSPlot
