%!
%%Creator: syn-2603-7081-4b3c-c000-dbe6-51a1-31ba-c1ba.res6.spectrum.com:wfreeman(Walter)
%%Title: Unix plot file
%%CreationDate: Mon Jan 27 22:00:00 2025
%%DocumentFonts: Courier
%%EndComments
%%BoundingBox: 0 0 4096 4096
% Start of psplot.pro -- prolog for plot(5) translator
% Copyright (c) 1984,1985,1987 Adobe Systems Incorporated. All Rights Reserved. 
%              RESTRICTED RIGHTS LEGEND
% Use, duplication or disclosure by the Government is subject to
% restrictions as set forth in subdivision (b)(3)(ii) of the Rights in
% Technical Data and Computer Software Clause at 252.227-7013.
% Name of Contractor: Adobe Systems Incorporated
% Address:  1870 Embarcadero Road
%	  Palo Alto, California  94303
% RCS: $Header: psplot.pro,v 2.2 87/11/17 16:41:06 byron Rel $
save 50 dict begin /psplot exch def
/StartPSPlot
   {newpath 0 0 moveto 8 setlinewidth 0 setgray 1 setlinecap
    /imtx matrix currentmatrix def /dmtx matrix defaultmatrix def
    /fnt /Courier findfont def /smtx matrix def fnt 8 scalefont setfont}def
/solid {{}0}def
/dotted	{[2 nail 3.5 nail ] 0}def
/longdashed {[10 nail] 0}def
/shortdashed {[6 nail] 0}def
/dotdashed {[2 nail 6 nail 10 nail 6 nail] 0}def
/disconnected {{}0}def
/min {2 copy lt{pop}{exch pop}ifelse}def
/max {2 copy lt{exch pop}{pop}ifelse}def
/len {dup mul exch dup mul add sqrt}def
/nail {0 imtx dtransform len 0 idtransform len}def

/m {newpath moveto}def
/n {lineto currentpoint stroke moveto}def
/p {newpath moveto gsave 1 setlinecap solid setdash
    dmtx setmatrix .4 nail setlinewidth
    .05 0 idtransform rlineto stroke grestore}def
/l {moveto lineto currentpoint stroke moveto}def
/t {smtx currentmatrix pop imtx setmatrix show smtx setmatrix}def
/a {gsave newpath /y2 exch def /x2 exch def 
    /y1 exch def /x1 exch def /yc exch def /xc exch def
    /r x1 xc sub dup mul y1 yc sub dup mul add sqrt
       x2 xc sub dup mul y2 yc sub dup mul add sqrt add 2 div def
    /ang1 y1 yc sub x1 xc sub atan def
    /ang2 y2 yc sub x2 xc sub atan def
    xc yc r ang1 ang2 arc stroke grestore}def
/c {gsave newpath 0 360 arc stroke grestore}def
/e {gsave showpage grestore newpath 0 0 moveto}def
/f {load exec setdash}def
/s {/ury exch def /urx exch def /lly exch def /llx exch def
    imtx setmatrix newpath clippath pathbbox newpath
    /dury exch def /durx exch def /dlly exch def /dllx exch def
    /md durx dllx sub dury dlly sub min def
    /Mu urx llx sub ury lly sub max def
    36 144 translate .8 .8 scale
    dllx dlly translate md Mu div dup scale llx neg lly neg translate}def
/EndPSPlot {clear psplot end restore}def
StartPSPlot
%%EndProlog
%%Page: 1 1
0 0 4096 4096 s
/solid f
1.00 1.00 0.00 0 setcmykcolor
0 0 0 1 setcmykcolor
1950 2225 m
2275 2225 n
2275 2225 m
2275 1738 n
2275 1738 m
3575 1738 n
1.00 0.31 1.00 0 setcmykcolor
2210 2225 m
2242 2274 n
2275 2225 m
2242 2274 n
2242 2274 m
2242 2355 n
2242 2339 m
2210 2323 n
2242 2339 m
2275 2323 n
2242 2388 m
2248 2387 n
2248 2387 m
2252 2384 n
2252 2384 m
2256 2381 n
2256 2381 m
2258 2376 n
2258 2376 m
2259 2371 n
2259 2371 m
2258 2366 n
2258 2366 m
2256 2362 n
2256 2362 m
2252 2358 n
2252 2358 m
2248 2356 n
2248 2356 m
2242 2355 n
2242 2355 m
2237 2356 n
2237 2356 m
2233 2358 n
2233 2358 m
2229 2362 n
2229 2362 m
2227 2366 n
2227 2366 m
2226 2371 n
2226 2371 m
2227 2376 n
2227 2376 m
2229 2381 n
2229 2381 m
2233 2384 n
2233 2384 m
2237 2387 n
2237 2387 m
2242 2388 n
2275 2225 m
2526 2524 n
2526 2524 m
2452 2484 n
2526 2524 m
2499 2444 n
2501 2494 m
2452 2484 n
2501 2494 m
2499 2444 n
2526 2605 m
2486 2623 m
2513 2560 n
2490 2623 m
2513 2569 n
2539 2623 m
2513 2560 n
2477 2623 m
2504 2623 n
2522 2623 m
2548 2623 n
2607 2605 m
2586 2584 m
2577 2581 n
2571 2572 n
2568 2557 n
2568 2548 n
2571 2533 n
2577 2524 n
2586 2521 n
2592 2521 n
2601 2524 n
2607 2533 n
2610 2548 n
2610 2557 n
2607 2572 n
2601 2581 n
2592 2584 n
2586 2584 n
2586 2584 m
2580 2581 n
2577 2578 n
2574 2572 n
2571 2557 n
2571 2548 n
2574 2533 n
2577 2527 n
2580 2524 n
2586 2521 n
2592 2521 m
2598 2524 n
2601 2527 n
2604 2533 n
2607 2548 n
2607 2557 n
2604 2572 n
2601 2578 n
2598 2581 n
2592 2584 n
2526 2605 m
0.00 1.00 1.00 0 setcmykcolor
2298 2252 m
2275 2225 n
2320 2277 m
2343 2302 n
2365 2325 m
2388 2346 n
2410 2367 m
2433 2386 n
2455 2403 m
2478 2420 n
2501 2435 m
2523 2448 n
2546 2461 m
2568 2472 n
2591 2482 m
2613 2490 n
2636 2497 m
2659 2503 n
2681 2508 m
2704 2511 n
2726 2513 m
2749 2513 n
2771 2512 m
2794 2510 n
2816 2507 m
2839 2502 n
2862 2496 m
2884 2489 n
2907 2480 m
2929 2470 n
2952 2459 m
2974 2446 n
2997 2433 m
3020 2417 n
3042 2401 m
3065 2383 n
3087 2364 m
3110 2343 n
3132 2321 m
3155 2298 n
3177 2274 m
3200 2248 n
3223 2221 m
3245 2193 n
3268 2163 m
3290 2132 n
3313 2100 m
3335 2066 n
3358 2031 m
3381 1995 n
3403 1957 m
3426 1918 n
3448 1878 m
3471 1836 n
3493 1793 m
3516 1749 n
1.00 1.00 0.00 0 setcmykcolor
2275 1575 m
2780 1575 n
2869 1575 m
2875 1598 m
2875 1554 n
2877 1598 m
2877 1554 n
2875 1577 m
2871 1581 n
2867 1583 n
2863 1583 n
2857 1581 n
2853 1577 n
2851 1571 n
2851 1567 n
2853 1561 n
2857 1557 n
2863 1554 n
2867 1554 n
2871 1557 n
2875 1561 n
2863 1583 m
2859 1581 n
2855 1577 n
2853 1571 n
2853 1567 n
2855 1561 n
2859 1557 n
2863 1554 n
2869 1598 m
2877 1598 n
2875 1554 m
2883 1554 n
2913 1575 m
2896 1579 m
2934 1579 n
2896 1567 m
2934 1567 n
2967 1575 m
2950 1589 m
2953 1587 n
2950 1585 n
2948 1587 n
2948 1589 n
2950 1593 n
2953 1596 n
2957 1598 n
2963 1598 n
2969 1596 n
2971 1593 n
2974 1589 n
2974 1585 n
2971 1581 n
2969 1579 n
2961 1575 n
2961 1569 n
2963 1598 m
2967 1596 n
2969 1593 n
2971 1589 n
2971 1585 n
2969 1581 n
2965 1577 n
2961 1559 m
2959 1557 n
2961 1554 n
2963 1557 n
2961 1559 n
2869 1575 m
3033 1575 m
3538 1575 n
2275 1494 m
2275 1656 n
3538 1494 m
3538 1656 n
1788 1738 m
1788 2225 n
1739 1738 m
1820 1738 n
1739 2225 m
1820 2225 n
1739 1981 m
1725 2004 m
1725 1960 n
1727 2004 m
1727 1960 n
1727 1983 m
1731 1987 n
1737 1989 n
1741 1989 n
1747 1987 n
1749 1983 n
1749 1960 n
1741 1989 m
1745 1987 n
1747 1983 n
1747 1960 n
1718 2004 m
1727 2004 n
1718 1960 m
1733 1960 n
1741 1960 m
1755 1960 n
1739 1981 m
/solid f
1 1 m
e
%%Trailer
EndPSPlot
