\headcommand {\slideentry {0}{0}{1}{1/1}{}{0}}
\headcommand {\beamer@framepages {1}{1}}
\headcommand {\slideentry {0}{0}{2}{2/2}{}{0}}
\headcommand {\beamer@framepages {2}{2}}
\headcommand {\slideentry {0}{0}{3}{3/3}{}{0}}
\headcommand {\beamer@framepages {3}{3}}
\headcommand {\slideentry {0}{0}{4}{4/7}{}{0}}
\headcommand {\beamer@framepages {4}{7}}
\headcommand {\slideentry {0}{0}{5}{8/8}{}{0}}
\headcommand {\beamer@framepages {8}{8}}
\headcommand {\slideentry {0}{0}{6}{9/10}{}{0}}
\headcommand {\beamer@framepages {9}{10}}
\headcommand {\slideentry {0}{0}{7}{11/12}{}{0}}
\headcommand {\beamer@framepages {11}{12}}
\headcommand {\slideentry {0}{0}{8}{13/15}{}{0}}
\headcommand {\beamer@framepages {13}{15}}
\headcommand {\slideentry {0}{0}{9}{16/16}{}{0}}
\headcommand {\beamer@framepages {16}{16}}
\headcommand {\slideentry {0}{0}{10}{17/19}{}{0}}
\headcommand {\beamer@framepages {17}{19}}
\headcommand {\slideentry {0}{0}{11}{20/25}{}{0}}
\headcommand {\beamer@framepages {20}{25}}
\headcommand {\slideentry {0}{0}{12}{26/26}{}{0}}
\headcommand {\beamer@framepages {26}{26}}
\headcommand {\slideentry {0}{0}{13}{27/30}{}{0}}
\headcommand {\beamer@framepages {27}{30}}
\headcommand {\slideentry {0}{0}{14}{31/35}{}{0}}
\headcommand {\beamer@framepages {31}{35}}
\headcommand {\slideentry {0}{0}{15}{36/38}{}{0}}
\headcommand {\beamer@framepages {36}{38}}
\headcommand {\slideentry {0}{0}{16}{39/42}{}{0}}
\headcommand {\beamer@framepages {39}{42}}
\headcommand {\slideentry {0}{0}{17}{43/47}{}{0}}
\headcommand {\beamer@framepages {43}{47}}
\headcommand {\slideentry {0}{0}{18}{48/48}{}{0}}
\headcommand {\beamer@framepages {48}{48}}
\headcommand {\slideentry {0}{0}{19}{49/50}{}{0}}
\headcommand {\beamer@framepages {49}{50}}
\headcommand {\slideentry {0}{0}{20}{51/53}{}{0}}
\headcommand {\beamer@framepages {51}{53}}
\headcommand {\slideentry {0}{0}{21}{54/55}{}{0}}
\headcommand {\beamer@framepages {54}{55}}
\headcommand {\slideentry {0}{0}{22}{56/56}{}{0}}
\headcommand {\beamer@framepages {56}{56}}
\headcommand {\slideentry {0}{0}{23}{57/57}{}{0}}
\headcommand {\beamer@framepages {57}{57}}
\headcommand {\slideentry {0}{0}{24}{58/59}{}{0}}
\headcommand {\beamer@framepages {58}{59}}
\headcommand {\slideentry {0}{0}{25}{60/60}{}{0}}
\headcommand {\beamer@framepages {60}{60}}
\headcommand {\slideentry {0}{0}{26}{61/61}{}{0}}
\headcommand {\beamer@framepages {61}{61}}
\headcommand {\slideentry {0}{0}{27}{62/62}{}{0}}
\headcommand {\beamer@framepages {62}{62}}
\headcommand {\slideentry {0}{0}{28}{63/65}{}{0}}
\headcommand {\beamer@framepages {63}{65}}
\headcommand {\slideentry {0}{0}{29}{66/66}{}{0}}
\headcommand {\beamer@framepages {66}{66}}
\headcommand {\slideentry {0}{0}{30}{67/72}{}{0}}
\headcommand {\beamer@framepages {67}{72}}
\headcommand {\slideentry {0}{0}{31}{73/73}{}{0}}
\headcommand {\beamer@framepages {73}{73}}
\headcommand {\beamer@partpages {1}{73}}
\headcommand {\beamer@subsectionpages {1}{73}}
\headcommand {\beamer@sectionpages {1}{73}}
\headcommand {\beamer@documentpages {73}}
\headcommand {\gdef \inserttotalframenumber {31}}
