%!
%%Creator: ravel:wfreeman(Walter)
%%Title: Unix plot file
%%CreationDate: Mon Apr 25 16:59:03 2022
%%DocumentFonts: Courier
%%EndComments
%%BoundingBox: 0 0 4096 4096
% Start of psplot.pro -- prolog for plot(5) translator
% Copyright (c) 1984,1985,1987 Adobe Systems Incorporated. All Rights Reserved. 
%              RESTRICTED RIGHTS LEGEND
% Use, duplication or disclosure by the Government is subject to
% restrictions as set forth in subdivision (b)(3)(ii) of the Rights in
% Technical Data and Computer Software Clause at 252.227-7013.
% Name of Contractor: Adobe Systems Incorporated
% Address:  1870 Embarcadero Road
%	  Palo Alto, California  94303
% RCS: $Header: psplot.pro,v 2.2 87/11/17 16:41:06 byron Rel $
save 50 dict begin /psplot exch def
/StartPSPlot
   {newpath 0 0 moveto 8 setlinewidth 0 setgray 1 setlinecap
    /imtx matrix currentmatrix def /dmtx matrix defaultmatrix def
    /fnt /Courier findfont def /smtx matrix def fnt 8 scalefont setfont}def
/solid {{}0}def
/dotted	{[2 nail 3.5 nail ] 0}def
/longdashed {[10 nail] 0}def
/shortdashed {[6 nail] 0}def
/dotdashed {[2 nail 6 nail 10 nail 6 nail] 0}def
/disconnected {{}0}def
/min {2 copy lt{pop}{exch pop}ifelse}def
/max {2 copy lt{exch pop}{pop}ifelse}def
/len {dup mul exch dup mul add sqrt}def
/nail {0 imtx dtransform len 0 idtransform len}def

/m {newpath moveto}def
/n {lineto currentpoint stroke moveto}def
/p {newpath moveto gsave 1 setlinecap solid setdash
    dmtx setmatrix .4 nail setlinewidth
    .05 0 idtransform rlineto stroke grestore}def
/l {moveto lineto currentpoint stroke moveto}def
/t {smtx currentmatrix pop imtx setmatrix show smtx setmatrix}def
/a {gsave newpath /y2 exch def /x2 exch def 
    /y1 exch def /x1 exch def /yc exch def /xc exch def
    /r x1 xc sub dup mul y1 yc sub dup mul add sqrt
       x2 xc sub dup mul y2 yc sub dup mul add sqrt add 2 div def
    /ang1 y1 yc sub x1 xc sub atan def
    /ang2 y2 yc sub x2 xc sub atan def
    xc yc r ang1 ang2 arc stroke grestore}def
/c {gsave newpath 0 360 arc stroke grestore}def
/e {gsave showpage grestore newpath 0 0 moveto}def
/f {load exec setdash}def
/s {/ury exch def /urx exch def /lly exch def /llx exch def
    imtx setmatrix newpath clippath pathbbox newpath
    /dury exch def /durx exch def /dlly exch def /dllx exch def
    /md durx dllx sub dury dlly sub min def
    /Mu urx llx sub ury lly sub max def
    36 144 translate .8 .8 scale
    dllx dlly translate md Mu div dup scale llx neg lly neg translate}def
/EndPSPlot {clear psplot end restore}def
StartPSPlot
%%EndProlog
%%Page: 1 1
0 0 4096 4096 s
/dotdashed f
1.00 0.31 1.00 0 setcmykcolor
/solid f
0 0 0 1 setcmykcolor
3088 2225 m
3087 2238 n
3087 2251 n
3087 2263 n
3086 2276 n
3085 2289 n
3084 2301 n
3083 2314 n
3081 2327 n
3079 2339 n
3077 2352 n
3075 2365 n
3073 2377 n
3071 2390 n
3068 2402 n
3065 2415 n
3062 2427 n
3059 2439 n
3055 2452 n
3052 2464 n
3048 2476 n
3044 2488 n
3039 2500 n
3035 2512 n
3030 2524 n
3026 2536 n
3021 2548 n
3016 2559 n
3010 2571 n
3005 2582 n
2999 2594 n
2993 2605 n
2987 2616 n
2981 2628 n
2974 2639 n
2968 2650 n
2961 2660 n
2954 2671 n
2947 2682 n
2940 2692 n
2932 2703 n
2925 2713 n
2917 2723 n
2909 2733 n
2901 2743 n
2893 2753 n
2884 2762 n
2876 2772 n
2867 2781 n
2858 2790 n
2850 2800 n
2840 2808 n
2831 2817 n
2822 2826 n
2812 2834 n
2803 2843 n
2793 2851 n
2783 2859 n
2773 2867 n
2763 2875 n
2753 2882 n
2742 2890 n
2732 2897 n
2721 2904 n
2710 2911 n
2700 2918 n
2689 2924 n
2678 2931 n
2666 2937 n
2655 2943 n
2644 2949 n
2632 2955 n
2621 2960 n
2609 2966 n
2598 2971 n
2586 2976 n
2574 2980 n
2562 2985 n
2550 2989 n
2538 2994 n
2526 2998 n
2514 3002 n
2502 3005 n
2489 3009 n
2477 3012 n
2465 3015 n
2452 3018 n
2440 3021 n
2427 3023 n
2415 3025 n
2402 3027 n
2389 3029 n
2377 3031 n
2364 3033 n
2351 3034 n
2339 3035 n
2326 3036 n
2313 3037 n
2301 3037 n
2288 3037 n
2275 3038 n
2262 3037 n
2249 3037 n
2237 3037 n
2224 3036 n
2211 3035 n
2199 3034 n
2186 3033 n
2173 3031 n
2161 3029 n
2148 3027 n
2135 3025 n
2123 3023 n
2110 3021 n
2098 3018 n
2085 3015 n
2073 3012 n
2061 3009 n
2048 3005 n
2036 3002 n
2024 2998 n
2012 2994 n
2000 2989 n
1988 2985 n
1976 2980 n
1964 2976 n
1952 2971 n
1941 2966 n
1929 2960 n
1918 2955 n
1906 2949 n
1895 2943 n
1884 2937 n
1872 2931 n
1861 2924 n
1850 2918 n
1840 2911 n
1829 2904 n
1818 2897 n
1808 2890 n
1797 2882 n
1787 2875 n
1777 2867 n
1767 2859 n
1757 2851 n
1747 2843 n
1738 2834 n
1728 2826 n
1719 2817 n
1710 2808 n
1700 2800 n
1692 2790 n
1683 2781 n
1674 2772 n
1666 2762 n
1657 2753 n
1649 2743 n
1641 2733 n
1633 2723 n
1625 2713 n
1618 2703 n
1610 2692 n
1603 2682 n
1596 2671 n
1589 2660 n
1582 2650 n
1576 2639 n
1569 2628 n
1563 2616 n
1557 2605 n
1551 2594 n
1545 2582 n
1540 2571 n
1534 2559 n
1529 2548 n
1524 2536 n
1520 2524 n
1515 2512 n
1511 2500 n
1506 2488 n
1502 2476 n
1498 2464 n
1495 2452 n
1491 2439 n
1488 2427 n
1485 2415 n
1482 2402 n
1479 2390 n
1477 2377 n
1475 2365 n
1473 2352 n
1471 2339 n
1469 2327 n
1467 2314 n
1466 2301 n
1465 2289 n
1464 2276 n
1463 2263 n
1463 2251 n
1463 2238 n
1463 2225 n
1463 2212 n
1463 2199 n
1463 2187 n
1464 2174 n
1465 2161 n
1466 2149 n
1467 2136 n
1469 2123 n
1471 2111 n
1473 2098 n
1475 2085 n
1477 2073 n
1479 2060 n
1482 2048 n
1485 2035 n
1488 2023 n
1491 2011 n
1495 1998 n
1498 1986 n
1502 1974 n
1506 1962 n
1511 1950 n
1515 1938 n
1520 1926 n
1524 1914 n
1529 1902 n
1534 1891 n
1540 1879 n
1545 1868 n
1551 1856 n
1557 1845 n
1563 1834 n
1569 1822 n
1576 1811 n
1582 1800 n
1589 1790 n
1596 1779 n
1603 1768 n
1610 1758 n
1618 1747 n
1625 1737 n
1633 1727 n
1641 1717 n
1649 1707 n
1657 1697 n
1666 1688 n
1674 1678 n
1683 1669 n
1692 1660 n
1700 1650 n
1710 1642 n
1719 1633 n
1728 1624 n
1738 1616 n
1747 1607 n
1757 1599 n
1767 1591 n
1777 1583 n
1787 1575 n
1797 1568 n
1808 1560 n
1818 1553 n
1829 1546 n
1840 1539 n
1850 1532 n
1861 1526 n
1872 1519 n
1884 1513 n
1895 1507 n
1906 1501 n
1918 1495 n
1929 1490 n
1941 1484 n
1952 1479 n
1964 1474 n
1976 1470 n
1988 1465 n
2000 1461 n
2012 1456 n
2024 1452 n
2036 1448 n
2048 1445 n
2061 1441 n
2073 1438 n
2085 1435 n
2098 1432 n
2110 1429 n
2123 1427 n
2135 1425 n
2148 1423 n
2161 1421 n
2173 1419 n
2186 1417 n
2199 1416 n
2211 1415 n
2224 1414 n
2237 1413 n
2249 1413 n
2262 1413 n
2275 1413 n
2288 1413 n
2301 1413 n
2313 1413 n
2326 1414 n
2339 1415 n
2351 1416 n
2364 1417 n
2377 1419 n
2389 1421 n
2402 1423 n
2415 1425 n
2427 1427 n
2440 1429 n
2452 1432 n
2465 1435 n
2477 1438 n
2489 1441 n
2502 1445 n
2514 1448 n
2526 1452 n
2538 1456 n
2550 1461 n
2562 1465 n
2574 1470 n
2586 1474 n
2598 1479 n
2609 1484 n
2621 1490 n
2632 1495 n
2644 1501 n
2655 1507 n
2666 1513 n
2678 1519 n
2689 1526 n
2700 1532 n
2710 1539 n
2721 1546 n
2732 1553 n
2742 1560 n
2753 1568 n
2763 1575 n
2773 1583 n
2783 1591 n
2793 1599 n
2803 1607 n
2812 1616 n
2822 1624 n
2831 1633 n
2840 1642 n
2850 1650 n
2858 1660 n
2867 1669 n
2876 1678 n
2884 1688 n
2893 1697 n
2901 1707 n
2909 1717 n
2917 1727 n
2925 1737 n
2932 1747 n
2940 1758 n
2947 1768 n
2954 1779 n
2961 1790 n
2968 1800 n
2974 1811 n
2981 1822 n
2987 1834 n
2993 1845 n
2999 1856 n
3005 1868 n
3010 1879 n
3016 1891 n
3021 1902 n
3026 1914 n
3030 1926 n
3035 1938 n
3039 1950 n
3044 1962 n
3048 1974 n
3052 1986 n
3055 1998 n
3059 2011 n
3062 2023 n
3065 2035 n
3068 2048 n
3071 2060 n
3073 2073 n
3075 2085 n
3077 2098 n
3079 2111 n
3081 2123 n
3083 2136 n
3084 2149 n
3085 2161 n
3086 2174 n
3087 2187 n
3087 2199 n
3087 2212 n
2291 2225 m
2291 2225 n
2291 2226 n
2291 2226 n
2291 2226 n
2291 2226 n
2291 2227 n
2291 2227 n
2291 2227 n
2291 2227 n
2291 2228 n
2291 2228 n
2291 2228 n
2291 2228 n
2291 2229 n
2291 2229 n
2291 2229 n
2291 2229 n
2291 2230 n
2291 2230 n
2290 2230 n
2290 2230 n
2290 2231 n
2290 2231 n
2290 2231 n
2290 2231 n
2290 2231 n
2290 2232 n
2290 2232 n
2290 2232 n
2289 2232 n
2289 2233 n
2289 2233 n
2289 2233 n
2289 2233 n
2289 2233 n
2289 2234 n
2289 2234 n
2288 2234 n
2288 2234 n
2288 2235 n
2288 2235 n
2288 2235 n
2288 2235 n
2288 2235 n
2287 2236 n
2287 2236 n
2287 2236 n
2287 2236 n
2287 2236 n
2286 2236 n
2286 2237 n
2286 2237 n
2286 2237 n
2286 2237 n
2286 2237 n
2285 2238 n
2285 2238 n
2285 2238 n
2285 2238 n
2285 2238 n
2284 2238 n
2284 2238 n
2284 2239 n
2284 2239 n
2283 2239 n
2283 2239 n
2283 2239 n
2283 2239 n
2283 2239 n
2282 2239 n
2282 2240 n
2282 2240 n
2282 2240 n
2281 2240 n
2281 2240 n
2281 2240 n
2281 2240 n
2281 2240 n
2280 2240 n
2280 2240 n
2280 2241 n
2280 2241 n
2279 2241 n
2279 2241 n
2279 2241 n
2279 2241 n
2278 2241 n
2278 2241 n
2278 2241 n
2278 2241 n
2277 2241 n
2277 2241 n
2277 2241 n
2277 2241 n
2276 2241 n
2276 2241 n
2276 2241 n
2276 2241 n
2275 2241 n
2275 2241 n
2275 2241 n
2274 2241 n
2274 2241 n
2274 2241 n
2274 2241 n
2273 2241 n
2273 2241 n
2273 2241 n
2273 2241 n
2272 2241 n
2272 2241 n
2272 2241 n
2272 2241 n
2271 2241 n
2271 2241 n
2271 2241 n
2271 2241 n
2270 2241 n
2270 2241 n
2270 2240 n
2270 2240 n
2269 2240 n
2269 2240 n
2269 2240 n
2269 2240 n
2269 2240 n
2268 2240 n
2268 2240 n
2268 2240 n
2268 2239 n
2267 2239 n
2267 2239 n
2267 2239 n
2267 2239 n
2267 2239 n
2266 2239 n
2266 2239 n
2266 2238 n
2266 2238 n
2265 2238 n
2265 2238 n
2265 2238 n
2265 2238 n
2265 2238 n
2264 2237 n
2264 2237 n
2264 2237 n
2264 2237 n
2264 2237 n
2264 2236 n
2263 2236 n
2263 2236 n
2263 2236 n
2263 2236 n
2263 2236 n
2262 2235 n
2262 2235 n
2262 2235 n
2262 2235 n
2262 2235 n
2262 2234 n
2262 2234 n
2261 2234 n
2261 2234 n
2261 2233 n
2261 2233 n
2261 2233 n
2261 2233 n
2261 2233 n
2261 2232 n
2260 2232 n
2260 2232 n
2260 2232 n
2260 2231 n
2260 2231 n
2260 2231 n
2260 2231 n
2260 2231 n
2260 2230 n
2260 2230 n
2259 2230 n
2259 2230 n
2259 2229 n
2259 2229 n
2259 2229 n
2259 2229 n
2259 2228 n
2259 2228 n
2259 2228 n
2259 2228 n
2259 2227 n
2259 2227 n
2259 2227 n
2259 2227 n
2259 2226 n
2259 2226 n
2259 2226 n
2259 2226 n
2259 2225 n
2259 2225 n
2259 2225 n
2259 2224 n
2259 2224 n
2259 2224 n
2259 2224 n
2259 2223 n
2259 2223 n
2259 2223 n
2259 2223 n
2259 2222 n
2259 2222 n
2259 2222 n
2259 2222 n
2259 2221 n
2259 2221 n
2259 2221 n
2259 2221 n
2259 2220 n
2259 2220 n
2260 2220 n
2260 2220 n
2260 2219 n
2260 2219 n
2260 2219 n
2260 2219 n
2260 2219 n
2260 2218 n
2260 2218 n
2260 2218 n
2261 2218 n
2261 2217 n
2261 2217 n
2261 2217 n
2261 2217 n
2261 2217 n
2261 2216 n
2261 2216 n
2262 2216 n
2262 2216 n
2262 2215 n
2262 2215 n
2262 2215 n
2262 2215 n
2262 2215 n
2263 2214 n
2263 2214 n
2263 2214 n
2263 2214 n
2263 2214 n
2264 2214 n
2264 2213 n
2264 2213 n
2264 2213 n
2264 2213 n
2264 2213 n
2265 2212 n
2265 2212 n
2265 2212 n
2265 2212 n
2265 2212 n
2266 2212 n
2266 2212 n
2266 2211 n
2266 2211 n
2267 2211 n
2267 2211 n
2267 2211 n
2267 2211 n
2267 2211 n
2268 2211 n
2268 2210 n
2268 2210 n
2268 2210 n
2269 2210 n
2269 2210 n
2269 2210 n
2269 2210 n
2269 2210 n
2270 2210 n
2270 2210 n
2270 2209 n
2270 2209 n
2271 2209 n
2271 2209 n
2271 2209 n
2271 2209 n
2272 2209 n
2272 2209 n
2272 2209 n
2272 2209 n
2273 2209 n
2273 2209 n
2273 2209 n
2273 2209 n
2274 2209 n
2274 2209 n
2274 2209 n
2274 2209 n
2275 2209 n
2275 2209 n
2275 2209 n
2276 2209 n
2276 2209 n
2276 2209 n
2276 2209 n
2277 2209 n
2277 2209 n
2277 2209 n
2277 2209 n
2278 2209 n
2278 2209 n
2278 2209 n
2278 2209 n
2279 2209 n
2279 2209 n
2279 2209 n
2279 2209 n
2280 2209 n
2280 2209 n
2280 2210 n
2280 2210 n
2281 2210 n
2281 2210 n
2281 2210 n
2281 2210 n
2281 2210 n
2282 2210 n
2282 2210 n
2282 2210 n
2282 2211 n
2283 2211 n
2283 2211 n
2283 2211 n
2283 2211 n
2283 2211 n
2284 2211 n
2284 2211 n
2284 2212 n
2284 2212 n
2285 2212 n
2285 2212 n
2285 2212 n
2285 2212 n
2285 2212 n
2286 2213 n
2286 2213 n
2286 2213 n
2286 2213 n
2286 2213 n
2286 2214 n
2287 2214 n
2287 2214 n
2287 2214 n
2287 2214 n
2287 2214 n
2288 2215 n
2288 2215 n
2288 2215 n
2288 2215 n
2288 2215 n
2288 2216 n
2288 2216 n
2289 2216 n
2289 2216 n
2289 2217 n
2289 2217 n
2289 2217 n
2289 2217 n
2289 2217 n
2289 2218 n
2290 2218 n
2290 2218 n
2290 2218 n
2290 2219 n
2290 2219 n
2290 2219 n
2290 2219 n
2290 2219 n
2290 2220 n
2290 2220 n
2291 2220 n
2291 2220 n
2291 2221 n
2291 2221 n
2291 2221 n
2291 2221 n
2291 2222 n
2291 2222 n
2291 2222 n
2291 2222 n
2291 2223 n
2291 2223 n
2291 2223 n
2291 2223 n
2291 2224 n
2291 2224 n
2291 2224 n
2291 2224 n
2291 2225 n
2283 2225 m
2283 2225 n
2283 2225 n
2283 2225 n
2283 2226 n
2283 2226 n
2283 2226 n
2283 2226 n
2283 2226 n
2283 2226 n
2283 2226 n
2283 2226 n
2283 2227 n
2283 2227 n
2283 2227 n
2283 2227 n
2283 2227 n
2283 2227 n
2283 2227 n
2283 2227 n
2283 2228 n
2283 2228 n
2283 2228 n
2283 2228 n
2283 2228 n
2283 2228 n
2282 2228 n
2282 2228 n
2282 2228 n
2282 2229 n
2282 2229 n
2282 2229 n
2282 2229 n
2282 2229 n
2282 2229 n
2282 2229 n
2282 2229 n
2282 2229 n
2282 2230 n
2282 2230 n
2282 2230 n
2281 2230 n
2281 2230 n
2281 2230 n
2281 2230 n
2281 2230 n
2281 2230 n
2281 2230 n
2281 2231 n
2281 2231 n
2281 2231 n
2281 2231 n
2281 2231 n
2280 2231 n
2280 2231 n
2280 2231 n
2280 2231 n
2280 2231 n
2280 2231 n
2280 2231 n
2280 2232 n
2280 2232 n
2280 2232 n
2279 2232 n
2279 2232 n
2279 2232 n
2279 2232 n
2279 2232 n
2279 2232 n
2279 2232 n
2279 2232 n
2279 2232 n
2278 2232 n
2278 2232 n
2278 2232 n
2278 2233 n
2278 2233 n
2278 2233 n
2278 2233 n
2278 2233 n
2278 2233 n
2277 2233 n
2277 2233 n
2277 2233 n
2277 2233 n
2277 2233 n
2277 2233 n
2277 2233 n
2277 2233 n
2276 2233 n
2276 2233 n
2276 2233 n
2276 2233 n
2276 2233 n
2276 2233 n
2276 2233 n
2276 2233 n
2275 2233 n
2275 2233 n
2275 2233 n
2275 2233 n
2275 2233 n
2275 2233 n
2275 2233 n
2274 2233 n
2274 2233 n
2274 2233 n
2274 2233 n
2274 2233 n
2274 2233 n
2274 2233 n
2274 2233 n
2273 2233 n
2273 2233 n
2273 2233 n
2273 2233 n
2273 2233 n
2273 2233 n
2273 2233 n
2273 2233 n
2272 2233 n
2272 2233 n
2272 2233 n
2272 2233 n
2272 2233 n
2272 2233 n
2272 2232 n
2272 2232 n
2272 2232 n
2271 2232 n
2271 2232 n
2271 2232 n
2271 2232 n
2271 2232 n
2271 2232 n
2271 2232 n
2271 2232 n
2271 2232 n
2270 2232 n
2270 2232 n
2270 2232 n
2270 2231 n
2270 2231 n
2270 2231 n
2270 2231 n
2270 2231 n
2270 2231 n
2270 2231 n
2269 2231 n
2269 2231 n
2269 2231 n
2269 2231 n
2269 2231 n
2269 2230 n
2269 2230 n
2269 2230 n
2269 2230 n
2269 2230 n
2269 2230 n
2269 2230 n
2268 2230 n
2268 2230 n
2268 2230 n
2268 2229 n
2268 2229 n
2268 2229 n
2268 2229 n
2268 2229 n
2268 2229 n
2268 2229 n
2268 2229 n
2268 2229 n
2268 2228 n
2268 2228 n
2268 2228 n
2267 2228 n
2267 2228 n
2267 2228 n
2267 2228 n
2267 2228 n
2267 2228 n
2267 2227 n
2267 2227 n
2267 2227 n
2267 2227 n
2267 2227 n
2267 2227 n
2267 2227 n
2267 2227 n
2267 2226 n
2267 2226 n
2267 2226 n
2267 2226 n
2267 2226 n
2267 2226 n
2267 2226 n
2267 2226 n
2267 2225 n
2267 2225 n
2267 2225 n
2267 2225 n
2267 2225 n
2267 2225 n
2267 2225 n
2267 2224 n
2267 2224 n
2267 2224 n
2267 2224 n
2267 2224 n
2267 2224 n
2267 2224 n
2267 2224 n
2267 2223 n
2267 2223 n
2267 2223 n
2267 2223 n
2267 2223 n
2267 2223 n
2267 2223 n
2267 2223 n
2267 2222 n
2267 2222 n
2267 2222 n
2267 2222 n
2267 2222 n
2267 2222 n
2268 2222 n
2268 2222 n
2268 2222 n
2268 2221 n
2268 2221 n
2268 2221 n
2268 2221 n
2268 2221 n
2268 2221 n
2268 2221 n
2268 2221 n
2268 2221 n
2268 2220 n
2268 2220 n
2268 2220 n
2269 2220 n
2269 2220 n
2269 2220 n
2269 2220 n
2269 2220 n
2269 2220 n
2269 2220 n
2269 2219 n
2269 2219 n
2269 2219 n
2269 2219 n
2269 2219 n
2270 2219 n
2270 2219 n
2270 2219 n
2270 2219 n
2270 2219 n
2270 2219 n
2270 2219 n
2270 2218 n
2270 2218 n
2270 2218 n
2271 2218 n
2271 2218 n
2271 2218 n
2271 2218 n
2271 2218 n
2271 2218 n
2271 2218 n
2271 2218 n
2271 2218 n
2272 2218 n
2272 2218 n
2272 2218 n
2272 2217 n
2272 2217 n
2272 2217 n
2272 2217 n
2272 2217 n
2272 2217 n
2273 2217 n
2273 2217 n
2273 2217 n
2273 2217 n
2273 2217 n
2273 2217 n
2273 2217 n
2273 2217 n
2274 2217 n
2274 2217 n
2274 2217 n
2274 2217 n
2274 2217 n
2274 2217 n
2274 2217 n
2274 2217 n
2275 2217 n
2275 2217 n
2275 2217 n
2275 2217 n
2275 2217 n
2275 2217 n
2275 2217 n
2276 2217 n
2276 2217 n
2276 2217 n
2276 2217 n
2276 2217 n
2276 2217 n
2276 2217 n
2276 2217 n
2277 2217 n
2277 2217 n
2277 2217 n
2277 2217 n
2277 2217 n
2277 2217 n
2277 2217 n
2277 2217 n
2278 2217 n
2278 2217 n
2278 2217 n
2278 2217 n
2278 2217 n
2278 2217 n
2278 2218 n
2278 2218 n
2278 2218 n
2279 2218 n
2279 2218 n
2279 2218 n
2279 2218 n
2279 2218 n
2279 2218 n
2279 2218 n
2279 2218 n
2279 2218 n
2280 2218 n
2280 2218 n
2280 2218 n
2280 2219 n
2280 2219 n
2280 2219 n
2280 2219 n
2280 2219 n
2280 2219 n
2280 2219 n
2281 2219 n
2281 2219 n
2281 2219 n
2281 2219 n
2281 2219 n
2281 2220 n
2281 2220 n
2281 2220 n
2281 2220 n
2281 2220 n
2281 2220 n
2281 2220 n
2282 2220 n
2282 2220 n
2282 2220 n
2282 2221 n
2282 2221 n
2282 2221 n
2282 2221 n
2282 2221 n
2282 2221 n
2282 2221 n
2282 2221 n
2282 2221 n
2282 2222 n
2282 2222 n
2282 2222 n
2283 2222 n
2283 2222 n
2283 2222 n
2283 2222 n
2283 2222 n
2283 2222 n
2283 2223 n
2283 2223 n
2283 2223 n
2283 2223 n
2283 2223 n
2283 2223 n
2283 2223 n
2283 2223 n
2283 2224 n
2283 2224 n
2283 2224 n
2283 2224 n
2283 2224 n
2283 2224 n
2283 2224 n
2283 2224 n
2283 2225 n
2283 2225 n
2283 2225 n
2299 2225 m
2299 2225 n
2299 2226 n
2299 2226 n
2299 2227 n
2299 2227 n
2299 2227 n
2299 2228 n
2299 2228 n
2299 2228 n
2299 2229 n
2299 2229 n
2299 2230 n
2299 2230 n
2299 2230 n
2299 2231 n
2299 2231 n
2299 2231 n
2298 2232 n
2298 2232 n
2298 2233 n
2298 2233 n
2298 2233 n
2298 2234 n
2298 2234 n
2298 2234 n
2297 2235 n
2297 2235 n
2297 2235 n
2297 2236 n
2297 2236 n
2297 2236 n
2296 2237 n
2296 2237 n
2296 2237 n
2296 2238 n
2296 2238 n
2295 2238 n
2295 2239 n
2295 2239 n
2295 2239 n
2294 2240 n
2294 2240 n
2294 2240 n
2294 2241 n
2294 2241 n
2293 2241 n
2293 2241 n
2293 2242 n
2293 2242 n
2292 2242 n
2292 2243 n
2292 2243 n
2291 2243 n
2291 2243 n
2291 2244 n
2291 2244 n
2290 2244 n
2290 2244 n
2290 2244 n
2289 2245 n
2289 2245 n
2289 2245 n
2288 2245 n
2288 2246 n
2288 2246 n
2287 2246 n
2287 2246 n
2287 2246 n
2286 2247 n
2286 2247 n
2286 2247 n
2285 2247 n
2285 2247 n
2285 2247 n
2284 2248 n
2284 2248 n
2284 2248 n
2283 2248 n
2283 2248 n
2283 2248 n
2282 2248 n
2282 2248 n
2281 2249 n
2281 2249 n
2281 2249 n
2280 2249 n
2280 2249 n
2280 2249 n
2279 2249 n
2279 2249 n
2278 2249 n
2278 2249 n
2278 2249 n
2277 2249 n
2277 2249 n
2277 2249 n
2276 2249 n
2276 2249 n
2275 2249 n
2275 2249 n
2275 2249 n
2274 2249 n
2274 2249 n
2273 2249 n
2273 2249 n
2273 2249 n
2272 2249 n
2272 2249 n
2272 2249 n
2271 2249 n
2271 2249 n
2270 2249 n
2270 2249 n
2270 2249 n
2269 2249 n
2269 2249 n
2269 2249 n
2268 2248 n
2268 2248 n
2267 2248 n
2267 2248 n
2267 2248 n
2266 2248 n
2266 2248 n
2266 2248 n
2265 2247 n
2265 2247 n
2265 2247 n
2264 2247 n
2264 2247 n
2264 2247 n
2263 2246 n
2263 2246 n
2263 2246 n
2262 2246 n
2262 2246 n
2262 2245 n
2261 2245 n
2261 2245 n
2261 2245 n
2260 2244 n
2260 2244 n
2260 2244 n
2259 2244 n
2259 2244 n
2259 2243 n
2259 2243 n
2258 2243 n
2258 2243 n
2258 2242 n
2257 2242 n
2257 2242 n
2257 2241 n
2257 2241 n
2256 2241 n
2256 2241 n
2256 2240 n
2256 2240 n
2256 2240 n
2255 2239 n
2255 2239 n
2255 2239 n
2255 2238 n
2254 2238 n
2254 2238 n
2254 2237 n
2254 2237 n
2254 2237 n
2253 2236 n
2253 2236 n
2253 2236 n
2253 2235 n
2253 2235 n
2253 2235 n
2252 2234 n
2252 2234 n
2252 2234 n
2252 2233 n
2252 2233 n
2252 2233 n
2252 2232 n
2252 2232 n
2251 2231 n
2251 2231 n
2251 2231 n
2251 2230 n
2251 2230 n
2251 2230 n
2251 2229 n
2251 2229 n
2251 2228 n
2251 2228 n
2251 2228 n
2251 2227 n
2251 2227 n
2251 2227 n
2251 2226 n
2251 2226 n
2251 2225 n
2251 2225 n
2251 2225 n
2251 2224 n
2251 2224 n
2251 2223 n
2251 2223 n
2251 2223 n
2251 2222 n
2251 2222 n
2251 2222 n
2251 2221 n
2251 2221 n
2251 2220 n
2251 2220 n
2251 2220 n
2251 2219 n
2251 2219 n
2251 2219 n
2252 2218 n
2252 2218 n
2252 2217 n
2252 2217 n
2252 2217 n
2252 2216 n
2252 2216 n
2252 2216 n
2253 2215 n
2253 2215 n
2253 2215 n
2253 2214 n
2253 2214 n
2253 2214 n
2254 2213 n
2254 2213 n
2254 2213 n
2254 2212 n
2254 2212 n
2255 2212 n
2255 2211 n
2255 2211 n
2255 2211 n
2256 2210 n
2256 2210 n
2256 2210 n
2256 2209 n
2256 2209 n
2257 2209 n
2257 2209 n
2257 2208 n
2257 2208 n
2258 2208 n
2258 2207 n
2258 2207 n
2259 2207 n
2259 2207 n
2259 2206 n
2259 2206 n
2260 2206 n
2260 2206 n
2260 2206 n
2261 2205 n
2261 2205 n
2261 2205 n
2262 2205 n
2262 2204 n
2262 2204 n
2263 2204 n
2263 2204 n
2263 2204 n
2264 2203 n
2264 2203 n
2264 2203 n
2265 2203 n
2265 2203 n
2265 2203 n
2266 2202 n
2266 2202 n
2266 2202 n
2267 2202 n
2267 2202 n
2267 2202 n
2268 2202 n
2268 2202 n
2269 2201 n
2269 2201 n
2269 2201 n
2270 2201 n
2270 2201 n
2270 2201 n
2271 2201 n
2271 2201 n
2272 2201 n
2272 2201 n
2272 2201 n
2273 2201 n
2273 2201 n
2273 2201 n
2274 2201 n
2274 2201 n
2275 2201 n
2275 2201 n
2275 2201 n
2276 2201 n
2276 2201 n
2277 2201 n
2277 2201 n
2277 2201 n
2278 2201 n
2278 2201 n
2278 2201 n
2279 2201 n
2279 2201 n
2280 2201 n
2280 2201 n
2280 2201 n
2281 2201 n
2281 2201 n
2281 2201 n
2282 2202 n
2282 2202 n
2283 2202 n
2283 2202 n
2283 2202 n
2284 2202 n
2284 2202 n
2284 2202 n
2285 2203 n
2285 2203 n
2285 2203 n
2286 2203 n
2286 2203 n
2286 2203 n
2287 2204 n
2287 2204 n
2287 2204 n
2288 2204 n
2288 2204 n
2288 2205 n
2289 2205 n
2289 2205 n
2289 2205 n
2290 2206 n
2290 2206 n
2290 2206 n
2291 2206 n
2291 2206 n
2291 2207 n
2291 2207 n
2292 2207 n
2292 2207 n
2292 2208 n
2293 2208 n
2293 2208 n
2293 2209 n
2293 2209 n
2294 2209 n
2294 2209 n
2294 2210 n
2294 2210 n
2294 2210 n
2295 2211 n
2295 2211 n
2295 2211 n
2295 2212 n
2296 2212 n
2296 2212 n
2296 2213 n
2296 2213 n
2296 2213 n
2297 2214 n
2297 2214 n
2297 2214 n
2297 2215 n
2297 2215 n
2297 2215 n
2298 2216 n
2298 2216 n
2298 2216 n
2298 2217 n
2298 2217 n
2298 2217 n
2298 2218 n
2298 2218 n
2299 2219 n
2299 2219 n
2299 2219 n
2299 2220 n
2299 2220 n
2299 2220 n
2299 2221 n
2299 2221 n
2299 2222 n
2299 2222 n
2299 2222 n
2299 2223 n
2299 2223 n
2299 2223 n
2299 2224 n
2299 2224 n
2299 2225 n
0.00 1.00 1.00 0 setcmykcolor
2275 2225 m
2763 2875 n
2519 2388 m
2498 2400 m
2498 2358 n
2501 2400 m
2501 2358 n
2501 2382 m
2504 2391 n
2510 2397 n
2516 2400 n
2525 2400 n
2528 2397 n
2528 2394 n
2525 2391 n
2522 2394 n
2525 2397 n
2489 2400 m
2501 2400 n
2489 2358 m
2510 2358 n
2570 2388 m
2618 2388 m
2594 2394 m
2648 2394 n
2594 2376 m
2648 2376 n
2696 2388 m
2744 2388 m
2720 2409 m
2723 2406 n
2720 2403 n
2717 2406 n
2717 2409 n
2720 2415 n
2723 2418 n
2732 2421 n
2744 2421 n
2753 2418 n
2756 2412 n
2756 2403 n
2753 2397 n
2744 2394 n
2735 2394 n
2744 2421 m
2750 2418 n
2753 2412 n
2753 2403 n
2750 2397 n
2744 2394 n
2744 2394 m
2750 2391 n
2756 2385 n
2759 2379 n
2759 2370 n
2756 2364 n
2753 2361 n
2744 2358 n
2732 2358 n
2723 2361 n
2720 2364 n
2717 2370 n
2717 2373 n
2720 2376 n
2723 2373 n
2720 2370 n
2753 2388 m
2756 2379 n
2756 2370 n
2753 2364 n
2750 2361 n
2744 2358 n
2804 2388 m
2852 2388 m
2831 2400 m
2831 2358 n
2834 2400 m
2834 2358 n
2834 2391 m
2840 2397 n
2849 2400 n
2855 2400 n
2864 2397 n
2867 2391 n
2867 2358 n
2855 2400 m
2861 2397 n
2864 2391 n
2864 2358 n
2867 2391 m
2873 2397 n
2882 2400 n
2888 2400 n
2897 2397 n
2900 2391 n
2900 2358 n
2888 2400 m
2894 2397 n
2897 2391 n
2897 2358 n
2822 2400 m
2834 2400 n
2822 2358 m
2843 2358 n
2855 2358 m
2876 2358 n
2888 2358 m
2909 2358 n
2519 2388 m
1.00 0.31 1.00 0 setcmykcolor
975 1413 m
1625 1413 n
1625 1413 m
1495 1465 n
1625 1413 m
1495 1360 n
1560 1413 m
1495 1465 n
1560 1413 m
1495 1360 n
1796 1413 m
1796 1413 n
1796 1413 n
1796 1413 n
1796 1413 n
1796 1413 n
1796 1413 n
1796 1413 n
1796 1414 n
1796 1414 n
1796 1414 n
1796 1414 n
1795 1414 n
1795 1414 n
1795 1414 n
1795 1414 n
1795 1415 n
1795 1415 n
1795 1415 n
1795 1415 n
1795 1415 n
1795 1415 n
1795 1415 n
1795 1415 n
1795 1415 n
1795 1416 n
1795 1416 n
1795 1416 n
1795 1416 n
1795 1416 n
1795 1416 n
1795 1416 n
1795 1416 n
1795 1417 n
1794 1417 n
1794 1417 n
1794 1417 n
1794 1417 n
1794 1417 n
1794 1417 n
1794 1417 n
1794 1417 n
1794 1417 n
1794 1418 n
1794 1418 n
1794 1418 n
1794 1418 n
1794 1418 n
1793 1418 n
1793 1418 n
1793 1418 n
1793 1418 n
1793 1418 n
1793 1419 n
1793 1419 n
1793 1419 n
1793 1419 n
1793 1419 n
1792 1419 n
1792 1419 n
1792 1419 n
1792 1419 n
1792 1419 n
1792 1419 n
1792 1419 n
1792 1419 n
1792 1419 n
1792 1420 n
1791 1420 n
1791 1420 n
1791 1420 n
1791 1420 n
1791 1420 n
1791 1420 n
1791 1420 n
1791 1420 n
1790 1420 n
1790 1420 n
1790 1420 n
1790 1420 n
1790 1420 n
1790 1420 n
1790 1420 n
1790 1420 n
1790 1420 n
1789 1420 n
1789 1420 n
1789 1420 n
1789 1420 n
1789 1421 n
1789 1421 n
1789 1421 n
1789 1421 n
1788 1421 n
1788 1421 n
1788 1421 n
1788 1421 n
1788 1421 n
1788 1421 n
1788 1421 n
1788 1421 n
1787 1421 n
1787 1421 n
1787 1421 n
1787 1421 n
1787 1421 n
1787 1421 n
1787 1421 n
1786 1421 n
1786 1421 n
1786 1421 n
1786 1421 n
1786 1420 n
1786 1420 n
1786 1420 n
1786 1420 n
1785 1420 n
1785 1420 n
1785 1420 n
1785 1420 n
1785 1420 n
1785 1420 n
1785 1420 n
1785 1420 n
1785 1420 n
1784 1420 n
1784 1420 n
1784 1420 n
1784 1420 n
1784 1420 n
1784 1420 n
1784 1420 n
1784 1420 n
1783 1420 n
1783 1419 n
1783 1419 n
1783 1419 n
1783 1419 n
1783 1419 n
1783 1419 n
1783 1419 n
1783 1419 n
1783 1419 n
1782 1419 n
1782 1419 n
1782 1419 n
1782 1419 n
1782 1419 n
1782 1418 n
1782 1418 n
1782 1418 n
1782 1418 n
1782 1418 n
1781 1418 n
1781 1418 n
1781 1418 n
1781 1418 n
1781 1418 n
1781 1417 n
1781 1417 n
1781 1417 n
1781 1417 n
1781 1417 n
1781 1417 n
1781 1417 n
1781 1417 n
1781 1417 n
1780 1417 n
1780 1416 n
1780 1416 n
1780 1416 n
1780 1416 n
1780 1416 n
1780 1416 n
1780 1416 n
1780 1416 n
1780 1415 n
1780 1415 n
1780 1415 n
1780 1415 n
1780 1415 n
1780 1415 n
1780 1415 n
1780 1415 n
1780 1415 n
1780 1414 n
1780 1414 n
1780 1414 n
1780 1414 n
1779 1414 n
1779 1414 n
1779 1414 n
1779 1414 n
1779 1413 n
1779 1413 n
1779 1413 n
1779 1413 n
1779 1413 n
1779 1413 n
1779 1413 n
1779 1413 n
1779 1412 n
1779 1412 n
1779 1412 n
1779 1412 n
1779 1412 n
1779 1412 n
1779 1412 n
1779 1411 n
1779 1411 n
1779 1411 n
1779 1411 n
1780 1411 n
1780 1411 n
1780 1411 n
1780 1411 n
1780 1410 n
1780 1410 n
1780 1410 n
1780 1410 n
1780 1410 n
1780 1410 n
1780 1410 n
1780 1410 n
1780 1410 n
1780 1409 n
1780 1409 n
1780 1409 n
1780 1409 n
1780 1409 n
1780 1409 n
1780 1409 n
1780 1409 n
1780 1408 n
1781 1408 n
1781 1408 n
1781 1408 n
1781 1408 n
1781 1408 n
1781 1408 n
1781 1408 n
1781 1408 n
1781 1408 n
1781 1407 n
1781 1407 n
1781 1407 n
1781 1407 n
1781 1407 n
1782 1407 n
1782 1407 n
1782 1407 n
1782 1407 n
1782 1407 n
1782 1406 n
1782 1406 n
1782 1406 n
1782 1406 n
1782 1406 n
1783 1406 n
1783 1406 n
1783 1406 n
1783 1406 n
1783 1406 n
1783 1406 n
1783 1406 n
1783 1406 n
1783 1406 n
1783 1405 n
1784 1405 n
1784 1405 n
1784 1405 n
1784 1405 n
1784 1405 n
1784 1405 n
1784 1405 n
1784 1405 n
1785 1405 n
1785 1405 n
1785 1405 n
1785 1405 n
1785 1405 n
1785 1405 n
1785 1405 n
1785 1405 n
1785 1405 n
1786 1405 n
1786 1405 n
1786 1405 n
1786 1405 n
1786 1404 n
1786 1404 n
1786 1404 n
1786 1404 n
1787 1404 n
1787 1404 n
1787 1404 n
1787 1404 n
1787 1404 n
1787 1404 n
1787 1404 n
1788 1404 n
1788 1404 n
1788 1404 n
1788 1404 n
1788 1404 n
1788 1404 n
1788 1404 n
1788 1404 n
1789 1404 n
1789 1404 n
1789 1404 n
1789 1404 n
1789 1405 n
1789 1405 n
1789 1405 n
1789 1405 n
1790 1405 n
1790 1405 n
1790 1405 n
1790 1405 n
1790 1405 n
1790 1405 n
1790 1405 n
1790 1405 n
1790 1405 n
1791 1405 n
1791 1405 n
1791 1405 n
1791 1405 n
1791 1405 n
1791 1405 n
1791 1405 n
1791 1405 n
1792 1405 n
1792 1406 n
1792 1406 n
1792 1406 n
1792 1406 n
1792 1406 n
1792 1406 n
1792 1406 n
1792 1406 n
1792 1406 n
1793 1406 n
1793 1406 n
1793 1406 n
1793 1406 n
1793 1406 n
1793 1407 n
1793 1407 n
1793 1407 n
1793 1407 n
1793 1407 n
1794 1407 n
1794 1407 n
1794 1407 n
1794 1407 n
1794 1407 n
1794 1408 n
1794 1408 n
1794 1408 n
1794 1408 n
1794 1408 n
1794 1408 n
1794 1408 n
1794 1408 n
1794 1408 n
1795 1408 n
1795 1409 n
1795 1409 n
1795 1409 n
1795 1409 n
1795 1409 n
1795 1409 n
1795 1409 n
1795 1409 n
1795 1410 n
1795 1410 n
1795 1410 n
1795 1410 n
1795 1410 n
1795 1410 n
1795 1410 n
1795 1410 n
1795 1410 n
1795 1411 n
1795 1411 n
1795 1411 n
1795 1411 n
1796 1411 n
1796 1411 n
1796 1411 n
1796 1411 n
1796 1412 n
1796 1412 n
1796 1412 n
1796 1412 n
1796 1412 n
1796 1412 n
1796 1412 n
1812 1413 m
1812 1413 n
1812 1413 n
1812 1414 n
1812 1414 n
1812 1414 n
1812 1415 n
1812 1415 n
1812 1416 n
1812 1416 n
1812 1416 n
1812 1417 n
1811 1417 n
1811 1417 n
1811 1418 n
1811 1418 n
1811 1419 n
1811 1419 n
1811 1419 n
1811 1420 n
1811 1420 n
1811 1420 n
1810 1421 n
1810 1421 n
1810 1421 n
1810 1422 n
1810 1422 n
1810 1423 n
1810 1423 n
1809 1423 n
1809 1424 n
1809 1424 n
1809 1424 n
1809 1425 n
1808 1425 n
1808 1425 n
1808 1426 n
1808 1426 n
1808 1426 n
1807 1427 n
1807 1427 n
1807 1427 n
1807 1427 n
1807 1428 n
1806 1428 n
1806 1428 n
1806 1429 n
1806 1429 n
1805 1429 n
1805 1429 n
1805 1430 n
1804 1430 n
1804 1430 n
1804 1431 n
1804 1431 n
1803 1431 n
1803 1431 n
1803 1432 n
1802 1432 n
1802 1432 n
1802 1432 n
1802 1432 n
1801 1433 n
1801 1433 n
1801 1433 n
1800 1433 n
1800 1433 n
1800 1434 n
1799 1434 n
1799 1434 n
1799 1434 n
1798 1434 n
1798 1435 n
1798 1435 n
1797 1435 n
1797 1435 n
1796 1435 n
1796 1435 n
1796 1435 n
1795 1436 n
1795 1436 n
1795 1436 n
1794 1436 n
1794 1436 n
1794 1436 n
1793 1436 n
1793 1436 n
1792 1436 n
1792 1436 n
1792 1437 n
1791 1437 n
1791 1437 n
1791 1437 n
1790 1437 n
1790 1437 n
1789 1437 n
1789 1437 n
1789 1437 n
1788 1437 n
1788 1437 n
1788 1437 n
1787 1437 n
1787 1437 n
1786 1437 n
1786 1437 n
1786 1437 n
1785 1437 n
1785 1437 n
1784 1437 n
1784 1437 n
1784 1437 n
1783 1437 n
1783 1436 n
1783 1436 n
1782 1436 n
1782 1436 n
1781 1436 n
1781 1436 n
1781 1436 n
1780 1436 n
1780 1436 n
1780 1436 n
1779 1435 n
1779 1435 n
1779 1435 n
1778 1435 n
1778 1435 n
1777 1435 n
1777 1435 n
1777 1434 n
1776 1434 n
1776 1434 n
1776 1434 n
1775 1434 n
1775 1433 n
1775 1433 n
1774 1433 n
1774 1433 n
1774 1433 n
1773 1432 n
1773 1432 n
1773 1432 n
1773 1432 n
1772 1432 n
1772 1431 n
1772 1431 n
1771 1431 n
1771 1431 n
1771 1430 n
1771 1430 n
1770 1430 n
1770 1429 n
1770 1429 n
1769 1429 n
1769 1429 n
1769 1428 n
1769 1428 n
1768 1428 n
1768 1427 n
1768 1427 n
1768 1427 n
1768 1427 n
1767 1426 n
1767 1426 n
1767 1426 n
1767 1425 n
1767 1425 n
1766 1425 n
1766 1424 n
1766 1424 n
1766 1424 n
1766 1423 n
1765 1423 n
1765 1423 n
1765 1422 n
1765 1422 n
1765 1421 n
1765 1421 n
1765 1421 n
1764 1420 n
1764 1420 n
1764 1420 n
1764 1419 n
1764 1419 n
1764 1419 n
1764 1418 n
1764 1418 n
1764 1417 n
1764 1417 n
1763 1417 n
1763 1416 n
1763 1416 n
1763 1416 n
1763 1415 n
1763 1415 n
1763 1414 n
1763 1414 n
1763 1414 n
1763 1413 n
1763 1413 n
1763 1413 n
1763 1412 n
1763 1412 n
1763 1411 n
1763 1411 n
1763 1411 n
1763 1410 n
1763 1410 n
1763 1409 n
1763 1409 n
1763 1409 n
1763 1408 n
1764 1408 n
1764 1408 n
1764 1407 n
1764 1407 n
1764 1406 n
1764 1406 n
1764 1406 n
1764 1405 n
1764 1405 n
1764 1405 n
1765 1404 n
1765 1404 n
1765 1404 n
1765 1403 n
1765 1403 n
1765 1402 n
1765 1402 n
1766 1402 n
1766 1401 n
1766 1401 n
1766 1401 n
1766 1400 n
1767 1400 n
1767 1400 n
1767 1399 n
1767 1399 n
1767 1399 n
1768 1398 n
1768 1398 n
1768 1398 n
1768 1398 n
1768 1397 n
1769 1397 n
1769 1397 n
1769 1396 n
1769 1396 n
1770 1396 n
1770 1396 n
1770 1395 n
1771 1395 n
1771 1395 n
1771 1394 n
1771 1394 n
1772 1394 n
1772 1394 n
1772 1393 n
1773 1393 n
1773 1393 n
1773 1393 n
1773 1393 n
1774 1392 n
1774 1392 n
1774 1392 n
1775 1392 n
1775 1392 n
1775 1391 n
1776 1391 n
1776 1391 n
1776 1391 n
1777 1391 n
1777 1390 n
1777 1390 n
1778 1390 n
1778 1390 n
1779 1390 n
1779 1390 n
1779 1390 n
1780 1389 n
1780 1389 n
1780 1389 n
1781 1389 n
1781 1389 n
1781 1389 n
1782 1389 n
1782 1389 n
1783 1389 n
1783 1389 n
1783 1388 n
1784 1388 n
1784 1388 n
1784 1388 n
1785 1388 n
1785 1388 n
1786 1388 n
1786 1388 n
1786 1388 n
1787 1388 n
1787 1388 n
1788 1388 n
1788 1388 n
1788 1388 n
1789 1388 n
1789 1388 n
1789 1388 n
1790 1388 n
1790 1388 n
1791 1388 n
1791 1388 n
1791 1388 n
1792 1388 n
1792 1389 n
1792 1389 n
1793 1389 n
1793 1389 n
1794 1389 n
1794 1389 n
1794 1389 n
1795 1389 n
1795 1389 n
1795 1389 n
1796 1390 n
1796 1390 n
1796 1390 n
1797 1390 n
1797 1390 n
1798 1390 n
1798 1390 n
1798 1391 n
1799 1391 n
1799 1391 n
1799 1391 n
1800 1391 n
1800 1392 n
1800 1392 n
1801 1392 n
1801 1392 n
1801 1392 n
1802 1393 n
1802 1393 n
1802 1393 n
1802 1393 n
1803 1393 n
1803 1394 n
1803 1394 n
1804 1394 n
1804 1394 n
1804 1395 n
1804 1395 n
1805 1395 n
1805 1396 n
1805 1396 n
1806 1396 n
1806 1396 n
1806 1397 n
1806 1397 n
1807 1397 n
1807 1398 n
1807 1398 n
1807 1398 n
1807 1398 n
1808 1399 n
1808 1399 n
1808 1399 n
1808 1400 n
1808 1400 n
1809 1400 n
1809 1401 n
1809 1401 n
1809 1401 n
1809 1402 n
1810 1402 n
1810 1402 n
1810 1403 n
1810 1403 n
1810 1404 n
1810 1404 n
1810 1404 n
1811 1405 n
1811 1405 n
1811 1405 n
1811 1406 n
1811 1406 n
1811 1406 n
1811 1407 n
1811 1407 n
1811 1408 n
1811 1408 n
1812 1408 n
1812 1409 n
1812 1409 n
1812 1409 n
1812 1410 n
1812 1410 n
1812 1411 n
1812 1411 n
1812 1411 n
1812 1412 n
1812 1412 n
1463 1331 m
1478 1355 m
1481 1346 n
1481 1364 n
1478 1355 n
1472 1361 n
1463 1364 n
1457 1364 n
1448 1361 n
1442 1355 n
1439 1349 n
1436 1340 n
1436 1325 n
1439 1316 n
1442 1310 n
1448 1304 n
1457 1301 n
1463 1301 n
1472 1304 n
1478 1310 n
1481 1316 n
1457 1364 m
1451 1361 n
1445 1355 n
1442 1349 n
1439 1340 n
1439 1325 n
1442 1316 n
1445 1310 n
1451 1304 n
1457 1301 n
1526 1331 m
1505 1364 m
1505 1301 n
1508 1364 m
1508 1301 n
1508 1334 m
1514 1340 n
1523 1343 n
1529 1343 n
1538 1340 n
1541 1334 n
1541 1301 n
1529 1343 m
1535 1340 n
1538 1334 n
1538 1301 n
1496 1364 m
1508 1364 n
1496 1301 m
1517 1301 n
1529 1301 m
1550 1301 n
1592 1331 m
1571 1364 m
1568 1361 n
1571 1358 n
1574 1361 n
1571 1364 n
1571 1343 m
1571 1301 n
1574 1343 m
1574 1301 n
1562 1343 m
1574 1343 n
1562 1301 m
1583 1301 n
1625 1331 m
1604 1364 m
1604 1301 n
1607 1364 m
1607 1301 n
1595 1364 m
1607 1364 n
1595 1301 m
1616 1301 n
1658 1331 m
1667 1364 m
1667 1301 n
1670 1364 m
1670 1301 n
1667 1334 m
1661 1340 n
1655 1343 n
1649 1343 n
1640 1340 n
1634 1334 n
1631 1325 n
1631 1319 n
1634 1310 n
1640 1304 n
1649 1301 n
1655 1301 n
1661 1304 n
1667 1310 n
1649 1343 m
1643 1340 n
1637 1334 n
1634 1325 n
1634 1319 n
1637 1310 n
1643 1304 n
1649 1301 n
1658 1364 m
1670 1364 n
1667 1301 m
1679 1301 n
1721 1331 m
1700 1343 m
1697 1340 n
1700 1337 n
1703 1340 n
1700 1343 n
1700 1307 m
1697 1304 n
1700 1301 n
1703 1304 n
1700 1307 n
1751 1331 m
1799 1331 m
1772 1343 m
1790 1301 n
1775 1343 m
1790 1307 n
1808 1343 m
1790 1301 n
1766 1343 m
1784 1343 n
1796 1343 m
1814 1343 n
1853 1331 m
1901 1331 m
1877 1337 m
1931 1337 n
1877 1319 m
1931 1319 n
1979 1331 m
2027 1331 m
2006 1364 m
2000 1334 n
2000 1334 m
2006 1340 n
2015 1343 n
2024 1343 n
2033 1340 n
2039 1334 n
2042 1325 n
2042 1319 n
2039 1310 n
2033 1304 n
2024 1301 n
2015 1301 n
2006 1304 n
2003 1307 n
2000 1313 n
2000 1316 n
2003 1319 n
2006 1316 n
2003 1313 n
2024 1343 m
2030 1340 n
2036 1334 n
2039 1325 n
2039 1319 n
2036 1310 n
2030 1304 n
2024 1301 n
2006 1364 m
2036 1364 n
2006 1361 m
2021 1361 n
2036 1364 n
2087 1331 m
2135 1331 m
2114 1343 m
2114 1301 n
2117 1343 m
2117 1301 n
2117 1334 m
2123 1340 n
2132 1343 n
2138 1343 n
2147 1340 n
2150 1334 n
2150 1301 n
2138 1343 m
2144 1340 n
2147 1334 n
2147 1301 n
2150 1334 m
2156 1340 n
2165 1343 n
2171 1343 n
2180 1340 n
2183 1334 n
2183 1301 n
2171 1343 m
2177 1340 n
2180 1334 n
2180 1301 n
2105 1343 m
2117 1343 n
2105 1301 m
2126 1301 n
2138 1301 m
2159 1301 n
2171 1301 m
2192 1301 n
2234 1331 m
2258 1376 m
2204 1280 n
2300 1331 m
2303 1337 m
2306 1343 n
2306 1331 n
2303 1337 n
2300 1340 n
2294 1343 n
2282 1343 n
2276 1340 n
2273 1337 n
2273 1331 n
2276 1328 n
2282 1325 n
2297 1319 n
2303 1316 n
2306 1313 n
2273 1334 m
2276 1331 n
2282 1328 n
2297 1322 n
2303 1319 n
2306 1316 n
2306 1307 n
2303 1304 n
2297 1301 n
2285 1301 n
2279 1304 n
2276 1307 n
2273 1313 n
2273 1301 n
2276 1307 n
1463 1331 m
/dotdashed f
1625 1413 m
2275 1413 n
/solid f
1 1 m
e
%%Trailer
EndPSPlot
