%!
%%Creator: esperiel:wfreeman(Walter)
%%Title: Unix plot file
%%CreationDate: Wed Feb 12 13:43:09 2025
%%DocumentFonts: Courier
%%EndComments
%%BoundingBox: 0 0 4096 4096
% Start of psplot.pro -- prolog for plot(5) translator
% Copyright (c) 1984,1985,1987 Adobe Systems Incorporated. All Rights Reserved. 
%              RESTRICTED RIGHTS LEGEND
% Use, duplication or disclosure by the Government is subject to
% restrictions as set forth in subdivision (b)(3)(ii) of the Rights in
% Technical Data and Computer Software Clause at 252.227-7013.
% Name of Contractor: Adobe Systems Incorporated
% Address:  1870 Embarcadero Road
%	  Palo Alto, California  94303
% RCS: $Header: psplot.pro,v 2.2 87/11/17 16:41:06 byron Rel $
save 50 dict begin /psplot exch def
/StartPSPlot
   {newpath 0 0 moveto 8 setlinewidth 0 setgray 1 setlinecap
    /imtx matrix currentmatrix def /dmtx matrix defaultmatrix def
    /fnt /Courier findfont def /smtx matrix def fnt 8 scalefont setfont}def
/solid {{}0}def
/dotted	{[2 nail 3.5 nail ] 0}def
/longdashed {[10 nail] 0}def
/shortdashed {[6 nail] 0}def
/dotdashed {[2 nail 6 nail 10 nail 6 nail] 0}def
/disconnected {{}0}def
/min {2 copy lt{pop}{exch pop}ifelse}def
/max {2 copy lt{exch pop}{pop}ifelse}def
/len {dup mul exch dup mul add sqrt}def
/nail {0 imtx dtransform len 0 idtransform len}def

/m {newpath moveto}def
/n {lineto currentpoint stroke moveto}def
/p {newpath moveto gsave 1 setlinecap solid setdash
    dmtx setmatrix .4 nail setlinewidth
    .05 0 idtransform rlineto stroke grestore}def
/l {moveto lineto currentpoint stroke moveto}def
/t {smtx currentmatrix pop imtx setmatrix show smtx setmatrix}def
/a {gsave newpath /y2 exch def /x2 exch def 
    /y1 exch def /x1 exch def /yc exch def /xc exch def
    /r x1 xc sub dup mul y1 yc sub dup mul add sqrt
       x2 xc sub dup mul y2 yc sub dup mul add sqrt add 2 div def
    /ang1 y1 yc sub x1 xc sub atan def
    /ang2 y2 yc sub x2 xc sub atan def
    xc yc r ang1 ang2 arc stroke grestore}def
/c {gsave newpath 0 360 arc stroke grestore}def
/e {gsave showpage grestore newpath 0 0 moveto}def
/f {load exec setdash}def
/s {/ury exch def /urx exch def /lly exch def /llx exch def
    imtx setmatrix newpath clippath pathbbox newpath
    /dury exch def /durx exch def /dlly exch def /dllx exch def
    /md durx dllx sub dury dlly sub min def
    /Mu urx llx sub ury lly sub max def
    36 144 translate .8 .8 scale
    dllx dlly translate md Mu div dup scale llx neg lly neg translate}def
/EndPSPlot {clear psplot end restore}def
StartPSPlot
%%EndProlog
%%Page: 1 1
0 0 4096 4096 s
/solid f
0.00 1.00 1.00 0 setcmykcolor
0 0 0 1 setcmykcolor
2356 2225 m
2356 2226 n
2356 2228 n
2356 2229 n
2356 2230 n
2356 2231 n
2356 2233 n
2356 2234 n
2356 2235 n
2355 2236 n
2355 2238 n
2355 2239 n
2355 2240 n
2355 2241 n
2354 2243 n
2354 2244 n
2354 2245 n
2353 2246 n
2353 2248 n
2353 2249 n
2352 2250 n
2352 2251 n
2351 2253 n
2351 2254 n
2351 2255 n
2350 2256 n
2350 2257 n
2349 2258 n
2349 2260 n
2348 2261 n
2347 2262 n
2347 2263 n
2346 2264 n
2346 2265 n
2345 2266 n
2344 2267 n
2344 2269 n
2343 2270 n
2342 2271 n
2341 2272 n
2341 2273 n
2340 2274 n
2339 2275 n
2338 2276 n
2338 2277 n
2337 2278 n
2336 2279 n
2335 2280 n
2334 2281 n
2333 2282 n
2332 2282 n
2332 2283 n
2331 2284 n
2330 2285 n
2329 2286 n
2328 2287 n
2327 2288 n
2326 2288 n
2325 2289 n
2324 2290 n
2323 2291 n
2322 2291 n
2321 2292 n
2320 2293 n
2319 2294 n
2317 2294 n
2316 2295 n
2315 2296 n
2314 2296 n
2313 2297 n
2312 2297 n
2311 2298 n
2310 2299 n
2308 2299 n
2307 2300 n
2306 2300 n
2305 2301 n
2304 2301 n
2303 2301 n
2301 2302 n
2300 2302 n
2299 2303 n
2298 2303 n
2296 2303 n
2295 2304 n
2294 2304 n
2293 2304 n
2291 2305 n
2290 2305 n
2289 2305 n
2288 2305 n
2286 2305 n
2285 2306 n
2284 2306 n
2283 2306 n
2281 2306 n
2280 2306 n
2279 2306 n
2278 2306 n
2276 2306 n
2275 2306 n
2274 2306 n
2272 2306 n
2271 2306 n
2270 2306 n
2269 2306 n
2267 2306 n
2266 2306 n
2265 2306 n
2264 2305 n
2262 2305 n
2261 2305 n
2260 2305 n
2259 2305 n
2257 2304 n
2256 2304 n
2255 2304 n
2254 2303 n
2252 2303 n
2251 2303 n
2250 2302 n
2249 2302 n
2247 2301 n
2246 2301 n
2245 2301 n
2244 2300 n
2243 2300 n
2242 2299 n
2240 2299 n
2239 2298 n
2238 2297 n
2237 2297 n
2236 2296 n
2235 2296 n
2234 2295 n
2233 2294 n
2231 2294 n
2230 2293 n
2229 2292 n
2228 2291 n
2227 2291 n
2226 2290 n
2225 2289 n
2224 2288 n
2223 2288 n
2222 2287 n
2221 2286 n
2220 2285 n
2219 2284 n
2218 2283 n
2218 2282 n
2217 2282 n
2216 2281 n
2215 2280 n
2214 2279 n
2213 2278 n
2212 2277 n
2212 2276 n
2211 2275 n
2210 2274 n
2209 2273 n
2209 2272 n
2208 2271 n
2207 2270 n
2206 2269 n
2206 2267 n
2205 2266 n
2204 2265 n
2204 2264 n
2203 2263 n
2203 2262 n
2202 2261 n
2201 2260 n
2201 2258 n
2200 2257 n
2200 2256 n
2199 2255 n
2199 2254 n
2199 2253 n
2198 2251 n
2198 2250 n
2197 2249 n
2197 2248 n
2197 2246 n
2196 2245 n
2196 2244 n
2196 2243 n
2195 2241 n
2195 2240 n
2195 2239 n
2195 2238 n
2195 2236 n
2194 2235 n
2194 2234 n
2194 2233 n
2194 2231 n
2194 2230 n
2194 2229 n
2194 2228 n
2194 2226 n
2194 2225 n
2194 2224 n
2194 2222 n
2194 2221 n
2194 2220 n
2194 2219 n
2194 2217 n
2194 2216 n
2194 2215 n
2195 2214 n
2195 2212 n
2195 2211 n
2195 2210 n
2195 2209 n
2196 2207 n
2196 2206 n
2196 2205 n
2197 2204 n
2197 2202 n
2197 2201 n
2198 2200 n
2198 2199 n
2199 2197 n
2199 2196 n
2199 2195 n
2200 2194 n
2200 2193 n
2201 2192 n
2201 2190 n
2202 2189 n
2203 2188 n
2203 2187 n
2204 2186 n
2204 2185 n
2205 2184 n
2206 2183 n
2206 2181 n
2207 2180 n
2208 2179 n
2209 2178 n
2209 2177 n
2210 2176 n
2211 2175 n
2212 2174 n
2212 2173 n
2213 2172 n
2214 2171 n
2215 2170 n
2216 2169 n
2217 2168 n
2218 2168 n
2218 2167 n
2219 2166 n
2220 2165 n
2221 2164 n
2222 2163 n
2223 2162 n
2224 2162 n
2225 2161 n
2226 2160 n
2227 2159 n
2228 2159 n
2229 2158 n
2230 2157 n
2231 2156 n
2233 2156 n
2234 2155 n
2235 2154 n
2236 2154 n
2237 2153 n
2238 2153 n
2239 2152 n
2240 2151 n
2242 2151 n
2243 2150 n
2244 2150 n
2245 2149 n
2246 2149 n
2247 2149 n
2249 2148 n
2250 2148 n
2251 2147 n
2252 2147 n
2254 2147 n
2255 2146 n
2256 2146 n
2257 2146 n
2259 2145 n
2260 2145 n
2261 2145 n
2262 2145 n
2264 2145 n
2265 2144 n
2266 2144 n
2267 2144 n
2269 2144 n
2270 2144 n
2271 2144 n
2272 2144 n
2274 2144 n
2275 2144 n
2276 2144 n
2278 2144 n
2279 2144 n
2280 2144 n
2281 2144 n
2283 2144 n
2284 2144 n
2285 2144 n
2286 2145 n
2288 2145 n
2289 2145 n
2290 2145 n
2291 2145 n
2293 2146 n
2294 2146 n
2295 2146 n
2296 2147 n
2298 2147 n
2299 2147 n
2300 2148 n
2301 2148 n
2303 2149 n
2304 2149 n
2305 2149 n
2306 2150 n
2307 2150 n
2308 2151 n
2310 2151 n
2311 2152 n
2312 2153 n
2313 2153 n
2314 2154 n
2315 2154 n
2316 2155 n
2317 2156 n
2319 2156 n
2320 2157 n
2321 2158 n
2322 2159 n
2323 2159 n
2324 2160 n
2325 2161 n
2326 2162 n
2327 2162 n
2328 2163 n
2329 2164 n
2330 2165 n
2331 2166 n
2332 2167 n
2332 2168 n
2333 2168 n
2334 2169 n
2335 2170 n
2336 2171 n
2337 2172 n
2338 2173 n
2338 2174 n
2339 2175 n
2340 2176 n
2341 2177 n
2341 2178 n
2342 2179 n
2343 2180 n
2344 2181 n
2344 2183 n
2345 2184 n
2346 2185 n
2346 2186 n
2347 2187 n
2347 2188 n
2348 2189 n
2349 2190 n
2349 2192 n
2350 2193 n
2350 2194 n
2351 2195 n
2351 2196 n
2351 2197 n
2352 2199 n
2352 2200 n
2353 2201 n
2353 2202 n
2353 2204 n
2354 2205 n
2354 2206 n
2354 2207 n
2355 2209 n
2355 2210 n
2355 2211 n
2355 2212 n
2355 2214 n
2356 2215 n
2356 2216 n
2356 2217 n
2356 2219 n
2356 2220 n
2356 2221 n
2356 2222 n
2356 2224 n
3575 2225 m
3575 2245 n
3574 2266 n
3574 2286 n
3572 2307 n
3571 2327 n
3569 2347 n
3567 2368 n
3565 2388 n
3562 2408 n
3559 2428 n
3556 2449 n
3552 2469 n
3548 2489 n
3544 2509 n
3539 2528 n
3534 2548 n
3529 2568 n
3523 2588 n
3518 2607 n
3511 2627 n
3505 2646 n
3498 2665 n
3491 2685 n
3484 2704 n
3476 2722 n
3468 2741 n
3460 2760 n
3451 2779 n
3442 2797 n
3433 2815 n
3424 2833 n
3414 2851 n
3404 2869 n
3394 2887 n
3383 2904 n
3373 2922 n
3362 2939 n
3350 2956 n
3339 2973 n
3327 2989 n
3315 3006 n
3302 3022 n
3290 3038 n
3277 3054 n
3264 3069 n
3250 3085 n
3237 3100 n
3223 3115 n
3209 3130 n
3194 3144 n
3180 3159 n
3165 3173 n
3150 3187 n
3135 3200 n
3119 3214 n
3104 3227 n
3088 3240 n
3072 3252 n
3056 3265 n
3039 3277 n
3023 3289 n
3006 3300 n
2989 3312 n
2972 3323 n
2954 3333 n
2937 3344 n
2919 3354 n
2901 3364 n
2883 3374 n
2865 3383 n
2847 3392 n
2829 3401 n
2810 3410 n
2791 3418 n
2772 3426 n
2754 3434 n
2735 3441 n
2715 3448 n
2696 3455 n
2677 3461 n
2657 3468 n
2638 3473 n
2618 3479 n
2598 3484 n
2578 3489 n
2559 3494 n
2539 3498 n
2519 3502 n
2499 3506 n
2478 3509 n
2458 3512 n
2438 3515 n
2418 3517 n
2397 3519 n
2377 3521 n
2357 3522 n
2336 3524 n
2316 3524 n
2295 3525 n
2275 3525 n
2255 3525 n
2234 3524 n
2214 3524 n
2193 3522 n
2173 3521 n
2153 3519 n
2132 3517 n
2112 3515 n
2092 3512 n
2072 3509 n
2051 3506 n
2031 3502 n
2011 3498 n
1991 3494 n
1972 3489 n
1952 3484 n
1932 3479 n
1912 3473 n
1893 3468 n
1873 3461 n
1854 3455 n
1835 3448 n
1815 3441 n
1796 3434 n
1778 3426 n
1759 3418 n
1740 3410 n
1721 3401 n
1703 3392 n
1685 3383 n
1667 3374 n
1649 3364 n
1631 3354 n
1613 3344 n
1596 3333 n
1578 3323 n
1561 3312 n
1544 3300 n
1527 3289 n
1511 3277 n
1494 3265 n
1478 3252 n
1462 3240 n
1446 3227 n
1431 3214 n
1415 3200 n
1400 3187 n
1385 3173 n
1370 3159 n
1356 3144 n
1341 3130 n
1327 3115 n
1313 3100 n
1300 3085 n
1286 3069 n
1273 3054 n
1260 3038 n
1248 3022 n
1235 3006 n
1223 2989 n
1211 2973 n
1200 2956 n
1188 2939 n
1177 2922 n
1167 2904 n
1156 2887 n
1146 2869 n
1136 2851 n
1126 2833 n
1117 2815 n
1108 2797 n
1099 2779 n
1090 2760 n
1082 2741 n
1074 2722 n
1066 2704 n
1059 2685 n
1052 2665 n
1045 2646 n
1039 2627 n
1032 2607 n
1027 2588 n
1021 2568 n
1016 2548 n
1011 2528 n
1006 2509 n
1002 2489 n
998 2469 n
994 2449 n
991 2428 n
988 2408 n
985 2388 n
983 2368 n
981 2347 n
979 2327 n
978 2307 n
976 2286 n
976 2266 n
975 2245 n
975 2225 n
975 2205 n
976 2184 n
976 2164 n
978 2143 n
979 2123 n
981 2103 n
983 2082 n
985 2062 n
988 2042 n
991 2022 n
994 2001 n
998 1981 n
1002 1961 n
1006 1941 n
1011 1922 n
1016 1902 n
1021 1882 n
1027 1862 n
1032 1843 n
1039 1823 n
1045 1804 n
1052 1785 n
1059 1765 n
1066 1746 n
1074 1728 n
1082 1709 n
1090 1690 n
1099 1671 n
1108 1653 n
1117 1635 n
1126 1617 n
1136 1599 n
1146 1581 n
1156 1563 n
1167 1546 n
1177 1528 n
1188 1511 n
1200 1494 n
1211 1477 n
1223 1461 n
1235 1444 n
1248 1428 n
1260 1412 n
1273 1396 n
1286 1381 n
1300 1365 n
1313 1350 n
1327 1335 n
1341 1320 n
1356 1306 n
1370 1291 n
1385 1277 n
1400 1263 n
1415 1250 n
1431 1236 n
1446 1223 n
1462 1210 n
1478 1198 n
1494 1185 n
1511 1173 n
1527 1161 n
1544 1150 n
1561 1138 n
1578 1127 n
1596 1117 n
1613 1106 n
1631 1096 n
1649 1086 n
1667 1076 n
1685 1067 n
1703 1058 n
1721 1049 n
1740 1040 n
1759 1032 n
1778 1024 n
1796 1016 n
1815 1009 n
1835 1002 n
1854 995 n
1873 989 n
1893 982 n
1912 977 n
1932 971 n
1952 966 n
1972 961 n
1991 956 n
2011 952 n
2031 948 n
2051 944 n
2072 941 n
2092 938 n
2112 935 n
2132 933 n
2153 931 n
2173 929 n
2193 928 n
2214 926 n
2234 926 n
2255 925 n
2275 925 n
2295 925 n
2316 926 n
2336 926 n
2357 928 n
2377 929 n
2397 931 n
2418 933 n
2438 935 n
2458 938 n
2478 941 n
2499 944 n
2519 948 n
2539 952 n
2559 956 n
2578 961 n
2598 966 n
2618 971 n
2638 977 n
2657 982 n
2677 989 n
2696 995 n
2715 1002 n
2735 1009 n
2754 1016 n
2772 1024 n
2791 1032 n
2810 1040 n
2829 1049 n
2847 1058 n
2865 1067 n
2883 1076 n
2901 1086 n
2919 1096 n
2937 1106 n
2954 1117 n
2972 1127 n
2989 1138 n
3006 1150 n
3023 1161 n
3039 1173 n
3056 1185 n
3072 1198 n
3088 1210 n
3104 1223 n
3119 1236 n
3135 1250 n
3150 1263 n
3165 1277 n
3180 1291 n
3194 1306 n
3209 1320 n
3223 1335 n
3237 1350 n
3250 1365 n
3264 1381 n
3277 1396 n
3290 1412 n
3302 1428 n
3315 1444 n
3327 1461 n
3339 1477 n
3350 1494 n
3362 1511 n
3373 1528 n
3383 1546 n
3394 1563 n
3404 1581 n
3414 1599 n
3424 1617 n
3433 1635 n
3442 1653 n
3451 1671 n
3460 1690 n
3468 1709 n
3476 1728 n
3484 1746 n
3491 1765 n
3498 1785 n
3505 1804 n
3511 1823 n
3518 1843 n
3523 1862 n
3529 1882 n
3534 1902 n
3539 1922 n
3544 1941 n
3548 1961 n
3552 1981 n
3556 2001 n
3559 2022 n
3562 2042 n
3565 2062 n
3567 2082 n
3569 2103 n
3571 2123 n
3572 2143 n
3574 2164 n
3574 2184 n
3575 2205 n
2177 912 m
2356 912 n
2177 3512 m
2373 3512 n
877 2212 m
1072 2212 n
2177 912 m
2356 912 n
2177 3512 m
2373 3512 n
877 2212 m
1072 2212 n
2177 912 m
2356 912 n
2177 3512 m
2373 3512 n
877 2212 m
1072 2212 n
2177 912 m
2356 912 n
2177 3512 m
2373 3512 n
877 2212 m
1072 2212 n
2177 913 m
2356 913 n
2177 3513 m
2373 3513 n
877 2213 m
1072 2213 n
2177 913 m
2356 913 n
2177 3513 m
2373 3513 n
877 2213 m
1072 2213 n
2177 913 m
2356 913 n
2177 3513 m
2373 3513 n
877 2213 m
1072 2213 n
2177 913 m
2356 913 n
2177 3513 m
2373 3513 n
877 2213 m
1072 2213 n
2177 913 m
2356 913 n
2177 3513 m
2373 3513 n
877 2213 m
1072 2213 n
2177 913 m
2356 913 n
2177 3513 m
2373 3513 n
877 2213 m
1072 2213 n
2177 914 m
2356 914 n
2177 3514 m
2373 3514 n
877 2214 m
1072 2214 n
2177 914 m
2356 914 n
2177 3514 m
2373 3514 n
877 2214 m
1072 2214 n
2177 914 m
2356 914 n
2177 3514 m
2373 3514 n
877 2214 m
1072 2214 n
2177 914 m
2356 914 n
2177 3514 m
2373 3514 n
877 2214 m
1072 2214 n
2177 914 m
2356 914 n
2177 3514 m
2373 3514 n
877 2214 m
1072 2214 n
2177 914 m
2356 914 n
2177 3514 m
2373 3514 n
877 2214 m
1072 2214 n
2177 915 m
2356 915 n
2177 3515 m
2373 3515 n
877 2215 m
1072 2215 n
2177 915 m
2356 915 n
2177 3515 m
2373 3515 n
877 2215 m
1072 2215 n
2177 915 m
2356 915 n
2177 3515 m
2373 3515 n
877 2215 m
1072 2215 n
2177 915 m
2356 915 n
2177 3515 m
2373 3515 n
877 2215 m
1072 2215 n
2177 915 m
2356 915 n
2177 3515 m
2373 3515 n
877 2215 m
1072 2215 n
2177 915 m
2356 915 n
2177 3515 m
2373 3515 n
877 2215 m
1072 2215 n
2177 916 m
2356 916 n
2177 3516 m
2373 3516 n
877 2216 m
1072 2216 n
2177 916 m
2356 916 n
2177 3516 m
2373 3516 n
877 2216 m
1072 2216 n
2177 916 m
2356 916 n
2177 3516 m
2373 3516 n
877 2216 m
1072 2216 n
2177 916 m
2356 916 n
2177 3516 m
2373 3516 n
877 2216 m
1072 2216 n
2177 916 m
2356 916 n
2177 3516 m
2373 3516 n
877 2216 m
1072 2216 n
2177 916 m
2356 916 n
2177 3516 m
2373 3516 n
877 2216 m
1072 2216 n
2177 917 m
2356 917 n
2177 3517 m
2373 3517 n
877 2217 m
1072 2217 n
2177 917 m
2356 917 n
2177 3517 m
2373 3517 n
877 2217 m
1072 2217 n
2177 917 m
2356 917 n
2177 3517 m
2373 3517 n
877 2217 m
1072 2217 n
2177 917 m
2356 917 n
2177 3517 m
2373 3517 n
877 2217 m
1072 2217 n
2177 917 m
2356 917 n
2177 3517 m
2373 3517 n
877 2217 m
1072 2217 n
2177 917 m
2356 917 n
2177 3517 m
2373 3517 n
877 2217 m
1072 2217 n
2177 918 m
2356 918 n
2177 3518 m
2373 3518 n
877 2218 m
1072 2218 n
2177 918 m
2356 918 n
2177 3518 m
2373 3518 n
877 2218 m
1072 2218 n
2177 918 m
2356 918 n
2177 3518 m
2373 3518 n
877 2218 m
1072 2218 n
2177 918 m
2356 918 n
2177 3518 m
2373 3518 n
877 2218 m
1072 2218 n
2177 918 m
2356 918 n
2177 3518 m
2373 3518 n
877 2218 m
1072 2218 n
2177 918 m
2356 918 n
2177 3518 m
2373 3518 n
877 2218 m
1072 2218 n
2177 919 m
2356 919 n
2177 3519 m
2373 3519 n
877 2219 m
1072 2219 n
2177 919 m
2356 919 n
2177 3519 m
2373 3519 n
877 2219 m
1072 2219 n
2177 919 m
2356 919 n
2177 3519 m
2373 3519 n
877 2219 m
1072 2219 n
2177 919 m
2356 919 n
2177 3519 m
2373 3519 n
877 2219 m
1072 2219 n
2177 919 m
2356 919 n
2177 3519 m
2373 3519 n
877 2219 m
1072 2219 n
2177 919 m
2356 919 n
2177 3519 m
2373 3519 n
877 2219 m
1072 2219 n
2177 919 m
2356 919 n
2177 3519 m
2373 3519 n
877 2219 m
1072 2219 n
2177 920 m
2356 920 n
2177 3520 m
2373 3520 n
877 2220 m
1072 2220 n
2177 920 m
2356 920 n
2177 3520 m
2373 3520 n
877 2220 m
1072 2220 n
2177 920 m
2356 920 n
2177 3520 m
2373 3520 n
877 2220 m
1072 2220 n
2177 920 m
2356 920 n
2177 3520 m
2373 3520 n
877 2220 m
1072 2220 n
2177 920 m
2356 920 n
2177 3520 m
2373 3520 n
877 2220 m
1072 2220 n
2177 920 m
2356 920 n
2177 3520 m
2373 3520 n
877 2220 m
1072 2220 n
2177 921 m
2356 921 n
2177 3521 m
2373 3521 n
877 2221 m
1072 2221 n
2177 921 m
2356 921 n
2177 3521 m
2373 3521 n
877 2221 m
1072 2221 n
2177 921 m
2356 921 n
2177 3521 m
2373 3521 n
877 2221 m
1072 2221 n
2177 921 m
2356 921 n
2177 3521 m
2373 3521 n
877 2221 m
1072 2221 n
2177 921 m
2356 921 n
2177 3521 m
2373 3521 n
877 2221 m
1072 2221 n
2177 921 m
2356 921 n
2177 3521 m
2373 3521 n
877 2221 m
1072 2221 n
2177 922 m
2356 922 n
2177 3522 m
2373 3522 n
877 2222 m
1072 2222 n
2177 922 m
2356 922 n
2177 3522 m
2373 3522 n
877 2222 m
1072 2222 n
2177 922 m
2356 922 n
2177 3522 m
2373 3522 n
877 2222 m
1072 2222 n
2177 922 m
2356 922 n
2177 3522 m
2373 3522 n
877 2222 m
1072 2222 n
2177 922 m
2356 922 n
2177 3522 m
2373 3522 n
877 2222 m
1072 2222 n
2177 922 m
2356 922 n
2177 3522 m
2373 3522 n
877 2222 m
1072 2222 n
2177 923 m
2356 923 n
2177 3523 m
2373 3523 n
877 2223 m
1072 2223 n
2177 923 m
2356 923 n
2177 3523 m
2373 3523 n
877 2223 m
1072 2223 n
2177 923 m
2356 923 n
2177 3523 m
2373 3523 n
877 2223 m
1072 2223 n
2177 923 m
2356 923 n
2177 3523 m
2373 3523 n
877 2223 m
1072 2223 n
2177 923 m
2356 923 n
2177 3523 m
2373 3523 n
877 2223 m
1072 2223 n
2177 923 m
2356 923 n
2177 3523 m
2373 3523 n
877 2223 m
1072 2223 n
2177 924 m
2356 924 n
2177 3524 m
2373 3524 n
877 2224 m
1072 2224 n
2177 924 m
2356 924 n
2177 3524 m
2373 3524 n
877 2224 m
1072 2224 n
2177 924 m
2356 924 n
2177 3524 m
2373 3524 n
877 2224 m
1072 2224 n
2177 924 m
2356 924 n
2177 3524 m
2373 3524 n
877 2224 m
1072 2224 n
2177 924 m
2356 924 n
2177 3524 m
2373 3524 n
877 2224 m
1072 2224 n
2177 924 m
2356 924 n
2177 3524 m
2373 3524 n
877 2224 m
1072 2224 n
2177 925 m
2356 925 n
2177 3525 m
2373 3525 n
877 2225 m
1072 2225 n
2177 925 m
2356 925 n
2177 3525 m
2373 3525 n
877 2225 m
1072 2225 n
2177 925 m
2356 925 n
2177 3525 m
2373 3525 n
877 2225 m
1072 2225 n
2177 925 m
2356 925 n
2177 3525 m
2373 3525 n
877 2225 m
1072 2225 n
2177 925 m
2356 925 n
2177 3525 m
2373 3525 n
877 2225 m
1072 2225 n
2177 925 m
2356 925 n
2177 3525 m
2373 3525 n
877 2225 m
1072 2225 n
2177 925 m
2356 925 n
2177 3525 m
2373 3525 n
877 2225 m
1072 2225 n
2177 926 m
2356 926 n
2177 3526 m
2373 3526 n
877 2226 m
1072 2226 n
2177 926 m
2356 926 n
2177 3526 m
2373 3526 n
877 2226 m
1072 2226 n
2177 926 m
2356 926 n
2177 3526 m
2373 3526 n
877 2226 m
1072 2226 n
2177 926 m
2356 926 n
2177 3526 m
2373 3526 n
877 2226 m
1072 2226 n
2177 926 m
2356 926 n
2177 3526 m
2373 3526 n
877 2226 m
1072 2226 n
2177 926 m
2356 926 n
2177 3526 m
2373 3526 n
877 2226 m
1072 2226 n
2177 927 m
2356 927 n
2177 3527 m
2373 3527 n
877 2227 m
1072 2227 n
2177 927 m
2356 927 n
2177 3527 m
2373 3527 n
877 2227 m
1072 2227 n
2177 927 m
2356 927 n
2177 3527 m
2373 3527 n
877 2227 m
1072 2227 n
2177 927 m
2356 927 n
2177 3527 m
2373 3527 n
877 2227 m
1072 2227 n
2177 927 m
2356 927 n
2177 3527 m
2373 3527 n
877 2227 m
1072 2227 n
2177 927 m
2356 927 n
2177 3527 m
2373 3527 n
877 2227 m
1072 2227 n
2177 928 m
2356 928 n
2177 3528 m
2373 3528 n
877 2228 m
1072 2228 n
2177 928 m
2356 928 n
2177 3528 m
2373 3528 n
877 2228 m
1072 2228 n
2177 928 m
2356 928 n
2177 3528 m
2373 3528 n
877 2228 m
1072 2228 n
2177 928 m
2356 928 n
2177 3528 m
2373 3528 n
877 2228 m
1072 2228 n
2177 928 m
2356 928 n
2177 3528 m
2373 3528 n
877 2228 m
1072 2228 n
2177 928 m
2356 928 n
2177 3528 m
2373 3528 n
877 2228 m
1072 2228 n
2177 929 m
2356 929 n
2177 3529 m
2373 3529 n
877 2229 m
1072 2229 n
2177 929 m
2356 929 n
2177 3529 m
2373 3529 n
877 2229 m
1072 2229 n
2177 929 m
2356 929 n
2177 3529 m
2373 3529 n
877 2229 m
1072 2229 n
2177 929 m
2356 929 n
2177 3529 m
2373 3529 n
877 2229 m
1072 2229 n
2177 929 m
2356 929 n
2177 3529 m
2373 3529 n
877 2229 m
1072 2229 n
2177 929 m
2356 929 n
2177 3529 m
2373 3529 n
877 2229 m
1072 2229 n
2177 930 m
2356 930 n
2177 3530 m
2373 3530 n
877 2230 m
1072 2230 n
2177 930 m
2356 930 n
2177 3530 m
2373 3530 n
877 2230 m
1072 2230 n
2177 930 m
2356 930 n
2177 3530 m
2373 3530 n
877 2230 m
1072 2230 n
2177 930 m
2356 930 n
2177 3530 m
2373 3530 n
877 2230 m
1072 2230 n
2177 930 m
2356 930 n
2177 3530 m
2373 3530 n
877 2230 m
1072 2230 n
2177 930 m
2356 930 n
2177 3530 m
2373 3530 n
877 2230 m
1072 2230 n
2177 931 m
2356 931 n
2177 3531 m
2373 3531 n
877 2231 m
1072 2231 n
2177 931 m
2356 931 n
2177 3531 m
2373 3531 n
877 2231 m
1072 2231 n
2177 931 m
2356 931 n
2177 3531 m
2373 3531 n
877 2231 m
1072 2231 n
2177 931 m
2356 931 n
2177 3531 m
2373 3531 n
877 2231 m
1072 2231 n
2177 931 m
2356 931 n
2177 3531 m
2373 3531 n
877 2231 m
1072 2231 n
2177 931 m
2356 931 n
2177 3531 m
2373 3531 n
877 2231 m
1072 2231 n
2177 931 m
2356 931 n
2177 3531 m
2373 3531 n
877 2231 m
1072 2231 n
2177 932 m
2356 932 n
2177 3532 m
2373 3532 n
877 2232 m
1072 2232 n
2177 932 m
2356 932 n
2177 3532 m
2373 3532 n
877 2232 m
1072 2232 n
2177 932 m
2356 932 n
2177 3532 m
2373 3532 n
877 2232 m
1072 2232 n
2177 932 m
2356 932 n
2177 3532 m
2373 3532 n
877 2232 m
1072 2232 n
2177 932 m
2356 932 n
2177 3532 m
2373 3532 n
877 2232 m
1072 2232 n
2177 932 m
2356 932 n
2177 3532 m
2373 3532 n
877 2232 m
1072 2232 n
2177 933 m
2356 933 n
2177 3533 m
2373 3533 n
877 2233 m
1072 2233 n
2177 933 m
2356 933 n
2177 3533 m
2373 3533 n
877 2233 m
1072 2233 n
2177 933 m
2356 933 n
2177 3533 m
2373 3533 n
877 2233 m
1072 2233 n
2177 933 m
2356 933 n
2177 3533 m
2373 3533 n
877 2233 m
1072 2233 n
2177 933 m
2356 933 n
2177 3533 m
2373 3533 n
877 2233 m
1072 2233 n
2177 933 m
2356 933 n
2177 3533 m
2373 3533 n
877 2233 m
1072 2233 n
2177 934 m
2356 934 n
2177 3534 m
2373 3534 n
877 2234 m
1072 2234 n
2177 934 m
2356 934 n
2177 3534 m
2373 3534 n
877 2234 m
1072 2234 n
2177 934 m
2356 934 n
2177 3534 m
2373 3534 n
877 2234 m
1072 2234 n
2177 934 m
2356 934 n
2177 3534 m
2373 3534 n
877 2234 m
1072 2234 n
2177 934 m
2356 934 n
2177 3534 m
2373 3534 n
877 2234 m
1072 2234 n
2177 934 m
2356 934 n
2177 3534 m
2373 3534 n
877 2234 m
1072 2234 n
2177 935 m
2356 935 n
2177 3535 m
2373 3535 n
877 2235 m
1072 2235 n
2177 935 m
2356 935 n
2177 3535 m
2373 3535 n
877 2235 m
1072 2235 n
2177 935 m
2356 935 n
2177 3535 m
2373 3535 n
877 2235 m
1072 2235 n
2177 935 m
2356 935 n
2177 3535 m
2373 3535 n
877 2235 m
1072 2235 n
2177 935 m
2356 935 n
2177 3535 m
2373 3535 n
877 2235 m
1072 2235 n
2177 935 m
2356 935 n
2177 3535 m
2373 3535 n
877 2235 m
1072 2235 n
2177 936 m
2356 936 n
2177 3536 m
2373 3536 n
877 2236 m
1072 2236 n
2177 936 m
2356 936 n
2177 3536 m
2373 3536 n
877 2236 m
1072 2236 n
2177 936 m
2356 936 n
2177 3536 m
2373 3536 n
877 2236 m
1072 2236 n
2177 936 m
2356 936 n
2177 3536 m
2373 3536 n
877 2236 m
1072 2236 n
2177 936 m
2356 936 n
2177 3536 m
2373 3536 n
877 2236 m
1072 2236 n
2177 936 m
2356 936 n
2177 3536 m
2373 3536 n
877 2236 m
1072 2236 n
2177 937 m
2356 937 n
2177 3537 m
2373 3537 n
877 2237 m
1072 2237 n
2177 937 m
2356 937 n
2177 3537 m
2373 3537 n
877 2237 m
1072 2237 n
2177 937 m
2356 937 n
2177 3537 m
2373 3537 n
877 2237 m
1072 2237 n
2177 937 m
2356 937 n
2177 3537 m
2373 3537 n
877 2237 m
1072 2237 n
2177 937 m
2356 937 n
2177 3537 m
2373 3537 n
877 2237 m
1072 2237 n
2177 937 m
2356 937 n
2177 3537 m
2373 3537 n
877 2237 m
1072 2237 n
2177 938 m
2356 938 n
2177 3538 m
2373 3538 n
877 2238 m
1072 2238 n
2177 938 m
2356 938 n
2177 3538 m
2373 3538 n
877 2238 m
1072 2238 n
2177 938 m
2356 938 n
2177 3538 m
2373 3538 n
877 2238 m
1072 2238 n
1.00 0.31 1.00 0 setcmykcolor
2216 925 m
2275 1013 n
2334 925 m
2275 1013 n
2275 1013 m
2275 1159 n
2275 1130 m
2216 1100 n
2275 1130 m
2334 1100 n
2275 1218 m
2284 1216 n
2284 1216 m
2292 1212 n
2292 1212 m
2299 1205 n
2299 1205 m
2303 1197 n
2303 1197 m
2304 1188 n
2304 1188 m
2303 1179 n
2303 1179 m
2299 1171 n
2299 1171 m
2292 1165 n
2292 1165 m
2284 1160 n
2284 1160 m
2275 1159 n
2275 1159 m
2266 1160 n
2266 1160 m
2258 1165 n
2258 1165 m
2251 1171 n
2251 1171 m
2247 1179 n
2247 1179 m
2246 1188 n
2246 1188 m
2247 1197 n
2247 1197 m
2251 1205 n
2251 1205 m
2258 1212 n
2258 1212 m
2266 1216 n
2266 1216 m
2275 1218 n
2216 3525 m
2275 3613 n
2334 3525 m
2275 3613 n
2275 3613 m
2275 3759 n
2275 3730 m
2216 3700 n
2275 3730 m
2334 3700 n
2275 3818 m
2284 3816 n
2284 3816 m
2292 3812 n
2292 3812 m
2299 3805 n
2299 3805 m
2303 3797 n
2303 3797 m
2304 3788 n
2304 3788 m
2303 3779 n
2303 3779 m
2299 3771 n
2299 3771 m
2292 3765 n
2292 3765 m
2284 3760 n
2284 3760 m
2275 3759 n
2275 3759 m
2266 3760 n
2266 3760 m
2258 3765 n
2258 3765 m
2251 3771 n
2251 3771 m
2247 3779 n
2247 3779 m
2246 3788 n
2246 3788 m
2247 3797 n
2247 3797 m
2251 3805 n
2251 3805 m
2258 3812 n
2258 3812 m
2266 3816 n
2266 3816 m
2275 3818 n
917 2225 m
975 2313 n
1034 2225 m
975 2313 n
975 2313 m
975 2459 n
975 2430 m
917 2401 n
975 2430 m
1034 2401 n
975 2517 m
984 2516 n
984 2516 m
992 2512 n
992 2512 m
999 2505 n
999 2505 m
1003 2497 n
1003 2497 m
1004 2488 n
1004 2488 m
1003 2479 n
1003 2479 m
999 2471 n
999 2471 m
992 2465 n
992 2465 m
984 2460 n
984 2460 m
975 2459 n
975 2459 m
966 2460 n
966 2460 m
958 2465 n
958 2465 m
951 2471 n
951 2471 m
947 2479 n
947 2479 m
946 2488 n
946 2488 m
947 2497 n
947 2497 m
951 2505 n
951 2505 m
958 2512 n
958 2512 m
966 2516 n
966 2516 m
975 2517 n
0.00 1.00 1.00 0 setcmykcolor
938 1453 m
950 1432 n
963 1412 n
976 1391 n
989 1371 n
1003 1351 n
1017 1331 n
1031 1311 n
1045 1292 n
1060 1272 n
1075 1253 n
1091 1235 n
1106 1216 n
1122 1198 n
1139 1180 n
1155 1162 n
1172 1145 n
1189 1128 n
1207 1111 n
1224 1094 n
1242 1078 n
1260 1062 n
1279 1046 n
1297 1030 n
1316 1015 n
1335 1000 n
1355 986 n
1374 971 n
1394 957 n
1414 944 n
1434 930 n
1455 917 n
1475 905 n
1496 892 n
1517 880 n
1538 868 n
1560 857 n
1581 846 n
1603 835 n
1625 825 n
1647 815 n
1669 805 n
1692 796 n
1714 787 n
1737 778 n
1760 770 n
1783 762 n
1806 754 n
1829 747 n
1852 740 n
1875 734 n
1899 728 n
1922 722 n
1946 717 n
1970 712 n
1994 707 n
2018 703 n
2041 699 n
2065 696 n
2090 692 n
2114 690 n
2138 687 n
2162 685 n
2186 684 n
2210 683 n
2235 682 n
2259 681 n
2275 681 m
2145 733 n
2275 681 m
2145 629 n
2210 681 m
2145 733 n
2210 681 m
2145 629 n
2438 681 m
2402 681 m
2411 690 n
2425 694 n
2420 699 n
2411 694 n
2402 681 n
2398 668 n
2398 654 n
2402 641 n
2407 636 n
2416 636 n
2425 641 n
2434 654 n
2438 668 n
2398 654 m
2402 645 n
2407 641 n
2416 641 n
2425 645 n
2434 654 n
2434 668 m
2434 654 n
2438 641 n
2442 636 n
2451 636 n
2460 641 n
2469 654 n
2474 668 n
2474 681 n
2469 694 n
2465 699 n
2460 694 n
2469 690 n
2474 681 n
2434 654 m
2438 645 n
2442 641 n
2451 641 n
2460 645 n
2469 654 n
2438 681 m
/solid f
1 1 m
e
%%Trailer
EndPSPlot
