%!
%%Creator: rincon:wfreeman(Walter,,,)
%%Title: Unix plot file
%%CreationDate: Mon Feb 16 23:03:20 2015
%%DocumentFonts: Courier
%%EndComments
%%BoundingBox: 0 0 4096 4096
% Start of psplot.pro -- prolog for plot(5) translator
% Copyright (c) 1984,1985,1987 Adobe Systems Incorporated. All Rights Reserved. 
%              RESTRICTED RIGHTS LEGEND
% Use, duplication or disclosure by the Government is subject to
% restrictions as set forth in subdivision (b)(3)(ii) of the Rights in
% Technical Data and Computer Software Clause at 252.227-7013.
% Name of Contractor: Adobe Systems Incorporated
% Address:  1870 Embarcadero Road
%	  Palo Alto, California  94303
% RCS: $Header: psplot.pro,v 2.2 87/11/17 16:41:06 byron Rel $
save 50 dict begin /psplot exch def
/StartPSPlot
   {newpath 0 0 moveto 8 setlinewidth 0 setgray 1 setlinecap
    /imtx matrix currentmatrix def /dmtx matrix defaultmatrix def
    /fnt /Courier findfont def /smtx matrix def fnt 8 scalefont setfont}def
/solid {{}0}def
/dotted	{[2 nail 3.5 nail ] 0}def
/longdashed {[10 nail] 0}def
/shortdashed {[6 nail] 0}def
/dotdashed {[2 nail 6 nail 10 nail 6 nail] 0}def
/disconnected {{}0}def
/min {2 copy lt{pop}{exch pop}ifelse}def
/max {2 copy lt{exch pop}{pop}ifelse}def
/len {dup mul exch dup mul add sqrt}def
/nail {0 imtx dtransform len 0 idtransform len}def

/m {newpath moveto}def
/n {lineto currentpoint stroke moveto}def
/p {newpath moveto gsave 1 setlinecap solid setdash
    dmtx setmatrix .4 nail setlinewidth
    .05 0 idtransform rlineto stroke grestore}def
/l {moveto lineto currentpoint stroke moveto}def
/t {smtx currentmatrix pop imtx setmatrix show smtx setmatrix}def
/a {gsave newpath /y2 exch def /x2 exch def 
    /y1 exch def /x1 exch def /yc exch def /xc exch def
    /r x1 xc sub dup mul y1 yc sub dup mul add sqrt
       x2 xc sub dup mul y2 yc sub dup mul add sqrt add 2 div def
    /ang1 y1 yc sub x1 xc sub atan def
    /ang2 y2 yc sub x2 xc sub atan def
    xc yc r ang1 ang2 arc stroke grestore}def
/c {gsave newpath 0 360 arc stroke grestore}def
/e {gsave showpage grestore newpath 0 0 moveto}def
/f {load exec setdash}def
/s {/ury exch def /urx exch def /lly exch def /llx exch def
    imtx setmatrix newpath clippath pathbbox newpath
    /dury exch def /durx exch def /dlly exch def /dllx exch def
    /md durx dllx sub dury dlly sub min def
    /Mu urx llx sub ury lly sub max def
    36 144 translate .8 .8 scale
    dllx dlly translate md Mu div dup scale llx neg lly neg translate}def
/EndPSPlot {clear psplot end restore}def
StartPSPlot
%%EndProlog
%%Page: 1 1
0 0 4096 4096 s
/solid f
2275 2225 m
3463 2874 n
2275 2225 m
1190 3035 n
1.00 0.31 1.00 0 setcmykcolor
3629 2225 m
3629 2252 m
3628 2279 n
3627 2306 m
3625 2333 n
3622 2360 m
3619 2387 n
3616 2414 m
3612 2441 n
3607 2467 m
3602 2494 n
3597 2521 m
3590 2547 n
3584 2573 m
3576 2599 n
3569 2625 m
3560 2651 n
3552 2677 m
3542 2702 n
3533 2727 m
3522 2752 n
3511 2777 m
3500 2802 n
3488 2826 m
3476 2850 n
3463 2874 m
3450 2898 n
3436 2921 m
3422 2944 n
3408 2967 m
3393 2990 n
3377 3012 m
3361 3034 n
3345 3055 m
3328 3076 n
3311 3097 m
3293 3118 n
3275 3138 m
3257 3158 n
3238 3177 m
3218 3196 n
3199 3215 m
3179 3233 n
3159 3251 m
3138 3269 n
3117 3286 m
3095 3302 n
3074 3319 m
3052 3334 n
3029 3350 m
3007 3364 n
2984 3379 m
2961 3393 n
2937 3406 m
2913 3419 n
2889 3432 m
2865 3444 n
2840 3455 m
2816 3467 n
2791 3477 m
2766 3487 n
2740 3497 m
2715 3506 n
2689 3514 m
2663 3522 n
2637 3530 m
2611 3537 n
2585 3543 m
2558 3549 n
2532 3555 m
2505 3559 n
2478 3564 m
2452 3568 n
2425 3571 m
2398 3574 n
2371 3576 m
2344 3577 n
2317 3579 m
2290 3579 n
2263 3579 m
2235 3579 n
2208 3578 m
2181 3576 n
2154 3574 m
2127 3571 n
2101 3568 m
2074 3564 n
2047 3560 m
2020 3555 n
1994 3550 m
1967 3544 n
1941 3537 m
1915 3530 n
1889 3523 m
1863 3515 n
1837 3506 m
1812 3497 n
1786 3488 m
1761 3478 n
1736 3467 m
1711 3456 n
1687 3445 m
1663 3433 n
1639 3420 m
1615 3407 n
1591 3394 m
1568 3380 n
1545 3366 m
1522 3351 n
1500 3336 m
1478 3320 n
1456 3304 m
1435 3287 n
1414 3270 m
1393 3253 n
1373 3235 m
1353 3217 n
1333 3198 m
1314 3179 n
1295 3159 m
1276 3140 n
1258 3120 m
1241 3099 n
1223 3078 m
1207 3057 n
1190 3035 m
1174 3014 n
1159 2991 m
1143 2969 n
1129 2946 m
1115 2923 n
1101 2900 m
1088 2876 n
1075 2852 m
1063 2828 n
1051 2804 m
1039 2779 n
1029 2754 m
1018 2729 n
1008 2704 m
999 2679 n
990 2653 m
982 2627 n
974 2601 m
967 2575 n
960 2549 m
954 2523 n
948 2496 m
943 2470 n
938 2443 m
934 2416 n
931 2389 m
928 2362 n
925 2335 m
923 2308 n
922 2281 m
921 2254 n
921 2227 m
921 2200 n
922 2173 m
923 2146 n
925 2119 m
927 2092 n
930 2065 m
934 2038 n
938 2011 m
942 1985 n
947 1958 m
953 1932 n
959 1905 m
966 1879 n
973 1853 m
981 1827 n
989 1801 m
998 1775 n
1007 1750 m
1017 1725 n
1027 1700 m
1038 1675 n
1049 1650 m
1061 1626 n
1073 1602 m
1086 1578 n
1099 1554 m
1112 1531 n
1127 1508 m
1141 1485 n
1156 1462 m
1172 1440 n
1188 1418 m
1204 1396 n
1221 1375 m
1238 1354 n
1256 1334 m
1274 1313 n
1292 1294 m
1311 1274 n
1330 1255 m
1350 1236 n
1370 1218 m
1390 1200 n
1411 1183 m
1432 1166 n
1453 1149 m
1475 1133 n
1497 1117 m
1519 1102 n
1542 1087 m
1564 1072 n
1588 1058 m
1611 1045 n
1635 1032 m
1659 1019 n
1683 1007 m
1708 995 n
1732 984 m
1757 974 n
1782 964 m
1808 954 n
1833 945 m
1859 936 n
1885 928 m
1911 921 n
1937 914 m
1963 907 n
1990 901 m
2016 896 n
2043 891 m
2069 887 n
2096 883 m
2123 879 n
2150 877 m
2177 874 n
2204 873 m
2231 872 n
2258 871 m
2285 871 n
2312 871 m
2339 872 n
2366 874 m
2393 876 n
2420 879 m
2447 882 n
2474 886 m
2501 890 n
2528 895 m
2554 900 n
2581 906 m
2607 912 n
2633 919 m
2659 926 n
2685 934 m
2711 943 n
2736 952 m
2762 961 n
2787 971 m
2812 982 n
2837 993 m
2861 1004 n
2885 1016 m
2909 1029 n
2933 1042 m
2957 1055 n
2980 1069 m
3003 1083 n
3026 1098 m
3048 1113 n
3070 1129 m
3092 1145 n
3113 1162 m
3134 1179 n
3155 1196 m
3176 1214 n
3196 1232 m
3215 1251 n
3235 1270 m
3254 1289 n
3272 1309 m
3290 1329 n
3308 1349 m
3325 1370 n
3342 1391 m
3359 1413 n
3375 1435 m
3390 1457 n
3405 1479 m
3420 1502 n
3434 1525 m
3448 1548 n
3461 1572 m
3474 1596 n
3486 1620 m
3498 1644 n
3510 1669 m
3521 1694 n
3531 1719 m
3541 1744 n
3550 1769 m
3559 1795 n
3567 1821 m
3575 1847 n
3583 1873 m
3589 1899 n
3596 1925 m
3601 1952 n
3607 1978 m
3611 2005 n
3615 2032 m
3619 2059 n
3622 2086 m
3624 2112 n
3626 2139 m
3628 2167 n
3629 2194 m
3629 2221 n
0 0 0 1 setcmykcolor
3463 2874 m
3429 2933 n
3393 2990 n
3353 3045 n
3311 3097 n
3266 3148 n
3218 3196 n
3169 3242 n
3117 3286 n
3063 3327 n
3007 3364 n
2949 3400 n
2889 3432 n
2828 3461 n
2766 3487 n
2702 3510 n
2637 3530 n
2572 3546 n
2505 3559 n
2438 3569 n
2371 3576 n
2303 3579 n
2235 3579 n
2168 3575 n
2101 3568 n
2034 3557 n
1967 3544 n
1902 3527 n
1837 3506 n
1774 3483 n
1711 3456 n
1651 3427 n
1591 3394 n
1534 3358 n
1478 3320 n
1424 3279 n
1373 3235 n
1323 3188 n
1276 3140 n
1232 3089 n
1190 3035 n
2749 2360 m
2722 2391 m
2731 2396 n
2745 2409 n
2745 2315 n
2740 2405 m
2740 2315 n
2722 2315 m
2762 2315 n
2839 2360 m
2911 2360 m
2879 2378 m
2879 2315 n
2884 2378 m
2884 2315 n
2884 2351 m
2888 2364 n
2897 2373 n
2906 2378 n
2920 2378 n
2924 2373 n
2924 2369 n
2920 2364 n
2915 2369 n
2920 2373 n
2866 2378 m
2884 2378 n
2866 2315 m
2897 2315 n
2987 2360 m
2956 2369 m
2956 2364 n
2951 2364 n
2951 2369 n
2956 2373 n
2965 2378 n
2983 2378 n
2992 2373 n
2996 2369 n
3001 2360 n
3001 2329 n
3005 2320 n
3010 2315 n
2996 2369 m
2996 2329 n
3001 2320 n
3010 2315 n
3014 2315 n
2996 2360 m
2992 2356 n
2965 2351 n
2951 2347 n
2947 2338 n
2947 2329 n
2951 2320 n
2965 2315 n
2978 2315 n
2987 2320 n
2996 2329 n
2965 2351 m
2956 2347 n
2951 2338 n
2951 2329 n
2956 2320 n
2965 2315 n
3077 2360 m
3091 2409 m
3091 2315 n
3095 2409 m
3095 2315 n
3091 2364 m
3082 2373 n
3073 2378 n
3064 2378 n
3050 2373 n
3041 2364 n
3037 2351 n
3037 2342 n
3041 2329 n
3050 2320 n
3064 2315 n
3073 2315 n
3082 2320 n
3091 2329 n
3064 2378 m
3055 2373 n
3046 2364 n
3041 2351 n
3041 2342 n
3046 2329 n
3055 2320 n
3064 2315 n
3077 2409 m
3095 2409 n
3091 2315 m
3109 2315 n
3172 2360 m
3140 2409 m
3136 2405 n
3140 2400 n
3145 2405 n
3140 2409 n
3140 2378 m
3140 2315 n
3145 2378 m
3145 2315 n
3127 2378 m
3145 2378 n
3127 2315 m
3158 2315 n
3221 2360 m
3190 2378 m
3190 2329 n
3194 2320 n
3208 2315 n
3217 2315 n
3230 2320 n
3239 2329 n
3194 2378 m
3194 2329 n
3199 2320 n
3208 2315 n
3239 2378 m
3239 2315 n
3244 2378 m
3244 2315 n
3176 2378 m
3194 2378 n
3226 2378 m
3244 2378 n
3239 2315 m
3257 2315 n
3320 2360 m
3325 2369 m
3329 2378 n
3329 2360 n
3325 2369 n
3320 2373 n
3311 2378 n
3293 2378 n
3284 2373 n
3280 2369 n
3280 2360 n
3284 2356 n
3293 2351 n
3316 2342 n
3325 2338 n
3329 2333 n
3280 2364 m
3284 2360 n
3293 2356 n
3316 2347 n
3325 2342 n
3329 2338 n
3329 2324 n
3325 2320 n
3316 2315 n
3298 2315 n
3289 2320 n
3284 2324 n
3280 2333 n
3280 2315 n
3284 2324 n
2749 2360 m
2004 3715 m
2000 3764 m
1986 3760 n
1977 3746 n
1973 3737 n
1968 3724 n
1964 3702 n
1964 3684 n
1968 3675 n
1977 3670 n
1986 3670 n
2000 3675 n
2008 3688 n
2013 3697 n
2017 3711 n
2022 3733 n
2022 3751 n
2017 3760 n
2008 3764 n
2000 3764 n
2000 3764 m
1991 3760 n
1982 3746 n
1977 3737 n
1973 3724 n
1968 3702 n
1968 3684 n
1973 3675 n
1977 3670 n
1986 3670 m
1995 3675 n
2004 3688 n
2008 3697 n
2013 3711 n
2017 3733 n
2017 3751 n
2013 3760 n
2008 3764 n
1973 3719 m
2013 3719 n
2089 3715 m
2161 3715 m
2130 3733 m
2130 3670 n
2134 3733 m
2134 3670 n
2134 3706 m
2139 3719 n
2148 3728 n
2157 3733 n
2170 3733 n
2175 3728 n
2175 3724 n
2170 3719 n
2166 3724 n
2170 3728 n
2116 3733 m
2134 3733 n
2116 3670 m
2148 3670 n
2238 3715 m
2206 3724 m
2206 3719 n
2202 3719 n
2202 3724 n
2206 3728 n
2215 3733 n
2233 3733 n
2242 3728 n
2247 3724 n
2251 3715 n
2251 3684 n
2256 3675 n
2260 3670 n
2247 3724 m
2247 3684 n
2251 3675 n
2260 3670 n
2265 3670 n
2247 3715 m
2242 3711 n
2215 3706 n
2202 3702 n
2197 3693 n
2197 3684 n
2202 3675 n
2215 3670 n
2229 3670 n
2238 3675 n
2247 3684 n
2215 3706 m
2206 3702 n
2202 3693 n
2202 3684 n
2206 3675 n
2215 3670 n
2328 3715 m
2341 3764 m
2341 3670 n
2346 3764 m
2346 3670 n
2341 3719 m
2332 3728 n
2323 3733 n
2314 3733 n
2301 3728 n
2292 3719 n
2287 3706 n
2287 3697 n
2292 3684 n
2301 3675 n
2314 3670 n
2323 3670 n
2332 3675 n
2341 3684 n
2314 3733 m
2305 3728 n
2296 3719 n
2292 3706 n
2292 3697 n
2296 3684 n
2305 3675 n
2314 3670 n
2328 3764 m
2346 3764 n
2341 3670 m
2359 3670 n
2422 3715 m
2391 3764 m
2386 3760 n
2391 3755 n
2395 3760 n
2391 3764 n
2391 3733 m
2391 3670 n
2395 3733 m
2395 3670 n
2377 3733 m
2395 3733 n
2377 3670 m
2409 3670 n
2472 3715 m
2440 3733 m
2440 3684 n
2445 3675 n
2458 3670 n
2467 3670 n
2481 3675 n
2490 3684 n
2445 3733 m
2445 3684 n
2449 3675 n
2458 3670 n
2490 3733 m
2490 3670 n
2494 3733 m
2494 3670 n
2427 3733 m
2445 3733 n
2476 3733 m
2494 3733 n
2490 3670 m
2508 3670 n
2571 3715 m
2575 3724 m
2580 3733 n
2580 3715 n
2575 3724 n
2571 3728 n
2562 3733 n
2544 3733 n
2535 3728 n
2530 3724 n
2530 3715 n
2535 3711 n
2544 3706 n
2566 3697 n
2575 3693 n
2580 3688 n
2530 3719 m
2535 3715 n
2544 3711 n
2566 3702 n
2575 3697 n
2580 3693 n
2580 3679 n
2575 3675 n
2566 3670 n
2548 3670 n
2539 3675 n
2535 3679 n
2530 3688 n
2530 3670 n
2535 3679 n
2647 3715 m
2611 3706 m
2665 3706 n
2665 3715 n
2661 3724 n
2656 3728 n
2647 3733 n
2634 3733 n
2620 3728 n
2611 3719 n
2607 3706 n
2607 3697 n
2611 3684 n
2620 3675 n
2634 3670 n
2643 3670 n
2656 3675 n
2665 3684 n
2661 3706 m
2661 3719 n
2656 3728 n
2634 3733 m
2625 3728 n
2616 3719 n
2611 3706 n
2611 3697 n
2616 3684 n
2625 3675 n
2634 3670 n
2733 3715 m
2737 3724 m
2742 3733 n
2742 3715 n
2737 3724 n
2733 3728 n
2724 3733 n
2706 3733 n
2697 3728 n
2692 3724 n
2692 3715 n
2697 3711 n
2706 3706 n
2728 3697 n
2737 3693 n
2742 3688 n
2692 3719 m
2697 3715 n
2706 3711 n
2728 3702 n
2737 3697 n
2742 3693 n
2742 3679 n
2737 3675 n
2728 3670 n
2710 3670 n
2701 3675 n
2697 3679 n
2692 3688 n
2692 3670 n
2697 3679 n
2004 3715 m
2140 2631 m
2137 2664 m
2128 2661 n
2122 2652 n
2119 2646 n
2116 2637 n
2113 2622 n
2113 2610 n
2116 2604 n
2122 2601 n
2128 2601 n
2137 2604 n
2143 2613 n
2146 2619 n
2149 2628 n
2152 2643 n
2152 2655 n
2149 2661 n
2143 2664 n
2137 2664 n
2137 2664 m
2131 2661 n
2125 2652 n
2122 2646 n
2119 2637 n
2116 2622 n
2116 2610 n
2119 2604 n
2122 2601 n
2128 2601 m
2134 2604 n
2140 2613 n
2143 2619 n
2146 2628 n
2149 2643 n
2149 2655 n
2146 2661 n
2143 2664 n
2119 2634 m
2146 2634 n
2197 2631 m
2245 2631 m
2224 2643 m
2224 2601 n
2227 2643 m
2227 2601 n
2227 2625 m
2230 2634 n
2236 2640 n
2242 2643 n
2251 2643 n
2254 2640 n
2254 2637 n
2251 2634 n
2248 2637 n
2251 2640 n
2215 2643 m
2227 2643 n
2215 2601 m
2236 2601 n
2296 2631 m
2275 2637 m
2275 2634 n
2272 2634 n
2272 2637 n
2275 2640 n
2281 2643 n
2293 2643 n
2299 2640 n
2302 2637 n
2305 2631 n
2305 2610 n
2308 2604 n
2311 2601 n
2302 2637 m
2302 2610 n
2305 2604 n
2311 2601 n
2314 2601 n
2302 2631 m
2299 2628 n
2281 2625 n
2272 2622 n
2269 2616 n
2269 2610 n
2272 2604 n
2281 2601 n
2290 2601 n
2296 2604 n
2302 2610 n
2281 2625 m
2275 2622 n
2272 2616 n
2272 2610 n
2275 2604 n
2281 2601 n
2356 2631 m
2365 2664 m
2365 2601 n
2368 2664 m
2368 2601 n
2365 2634 m
2359 2640 n
2353 2643 n
2347 2643 n
2338 2640 n
2332 2634 n
2329 2625 n
2329 2619 n
2332 2610 n
2338 2604 n
2347 2601 n
2353 2601 n
2359 2604 n
2365 2610 n
2347 2643 m
2341 2640 n
2335 2634 n
2332 2625 n
2332 2619 n
2335 2610 n
2341 2604 n
2347 2601 n
2356 2664 m
2368 2664 n
2365 2601 m
2377 2601 n
2419 2631 m
2398 2664 m
2395 2661 n
2398 2658 n
2401 2661 n
2398 2664 n
2398 2643 m
2398 2601 n
2401 2643 m
2401 2601 n
2389 2643 m
2401 2643 n
2389 2601 m
2410 2601 n
2452 2631 m
2431 2637 m
2431 2634 n
2428 2634 n
2428 2637 n
2431 2640 n
2437 2643 n
2449 2643 n
2455 2640 n
2458 2637 n
2461 2631 n
2461 2610 n
2464 2604 n
2467 2601 n
2458 2637 m
2458 2610 n
2461 2604 n
2467 2601 n
2470 2601 n
2458 2631 m
2455 2628 n
2437 2625 n
2428 2622 n
2425 2616 n
2425 2610 n
2428 2604 n
2437 2601 n
2446 2601 n
2452 2604 n
2458 2610 n
2437 2625 m
2431 2622 n
2428 2616 n
2428 2610 n
2431 2604 n
2437 2601 n
2512 2631 m
2491 2643 m
2491 2601 n
2494 2643 m
2494 2601 n
2494 2634 m
2500 2640 n
2509 2643 n
2515 2643 n
2524 2640 n
2527 2634 n
2527 2601 n
2515 2643 m
2521 2640 n
2524 2634 n
2524 2601 n
2482 2643 m
2494 2643 n
2482 2601 m
2503 2601 n
2515 2601 m
2536 2601 n
2578 2631 m
2581 2637 m
2584 2643 n
2584 2631 n
2581 2637 n
2578 2640 n
2572 2643 n
2560 2643 n
2554 2640 n
2551 2637 n
2551 2631 n
2554 2628 n
2560 2625 n
2575 2619 n
2581 2616 n
2584 2613 n
2551 2634 m
2554 2631 n
2560 2628 n
2575 2622 n
2581 2619 n
2584 2616 n
2584 2607 n
2581 2604 n
2575 2601 n
2563 2601 n
2557 2604 n
2554 2607 n
2551 2613 n
2551 2601 n
2554 2607 n
2140 2631 m
/solid f
1 1 m
e
%%Trailer
EndPSPlot
