\headcommand {\slideentry {0}{0}{1}{1/1}{}{0}}
\headcommand {\beamer@framepages {1}{1}}
\headcommand {\slideentry {0}{0}{2}{2/2}{}{0}}
\headcommand {\beamer@framepages {2}{2}}
\headcommand {\slideentry {0}{0}{3}{3/3}{}{0}}
\headcommand {\beamer@framepages {3}{3}}
\headcommand {\slideentry {0}{0}{4}{4/7}{}{0}}
\headcommand {\beamer@framepages {4}{7}}
\headcommand {\slideentry {0}{0}{5}{8/8}{}{0}}
\headcommand {\beamer@framepages {8}{8}}
\headcommand {\slideentry {0}{0}{6}{9/9}{}{0}}
\headcommand {\beamer@framepages {9}{9}}
\headcommand {\slideentry {0}{0}{7}{10/10}{}{0}}
\headcommand {\beamer@framepages {10}{10}}
\headcommand {\slideentry {0}{0}{8}{11/12}{}{0}}
\headcommand {\beamer@framepages {11}{12}}
\headcommand {\slideentry {0}{0}{9}{13/14}{}{0}}
\headcommand {\beamer@framepages {13}{14}}
\headcommand {\slideentry {0}{0}{10}{15/16}{}{0}}
\headcommand {\beamer@framepages {15}{16}}
\headcommand {\slideentry {0}{0}{11}{17/18}{}{0}}
\headcommand {\beamer@framepages {17}{18}}
\headcommand {\beamer@partpages {1}{18}}
\headcommand {\beamer@subsectionpages {1}{18}}
\headcommand {\beamer@sectionpages {1}{18}}
\headcommand {\beamer@documentpages {18}}
\headcommand {\gdef \inserttotalframenumber {11}}
