\headcommand {\slideentry {0}{0}{1}{1/1}{}{0}}
\headcommand {\beamer@framepages {1}{1}}
\headcommand {\slideentry {0}{0}{2}{2/2}{}{0}}
\headcommand {\beamer@framepages {2}{2}}
\headcommand {\slideentry {0}{0}{3}{3/6}{}{0}}
\headcommand {\beamer@framepages {3}{6}}
\headcommand {\slideentry {0}{0}{4}{7/8}{}{0}}
\headcommand {\beamer@framepages {7}{8}}
\headcommand {\slideentry {0}{0}{5}{9/9}{}{0}}
\headcommand {\beamer@framepages {9}{9}}
\headcommand {\slideentry {0}{0}{6}{10/10}{}{0}}
\headcommand {\beamer@framepages {10}{10}}
\headcommand {\slideentry {0}{0}{7}{11/12}{}{0}}
\headcommand {\beamer@framepages {11}{12}}
\headcommand {\slideentry {0}{0}{8}{13/13}{}{0}}
\headcommand {\beamer@framepages {13}{13}}
\headcommand {\slideentry {0}{0}{9}{14/16}{}{0}}
\headcommand {\beamer@framepages {14}{16}}
\headcommand {\slideentry {0}{0}{10}{17/17}{}{0}}
\headcommand {\beamer@framepages {17}{17}}
\headcommand {\slideentry {0}{0}{11}{18/18}{}{0}}
\headcommand {\beamer@framepages {18}{18}}
\headcommand {\slideentry {0}{0}{12}{19/20}{}{0}}
\headcommand {\beamer@framepages {19}{20}}
\headcommand {\slideentry {0}{0}{13}{21/25}{}{0}}
\headcommand {\beamer@framepages {21}{25}}
\headcommand {\slideentry {0}{0}{14}{26/26}{}{0}}
\headcommand {\beamer@framepages {26}{26}}
\headcommand {\slideentry {0}{0}{15}{27/27}{}{0}}
\headcommand {\beamer@framepages {27}{27}}
\headcommand {\slideentry {0}{0}{16}{28/29}{}{0}}
\headcommand {\beamer@framepages {28}{29}}
\headcommand {\slideentry {0}{0}{17}{30/30}{}{0}}
\headcommand {\beamer@framepages {30}{30}}
\headcommand {\slideentry {0}{0}{18}{31/31}{}{0}}
\headcommand {\beamer@framepages {31}{31}}
\headcommand {\slideentry {0}{0}{19}{32/32}{}{0}}
\headcommand {\beamer@framepages {32}{32}}
\headcommand {\slideentry {0}{0}{20}{33/33}{}{0}}
\headcommand {\beamer@framepages {33}{33}}
\headcommand {\slideentry {0}{0}{21}{34/34}{}{0}}
\headcommand {\beamer@framepages {34}{34}}
\headcommand {\beamer@partpages {1}{34}}
\headcommand {\beamer@subsectionpages {1}{34}}
\headcommand {\beamer@sectionpages {1}{34}}
\headcommand {\beamer@documentpages {34}}
\headcommand {\gdef \inserttotalframenumber {21}}
