\headcommand {\slideentry {0}{0}{1}{1/1}{}{0}}
\headcommand {\beamer@framepages {1}{1}}
\headcommand {\slideentry {0}{0}{2}{2/3}{}{0}}
\headcommand {\beamer@framepages {2}{3}}
\headcommand {\slideentry {0}{0}{3}{4/8}{}{0}}
\headcommand {\beamer@framepages {4}{8}}
\headcommand {\slideentry {0}{0}{4}{9/9}{}{0}}
\headcommand {\beamer@framepages {9}{9}}
\headcommand {\slideentry {0}{0}{5}{10/10}{}{0}}
\headcommand {\beamer@framepages {10}{10}}
\headcommand {\slideentry {0}{0}{6}{11/11}{}{0}}
\headcommand {\beamer@framepages {11}{11}}
\headcommand {\slideentry {0}{0}{7}{12/12}{}{0}}
\headcommand {\beamer@framepages {12}{12}}
\headcommand {\slideentry {0}{0}{8}{13/13}{}{0}}
\headcommand {\beamer@framepages {13}{13}}
\headcommand {\slideentry {0}{0}{9}{14/14}{}{0}}
\headcommand {\beamer@framepages {14}{14}}
\headcommand {\slideentry {0}{0}{10}{15/16}{}{0}}
\headcommand {\beamer@framepages {15}{16}}
\headcommand {\slideentry {0}{0}{11}{17/20}{}{0}}
\headcommand {\beamer@framepages {17}{20}}
\headcommand {\slideentry {0}{0}{12}{21/22}{}{0}}
\headcommand {\beamer@framepages {21}{22}}
\headcommand {\slideentry {0}{0}{13}{23/24}{}{0}}
\headcommand {\beamer@framepages {23}{24}}
\headcommand {\slideentry {0}{0}{14}{25/25}{}{0}}
\headcommand {\beamer@framepages {25}{25}}
\headcommand {\slideentry {0}{0}{15}{26/27}{}{0}}
\headcommand {\beamer@framepages {26}{27}}
\headcommand {\slideentry {0}{0}{16}{28/28}{}{0}}
\headcommand {\beamer@framepages {28}{28}}
\headcommand {\slideentry {0}{0}{17}{29/29}{}{0}}
\headcommand {\beamer@framepages {29}{29}}
\headcommand {\slideentry {0}{0}{18}{30/31}{}{0}}
\headcommand {\beamer@framepages {30}{31}}
\headcommand {\slideentry {0}{0}{19}{32/36}{}{0}}
\headcommand {\beamer@framepages {32}{36}}
\headcommand {\slideentry {0}{0}{20}{37/39}{}{0}}
\headcommand {\beamer@framepages {37}{39}}
\headcommand {\slideentry {0}{0}{21}{40/45}{}{0}}
\headcommand {\beamer@framepages {40}{45}}
\headcommand {\slideentry {0}{0}{22}{46/46}{}{0}}
\headcommand {\beamer@framepages {46}{46}}
\headcommand {\slideentry {0}{0}{23}{47/47}{}{0}}
\headcommand {\beamer@framepages {47}{47}}
\headcommand {\slideentry {0}{0}{24}{48/49}{}{0}}
\headcommand {\beamer@framepages {48}{49}}
\headcommand {\beamer@partpages {1}{49}}
\headcommand {\beamer@subsectionpages {1}{49}}
\headcommand {\beamer@sectionpages {1}{49}}
\headcommand {\beamer@documentpages {49}}
\headcommand {\gdef \inserttotalframenumber {24}}
