\relax 
\providecommand\hyper@newdestlabel[2]{}
\providecommand\HyperFirstAtBeginDocument{\AtBeginDocument}
\HyperFirstAtBeginDocument{\ifx\hyper@anchor\@undefined
\global\let\oldnewlabel\newlabel
\gdef\newlabel#1#2{\newlabelxx{#1}#2}
\gdef\newlabelxx#1#2#3#4#5#6{\oldnewlabel{#1}{{#2}{#3}}}
\AtEndDocument{\ifx\hyper@anchor\@undefined
\let\newlabel\oldnewlabel
\fi}
\fi}
\global\let\hyper@last\relax 
\gdef\HyperFirstAtBeginDocument#1{#1}
\providecommand\HyField@AuxAddToFields[1]{}
\providecommand\HyField@AuxAddToCoFields[2]{}
\@writefile{nav}{\headcommand {\slideentry {0}{0}{1}{1/1}{}{0}}}
\@writefile{nav}{\headcommand {\beamer@framepages {1}{1}}}
\@writefile{nav}{\headcommand {\slideentry {0}{0}{2}{2/3}{}{0}}}
\@writefile{nav}{\headcommand {\beamer@framepages {2}{3}}}
\@writefile{nav}{\headcommand {\slideentry {0}{0}{3}{4/5}{}{0}}}
\@writefile{nav}{\headcommand {\beamer@framepages {4}{5}}}
\@writefile{nav}{\headcommand {\slideentry {0}{0}{4}{6/7}{}{0}}}
\@writefile{nav}{\headcommand {\beamer@framepages {6}{7}}}
\@writefile{nav}{\headcommand {\slideentry {0}{0}{5}{8/8}{}{0}}}
\@writefile{nav}{\headcommand {\beamer@framepages {8}{8}}}
\@writefile{nav}{\headcommand {\slideentry {0}{0}{6}{9/10}{}{0}}}
\@writefile{nav}{\headcommand {\beamer@framepages {9}{10}}}
\@writefile{nav}{\headcommand {\slideentry {0}{0}{7}{11/13}{}{0}}}
\@writefile{nav}{\headcommand {\beamer@framepages {11}{13}}}
\@writefile{nav}{\headcommand {\slideentry {0}{0}{8}{14/15}{}{0}}}
\@writefile{nav}{\headcommand {\beamer@framepages {14}{15}}}
\@writefile{nav}{\headcommand {\slideentry {0}{0}{9}{16/17}{}{0}}}
\@writefile{nav}{\headcommand {\beamer@framepages {16}{17}}}
\@writefile{nav}{\headcommand {\slideentry {0}{0}{10}{18/18}{}{0}}}
\@writefile{nav}{\headcommand {\beamer@framepages {18}{18}}}
\@writefile{nav}{\headcommand {\slideentry {0}{0}{11}{19/19}{}{0}}}
\@writefile{nav}{\headcommand {\beamer@framepages {19}{19}}}
\@writefile{nav}{\headcommand {\slideentry {0}{0}{12}{20/21}{}{0}}}
\@writefile{nav}{\headcommand {\beamer@framepages {20}{21}}}
\@writefile{nav}{\headcommand {\slideentry {0}{0}{13}{22/23}{}{0}}}
\@writefile{nav}{\headcommand {\beamer@framepages {22}{23}}}
\@writefile{nav}{\headcommand {\slideentry {0}{0}{14}{24/24}{}{0}}}
\@writefile{nav}{\headcommand {\beamer@framepages {24}{24}}}
\@writefile{nav}{\headcommand {\slideentry {0}{0}{15}{25/25}{}{0}}}
\@writefile{nav}{\headcommand {\beamer@framepages {25}{25}}}
\@writefile{nav}{\headcommand {\slideentry {0}{0}{16}{26/26}{}{0}}}
\@writefile{nav}{\headcommand {\beamer@framepages {26}{26}}}
\@writefile{nav}{\headcommand {\slideentry {0}{0}{17}{27/27}{}{0}}}
\@writefile{nav}{\headcommand {\beamer@framepages {27}{27}}}
\@writefile{nav}{\headcommand {\beamer@partpages {1}{27}}}
\@writefile{nav}{\headcommand {\beamer@subsectionpages {1}{27}}}
\@writefile{nav}{\headcommand {\beamer@sectionpages {1}{27}}}
\@writefile{nav}{\headcommand {\beamer@documentpages {27}}}
\@writefile{nav}{\headcommand {\gdef \inserttotalframenumber {17}}}
\gdef \@abspage@last{27}
