%!
%%Creator: shemhazai:wfreeman(Walter,,,)
%%Title: Unix plot file
%%CreationDate: Wed Apr 19 16:44:44 2017
%%DocumentFonts: Courier
%%EndComments
%%BoundingBox: 0 0 4096 4096
% Start of psplot.pro -- prolog for plot(5) translator
% Copyright (c) 1984,1985,1987 Adobe Systems Incorporated. All Rights Reserved. 
%              RESTRICTED RIGHTS LEGEND
% Use, duplication or disclosure by the Government is subject to
% restrictions as set forth in subdivision (b)(3)(ii) of the Rights in
% Technical Data and Computer Software Clause at 252.227-7013.
% Name of Contractor: Adobe Systems Incorporated
% Address:  1870 Embarcadero Road
%	  Palo Alto, California  94303
% RCS: $Header: psplot.pro,v 2.2 87/11/17 16:41:06 byron Rel $
save 50 dict begin /psplot exch def
/StartPSPlot
   {newpath 0 0 moveto 8 setlinewidth 0 setgray 1 setlinecap
    /imtx matrix currentmatrix def /dmtx matrix defaultmatrix def
    /fnt /Courier findfont def /smtx matrix def fnt 8 scalefont setfont}def
/solid {{}0}def
/dotted	{[2 nail 3.5 nail ] 0}def
/longdashed {[10 nail] 0}def
/shortdashed {[6 nail] 0}def
/dotdashed {[2 nail 6 nail 10 nail 6 nail] 0}def
/disconnected {{}0}def
/min {2 copy lt{pop}{exch pop}ifelse}def
/max {2 copy lt{exch pop}{pop}ifelse}def
/len {dup mul exch dup mul add sqrt}def
/nail {0 imtx dtransform len 0 idtransform len}def

/m {newpath moveto}def
/n {lineto currentpoint stroke moveto}def
/p {newpath moveto gsave 1 setlinecap solid setdash
    dmtx setmatrix .4 nail setlinewidth
    .05 0 idtransform rlineto stroke grestore}def
/l {moveto lineto currentpoint stroke moveto}def
/t {smtx currentmatrix pop imtx setmatrix show smtx setmatrix}def
/a {gsave newpath /y2 exch def /x2 exch def 
    /y1 exch def /x1 exch def /yc exch def /xc exch def
    /r x1 xc sub dup mul y1 yc sub dup mul add sqrt
       x2 xc sub dup mul y2 yc sub dup mul add sqrt add 2 div def
    /ang1 y1 yc sub x1 xc sub atan def
    /ang2 y2 yc sub x2 xc sub atan def
    xc yc r ang1 ang2 arc stroke grestore}def
/c {gsave newpath 0 360 arc stroke grestore}def
/e {gsave showpage grestore newpath 0 0 moveto}def
/f {load exec setdash}def
/s {/ury exch def /urx exch def /lly exch def /llx exch def
    imtx setmatrix newpath clippath pathbbox newpath
    /dury exch def /durx exch def /dlly exch def /dllx exch def
    /md durx dllx sub dury dlly sub min def
    /Mu urx llx sub ury lly sub max def
    36 144 translate .8 .8 scale
    dllx dlly translate md Mu div dup scale llx neg lly neg translate}def
/EndPSPlot {clear psplot end restore}def
StartPSPlot
%%EndProlog
%%Page: 1 1
0 0 4096 4096 s
/solid f
1950 1413 m
2113 1413 n
2113 3038 n
1950 3038 n
1950 1413 n
2438 1413 m
2600 1413 n
2600 3038 n
2438 3038 n
2438 1413 n
2113 2063 m
2438 2063 n
2438 2388 n
2113 2388 n
2113 2063 n
2210 2063 m
2340 2063 n
2340 1575 n
2210 1575 n
2210 2063 n
2210 2063 m
2210 1575 n
2226 2063 m
2226 1575 n
2242 2063 m
2242 1575 n
2259 2063 m
2259 1575 n
2275 2063 m
2275 1575 n
2291 2063 m
2291 1575 n
2308 2063 m
2308 1575 n
2324 2063 m
2324 1575 n
1950 2225 m
2113 2225 n
2600 2225 m
2438 2225 n
1950 2123 m
2113 2123 n
2600 2123 m
2438 2123 n
1950 2023 m
2113 2023 n
2600 2023 m
2438 2023 n
1950 1926 m
2113 1926 n
2600 1926 m
2438 1926 n
1950 1834 m
2113 1834 n
2600 1834 m
2438 1834 n
1950 1747 m
2113 1747 n
2600 1747 m
2438 1747 n
1950 1669 m
2113 1669 n
2600 1669 m
2438 1669 n
1950 1599 m
2113 1599 n
2600 1599 m
2438 1599 n
1950 1539 m
2113 1539 n
2600 1539 m
2438 1539 n
1950 1490 m
2113 1490 n
2600 1490 m
2438 1490 n
1950 1452 m
2113 1452 n
2600 1452 m
2438 1452 n
1950 1427 m
2113 1427 n
2600 1427 m
2438 1427 n
1950 1414 m
2113 1414 n
2600 1414 m
2438 1414 n
1950 1414 m
2113 1414 n
2600 1414 m
2438 1414 n
1950 1427 m
2113 1427 n
2600 1427 m
2438 1427 n
1950 1452 m
2113 1452 n
2600 1452 m
2438 1452 n
1950 1490 m
2113 1490 n
2600 1490 m
2438 1490 n
1950 1539 m
2113 1539 n
2600 1539 m
2438 1539 n
1950 1599 m
2113 1599 n
2600 1599 m
2438 1599 n
1950 1669 m
2113 1669 n
2600 1669 m
2438 1669 n
1950 1747 m
2113 1747 n
2600 1747 m
2438 1747 n
1950 1834 m
2113 1834 n
2600 1834 m
2438 1834 n
1950 1926 m
2113 1926 n
2600 1926 m
2438 1926 n
1950 2023 m
2113 2023 n
2600 2023 m
2438 2023 n
1950 2123 m
2113 2123 n
2600 2123 m
2438 2123 n
1950 2225 m
2113 2225 n
2600 2225 m
2438 2225 n
1950 2327 m
2113 2327 n
2600 2327 m
2438 2327 n
1950 2427 m
2113 2427 n
2600 2427 m
2438 2427 n
1950 2524 m
2113 2524 n
2600 2524 m
2438 2524 n
1950 2616 m
2113 2616 n
2600 2616 m
2438 2616 n
1950 2703 m
2113 2703 n
2600 2703 m
2438 2703 n
1950 2781 m
2113 2781 n
2600 2781 m
2438 2781 n
1950 2851 m
2113 2851 n
2600 2851 m
2438 2851 n
1950 2911 m
2113 2911 n
2600 2911 m
2438 2911 n
1950 2960 m
2113 2960 n
2600 2960 m
2438 2960 n
1950 2998 m
2113 2998 n
2600 2998 m
2438 2998 n
1950 3023 m
2113 3023 n
2600 3023 m
2438 3023 n
1950 3036 m
2113 3036 n
2600 3036 m
2438 3036 n
1950 3036 m
2113 3036 n
2600 3036 m
2438 3036 n
1950 3023 m
2113 3023 n
2600 3023 m
2438 3023 n
1950 2998 m
2113 2998 n
2600 2998 m
2438 2998 n
1950 2960 m
2113 2960 n
2600 2960 m
2438 2960 n
1950 2911 m
2113 2911 n
2600 2911 m
2438 2911 n
1950 2851 m
2113 2851 n
2600 2851 m
2438 2851 n
1950 2781 m
2113 2781 n
2600 2781 m
2438 2781 n
1950 2703 m
2113 2703 n
2600 2703 m
2438 2703 n
1950 2616 m
2113 2616 n
2600 2616 m
2438 2616 n
1950 2524 m
2113 2524 n
2600 2524 m
2438 2524 n
1950 2427 m
2113 2427 n
2600 2427 m
2438 2427 n
1950 2327 m
2113 2327 n
2600 2327 m
2438 2327 n
/solid f
1 1 m
e
%%Trailer
EndPSPlot
