%!
%%Creator: shemhazai:wfreeman(Walter,,,)
%%Title: Unix plot file
%%CreationDate: Wed Apr 19 16:44:44 2017
%%DocumentFonts: Courier
%%EndComments
%%BoundingBox: 0 0 4096 4096
% Start of psplot.pro -- prolog for plot(5) translator
% Copyright (c) 1984,1985,1987 Adobe Systems Incorporated. All Rights Reserved. 
%              RESTRICTED RIGHTS LEGEND
% Use, duplication or disclosure by the Government is subject to
% restrictions as set forth in subdivision (b)(3)(ii) of the Rights in
% Technical Data and Computer Software Clause at 252.227-7013.
% Name of Contractor: Adobe Systems Incorporated
% Address:  1870 Embarcadero Road
%	  Palo Alto, California  94303
% RCS: $Header: psplot.pro,v 2.2 87/11/17 16:41:06 byron Rel $
save 50 dict begin /psplot exch def
/StartPSPlot
   {newpath 0 0 moveto 8 setlinewidth 0 setgray 1 setlinecap
    /imtx matrix currentmatrix def /dmtx matrix defaultmatrix def
    /fnt /Courier findfont def /smtx matrix def fnt 8 scalefont setfont}def
/solid {{}0}def
/dotted	{[2 nail 3.5 nail ] 0}def
/longdashed {[10 nail] 0}def
/shortdashed {[6 nail] 0}def
/dotdashed {[2 nail 6 nail 10 nail 6 nail] 0}def
/disconnected {{}0}def
/min {2 copy lt{pop}{exch pop}ifelse}def
/max {2 copy lt{exch pop}{pop}ifelse}def
/len {dup mul exch dup mul add sqrt}def
/nail {0 imtx dtransform len 0 idtransform len}def

/m {newpath moveto}def
/n {lineto currentpoint stroke moveto}def
/p {newpath moveto gsave 1 setlinecap solid setdash
    dmtx setmatrix .4 nail setlinewidth
    .05 0 idtransform rlineto stroke grestore}def
/l {moveto lineto currentpoint stroke moveto}def
/t {smtx currentmatrix pop imtx setmatrix show smtx setmatrix}def
/a {gsave newpath /y2 exch def /x2 exch def 
    /y1 exch def /x1 exch def /yc exch def /xc exch def
    /r x1 xc sub dup mul y1 yc sub dup mul add sqrt
       x2 xc sub dup mul y2 yc sub dup mul add sqrt add 2 div def
    /ang1 y1 yc sub x1 xc sub atan def
    /ang2 y2 yc sub x2 xc sub atan def
    xc yc r ang1 ang2 arc stroke grestore}def
/c {gsave newpath 0 360 arc stroke grestore}def
/e {gsave showpage grestore newpath 0 0 moveto}def
/f {load exec setdash}def
/s {/ury exch def /urx exch def /lly exch def /llx exch def
    imtx setmatrix newpath clippath pathbbox newpath
    /dury exch def /durx exch def /dlly exch def /dllx exch def
    /md durx dllx sub dury dlly sub min def
    /Mu urx llx sub ury lly sub max def
    36 144 translate .8 .8 scale
    dllx dlly translate md Mu div dup scale llx neg lly neg translate}def
/EndPSPlot {clear psplot end restore}def
StartPSPlot
%%EndProlog
%%Page: 1 1
0 0 4096 4096 s
/solid f
2275 2225 m
3682 1413 n
2275 2225 m
2242 2169 n
3650 1356 m
3682 1413 n
2267 2211 m
3674 1398 n
2259 2197 m
3666 1384 n
2251 2183 m
3658 1370 n
2242 2169 m
3650 1356 n
2438 2266 m
2437 2276 n
2436 2286 n
2435 2296 n
2432 2306 n
2430 2316 n
2426 2325 n
2422 2335 n
2417 2344 n
2412 2353 n
2406 2361 n
2400 2369 n
2393 2377 n
2386 2384 n
2379 2391 n
2371 2397 n
2362 2403 n
2353 2408 n
2344 2413 n
2335 2417 n
2325 2420 n
2315 2423 n
2305 2425 n
2295 2427 n
2285 2428 n
2275 2428 n
2265 2428 n
2255 2427 n
2245 2425 n
2235 2423 n
2225 2420 n
2215 2417 n
2206 2413 n
2197 2408 n
2188 2403 n
2179 2397 n
2171 2391 n
2164 2384 n
2157 2377 n
2150 2369 n
2144 2361 n
2138 2353 n
2133 2344 n
2128 2335 n
2124 2325 n
2120 2316 n
2118 2306 n
2115 2296 n
2114 2286 n
2113 2276 n
2113 2266 n
2113 2255 n
2114 2245 n
2115 2235 n
2118 2225 n
2120 2215 n
2124 2206 n
2128 2196 n
2133 2187 n
2138 2179 n
2144 2170 n
2150 2162 n
2157 2154 n
2164 2147 n
2171 2140 n
2179 2134 n
2188 2128 n
2197 2123 n
2206 2119 n
2215 2115 n
2225 2111 n
2235 2108 n
2245 2106 n
2255 2104 n
2265 2103 n
2275 2103 n
2285 2103 n
2295 2104 n
2305 2106 n
2315 2108 n
2325 2111 n
2335 2115 n
2344 2119 n
2353 2123 n
2362 2128 n
2371 2134 n
2379 2140 n
2386 2147 n
2393 2154 n
2400 2162 n
2406 2170 n
2412 2179 n
2417 2187 n
2422 2196 n
2426 2206 n
2430 2215 n
2432 2225 n
2435 2235 n
2436 2245 n
2437 2255 n
2438 2266 n
2316 2266 m
2316 2268 n
2315 2271 n
2315 2273 n
2314 2276 n
2314 2278 n
2313 2281 n
2312 2283 n
2311 2285 n
2309 2287 n
2308 2290 n
2306 2292 n
2305 2293 n
2303 2295 n
2301 2297 n
2299 2298 n
2297 2300 n
2295 2301 n
2292 2302 n
2290 2303 n
2288 2304 n
2285 2305 n
2283 2306 n
2280 2306 n
2278 2306 n
2275 2306 n
2272 2306 n
2270 2306 n
2267 2306 n
2265 2305 n
2262 2304 n
2260 2303 n
2258 2302 n
2255 2301 n
2253 2300 n
2251 2298 n
2249 2297 n
2247 2295 n
2245 2293 n
2244 2292 n
2242 2290 n
2241 2287 n
2239 2285 n
2238 2283 n
2237 2281 n
2236 2278 n
2236 2276 n
2235 2273 n
2235 2271 n
2234 2268 n
2234 2266 n
2234 2263 n
2235 2261 n
2235 2258 n
2236 2256 n
2236 2253 n
2237 2251 n
2238 2248 n
2239 2246 n
2241 2244 n
2242 2242 n
2244 2240 n
2245 2238 n
2247 2236 n
2249 2234 n
2251 2233 n
2253 2231 n
2255 2230 n
2258 2229 n
2260 2228 n
2262 2227 n
2265 2226 n
2267 2226 n
2270 2225 n
2272 2225 n
2275 2225 n
2278 2225 n
2280 2225 n
2283 2226 n
2285 2226 n
2288 2227 n
2290 2228 n
2292 2229 n
2295 2230 n
2297 2231 n
2299 2233 n
2301 2234 n
2303 2236 n
2305 2238 n
2306 2240 n
2308 2242 n
2309 2244 n
2311 2246 n
2312 2248 n
2313 2251 n
2314 2253 n
2314 2256 n
2315 2258 n
2315 2261 n
2316 2263 n
2316 2266 n
2316 2266 m
2438 2266 n
2312 2283 m
2421 2336 n
2300 2297 m
2376 2393 n
2284 2305 m
2311 2424 n
2266 2305 m
2239 2424 n
2250 2297 m
2174 2393 n
2238 2283 m
2129 2336 n
2234 2266 m
2113 2266 n
2238 2248 m
2129 2195 n
2250 2234 m
2174 2139 n
2266 2226 m
2239 2107 n
2284 2226 m
2311 2107 n
2300 2234 m
2376 2139 n
2312 2248 m
2421 2195 n
2316 2266 m
2438 2266 n
/solid f
1 1 m
e
%%Trailer
EndPSPlot
