%!
%%Creator: esperiel:wfreeman(Walter)
%%Title: Unix plot file
%%CreationDate: Mon Feb 10 22:33:08 2025
%%DocumentFonts: Courier
%%EndComments
%%BoundingBox: 0 0 4096 4096
% Start of psplot.pro -- prolog for plot(5) translator
% Copyright (c) 1984,1985,1987 Adobe Systems Incorporated. All Rights Reserved. 
%              RESTRICTED RIGHTS LEGEND
% Use, duplication or disclosure by the Government is subject to
% restrictions as set forth in subdivision (b)(3)(ii) of the Rights in
% Technical Data and Computer Software Clause at 252.227-7013.
% Name of Contractor: Adobe Systems Incorporated
% Address:  1870 Embarcadero Road
%	  Palo Alto, California  94303
% RCS: $Header: psplot.pro,v 2.2 87/11/17 16:41:06 byron Rel $
save 50 dict begin /psplot exch def
/StartPSPlot
   {newpath 0 0 moveto 8 setlinewidth 0 setgray 1 setlinecap
    /imtx matrix currentmatrix def /dmtx matrix defaultmatrix def
    /fnt /Courier findfont def /smtx matrix def fnt 8 scalefont setfont}def
/solid {{}0}def
/dotted	{[2 nail 3.5 nail ] 0}def
/longdashed {[10 nail] 0}def
/shortdashed {[6 nail] 0}def
/dotdashed {[2 nail 6 nail 10 nail 6 nail] 0}def
/disconnected {{}0}def
/min {2 copy lt{pop}{exch pop}ifelse}def
/max {2 copy lt{exch pop}{pop}ifelse}def
/len {dup mul exch dup mul add sqrt}def
/nail {0 imtx dtransform len 0 idtransform len}def

/m {newpath moveto}def
/n {lineto currentpoint stroke moveto}def
/p {newpath moveto gsave 1 setlinecap solid setdash
    dmtx setmatrix .4 nail setlinewidth
    .05 0 idtransform rlineto stroke grestore}def
/l {moveto lineto currentpoint stroke moveto}def
/t {smtx currentmatrix pop imtx setmatrix show smtx setmatrix}def
/a {gsave newpath /y2 exch def /x2 exch def 
    /y1 exch def /x1 exch def /yc exch def /xc exch def
    /r x1 xc sub dup mul y1 yc sub dup mul add sqrt
       x2 xc sub dup mul y2 yc sub dup mul add sqrt add 2 div def
    /ang1 y1 yc sub x1 xc sub atan def
    /ang2 y2 yc sub x2 xc sub atan def
    xc yc r ang1 ang2 arc stroke grestore}def
/c {gsave newpath 0 360 arc stroke grestore}def
/e {gsave showpage grestore newpath 0 0 moveto}def
/f {load exec setdash}def
/s {/ury exch def /urx exch def /lly exch def /llx exch def
    imtx setmatrix newpath clippath pathbbox newpath
    /dury exch def /durx exch def /dlly exch def /dllx exch def
    /md durx dllx sub dury dlly sub min def
    /Mu urx llx sub ury lly sub max def
    36 144 translate .8 .8 scale
    dllx dlly translate md Mu div dup scale llx neg lly neg translate}def
/EndPSPlot {clear psplot end restore}def
StartPSPlot
%%EndProlog
%%Page: 1 1
0 0 4096 4096 s
/solid f
0.00 1.00 1.00 0 setcmykcolor
921 600 m
921 600 n
1056 600 n
1056 600 n
1056 600 n
1056 691 n
1192 691 n
1192 600 n
1192 600 n
1192 600 n
1327 600 n
1327 600 n
1327 600 n
1327 691 n
1462 691 n
1462 600 n
1462 600 n
1462 737 n
1598 737 n
1598 600 n
1598 600 n
1598 964 n
1733 964 n
1733 600 n
1733 600 n
1733 1146 n
1869 1146 n
1869 600 n
1869 600 n
1869 1283 n
2004 1283 n
2004 600 n
2004 600 n
2004 1465 n
2140 1465 n
2140 600 n
2140 600 n
2140 1465 n
2275 1465 n
2275 600 n
2275 600 n
2275 1601 n
2410 1601 n
2410 600 n
2410 600 n
2410 2011 n
2546 2011 n
2546 600 n
2546 600 n
2546 1647 n
2681 1647 n
2681 600 n
2681 600 n
2681 1419 n
2817 1419 n
2817 600 n
2817 600 n
2817 1829 n
2952 1829 n
2952 600 n
2952 600 n
2952 1692 n
3088 1692 n
3088 600 n
3088 600 n
3088 1647 n
3223 1647 n
3223 600 n
3223 600 n
3223 2147 n
3358 2147 n
3358 600 n
3358 600 n
3358 2511 n
3494 2511 n
3494 600 n
3494 600 n
3494 2329 n
3629 2329 n
3629 600 n
/solid f
0 0 0 1 setcmykcolor
3900 600 650 600 l
3900 2875 n
650 2875 n
650 600 n
921 750 921 600 l
921 2875 921 2725 l
1192 650 1192 600 l
1192 2875 1192 2825 l
1462 650 1462 600 l
1462 2875 1462 2825 l
1733 650 1733 600 l
1733 2875 1733 2825 l
2004 650 2004 600 l
2004 2875 2004 2825 l
2275 750 2275 600 l
2275 2875 2275 2725 l
2546 650 2546 600 l
2546 2875 2546 2825 l
2817 650 2817 600 l
2817 2875 2817 2825 l
3088 650 3088 600 l
3088 2875 3088 2825 l
3358 650 3358 600 l
3358 2875 3358 2825 l
3629 750 3629 600 l
3629 2875 3629 2725 l
700 691 650 691 l
3900 691 3850 691 l
700 782 650 782 l
3900 782 3850 782 l
700 873 650 873 l
3900 873 3850 873 l
700 964 650 964 l
3900 964 3850 964 l
800 1055 650 1055 l
3900 1055 3750 1055 l
700 1146 650 1146 l
3900 1146 3850 1146 l
700 1237 650 1237 l
3900 1237 3850 1237 l
700 1328 650 1328 l
3900 1328 3850 1328 l
700 1419 650 1419 l
3900 1419 3850 1419 l
800 1510 650 1510 l
3900 1510 3750 1510 l
700 1601 650 1601 l
3900 1601 3850 1601 l
700 1692 650 1692 l
3900 1692 3850 1692 l
700 1783 650 1783 l
3900 1783 3850 1783 l
700 1874 650 1874 l
3900 1874 3850 1874 l
800 1965 650 1965 l
3900 1965 3750 1965 l
700 2056 650 2056 l
3900 2056 3850 2056 l
700 2147 650 2147 l
3900 2147 3850 2147 l
700 2238 650 2238 l
3900 2238 3850 2238 l
700 2329 650 2329 l
3900 2329 3850 2329 l
800 2420 650 2420 l
3900 2420 3750 2420 l
700 2511 650 2511 l
3900 2511 3850 2511 l
700 2602 650 2602 l
3900 2602 3850 2602 l
700 2693 650 2693 l
3900 2693 3850 2693 l
700 2784 650 2784 l
3900 2784 3850 2784 l
873 420 m
945 420 m
931 469 m
918 465 n
909 451 n
904 429 n
904 416 n
909 393 n
918 380 n
931 375 n
940 375 n
954 380 n
963 393 n
967 416 n
967 429 n
963 451 n
954 465 n
940 469 n
931 469 n
931 469 m
922 465 n
918 460 n
913 451 n
909 429 n
909 416 n
913 393 n
918 384 n
922 380 n
931 375 n
940 375 m
949 380 n
954 384 n
958 393 n
963 416 n
963 429 n
958 451 n
954 460 n
949 465 n
940 469 n
2239 420 m
2207 469 m
2198 424 n
2198 424 m
2207 433 n
2221 438 n
2234 438 n
2248 433 n
2257 424 n
2261 411 n
2261 402 n
2257 389 n
2248 380 n
2234 375 n
2221 375 n
2207 380 n
2203 384 n
2198 393 n
2198 398 n
2203 402 n
2207 398 n
2203 393 n
2234 438 m
2243 433 n
2252 424 n
2257 411 n
2257 402 n
2252 389 n
2243 380 n
2234 375 n
2207 469 m
2252 469 n
2207 465 m
2230 465 n
2252 469 n
2329 420 m
2315 469 m
2302 465 n
2293 451 n
2288 429 n
2288 416 n
2293 393 n
2302 380 n
2315 375 n
2324 375 n
2338 380 n
2347 393 n
2351 416 n
2351 429 n
2347 451 n
2338 465 n
2324 469 n
2315 469 n
2315 469 m
2306 465 n
2302 460 n
2297 451 n
2293 429 n
2293 416 n
2297 393 n
2302 384 n
2306 380 n
2315 375 n
2324 375 m
2333 380 n
2338 384 n
2342 393 n
2347 416 n
2347 429 n
2342 451 n
2338 460 n
2333 465 n
2324 469 n
3514 451 m
3523 456 n
3537 469 n
3537 375 n
3532 465 m
3532 375 n
3514 375 m
3554 375 n
3631 420 m
3617 469 m
3604 465 n
3595 451 n
3590 429 n
3590 416 n
3595 393 n
3604 380 n
3617 375 n
3626 375 n
3640 380 n
3649 393 n
3653 416 n
3653 429 n
3649 451 n
3640 465 n
3626 469 n
3617 469 n
3617 469 m
3608 465 n
3604 460 n
3599 451 n
3595 429 n
3595 416 n
3599 393 n
3604 384 n
3608 380 n
3617 375 n
3626 375 m
3635 380 n
3640 384 n
3644 393 n
3649 416 n
3649 429 n
3644 451 n
3640 460 n
3635 465 n
3626 469 n
3721 420 m
3707 469 m
3694 465 n
3685 451 n
3680 429 n
3680 416 n
3685 393 n
3694 380 n
3707 375 n
3716 375 n
3730 380 n
3739 393 n
3743 416 n
3743 429 n
3739 451 n
3730 465 n
3716 469 n
3707 469 n
3707 469 m
3698 465 n
3694 460 n
3689 451 n
3685 429 n
3685 416 n
3689 393 n
3694 384 n
3698 380 n
3707 375 n
3716 375 m
3725 380 n
3730 384 n
3734 393 n
3739 416 n
3739 429 n
3734 451 n
3730 460 n
3725 465 n
3716 469 n
552 600 m
538 649 m
525 645 n
516 631 n
511 609 n
511 596 n
516 573 n
525 560 n
538 555 n
547 555 n
561 560 n
570 573 n
574 596 n
574 609 n
570 631 n
561 645 n
547 649 n
538 649 n
538 649 m
529 645 n
525 640 n
520 631 n
516 609 n
516 596 n
520 573 n
525 564 n
529 560 n
538 555 n
547 555 m
556 560 n
561 564 n
565 573 n
570 596 n
570 609 n
565 631 n
561 640 n
556 645 n
547 649 n
435 1086 m
444 1091 n
458 1104 n
458 1010 n
453 1100 m
453 1010 n
435 1010 m
475 1010 n
552 1055 m
538 1104 m
525 1100 n
516 1086 n
511 1064 n
511 1051 n
516 1028 n
525 1015 n
538 1010 n
547 1010 n
561 1015 n
570 1028 n
574 1051 n
574 1064 n
570 1086 n
561 1100 n
547 1104 n
538 1104 n
538 1104 m
529 1100 n
525 1095 n
520 1086 n
516 1064 n
516 1051 n
520 1028 n
525 1019 n
529 1015 n
538 1010 n
547 1010 m
556 1015 n
561 1019 n
565 1028 n
570 1051 n
570 1064 n
565 1086 n
561 1095 n
556 1100 n
547 1104 n
426 1541 m
431 1537 n
426 1532 n
422 1537 n
422 1541 n
426 1550 n
431 1555 n
444 1559 n
462 1559 n
475 1555 n
480 1550 n
484 1541 n
484 1532 n
480 1523 n
466 1514 n
444 1506 n
435 1501 n
426 1492 n
422 1479 n
422 1465 n
462 1559 m
471 1555 n
475 1550 n
480 1541 n
480 1532 n
475 1523 n
462 1514 n
444 1506 n
422 1474 m
426 1479 n
435 1479 n
458 1470 n
471 1470 n
480 1474 n
484 1479 n
435 1479 m
458 1465 n
475 1465 n
480 1470 n
484 1479 n
484 1488 n
552 1510 m
538 1559 m
525 1555 n
516 1541 n
511 1519 n
511 1506 n
516 1483 n
525 1470 n
538 1465 n
547 1465 n
561 1470 n
570 1483 n
574 1506 n
574 1519 n
570 1541 n
561 1555 n
547 1559 n
538 1559 n
538 1559 m
529 1555 n
525 1550 n
520 1541 n
516 1519 n
516 1506 n
520 1483 n
525 1474 n
529 1470 n
538 1465 n
547 1465 m
556 1470 n
561 1474 n
565 1483 n
570 1506 n
570 1519 n
565 1541 n
561 1550 n
556 1555 n
547 1559 n
426 1996 m
431 1992 n
426 1987 n
422 1992 n
422 1996 n
426 2005 n
431 2010 n
444 2014 n
462 2014 n
475 2010 n
480 2001 n
480 1987 n
475 1978 n
462 1974 n
449 1974 n
462 2014 m
471 2010 n
475 2001 n
475 1987 n
471 1978 n
462 1974 n
462 1974 m
471 1969 n
480 1961 n
484 1952 n
484 1938 n
480 1929 n
475 1925 n
462 1920 n
444 1920 n
431 1925 n
426 1929 n
422 1938 n
422 1943 n
426 1947 n
431 1943 n
426 1938 n
475 1965 m
480 1952 n
480 1938 n
475 1929 n
471 1925 n
462 1920 n
552 1965 m
538 2014 m
525 2010 n
516 1996 n
511 1974 n
511 1961 n
516 1938 n
525 1925 n
538 1920 n
547 1920 n
561 1925 n
570 1938 n
574 1961 n
574 1974 n
570 1996 n
561 2010 n
547 2014 n
538 2014 n
538 2014 m
529 2010 n
525 2005 n
520 1996 n
516 1974 n
516 1961 n
520 1938 n
525 1929 n
529 1925 n
538 1920 n
547 1920 m
556 1925 n
561 1929 n
565 1938 n
570 1961 n
570 1974 n
565 1996 n
561 2005 n
556 2010 n
547 2014 n
462 2460 m
462 2375 n
466 2469 m
466 2375 n
466 2469 m
417 2402 n
489 2402 n
449 2375 m
480 2375 n
552 2420 m
538 2469 m
525 2465 n
516 2451 n
511 2429 n
511 2416 n
516 2393 n
525 2380 n
538 2375 n
547 2375 n
561 2380 n
570 2393 n
574 2416 n
574 2429 n
570 2451 n
561 2465 n
547 2469 n
538 2469 n
538 2469 m
529 2465 n
525 2460 n
520 2451 n
516 2429 n
516 2416 n
520 2393 n
525 2384 n
529 2380 n
538 2375 n
547 2375 m
556 2380 n
561 2384 n
565 2393 n
570 2416 n
570 2429 n
565 2451 n
561 2460 n
556 2465 n
547 2469 n
431 2924 m
422 2879 n
422 2879 m
431 2888 n
444 2893 n
458 2893 n
471 2888 n
480 2879 n
484 2866 n
484 2857 n
480 2844 n
471 2835 n
458 2830 n
444 2830 n
431 2835 n
426 2839 n
422 2848 n
422 2853 n
426 2857 n
431 2853 n
426 2848 n
458 2893 m
466 2888 n
475 2879 n
480 2866 n
480 2857 n
475 2844 n
466 2835 n
458 2830 n
431 2924 m
475 2924 n
431 2920 m
453 2920 n
475 2924 n
552 2875 m
538 2924 m
525 2920 n
516 2906 n
511 2884 n
511 2871 n
516 2848 n
525 2835 n
538 2830 n
547 2830 n
561 2835 n
570 2848 n
574 2871 n
574 2884 n
570 2906 n
561 2920 n
547 2924 n
538 2924 n
538 2924 m
529 2920 n
525 2915 n
520 2906 n
516 2884 n
516 2871 n
520 2848 n
525 2839 n
529 2835 n
538 2830 n
547 2830 m
556 2835 n
561 2839 n
565 2848 n
570 2871 n
570 2884 n
565 2906 n
561 2915 n
556 2920 n
547 2924 n
1 1 m
e
%%Trailer
EndPSPlot
