%!
%%Creator: shemhazai:wfreeman(Walter,,,)
%%Title: Unix plot file
%%CreationDate: Wed Mar 29 16:49:23 2017
%%DocumentFonts: Courier
%%EndComments
%%BoundingBox: 0 0 4096 4096
% Start of psplot.pro -- prolog for plot(5) translator
% Copyright (c) 1984,1985,1987 Adobe Systems Incorporated. All Rights Reserved. 
%              RESTRICTED RIGHTS LEGEND
% Use, duplication or disclosure by the Government is subject to
% restrictions as set forth in subdivision (b)(3)(ii) of the Rights in
% Technical Data and Computer Software Clause at 252.227-7013.
% Name of Contractor: Adobe Systems Incorporated
% Address:  1870 Embarcadero Road
%	  Palo Alto, California  94303
% RCS: $Header: psplot.pro,v 2.2 87/11/17 16:41:06 byron Rel $
save 50 dict begin /psplot exch def
/StartPSPlot
   {newpath 0 0 moveto 8 setlinewidth 0 setgray 1 setlinecap
    /imtx matrix currentmatrix def /dmtx matrix defaultmatrix def
    /fnt /Courier findfont def /smtx matrix def fnt 8 scalefont setfont}def
/solid {{}0}def
/dotted	{[2 nail 3.5 nail ] 0}def
/longdashed {[10 nail] 0}def
/shortdashed {[6 nail] 0}def
/dotdashed {[2 nail 6 nail 10 nail 6 nail] 0}def
/disconnected {{}0}def
/min {2 copy lt{pop}{exch pop}ifelse}def
/max {2 copy lt{exch pop}{pop}ifelse}def
/len {dup mul exch dup mul add sqrt}def
/nail {0 imtx dtransform len 0 idtransform len}def

/m {newpath moveto}def
/n {lineto currentpoint stroke moveto}def
/p {newpath moveto gsave 1 setlinecap solid setdash
    dmtx setmatrix .4 nail setlinewidth
    .05 0 idtransform rlineto stroke grestore}def
/l {moveto lineto currentpoint stroke moveto}def
/t {smtx currentmatrix pop imtx setmatrix show smtx setmatrix}def
/a {gsave newpath /y2 exch def /x2 exch def 
    /y1 exch def /x1 exch def /yc exch def /xc exch def
    /r x1 xc sub dup mul y1 yc sub dup mul add sqrt
       x2 xc sub dup mul y2 yc sub dup mul add sqrt add 2 div def
    /ang1 y1 yc sub x1 xc sub atan def
    /ang2 y2 yc sub x2 xc sub atan def
    xc yc r ang1 ang2 arc stroke grestore}def
/c {gsave newpath 0 360 arc stroke grestore}def
/e {gsave showpage grestore newpath 0 0 moveto}def
/f {load exec setdash}def
/s {/ury exch def /urx exch def /lly exch def /llx exch def
    imtx setmatrix newpath clippath pathbbox newpath
    /dury exch def /durx exch def /dlly exch def /dllx exch def
    /md durx dllx sub dury dlly sub min def
    /Mu urx llx sub ury lly sub max def
    36 144 translate .8 .8 scale
    dllx dlly translate md Mu div dup scale llx neg lly neg translate}def
/EndPSPlot {clear psplot end restore}def
StartPSPlot
%%EndProlog
%%Page: 1 1
0 0 4096 4096 s
/solid f
/dotted f
1.00 0.31 1.00 0 setcmykcolor
975 1575 m
3575 1575 n
/solid f
0 0 0 1 setcmykcolor
2356 2225 m
2356 2230 n
2356 2235 n
2355 2240 n
2354 2245 n
2352 2250 n
2351 2255 n
2349 2260 n
2346 2264 n
2344 2269 n
2341 2273 n
2338 2277 n
2334 2281 n
2331 2284 n
2327 2288 n
2323 2291 n
2319 2294 n
2314 2296 n
2310 2299 n
2305 2301 n
2300 2302 n
2295 2304 n
2290 2305 n
2285 2306 n
2280 2306 n
2275 2306 n
2270 2306 n
2265 2306 n
2260 2305 n
2255 2304 n
2250 2302 n
2245 2301 n
2240 2299 n
2236 2296 n
2231 2294 n
2227 2291 n
2223 2288 n
2219 2284 n
2216 2281 n
2212 2277 n
2209 2273 n
2206 2269 n
2204 2264 n
2201 2260 n
2199 2255 n
2198 2250 n
2196 2245 n
2195 2240 n
2194 2235 n
2194 2230 n
2194 2225 n
2194 2220 n
2194 2215 n
2195 2210 n
2196 2205 n
2198 2200 n
2199 2195 n
2201 2190 n
2204 2186 n
2206 2181 n
2209 2177 n
2212 2173 n
2216 2169 n
2219 2166 n
2223 2162 n
2227 2159 n
2231 2156 n
2236 2154 n
2240 2151 n
2245 2149 n
2250 2148 n
2255 2146 n
2260 2145 n
2265 2144 n
2270 2144 n
2275 2144 n
2280 2144 n
2285 2144 n
2290 2145 n
2295 2146 n
2300 2148 n
2305 2149 n
2310 2151 n
2314 2154 n
2319 2156 n
2323 2159 n
2327 2162 n
2331 2166 n
2334 2169 n
2338 2173 n
2341 2177 n
2344 2181 n
2346 2186 n
2349 2190 n
2351 2195 n
2352 2200 n
2354 2205 n
2355 2210 n
2356 2215 n
2356 2220 n
2356 2225 n
2925 2225 m
2924 2266 n
2920 2306 m
2913 2347 n
2905 2387 m
2893 2426 n
2879 2464 m
2863 2502 n
2845 2538 m
2824 2573 n
2801 2607 m
2776 2639 n
2749 2670 m
2720 2699 n
2689 2726 m
2657 2751 n
2623 2774 m
2588 2795 n
2552 2813 m
2514 2829 n
2476 2843 m
2437 2855 n
2397 2863 m
2356 2870 n
2316 2874 m
2275 2875 n
2234 2874 m
2194 2870 n
2153 2863 m
2113 2855 n
2074 2843 m
2036 2829 n
1998 2813 m
1962 2795 n
1927 2774 m
1893 2751 n
1861 2726 m
1830 2699 n
1801 2670 m
1774 2639 n
1749 2607 m
1726 2573 n
1705 2538 m
1687 2502 n
1671 2464 m
1657 2426 n
1645 2387 m
1637 2347 n
1630 2306 m
1626 2266 n
1625 2225 m
1626 2184 n
1630 2144 m
1637 2103 n
1645 2063 m
1657 2024 n
1671 1986 m
1687 1948 n
1705 1912 m
1726 1877 n
1749 1843 m
1774 1811 n
1801 1780 m
1830 1751 n
1861 1724 m
1893 1699 n
1927 1676 m
1962 1655 n
1998 1637 m
2036 1621 n
2074 1607 m
2113 1595 n
2153 1587 m
2194 1580 n
2234 1576 m
2275 1575 n
2316 1576 m
2356 1580 n
2397 1587 m
2437 1595 n
2476 1607 m
2514 1621 n
2552 1637 m
2588 1655 n
2623 1676 m
2657 1699 n
2689 1724 m
2720 1751 n
2749 1780 m
2776 1811 n
2801 1843 m
2824 1877 n
2845 1912 m
2863 1948 n
2879 1986 m
2893 2024 n
2905 2063 m
2913 2103 n
2920 2144 m
2924 2184 n
0.00 1.00 1.00 0 setcmykcolor
2275 2875 m
1788 2875 n
1788 2875 m
1885 2836 n
1788 2875 m
1885 2914 n
1836 2875 m
1885 2836 n
1836 2875 m
1885 2914 n
2275 2225 m
1788 2225 n
1788 2225 m
1885 2186 n
1788 2225 m
1885 2264 n
1836 2225 m
1885 2186 n
1836 2225 m
1885 2264 n
2275 1575 m
1788 1575 n
1788 1575 m
1885 1536 n
1788 1575 m
1885 1614 n
1836 1575 m
1885 1536 n
1836 1575 m
1885 1614 n
1.00 0.31 1.00 0 setcmykcolor
1544 1705 m
1508 1701 m
1589 1701 n
1661 1705 m
1620 1723 m
1647 1660 n
1625 1723 m
1647 1669 n
1674 1723 m
1647 1660 n
1611 1723 m
1638 1723 n
1656 1723 m
1683 1723 n
1742 1705 m
1709 1684 m
1709 1633 n
1712 1624 n
1718 1621 n
1724 1621 n
1730 1624 n
1733 1630 n
1712 1684 m
1712 1633 n
1715 1624 n
1718 1621 n
1700 1663 m
1724 1663 n
1775 1651 m
1754 1663 m
1754 1621 n
1757 1663 m
1757 1621 n
1757 1645 m
1760 1654 n
1766 1660 n
1772 1663 n
1781 1663 n
1784 1660 n
1784 1657 n
1781 1654 n
1778 1657 n
1781 1660 n
1745 1663 m
1757 1663 n
1745 1621 m
1766 1621 n
1826 1651 m
1805 1657 m
1805 1654 n
1802 1654 n
1802 1657 n
1805 1660 n
1811 1663 n
1823 1663 n
1829 1660 n
1832 1657 n
1835 1651 n
1835 1630 n
1838 1624 n
1841 1621 n
1832 1657 m
1832 1630 n
1835 1624 n
1841 1621 n
1844 1621 n
1832 1651 m
1829 1648 n
1811 1645 n
1802 1642 n
1799 1636 n
1799 1630 n
1802 1624 n
1811 1621 n
1820 1621 n
1826 1624 n
1832 1630 n
1811 1645 m
1805 1642 n
1802 1636 n
1802 1630 n
1805 1624 n
1811 1621 n
1886 1651 m
1865 1663 m
1865 1621 n
1868 1663 m
1868 1621 n
1868 1654 m
1874 1660 n
1883 1663 n
1889 1663 n
1898 1660 n
1901 1654 n
1901 1621 n
1889 1663 m
1895 1660 n
1898 1654 n
1898 1621 n
1856 1663 m
1868 1663 n
1856 1621 m
1877 1621 n
1889 1621 m
1910 1621 n
1952 1651 m
1955 1657 m
1958 1663 n
1958 1651 n
1955 1657 n
1952 1660 n
1946 1663 n
1934 1663 n
1928 1660 n
1925 1657 n
1925 1651 n
1928 1648 n
1934 1645 n
1949 1639 n
1955 1636 n
1958 1633 n
1925 1654 m
1928 1651 n
1934 1648 n
1949 1642 n
1955 1639 n
1958 1636 n
1958 1627 n
1955 1624 n
1949 1621 n
1937 1621 n
1931 1624 n
1928 1627 n
1925 1633 n
1925 1621 n
1928 1627 n
1544 1705 m
1544 2355 m
1508 2351 m
1589 2351 n
1661 2355 m
1620 2373 m
1647 2310 n
1625 2373 m
1647 2319 n
1674 2373 m
1647 2310 n
1611 2373 m
1638 2373 n
1656 2373 m
1683 2373 n
1742 2355 m
1709 2334 m
1709 2283 n
1712 2274 n
1718 2271 n
1724 2271 n
1730 2274 n
1733 2280 n
1712 2334 m
1712 2283 n
1715 2274 n
1718 2271 n
1700 2313 m
1724 2313 n
1775 2301 m
1754 2313 m
1754 2271 n
1757 2313 m
1757 2271 n
1757 2295 m
1760 2304 n
1766 2310 n
1772 2313 n
1781 2313 n
1784 2310 n
1784 2307 n
1781 2304 n
1778 2307 n
1781 2310 n
1745 2313 m
1757 2313 n
1745 2271 m
1766 2271 n
1826 2301 m
1805 2307 m
1805 2304 n
1802 2304 n
1802 2307 n
1805 2310 n
1811 2313 n
1823 2313 n
1829 2310 n
1832 2307 n
1835 2301 n
1835 2280 n
1838 2274 n
1841 2271 n
1832 2307 m
1832 2280 n
1835 2274 n
1841 2271 n
1844 2271 n
1832 2301 m
1829 2298 n
1811 2295 n
1802 2292 n
1799 2286 n
1799 2280 n
1802 2274 n
1811 2271 n
1820 2271 n
1826 2274 n
1832 2280 n
1811 2295 m
1805 2292 n
1802 2286 n
1802 2280 n
1805 2274 n
1811 2271 n
1886 2301 m
1865 2313 m
1865 2271 n
1868 2313 m
1868 2271 n
1868 2304 m
1874 2310 n
1883 2313 n
1889 2313 n
1898 2310 n
1901 2304 n
1901 2271 n
1889 2313 m
1895 2310 n
1898 2304 n
1898 2271 n
1856 2313 m
1868 2313 n
1856 2271 m
1877 2271 n
1889 2271 m
1910 2271 n
1952 2301 m
1955 2307 m
1958 2313 n
1958 2301 n
1955 2307 n
1952 2310 n
1946 2313 n
1934 2313 n
1928 2310 n
1925 2307 n
1925 2301 n
1928 2298 n
1934 2295 n
1949 2289 n
1955 2286 n
1958 2283 n
1925 2304 m
1928 2301 n
1934 2298 n
1949 2292 n
1955 2289 n
1958 2286 n
1958 2277 n
1955 2274 n
1949 2271 n
1937 2271 n
1931 2274 n
1928 2277 n
1925 2283 n
1925 2271 n
1928 2277 n
1544 2355 m
1544 3005 m
1508 3001 m
1589 3001 n
1661 3005 m
1620 3023 m
1647 2960 n
1625 3023 m
1647 2969 n
1674 3023 m
1647 2960 n
1611 3023 m
1638 3023 n
1656 3023 m
1683 3023 n
1742 3005 m
1709 2984 m
1709 2933 n
1712 2924 n
1718 2921 n
1724 2921 n
1730 2924 n
1733 2930 n
1712 2984 m
1712 2933 n
1715 2924 n
1718 2921 n
1700 2963 m
1724 2963 n
1775 2951 m
1754 2963 m
1754 2921 n
1757 2963 m
1757 2921 n
1757 2945 m
1760 2954 n
1766 2960 n
1772 2963 n
1781 2963 n
1784 2960 n
1784 2957 n
1781 2954 n
1778 2957 n
1781 2960 n
1745 2963 m
1757 2963 n
1745 2921 m
1766 2921 n
1826 2951 m
1805 2957 m
1805 2954 n
1802 2954 n
1802 2957 n
1805 2960 n
1811 2963 n
1823 2963 n
1829 2960 n
1832 2957 n
1835 2951 n
1835 2930 n
1838 2924 n
1841 2921 n
1832 2957 m
1832 2930 n
1835 2924 n
1841 2921 n
1844 2921 n
1832 2951 m
1829 2948 n
1811 2945 n
1802 2942 n
1799 2936 n
1799 2930 n
1802 2924 n
1811 2921 n
1820 2921 n
1826 2924 n
1832 2930 n
1811 2945 m
1805 2942 n
1802 2936 n
1802 2930 n
1805 2924 n
1811 2921 n
1886 2951 m
1865 2963 m
1865 2921 n
1868 2963 m
1868 2921 n
1868 2954 m
1874 2960 n
1883 2963 n
1889 2963 n
1898 2960 n
1901 2954 n
1901 2921 n
1889 2963 m
1895 2960 n
1898 2954 n
1898 2921 n
1856 2963 m
1868 2963 n
1856 2921 m
1877 2921 n
1889 2921 m
1910 2921 n
1952 2951 m
1955 2957 m
1958 2963 n
1958 2951 n
1955 2957 n
1952 2960 n
1946 2963 n
1934 2963 n
1928 2960 n
1925 2957 n
1925 2951 n
1928 2948 n
1934 2945 n
1949 2939 n
1955 2936 n
1958 2933 n
1925 2954 m
1928 2951 n
1934 2948 n
1949 2942 n
1955 2939 n
1958 2936 n
1958 2927 n
1955 2924 n
1949 2921 n
1937 2921 n
1931 2924 n
1928 2927 n
1925 2933 n
1925 2921 n
1928 2927 n
1544 3005 m
/solid f
1 1 m
e
%%Trailer
EndPSPlot
