\headcommand {\slideentry {0}{0}{1}{1/1}{}{0}}
\headcommand {\beamer@framepages {1}{1}}
\headcommand {\slideentry {0}{0}{2}{2/2}{}{0}}
\headcommand {\beamer@framepages {2}{2}}
\headcommand {\slideentry {0}{0}{3}{3/3}{}{0}}
\headcommand {\beamer@framepages {3}{3}}
\headcommand {\slideentry {0}{0}{4}{4/5}{}{0}}
\headcommand {\beamer@framepages {4}{5}}
\headcommand {\slideentry {0}{0}{5}{6/7}{}{0}}
\headcommand {\beamer@framepages {6}{7}}
\headcommand {\slideentry {0}{0}{6}{8/9}{}{0}}
\headcommand {\beamer@framepages {8}{9}}
\headcommand {\slideentry {0}{0}{7}{10/11}{}{0}}
\headcommand {\beamer@framepages {10}{11}}
\headcommand {\slideentry {0}{0}{8}{12/13}{}{0}}
\headcommand {\beamer@framepages {12}{13}}
\headcommand {\slideentry {0}{0}{9}{14/14}{}{0}}
\headcommand {\beamer@framepages {14}{14}}
\headcommand {\slideentry {0}{0}{10}{15/16}{}{0}}
\headcommand {\beamer@framepages {15}{16}}
\headcommand {\slideentry {0}{0}{11}{17/18}{}{0}}
\headcommand {\beamer@framepages {17}{18}}
\headcommand {\slideentry {0}{0}{12}{19/19}{}{0}}
\headcommand {\beamer@framepages {19}{19}}
\headcommand {\slideentry {0}{0}{13}{20/22}{}{0}}
\headcommand {\beamer@framepages {20}{22}}
\headcommand {\slideentry {0}{0}{14}{23/23}{}{0}}
\headcommand {\beamer@framepages {23}{23}}
\headcommand {\slideentry {0}{0}{15}{24/24}{}{0}}
\headcommand {\beamer@framepages {24}{24}}
\headcommand {\slideentry {0}{0}{16}{25/25}{}{0}}
\headcommand {\beamer@framepages {25}{25}}
\headcommand {\slideentry {0}{0}{17}{26/26}{}{0}}
\headcommand {\beamer@framepages {26}{26}}
\headcommand {\slideentry {0}{0}{18}{27/32}{}{0}}
\headcommand {\beamer@framepages {27}{32}}
\headcommand {\slideentry {0}{0}{19}{33/36}{}{0}}
\headcommand {\beamer@framepages {33}{36}}
\headcommand {\slideentry {0}{0}{20}{37/37}{}{0}}
\headcommand {\beamer@framepages {37}{37}}
\headcommand {\slideentry {0}{0}{21}{38/38}{}{0}}
\headcommand {\beamer@framepages {38}{38}}
\headcommand {\slideentry {0}{0}{22}{39/40}{}{0}}
\headcommand {\beamer@framepages {39}{40}}
\headcommand {\beamer@partpages {1}{40}}
\headcommand {\beamer@subsectionpages {1}{40}}
\headcommand {\beamer@sectionpages {1}{40}}
\headcommand {\beamer@documentpages {40}}
\headcommand {\gdef \inserttotalframenumber {22}}
