\headcommand {\slideentry {0}{0}{1}{1/1}{}{0}}
\headcommand {\beamer@framepages {1}{1}}
\headcommand {\slideentry {0}{0}{2}{2/3}{}{0}}
\headcommand {\beamer@framepages {2}{3}}
\headcommand {\slideentry {0}{0}{3}{4/5}{}{0}}
\headcommand {\beamer@framepages {4}{5}}
\headcommand {\slideentry {0}{0}{4}{6/6}{}{0}}
\headcommand {\beamer@framepages {6}{6}}
\headcommand {\slideentry {0}{0}{5}{7/7}{}{0}}
\headcommand {\beamer@framepages {7}{7}}
\headcommand {\slideentry {0}{0}{6}{8/8}{}{0}}
\headcommand {\beamer@framepages {8}{8}}
\headcommand {\slideentry {0}{0}{7}{9/9}{}{0}}
\headcommand {\beamer@framepages {9}{9}}
\headcommand {\slideentry {0}{0}{8}{10/10}{}{0}}
\headcommand {\beamer@framepages {10}{10}}
\headcommand {\slideentry {0}{0}{9}{11/12}{}{0}}
\headcommand {\beamer@framepages {11}{12}}
\headcommand {\slideentry {0}{0}{10}{13/14}{}{0}}
\headcommand {\beamer@framepages {13}{14}}
\headcommand {\slideentry {0}{0}{11}{15/16}{}{0}}
\headcommand {\beamer@framepages {15}{16}}
\headcommand {\slideentry {0}{0}{12}{17/18}{}{0}}
\headcommand {\beamer@framepages {17}{18}}
\headcommand {\slideentry {0}{0}{13}{19/20}{}{0}}
\headcommand {\beamer@framepages {19}{20}}
\headcommand {\slideentry {0}{0}{14}{21/26}{}{0}}
\headcommand {\beamer@framepages {21}{26}}
\headcommand {\slideentry {0}{0}{15}{27/27}{}{0}}
\headcommand {\beamer@framepages {27}{27}}
\headcommand {\slideentry {0}{0}{16}{28/28}{}{0}}
\headcommand {\beamer@framepages {28}{28}}
\headcommand {\slideentry {0}{0}{17}{29/29}{}{0}}
\headcommand {\beamer@framepages {29}{29}}
\headcommand {\slideentry {0}{0}{18}{30/31}{}{0}}
\headcommand {\beamer@framepages {30}{31}}
\headcommand {\slideentry {0}{0}{19}{32/33}{}{0}}
\headcommand {\beamer@framepages {32}{33}}
\headcommand {\slideentry {0}{0}{20}{34/34}{}{0}}
\headcommand {\beamer@framepages {34}{34}}
\headcommand {\slideentry {0}{0}{21}{35/35}{}{0}}
\headcommand {\beamer@framepages {35}{35}}
\headcommand {\slideentry {0}{0}{22}{36/36}{}{0}}
\headcommand {\beamer@framepages {36}{36}}
\headcommand {\slideentry {0}{0}{23}{37/38}{}{0}}
\headcommand {\beamer@framepages {37}{38}}
\headcommand {\slideentry {0}{0}{24}{39/39}{}{0}}
\headcommand {\beamer@framepages {39}{39}}
\headcommand {\slideentry {0}{0}{25}{40/40}{}{0}}
\headcommand {\beamer@framepages {40}{40}}
\headcommand {\slideentry {0}{0}{26}{41/44}{}{0}}
\headcommand {\beamer@framepages {41}{44}}
\headcommand {\slideentry {0}{0}{27}{45/45}{}{0}}
\headcommand {\beamer@framepages {45}{45}}
\headcommand {\slideentry {0}{0}{28}{46/48}{}{0}}
\headcommand {\beamer@framepages {46}{48}}
\headcommand {\slideentry {0}{0}{29}{49/49}{}{0}}
\headcommand {\beamer@framepages {49}{49}}
\headcommand {\slideentry {0}{0}{30}{50/51}{}{0}}
\headcommand {\beamer@framepages {50}{51}}
\headcommand {\slideentry {0}{0}{31}{52/52}{}{0}}
\headcommand {\beamer@framepages {52}{52}}
\headcommand {\slideentry {0}{0}{32}{53/53}{}{0}}
\headcommand {\beamer@framepages {53}{53}}
\headcommand {\slideentry {0}{0}{33}{54/55}{}{0}}
\headcommand {\beamer@framepages {54}{55}}
\headcommand {\slideentry {0}{0}{34}{56/57}{}{0}}
\headcommand {\beamer@framepages {56}{57}}
\headcommand {\slideentry {0}{0}{35}{58/59}{}{0}}
\headcommand {\beamer@framepages {58}{59}}
\headcommand {\slideentry {0}{0}{36}{60/60}{}{0}}
\headcommand {\beamer@framepages {60}{60}}
\headcommand {\beamer@partpages {1}{60}}
\headcommand {\beamer@subsectionpages {1}{60}}
\headcommand {\beamer@sectionpages {1}{60}}
\headcommand {\beamer@documentpages {60}}
\headcommand {\gdef \inserttotalframenumber {36}}
