%!
%%Creator: shemhazai:wfreeman(Walter,,,)
%%Title: Unix plot file
%%CreationDate: Wed Mar 29 16:49:22 2017
%%DocumentFonts: Courier
%%EndComments
%%BoundingBox: 0 0 4096 4096
% Start of psplot.pro -- prolog for plot(5) translator
% Copyright (c) 1984,1985,1987 Adobe Systems Incorporated. All Rights Reserved. 
%              RESTRICTED RIGHTS LEGEND
% Use, duplication or disclosure by the Government is subject to
% restrictions as set forth in subdivision (b)(3)(ii) of the Rights in
% Technical Data and Computer Software Clause at 252.227-7013.
% Name of Contractor: Adobe Systems Incorporated
% Address:  1870 Embarcadero Road
%	  Palo Alto, California  94303
% RCS: $Header: psplot.pro,v 2.2 87/11/17 16:41:06 byron Rel $
save 50 dict begin /psplot exch def
/StartPSPlot
   {newpath 0 0 moveto 8 setlinewidth 0 setgray 1 setlinecap
    /imtx matrix currentmatrix def /dmtx matrix defaultmatrix def
    /fnt /Courier findfont def /smtx matrix def fnt 8 scalefont setfont}def
/solid {{}0}def
/dotted	{[2 nail 3.5 nail ] 0}def
/longdashed {[10 nail] 0}def
/shortdashed {[6 nail] 0}def
/dotdashed {[2 nail 6 nail 10 nail 6 nail] 0}def
/disconnected {{}0}def
/min {2 copy lt{pop}{exch pop}ifelse}def
/max {2 copy lt{exch pop}{pop}ifelse}def
/len {dup mul exch dup mul add sqrt}def
/nail {0 imtx dtransform len 0 idtransform len}def

/m {newpath moveto}def
/n {lineto currentpoint stroke moveto}def
/p {newpath moveto gsave 1 setlinecap solid setdash
    dmtx setmatrix .4 nail setlinewidth
    .05 0 idtransform rlineto stroke grestore}def
/l {moveto lineto currentpoint stroke moveto}def
/t {smtx currentmatrix pop imtx setmatrix show smtx setmatrix}def
/a {gsave newpath /y2 exch def /x2 exch def 
    /y1 exch def /x1 exch def /yc exch def /xc exch def
    /r x1 xc sub dup mul y1 yc sub dup mul add sqrt
       x2 xc sub dup mul y2 yc sub dup mul add sqrt add 2 div def
    /ang1 y1 yc sub x1 xc sub atan def
    /ang2 y2 yc sub x2 xc sub atan def
    xc yc r ang1 ang2 arc stroke grestore}def
/c {gsave newpath 0 360 arc stroke grestore}def
/e {gsave showpage grestore newpath 0 0 moveto}def
/f {load exec setdash}def
/s {/ury exch def /urx exch def /lly exch def /llx exch def
    imtx setmatrix newpath clippath pathbbox newpath
    /dury exch def /durx exch def /dlly exch def /dllx exch def
    /md durx dllx sub dury dlly sub min def
    /Mu urx llx sub ury lly sub max def
    36 144 translate .8 .8 scale
    dllx dlly translate md Mu div dup scale llx neg lly neg translate}def
/EndPSPlot {clear psplot end restore}def
StartPSPlot
%%EndProlog
%%Page: 1 1
0 0 4096 4096 s
/solid f
/dotted f
1.00 0.31 1.00 0 setcmykcolor
975 1575 m
3575 1575 n
/solid f
0 0 0 1 setcmykcolor
2356 2225 m
2356 2230 n
2356 2235 n
2355 2240 n
2354 2245 n
2352 2250 n
2351 2255 n
2349 2260 n
2346 2264 n
2344 2269 n
2341 2273 n
2338 2277 n
2334 2281 n
2331 2284 n
2327 2288 n
2323 2291 n
2319 2294 n
2314 2296 n
2310 2299 n
2305 2301 n
2300 2302 n
2295 2304 n
2290 2305 n
2285 2306 n
2280 2306 n
2275 2306 n
2270 2306 n
2265 2306 n
2260 2305 n
2255 2304 n
2250 2302 n
2245 2301 n
2240 2299 n
2236 2296 n
2231 2294 n
2227 2291 n
2223 2288 n
2219 2284 n
2216 2281 n
2212 2277 n
2209 2273 n
2206 2269 n
2204 2264 n
2201 2260 n
2199 2255 n
2198 2250 n
2196 2245 n
2195 2240 n
2194 2235 n
2194 2230 n
2194 2225 n
2194 2220 n
2194 2215 n
2195 2210 n
2196 2205 n
2198 2200 n
2199 2195 n
2201 2190 n
2204 2186 n
2206 2181 n
2209 2177 n
2212 2173 n
2216 2169 n
2219 2166 n
2223 2162 n
2227 2159 n
2231 2156 n
2236 2154 n
2240 2151 n
2245 2149 n
2250 2148 n
2255 2146 n
2260 2145 n
2265 2144 n
2270 2144 n
2275 2144 n
2280 2144 n
2285 2144 n
2290 2145 n
2295 2146 n
2300 2148 n
2305 2149 n
2310 2151 n
2314 2154 n
2319 2156 n
2323 2159 n
2327 2162 n
2331 2166 n
2334 2169 n
2338 2173 n
2341 2177 n
2344 2181 n
2346 2186 n
2349 2190 n
2351 2195 n
2352 2200 n
2354 2205 n
2355 2210 n
2356 2215 n
2356 2220 n
2356 2225 n
2925 2225 m
2924 2266 n
2920 2306 m
2913 2347 n
2905 2387 m
2893 2426 n
2879 2464 m
2863 2502 n
2845 2538 m
2824 2573 n
2801 2607 m
2776 2639 n
2749 2670 m
2720 2699 n
2689 2726 m
2657 2751 n
2623 2774 m
2588 2795 n
2552 2813 m
2514 2829 n
2476 2843 m
2437 2855 n
2397 2863 m
2356 2870 n
2316 2874 m
2275 2875 n
2234 2874 m
2194 2870 n
2153 2863 m
2113 2855 n
2074 2843 m
2036 2829 n
1998 2813 m
1962 2795 n
1927 2774 m
1893 2751 n
1861 2726 m
1830 2699 n
1801 2670 m
1774 2639 n
1749 2607 m
1726 2573 n
1705 2538 m
1687 2502 n
1671 2464 m
1657 2426 n
1645 2387 m
1637 2347 n
1630 2306 m
1626 2266 n
1625 2225 m
1626 2184 n
1630 2144 m
1637 2103 n
1645 2063 m
1657 2024 n
1671 1986 m
1687 1948 n
1705 1912 m
1726 1877 n
1749 1843 m
1774 1811 n
1801 1780 m
1830 1751 n
1861 1724 m
1893 1699 n
1927 1676 m
1962 1655 n
1998 1637 m
2036 1621 n
2074 1607 m
2113 1595 n
2153 1587 m
2194 1580 n
2234 1576 m
2275 1575 n
2316 1576 m
2356 1580 n
2397 1587 m
2437 1595 n
2476 1607 m
2514 1621 n
2552 1637 m
2588 1655 n
2623 1676 m
2657 1699 n
2689 1724 m
2720 1751 n
2749 1780 m
2776 1811 n
2801 1843 m
2824 1877 n
2845 1912 m
2863 1948 n
2879 1986 m
2893 2024 n
2905 2063 m
2913 2103 n
2920 2144 m
2924 2184 n
0.00 1.00 1.00 0 setcmykcolor
2275 2875 m
1788 2875 n
1788 2875 m
1885 2836 n
1788 2875 m
1885 2914 n
1836 2875 m
1885 2836 n
1836 2875 m
1885 2914 n
2275 1575 m
2763 1575 n
2763 1575 m
2665 1614 n
2763 1575 m
2665 1536 n
2714 1575 m
2665 1614 n
2714 1575 m
2665 1536 n
1.00 0.31 1.00 0 setcmykcolor
2844 1705 m
2804 1723 m
2831 1660 n
2808 1723 m
2831 1669 n
2857 1723 m
2831 1660 n
2795 1723 m
2822 1723 n
2840 1723 m
2866 1723 n
2925 1705 m
2892 1684 m
2892 1621 n
2895 1684 m
2895 1621 n
2895 1654 m
2901 1660 n
2907 1663 n
2913 1663 n
2922 1660 n
2928 1654 n
2931 1645 n
2931 1639 n
2928 1630 n
2922 1624 n
2913 1621 n
2907 1621 n
2901 1624 n
2895 1630 n
2913 1663 m
2919 1660 n
2925 1654 n
2928 1645 n
2928 1639 n
2925 1630 n
2919 1624 n
2913 1621 n
2883 1684 m
2895 1684 n
2976 1651 m
2967 1663 m
2958 1660 n
2952 1654 n
2949 1645 n
2949 1639 n
2952 1630 n
2958 1624 n
2967 1621 n
2973 1621 n
2982 1624 n
2988 1630 n
2991 1639 n
2991 1645 n
2988 1654 n
2982 1660 n
2973 1663 n
2967 1663 n
2967 1663 m
2961 1660 n
2955 1654 n
2952 1645 n
2952 1639 n
2955 1630 n
2961 1624 n
2967 1621 n
2973 1621 m
2979 1624 n
2985 1630 n
2988 1639 n
2988 1645 n
2985 1654 n
2979 1660 n
2973 1663 n
3036 1651 m
3015 1684 m
3015 1633 n
3018 1624 n
3024 1621 n
3030 1621 n
3036 1624 n
3039 1630 n
3018 1684 m
3018 1633 n
3021 1624 n
3024 1621 n
3006 1663 m
3030 1663 n
3081 1651 m
3063 1714 m
3144 1714 n
3063 1687 m
3144 1687 n
3216 1705 m
3220 1741 m
3220 1660 n
3180 1701 m
3261 1701 n
3333 1705 m
3297 1705 m
3306 1714 n
3319 1718 n
3315 1723 n
3306 1718 n
3297 1705 n
3292 1692 n
3292 1678 n
3297 1665 n
3301 1660 n
3310 1660 n
3319 1665 n
3328 1678 n
3333 1692 n
3292 1678 m
3297 1669 n
3301 1665 n
3310 1665 n
3319 1669 n
3328 1678 n
3328 1692 m
3328 1678 n
3333 1665 n
3337 1660 n
3346 1660 n
3355 1665 n
3364 1678 n
3369 1692 n
3369 1705 n
3364 1718 n
3360 1723 n
3355 1718 n
3364 1714 n
3369 1705 n
3328 1678 m
3333 1669 n
3337 1665 n
3346 1665 n
3355 1669 n
3364 1678 n
3436 1705 m
3405 1723 m
3405 1660 n
3409 1723 m
3409 1660 n
3409 1696 m
3414 1709 n
3423 1718 n
3432 1723 n
3445 1723 n
3450 1718 n
3450 1714 n
3445 1709 n
3441 1714 n
3445 1718 n
3391 1723 m
3409 1723 n
3391 1660 m
3423 1660 n
2844 1705 m
1544 3005 m
1504 3023 m
1531 2960 n
1508 3023 m
1531 2969 n
1557 3023 m
1531 2960 n
1495 3023 m
1522 3023 n
1540 3023 m
1566 3023 n
1625 3005 m
1592 2984 m
1592 2933 n
1595 2924 n
1601 2921 n
1607 2921 n
1613 2924 n
1616 2930 n
1595 2984 m
1595 2933 n
1598 2924 n
1601 2921 n
1583 2963 m
1607 2963 n
1658 2951 m
1649 2963 m
1640 2960 n
1634 2954 n
1631 2945 n
1631 2939 n
1634 2930 n
1640 2924 n
1649 2921 n
1655 2921 n
1664 2924 n
1670 2930 n
1673 2939 n
1673 2945 n
1670 2954 n
1664 2960 n
1655 2963 n
1649 2963 n
1649 2963 m
1643 2960 n
1637 2954 n
1634 2945 n
1634 2939 n
1637 2930 n
1643 2924 n
1649 2921 n
1655 2921 m
1661 2924 n
1667 2930 n
1670 2939 n
1670 2945 n
1667 2954 n
1661 2960 n
1655 2963 n
1718 2951 m
1697 2963 m
1697 2900 n
1700 2963 m
1700 2900 n
1700 2954 m
1706 2960 n
1712 2963 n
1718 2963 n
1727 2960 n
1733 2954 n
1736 2945 n
1736 2939 n
1733 2930 n
1727 2924 n
1718 2921 n
1712 2921 n
1706 2924 n
1700 2930 n
1718 2963 m
1724 2960 n
1730 2954 n
1733 2945 n
1733 2939 n
1730 2930 n
1724 2924 n
1718 2921 n
1688 2963 m
1700 2963 n
1688 2900 m
1709 2900 n
1781 2951 m
1763 3014 m
1844 3014 n
1763 2987 m
1844 2987 n
1916 3005 m
1880 3001 m
1961 3001 n
2033 3005 m
1997 3005 m
2006 3014 n
2019 3018 n
2015 3023 n
2006 3018 n
1997 3005 n
1992 2992 n
1992 2978 n
1997 2965 n
2001 2960 n
2010 2960 n
2019 2965 n
2028 2978 n
2033 2992 n
1992 2978 m
1997 2969 n
2001 2965 n
2010 2965 n
2019 2969 n
2028 2978 n
2028 2992 m
2028 2978 n
2033 2965 n
2037 2960 n
2046 2960 n
2055 2965 n
2064 2978 n
2069 2992 n
2069 3005 n
2064 3018 n
2060 3023 n
2055 3018 n
2064 3014 n
2069 3005 n
2028 2978 m
2033 2969 n
2037 2965 n
2046 2965 n
2055 2969 n
2064 2978 n
2136 3005 m
2105 3023 m
2105 2960 n
2109 3023 m
2109 2960 n
2109 2996 m
2114 3009 n
2123 3018 n
2132 3023 n
2145 3023 n
2150 3018 n
2150 3014 n
2145 3009 n
2141 3014 n
2145 3018 n
2091 3023 m
2109 3023 n
2091 2960 m
2123 2960 n
1544 3005 m
/solid f
1 1 m
e
%%Trailer
EndPSPlot
