%!
%%Creator: fedora:wfreeman(Walter)
%%Title: Unix plot file
%%CreationDate: Mon Apr 15 16:27:52 2024
%%DocumentFonts: Courier
%%EndComments
%%BoundingBox: 0 0 4096 4096
% Start of psplot.pro -- prolog for plot(5) translator
% Copyright (c) 1984,1985,1987 Adobe Systems Incorporated. All Rights Reserved. 
%              RESTRICTED RIGHTS LEGEND
% Use, duplication or disclosure by the Government is subject to
% restrictions as set forth in subdivision (b)(3)(ii) of the Rights in
% Technical Data and Computer Software Clause at 252.227-7013.
% Name of Contractor: Adobe Systems Incorporated
% Address:  1870 Embarcadero Road
%	  Palo Alto, California  94303
% RCS: $Header: psplot.pro,v 2.2 87/11/17 16:41:06 byron Rel $
save 50 dict begin /psplot exch def
/StartPSPlot
   {newpath 0 0 moveto 8 setlinewidth 0 setgray 1 setlinecap
    /imtx matrix currentmatrix def /dmtx matrix defaultmatrix def
    /fnt /Courier findfont def /smtx matrix def fnt 8 scalefont setfont}def
/solid {{}0}def
/dotted	{[2 nail 3.5 nail ] 0}def
/longdashed {[10 nail] 0}def
/shortdashed {[6 nail] 0}def
/dotdashed {[2 nail 6 nail 10 nail 6 nail] 0}def
/disconnected {{}0}def
/min {2 copy lt{pop}{exch pop}ifelse}def
/max {2 copy lt{exch pop}{pop}ifelse}def
/len {dup mul exch dup mul add sqrt}def
/nail {0 imtx dtransform len 0 idtransform len}def

/m {newpath moveto}def
/n {lineto currentpoint stroke moveto}def
/p {newpath moveto gsave 1 setlinecap solid setdash
    dmtx setmatrix .4 nail setlinewidth
    .05 0 idtransform rlineto stroke grestore}def
/l {moveto lineto currentpoint stroke moveto}def
/t {smtx currentmatrix pop imtx setmatrix show smtx setmatrix}def
/a {gsave newpath /y2 exch def /x2 exch def 
    /y1 exch def /x1 exch def /yc exch def /xc exch def
    /r x1 xc sub dup mul y1 yc sub dup mul add sqrt
       x2 xc sub dup mul y2 yc sub dup mul add sqrt add 2 div def
    /ang1 y1 yc sub x1 xc sub atan def
    /ang2 y2 yc sub x2 xc sub atan def
    xc yc r ang1 ang2 arc stroke grestore}def
/c {gsave newpath 0 360 arc stroke grestore}def
/e {gsave showpage grestore newpath 0 0 moveto}def
/f {load exec setdash}def
/s {/ury exch def /urx exch def /lly exch def /llx exch def
    imtx setmatrix newpath clippath pathbbox newpath
    /dury exch def /durx exch def /dlly exch def /dllx exch def
    /md durx dllx sub dury dlly sub min def
    /Mu urx llx sub ury lly sub max def
    36 144 translate .8 .8 scale
    dllx dlly translate md Mu div dup scale llx neg lly neg translate}def
/EndPSPlot {clear psplot end restore}def
StartPSPlot
%%EndProlog
%%Page: 1 1
0 0 4096 4096 s
/solid f
/dotted f
1.00 0.31 1.00 0 setcmykcolor
975 1575 m
3575 1575 n
/solid f
0 0 0 1 setcmykcolor
2356 2225 m
2356 2226 n
2356 2228 n
2356 2229 n
2356 2230 n
2356 2231 n
2356 2233 n
2356 2234 n
2356 2235 n
2355 2236 n
2355 2238 n
2355 2239 n
2355 2240 n
2355 2241 n
2354 2243 n
2354 2244 n
2354 2245 n
2353 2246 n
2353 2248 n
2353 2249 n
2352 2250 n
2352 2251 n
2351 2253 n
2351 2254 n
2351 2255 n
2350 2256 n
2350 2257 n
2349 2258 n
2349 2260 n
2348 2261 n
2347 2262 n
2347 2263 n
2346 2264 n
2346 2265 n
2345 2266 n
2344 2267 n
2344 2269 n
2343 2270 n
2342 2271 n
2341 2272 n
2341 2273 n
2340 2274 n
2339 2275 n
2338 2276 n
2338 2277 n
2337 2278 n
2336 2279 n
2335 2280 n
2334 2281 n
2333 2282 n
2332 2282 n
2332 2283 n
2331 2284 n
2330 2285 n
2329 2286 n
2328 2287 n
2327 2288 n
2326 2288 n
2325 2289 n
2324 2290 n
2323 2291 n
2322 2291 n
2321 2292 n
2320 2293 n
2319 2294 n
2317 2294 n
2316 2295 n
2315 2296 n
2314 2296 n
2313 2297 n
2312 2297 n
2311 2298 n
2310 2299 n
2308 2299 n
2307 2300 n
2306 2300 n
2305 2301 n
2304 2301 n
2303 2301 n
2301 2302 n
2300 2302 n
2299 2303 n
2298 2303 n
2296 2303 n
2295 2304 n
2294 2304 n
2293 2304 n
2291 2305 n
2290 2305 n
2289 2305 n
2288 2305 n
2286 2305 n
2285 2306 n
2284 2306 n
2283 2306 n
2281 2306 n
2280 2306 n
2279 2306 n
2278 2306 n
2276 2306 n
2275 2306 n
2274 2306 n
2272 2306 n
2271 2306 n
2270 2306 n
2269 2306 n
2267 2306 n
2266 2306 n
2265 2306 n
2264 2305 n
2262 2305 n
2261 2305 n
2260 2305 n
2259 2305 n
2257 2304 n
2256 2304 n
2255 2304 n
2254 2303 n
2252 2303 n
2251 2303 n
2250 2302 n
2249 2302 n
2247 2301 n
2246 2301 n
2245 2301 n
2244 2300 n
2243 2300 n
2242 2299 n
2240 2299 n
2239 2298 n
2238 2297 n
2237 2297 n
2236 2296 n
2235 2296 n
2234 2295 n
2233 2294 n
2231 2294 n
2230 2293 n
2229 2292 n
2228 2291 n
2227 2291 n
2226 2290 n
2225 2289 n
2224 2288 n
2223 2288 n
2222 2287 n
2221 2286 n
2220 2285 n
2219 2284 n
2218 2283 n
2218 2282 n
2217 2282 n
2216 2281 n
2215 2280 n
2214 2279 n
2213 2278 n
2212 2277 n
2212 2276 n
2211 2275 n
2210 2274 n
2209 2273 n
2209 2272 n
2208 2271 n
2207 2270 n
2206 2269 n
2206 2267 n
2205 2266 n
2204 2265 n
2204 2264 n
2203 2263 n
2203 2262 n
2202 2261 n
2201 2260 n
2201 2258 n
2200 2257 n
2200 2256 n
2199 2255 n
2199 2254 n
2199 2253 n
2198 2251 n
2198 2250 n
2197 2249 n
2197 2248 n
2197 2246 n
2196 2245 n
2196 2244 n
2196 2243 n
2195 2241 n
2195 2240 n
2195 2239 n
2195 2238 n
2195 2236 n
2194 2235 n
2194 2234 n
2194 2233 n
2194 2231 n
2194 2230 n
2194 2229 n
2194 2228 n
2194 2226 n
2194 2225 n
2194 2224 n
2194 2222 n
2194 2221 n
2194 2220 n
2194 2219 n
2194 2217 n
2194 2216 n
2194 2215 n
2195 2214 n
2195 2212 n
2195 2211 n
2195 2210 n
2195 2209 n
2196 2207 n
2196 2206 n
2196 2205 n
2197 2204 n
2197 2202 n
2197 2201 n
2198 2200 n
2198 2199 n
2199 2197 n
2199 2196 n
2199 2195 n
2200 2194 n
2200 2193 n
2201 2192 n
2201 2190 n
2202 2189 n
2203 2188 n
2203 2187 n
2204 2186 n
2204 2185 n
2205 2184 n
2206 2183 n
2206 2181 n
2207 2180 n
2208 2179 n
2209 2178 n
2209 2177 n
2210 2176 n
2211 2175 n
2212 2174 n
2212 2173 n
2213 2172 n
2214 2171 n
2215 2170 n
2216 2169 n
2217 2168 n
2218 2168 n
2218 2167 n
2219 2166 n
2220 2165 n
2221 2164 n
2222 2163 n
2223 2162 n
2224 2162 n
2225 2161 n
2226 2160 n
2227 2159 n
2228 2159 n
2229 2158 n
2230 2157 n
2231 2156 n
2233 2156 n
2234 2155 n
2235 2154 n
2236 2154 n
2237 2153 n
2238 2153 n
2239 2152 n
2240 2151 n
2242 2151 n
2243 2150 n
2244 2150 n
2245 2149 n
2246 2149 n
2247 2149 n
2249 2148 n
2250 2148 n
2251 2147 n
2252 2147 n
2254 2147 n
2255 2146 n
2256 2146 n
2257 2146 n
2259 2145 n
2260 2145 n
2261 2145 n
2262 2145 n
2264 2145 n
2265 2144 n
2266 2144 n
2267 2144 n
2269 2144 n
2270 2144 n
2271 2144 n
2272 2144 n
2274 2144 n
2275 2144 n
2276 2144 n
2278 2144 n
2279 2144 n
2280 2144 n
2281 2144 n
2283 2144 n
2284 2144 n
2285 2144 n
2286 2145 n
2288 2145 n
2289 2145 n
2290 2145 n
2291 2145 n
2293 2146 n
2294 2146 n
2295 2146 n
2296 2147 n
2298 2147 n
2299 2147 n
2300 2148 n
2301 2148 n
2303 2149 n
2304 2149 n
2305 2149 n
2306 2150 n
2307 2150 n
2308 2151 n
2310 2151 n
2311 2152 n
2312 2153 n
2313 2153 n
2314 2154 n
2315 2154 n
2316 2155 n
2317 2156 n
2319 2156 n
2320 2157 n
2321 2158 n
2322 2159 n
2323 2159 n
2324 2160 n
2325 2161 n
2326 2162 n
2327 2162 n
2328 2163 n
2329 2164 n
2330 2165 n
2331 2166 n
2332 2167 n
2332 2168 n
2333 2168 n
2334 2169 n
2335 2170 n
2336 2171 n
2337 2172 n
2338 2173 n
2338 2174 n
2339 2175 n
2340 2176 n
2341 2177 n
2341 2178 n
2342 2179 n
2343 2180 n
2344 2181 n
2344 2183 n
2345 2184 n
2346 2185 n
2346 2186 n
2347 2187 n
2347 2188 n
2348 2189 n
2349 2190 n
2349 2192 n
2350 2193 n
2350 2194 n
2351 2195 n
2351 2196 n
2351 2197 n
2352 2199 n
2352 2200 n
2353 2201 n
2353 2202 n
2353 2204 n
2354 2205 n
2354 2206 n
2354 2207 n
2355 2209 n
2355 2210 n
2355 2211 n
2355 2212 n
2355 2214 n
2356 2215 n
2356 2216 n
2356 2217 n
2356 2219 n
2356 2220 n
2356 2221 n
2356 2222 n
2356 2224 n
2925 2225 m
2925 2235 n
2925 2245 m
2924 2256 n
2924 2266 m
2923 2276 n
2922 2286 m
2921 2296 n
2920 2306 m
2919 2317 n
2917 2327 m
2915 2337 n
2913 2347 m
2911 2357 n
2909 2367 m
2907 2377 n
2905 2387 m
2902 2397 n
2899 2406 m
2896 2416 n
2893 2426 m
2890 2436 n
2887 2445 m
2883 2455 n
2879 2464 m
2876 2474 n
2872 2483 m
2867 2492 n
2863 2502 m
2859 2511 n
2854 2520 m
2849 2529 n
2845 2538 m
2840 2547 n
2834 2556 m
2829 2565 n
2824 2573 m
2818 2582 n
2813 2590 m
2807 2599 n
2801 2607 m
2795 2615 n
2789 2623 m
2782 2631 n
2776 2639 m
2769 2647 n
2763 2655 m
2756 2662 n
2749 2670 m
2742 2677 n
2735 2685 m
2727 2692 n
2720 2699 m
2712 2706 n
2705 2713 m
2697 2719 n
2689 2726 m
2681 2732 n
2673 2739 m
2665 2745 n
2657 2751 m
2649 2757 n
2640 2763 m
2632 2768 n
2623 2774 m
2615 2779 n
2606 2784 m
2597 2790 n
2588 2795 m
2579 2799 n
2570 2804 m
2561 2809 n
2552 2813 m
2542 2817 n
2533 2822 m
2524 2826 n
2514 2829 m
2505 2833 n
2495 2837 m
2486 2840 n
2476 2843 m
2466 2846 n
2456 2849 m
2447 2852 n
2437 2855 m
2427 2857 n
2417 2859 m
2407 2861 n
2397 2863 m
2387 2865 n
2377 2867 m
2367 2869 n
2356 2870 m
2346 2871 n
2336 2872 m
2326 2873 n
2316 2874 m
2306 2874 n
2295 2875 m
2285 2875 n
2275 2875 m
2265 2875 n
2255 2875 m
2244 2874 n
2234 2874 m
2224 2873 n
2214 2872 m
2204 2871 n
2194 2870 m
2183 2869 n
2173 2867 m
2163 2865 n
2153 2863 m
2143 2861 n
2133 2859 m
2123 2857 n
2113 2855 m
2103 2852 n
2094 2849 m
2084 2846 n
2074 2843 m
2064 2840 n
2055 2837 m
2045 2833 n
2036 2829 m
2026 2826 n
2017 2822 m
2008 2817 n
1998 2813 m
1989 2809 n
1980 2804 m
1971 2799 n
1962 2795 m
1953 2790 n
1944 2784 m
1935 2779 n
1927 2774 m
1918 2768 n
1910 2763 m
1901 2757 n
1893 2751 m
1885 2745 n
1877 2739 m
1869 2732 n
1861 2726 m
1853 2719 n
1845 2713 m
1838 2706 n
1830 2699 m
1823 2692 n
1815 2685 m
1808 2677 n
1801 2670 m
1794 2662 n
1787 2655 m
1781 2647 n
1774 2639 m
1768 2631 n
1761 2623 m
1755 2615 n
1749 2607 m
1743 2599 n
1737 2590 m
1732 2582 n
1726 2573 m
1721 2565 n
1716 2556 m
1710 2547 n
1705 2538 m
1701 2529 n
1696 2520 m
1691 2511 n
1687 2502 m
1683 2492 n
1678 2483 m
1674 2474 n
1671 2464 m
1667 2455 n
1663 2445 m
1660 2436 n
1657 2426 m
1654 2416 n
1651 2406 m
1648 2397 n
1645 2387 m
1643 2377 n
1641 2367 m
1639 2357 n
1637 2347 m
1635 2337 n
1633 2327 m
1631 2317 n
1630 2306 m
1629 2296 n
1628 2286 m
1627 2276 n
1626 2266 m
1626 2256 n
1625 2245 m
1625 2235 n
1625 2225 m
1625 2215 n
1625 2205 m
1626 2194 n
1626 2184 m
1627 2174 n
1628 2164 m
1629 2154 n
1630 2144 m
1631 2133 n
1633 2123 m
1635 2113 n
1637 2103 m
1639 2093 n
1641 2083 m
1643 2073 n
1645 2063 m
1648 2053 n
1651 2044 m
1654 2034 n
1657 2024 m
1660 2014 n
1663 2005 m
1667 1995 n
1671 1986 m
1674 1976 n
1678 1967 m
1683 1958 n
1687 1948 m
1691 1939 n
1696 1930 m
1701 1921 n
1705 1912 m
1710 1903 n
1716 1894 m
1721 1885 n
1726 1877 m
1732 1868 n
1737 1860 m
1743 1851 n
1749 1843 m
1755 1835 n
1761 1827 m
1768 1819 n
1774 1811 m
1781 1803 n
1787 1795 m
1794 1788 n
1801 1780 m
1808 1773 n
1815 1765 m
1823 1758 n
1830 1751 m
1838 1744 n
1845 1737 m
1853 1731 n
1861 1724 m
1869 1718 n
1877 1711 m
1885 1705 n
1893 1699 m
1901 1693 n
1910 1687 m
1918 1682 n
1927 1676 m
1935 1671 n
1944 1666 m
1953 1660 n
1962 1655 m
1971 1651 n
1980 1646 m
1989 1641 n
1998 1637 m
2008 1633 n
2017 1628 m
2026 1624 n
2036 1621 m
2045 1617 n
2055 1613 m
2064 1610 n
2074 1607 m
2084 1604 n
2094 1601 m
2103 1598 n
2113 1595 m
2123 1593 n
2133 1591 m
2143 1589 n
2153 1587 m
2163 1585 n
2173 1583 m
2183 1581 n
2194 1580 m
2204 1579 n
2214 1578 m
2224 1577 n
2234 1576 m
2244 1576 n
2255 1575 m
2265 1575 n
2275 1575 m
2285 1575 n
2295 1575 m
2306 1576 n
2316 1576 m
2326 1577 n
2336 1578 m
2346 1579 n
2356 1580 m
2367 1581 n
2377 1583 m
2387 1585 n
2397 1587 m
2407 1589 n
2417 1591 m
2427 1593 n
2437 1595 m
2447 1598 n
2456 1601 m
2466 1604 n
2476 1607 m
2486 1610 n
2495 1613 m
2505 1617 n
2514 1621 m
2524 1624 n
2533 1628 m
2542 1633 n
2552 1637 m
2561 1641 n
2570 1646 m
2579 1651 n
2588 1655 m
2597 1660 n
2606 1666 m
2615 1671 n
2623 1676 m
2632 1682 n
2640 1687 m
2649 1693 n
2657 1699 m
2665 1705 n
2673 1711 m
2681 1718 n
2689 1724 m
2697 1731 n
2705 1737 m
2712 1744 n
2720 1751 m
2727 1758 n
2735 1765 m
2742 1773 n
2749 1780 m
2756 1788 n
2763 1795 m
2769 1803 n
2776 1811 m
2782 1819 n
2789 1827 m
2795 1835 n
2801 1843 m
2807 1851 n
2813 1860 m
2818 1868 n
2824 1877 m
2829 1885 n
2834 1894 m
2840 1903 n
2845 1912 m
2849 1921 n
2854 1930 m
2859 1939 n
2863 1948 m
2867 1958 n
2872 1967 m
2876 1976 n
2879 1986 m
2883 1995 n
2887 2005 m
2890 2014 n
2893 2024 m
2896 2034 n
2899 2044 m
2902 2053 n
2905 2063 m
2907 2073 n
2909 2083 m
2911 2093 n
2913 2103 m
2915 2113 n
2917 2123 m
2919 2133 n
2920 2144 m
2921 2154 n
2922 2164 m
2923 2174 n
2924 2184 m
2924 2194 n
2925 2205 m
2925 2215 n
2925 2225 m
2925 2235 n
0.00 1.00 1.00 0 setcmykcolor
2275 2875 m
1788 2875 n
1788 2875 m
1885 2836 n
1788 2875 m
1885 2914 n
1836 2875 m
1885 2836 n
1836 2875 m
1885 2914 n
2275 2225 m
1788 2225 n
1788 2225 m
1885 2186 n
1788 2225 m
1885 2264 n
1836 2225 m
1885 2186 n
1836 2225 m
1885 2264 n
2275 1575 m
1788 1575 n
1788 1575 m
1885 1536 n
1788 1575 m
1885 1614 n
1836 1575 m
1885 1536 n
1836 1575 m
1885 1614 n
1.00 0.31 1.00 0 setcmykcolor
1544 1705 m
1508 1701 m
1589 1701 n
1661 1705 m
1620 1723 m
1647 1660 n
1625 1723 m
1647 1669 n
1674 1723 m
1647 1660 n
1611 1723 m
1638 1723 n
1656 1723 m
1683 1723 n
1742 1705 m
1709 1684 m
1709 1633 n
1712 1624 n
1718 1621 n
1724 1621 n
1730 1624 n
1733 1630 n
1712 1684 m
1712 1633 n
1715 1624 n
1718 1621 n
1700 1663 m
1724 1663 n
1775 1651 m
1754 1663 m
1754 1621 n
1757 1663 m
1757 1621 n
1757 1645 m
1760 1654 n
1766 1660 n
1772 1663 n
1781 1663 n
1784 1660 n
1784 1657 n
1781 1654 n
1778 1657 n
1781 1660 n
1745 1663 m
1757 1663 n
1745 1621 m
1766 1621 n
1826 1651 m
1805 1657 m
1805 1654 n
1802 1654 n
1802 1657 n
1805 1660 n
1811 1663 n
1823 1663 n
1829 1660 n
1832 1657 n
1835 1651 n
1835 1630 n
1838 1624 n
1841 1621 n
1832 1657 m
1832 1630 n
1835 1624 n
1841 1621 n
1844 1621 n
1832 1651 m
1829 1648 n
1811 1645 n
1802 1642 n
1799 1636 n
1799 1630 n
1802 1624 n
1811 1621 n
1820 1621 n
1826 1624 n
1832 1630 n
1811 1645 m
1805 1642 n
1802 1636 n
1802 1630 n
1805 1624 n
1811 1621 n
1886 1651 m
1865 1663 m
1865 1621 n
1868 1663 m
1868 1621 n
1868 1654 m
1874 1660 n
1883 1663 n
1889 1663 n
1898 1660 n
1901 1654 n
1901 1621 n
1889 1663 m
1895 1660 n
1898 1654 n
1898 1621 n
1856 1663 m
1868 1663 n
1856 1621 m
1877 1621 n
1889 1621 m
1910 1621 n
1952 1651 m
1955 1657 m
1958 1663 n
1958 1651 n
1955 1657 n
1952 1660 n
1946 1663 n
1934 1663 n
1928 1660 n
1925 1657 n
1925 1651 n
1928 1648 n
1934 1645 n
1949 1639 n
1955 1636 n
1958 1633 n
1925 1654 m
1928 1651 n
1934 1648 n
1949 1642 n
1955 1639 n
1958 1636 n
1958 1627 n
1955 1624 n
1949 1621 n
1937 1621 n
1931 1624 n
1928 1627 n
1925 1633 n
1925 1621 n
1928 1627 n
1544 1705 m
1544 2355 m
1508 2351 m
1589 2351 n
1661 2355 m
1620 2373 m
1647 2310 n
1625 2373 m
1647 2319 n
1674 2373 m
1647 2310 n
1611 2373 m
1638 2373 n
1656 2373 m
1683 2373 n
1742 2355 m
1709 2334 m
1709 2283 n
1712 2274 n
1718 2271 n
1724 2271 n
1730 2274 n
1733 2280 n
1712 2334 m
1712 2283 n
1715 2274 n
1718 2271 n
1700 2313 m
1724 2313 n
1775 2301 m
1754 2313 m
1754 2271 n
1757 2313 m
1757 2271 n
1757 2295 m
1760 2304 n
1766 2310 n
1772 2313 n
1781 2313 n
1784 2310 n
1784 2307 n
1781 2304 n
1778 2307 n
1781 2310 n
1745 2313 m
1757 2313 n
1745 2271 m
1766 2271 n
1826 2301 m
1805 2307 m
1805 2304 n
1802 2304 n
1802 2307 n
1805 2310 n
1811 2313 n
1823 2313 n
1829 2310 n
1832 2307 n
1835 2301 n
1835 2280 n
1838 2274 n
1841 2271 n
1832 2307 m
1832 2280 n
1835 2274 n
1841 2271 n
1844 2271 n
1832 2301 m
1829 2298 n
1811 2295 n
1802 2292 n
1799 2286 n
1799 2280 n
1802 2274 n
1811 2271 n
1820 2271 n
1826 2274 n
1832 2280 n
1811 2295 m
1805 2292 n
1802 2286 n
1802 2280 n
1805 2274 n
1811 2271 n
1886 2301 m
1865 2313 m
1865 2271 n
1868 2313 m
1868 2271 n
1868 2304 m
1874 2310 n
1883 2313 n
1889 2313 n
1898 2310 n
1901 2304 n
1901 2271 n
1889 2313 m
1895 2310 n
1898 2304 n
1898 2271 n
1856 2313 m
1868 2313 n
1856 2271 m
1877 2271 n
1889 2271 m
1910 2271 n
1952 2301 m
1955 2307 m
1958 2313 n
1958 2301 n
1955 2307 n
1952 2310 n
1946 2313 n
1934 2313 n
1928 2310 n
1925 2307 n
1925 2301 n
1928 2298 n
1934 2295 n
1949 2289 n
1955 2286 n
1958 2283 n
1925 2304 m
1928 2301 n
1934 2298 n
1949 2292 n
1955 2289 n
1958 2286 n
1958 2277 n
1955 2274 n
1949 2271 n
1937 2271 n
1931 2274 n
1928 2277 n
1925 2283 n
1925 2271 n
1928 2277 n
1544 2355 m
1544 3005 m
1508 3001 m
1589 3001 n
1661 3005 m
1620 3023 m
1647 2960 n
1625 3023 m
1647 2969 n
1674 3023 m
1647 2960 n
1611 3023 m
1638 3023 n
1656 3023 m
1683 3023 n
1742 3005 m
1709 2984 m
1709 2933 n
1712 2924 n
1718 2921 n
1724 2921 n
1730 2924 n
1733 2930 n
1712 2984 m
1712 2933 n
1715 2924 n
1718 2921 n
1700 2963 m
1724 2963 n
1775 2951 m
1754 2963 m
1754 2921 n
1757 2963 m
1757 2921 n
1757 2945 m
1760 2954 n
1766 2960 n
1772 2963 n
1781 2963 n
1784 2960 n
1784 2957 n
1781 2954 n
1778 2957 n
1781 2960 n
1745 2963 m
1757 2963 n
1745 2921 m
1766 2921 n
1826 2951 m
1805 2957 m
1805 2954 n
1802 2954 n
1802 2957 n
1805 2960 n
1811 2963 n
1823 2963 n
1829 2960 n
1832 2957 n
1835 2951 n
1835 2930 n
1838 2924 n
1841 2921 n
1832 2957 m
1832 2930 n
1835 2924 n
1841 2921 n
1844 2921 n
1832 2951 m
1829 2948 n
1811 2945 n
1802 2942 n
1799 2936 n
1799 2930 n
1802 2924 n
1811 2921 n
1820 2921 n
1826 2924 n
1832 2930 n
1811 2945 m
1805 2942 n
1802 2936 n
1802 2930 n
1805 2924 n
1811 2921 n
1886 2951 m
1865 2963 m
1865 2921 n
1868 2963 m
1868 2921 n
1868 2954 m
1874 2960 n
1883 2963 n
1889 2963 n
1898 2960 n
1901 2954 n
1901 2921 n
1889 2963 m
1895 2960 n
1898 2954 n
1898 2921 n
1856 2963 m
1868 2963 n
1856 2921 m
1877 2921 n
1889 2921 m
1910 2921 n
1952 2951 m
1955 2957 m
1958 2963 n
1958 2951 n
1955 2957 n
1952 2960 n
1946 2963 n
1934 2963 n
1928 2960 n
1925 2957 n
1925 2951 n
1928 2948 n
1934 2945 n
1949 2939 n
1955 2936 n
1958 2933 n
1925 2954 m
1928 2951 n
1934 2948 n
1949 2942 n
1955 2939 n
1958 2936 n
1958 2927 n
1955 2924 n
1949 2921 n
1937 2921 n
1931 2924 n
1928 2927 n
1925 2933 n
1925 2921 n
1928 2927 n
1544 3005 m
/solid f
1 1 m
e
%%Trailer
EndPSPlot
